00:00Mon 	 7c 	 64%
00:00Mon 	 7c 	 64%
00:00Mon 	 7c 	 64%
00:00Mon 	 7c 	 64%
00:00Mon 	 7c 	 64%
00:00Mon 	 7c 	 64%
00:00Mon 	 7c 	 64%
00:00Mon 	 7c 	 64%
00:00Mon 	 7c 	 64%
00:00Mon 	 7c 	 64%
00:00Mon 	 7c 	 64%
00:00Mon 	 7c 	 64%
00:00Mon 	 7c 	 40%
00:00Mon 	 7c 	 40%
00:00Mon 	 7c 	 40%
00:00Mon 	 7c 	 40%
00:00Mon 	 7c 	 40%
00:00Mon 	 7c 	 40%
00:00Mon 	 7c 	 40%
00:00Mon 	 7c 	 40%
00:00Mon 	 7c 	 32%
00:00Mon 	 7c 	 32%
00:00Mon 	 7c 	 32%
00:00Mon 	 7c 	 32%
00:00Mon 	 7c 	 32%
00:00Mon 	 7c 	 32%
00:00Mon 	 7c 	 32%
00:00Mon 	 7c 	 32%
00:00Mon 	 7c 	 32%
00:00Mon 	 7c 	 32%
00:00Mon 	 7c 	 32%
00:00Mon 	 7c 	 32%
00:00Mon 	 7c 	 32%
00:00Mon 	 7c 	 32%
00:00Mon 	 7c 	 32%
00:00Mon 	 7c 	 32%
00:00Mon 	 7c 	 32%
00:00Mon 	 7c 	 32%
00:00Mon 	 7c 	 32%
00:00Mon 	 7c 	 32%
00:00Mon 	 7c 	 32%
00:00Mon 	 7c 	 32%
00:00Mon 	 7c 	 32%
00:00Mon 	 7c 	 32%
00:00Mon 	 7c 	 32%
00:00Mon 	 7c 	 32%
00:00Mon 	 7c 	 32%
00:00Mon 	 7c 	 32%
00:00Mon 	 7c 	 32%
00:00Mon 	 7c 	 32%
00:00Mon 	 7c 	 32%
00:00Mon 	 7c 	 32%
00:00Mon 	 7c 	 32%
00:00Mon 	 7c 	 32%
00:00Mon 	 7c 	 32%
00:00Mon 	 7c 	 32%
00:00Mon 	 7c 	 32%
00:00Mon 	 7c 	 32%
00:00Mon 	 7c 	 32%
00:00Mon 	 7c 	 32%
00:00Mon 	 7c 	 38%
00:00Mon 	 7c 	 38%
00:00Mon 	 7c 	 38%
00:00Mon 	 7c 	 38%
00:00Mon 	 7c 	 38%
00:00Mon 	 7c 	 38%
00:00Mon 	 7c 	 38%
00:00Mon 	 7c 	 38%
00:00Mon 	 7c 	 38%
00:00Mon 	 7c 	 26%
00:00Mon 	 7c 	 26%
00:00Mon 	 7c 	 26%

01:00Mon 	 8c 	 71%
01:00Mon 	 8c 	 71%
01:00Mon 	 8c 	 71%
01:00Mon 	 8c 	 71%
01:00Mon 	 8c 	 71%
01:00Mon 	 8c 	 71%
01:00Mon 	 8c 	 71%
01:00Mon 	 8c 	 71%
01:00Mon 	 8c 	 71%
01:00Mon 	 8c 	 71%
01:00Mon 	 8c 	 71%
01:00Mon 	 8c 	 71%
01:00Mon 	 8c 	 51%
01:00Mon 	 8c 	 51%
01:00Mon 	 8c 	 51%
01:00Mon 	 8c 	 51%
01:00Mon 	 8c 	 51%
01:00Mon 	 8c 	 51%
01:00Mon 	 8c 	 51%
01:00Mon 	 8c 	 51%
01:00Mon 	 8c 	 47%
01:00Mon 	 8c 	 47%
01:00Mon 	 8c 	 47%
01:00Mon 	 8c 	 47%
01:00Mon 	 8c 	 47%
01:00Mon 	 8c 	 47%
01:00Mon 	 8c 	 47%
01:00Mon 	 8c 	 47%
01:00Mon 	 8c 	 47%
01:00Mon 	 8c 	 47%
01:00Mon 	 8c 	 47%
01:00Mon 	 8c 	 47%
01:00Mon 	 8c 	 47%
01:00Mon 	 8c 	 47%
01:00Mon 	 8c 	 47%
01:00Mon 	 8c 	 47%
01:00Mon 	 8c 	 47%
01:00Mon 	 8c 	 47%
01:00Mon 	 8c 	 47%
01:00Mon 	 8c 	 47%
01:00Mon 	 8c 	 47%
01:00Mon 	 8c 	 47%
01:00Mon 	 8c 	 47%
01:00Mon 	 8c 	 47%
01:00Mon 	 8c 	 47%
01:00Mon 	 8c 	 47%
01:00Mon 	 8c 	 47%
01:00Mon 	 8c 	 47%
01:00Mon 	 8c 	 47%
01:00Mon 	 8c 	 47%
01:00Mon 	 8c 	 47%
01:00Mon 	 8c 	 47%
01:00Mon 	 8c 	 47%
01:00Mon 	 8c 	 47%
01:00Mon 	 8c 	 47%
01:00Mon 	 8c 	 47%
01:00Mon 	 8c 	 47%
01:00Mon 	 8c 	 47%
01:00Mon 	 8c 	 47%
01:00Mon 	 8c 	 47%
01:00Mon 	 8c 	 50%
01:00Mon 	 8c 	 50%
01:00Mon 	 8c 	 50%
01:00Mon 	 8c 	 50%
01:00Mon 	 8c 	 50%
01:00Mon 	 8c 	 50%
01:00Mon 	 8c 	 50%
01:00Mon 	 8c 	 50%
01:00Mon 	 8c 	 50%
01:00Mon 	 7c 	 40%
01:00Mon 	 7c 	 40%
01:00Mon 	 7c 	 40%

02:00Mon 	 9c 	 82%
02:00Mon 	 9c 	 82%
02:00Mon 	 9c 	 82%
02:00Mon 	 9c 	 82%
02:00Mon 	 9c 	 82%
02:00Mon 	 9c 	 82%
02:00Mon 	 9c 	 82%
02:00Mon 	 9c 	 82%
02:00Mon 	 9c 	 82%
02:00Mon 	 9c 	 82%
02:00Mon 	 9c 	 82%
02:00Mon 	 9c 	 82%
02:00Mon 	 8c 	 68%
02:00Mon 	 8c 	 68%
02:00Mon 	 8c 	 68%
02:00Mon 	 8c 	 68%
02:00Mon 	 8c 	 68%
02:00Mon 	 8c 	 68%
02:00Mon 	 8c 	 68%
02:00Mon 	 8c 	 68%
02:00Mon 	 8c 	 70%
02:00Mon 	 8c 	 70%
02:00Mon 	 8c 	 70%
02:00Mon 	 8c 	 70%
02:00Mon 	 8c 	 70%
02:00Mon 	 8c 	 70%
02:00Mon 	 8c 	 70%
02:00Mon 	 8c 	 70%
02:00Mon 	 8c 	 70%
02:00Mon 	 8c 	 70%
02:00Mon 	 8c 	 70%
02:00Mon 	 8c 	 70%
02:00Mon 	 8c 	 70%
02:00Mon 	 8c 	 70%
02:00Mon 	 8c 	 70%
02:00Mon 	 8c 	 70%
02:00Mon 	 8c 	 70%
02:00Mon 	 8c 	 70%
02:00Mon 	 8c 	 70%
02:00Mon 	 8c 	 70%
02:00Mon 	 8c 	 70%
02:00Mon 	 8c 	 70%
02:00Mon 	 8c 	 70%
02:00Mon 	 8c 	 70%
02:00Mon 	 8c 	 70%
02:00Mon 	 8c 	 70%
02:00Mon 	 8c 	 70%
02:00Mon 	 8c 	 70%
02:00Mon 	 8c 	 70%
02:00Mon 	 8c 	 70%
02:00Mon 	 8c 	 70%
02:00Mon 	 8c 	 70%
02:00Mon 	 8c 	 70%
02:00Mon 	 8c 	 70%
02:00Mon 	 8c 	 70%
02:00Mon 	 8c 	 70%
02:00Mon 	 8c 	 70%
02:00Mon 	 8c 	 70%
02:00Mon 	 8c 	 70%
02:00Mon 	 8c 	 70%
02:00Mon 	 8c 	 71%
02:00Mon 	 8c 	 71%
02:00Mon 	 8c 	 71%
02:00Mon 	 8c 	 71%
02:00Mon 	 8c 	 71%
02:00Mon 	 8c 	 71%
02:00Mon 	 8c 	 71%
02:00Mon 	 8c 	 71%
02:00Mon 	 8c 	 71%
02:00Mon 	 8c 	 64%
02:00Mon 	 8c 	 64%
02:00Mon 	 8c 	 64%

03:00Mon 	 9c 	 89%
03:00Mon 	 9c 	 89%
03:00Mon 	 9c 	 89%
03:00Mon 	 9c 	 89%
03:00Mon 	 9c 	 89%
03:00Mon 	 9c 	 89%
03:00Mon 	 9c 	 89%
03:00Mon 	 9c 	 89%
03:00Mon 	 9c 	 89%
03:00Mon 	 9c 	 89%
03:00Mon 	 9c 	 89%
03:00Mon 	 9c 	 89%
03:00Mon 	 8c 	 84%
03:00Mon 	 8c 	 84%
03:00Mon 	 8c 	 84%
03:00Mon 	 8c 	 84%
03:00Mon 	 8c 	 84%
03:00Mon 	 8c 	 84%
03:00Mon 	 8c 	 84%
03:00Mon 	 8c 	 84%
03:00Mon 	 8c 	 87%
03:00Mon 	 8c 	 87%
03:00Mon 	 8c 	 87%
03:00Mon 	 8c 	 87%
03:00Mon 	 8c 	 87%
03:00Mon 	 8c 	 87%
03:00Mon 	 8c 	 87%
03:00Mon 	 8c 	 87%
03:00Mon 	 8c 	 87%
03:00Mon 	 8c 	 87%
03:00Mon 	 8c 	 87%
03:00Mon 	 8c 	 87%
03:00Mon 	 8c 	 87%
03:00Mon 	 8c 	 87%
03:00Mon 	 8c 	 87%
03:00Mon 	 8c 	 87%
03:00Mon 	 8c 	 87%
03:00Mon 	 8c 	 87%
03:00Mon 	 8c 	 87%
03:00Mon 	 8c 	 87%
03:00Mon 	 8c 	 87%
03:00Mon 	 8c 	 87%
03:00Mon 	 8c 	 87%
03:00Mon 	 8c 	 87%
03:00Mon 	 8c 	 87%
03:00Mon 	 8c 	 87%
03:00Mon 	 8c 	 87%
03:00Mon 	 8c 	 87%
03:00Mon 	 8c 	 87%
03:00Mon 	 8c 	 87%
03:00Mon 	 8c 	 87%
03:00Mon 	 8c 	 87%
03:00Mon 	 8c 	 87%
03:00Mon 	 8c 	 87%
03:00Mon 	 8c 	 87%
03:00Mon 	 8c 	 87%
03:00Mon 	 8c 	 87%
03:00Mon 	 8c 	 87%
03:00Mon 	 8c 	 87%
03:00Mon 	 8c 	 87%
03:00Mon 	 9c 	 87%
03:00Mon 	 9c 	 87%
03:00Mon 	 9c 	 87%
03:00Mon 	 9c 	 87%
03:00Mon 	 9c 	 87%
03:00Mon 	 9c 	 87%
03:00Mon 	 9c 	 87%
03:00Mon 	 9c 	 87%
03:00Mon 	 9c 	 87%
03:00Mon 	 8c 	 84%
03:00Mon 	 8c 	 84%
03:00Mon 	 8c 	 84%

04:00Mon 	 9c 	 92%
04:00Mon 	 9c 	 92%
04:00Mon 	 9c 	 92%
04:00Mon 	 9c 	 92%
04:00Mon 	 9c 	 92%
04:00Mon 	 9c 	 92%
04:00Mon 	 9c 	 92%
04:00Mon 	 9c 	 92%
04:00Mon 	 9c 	 92%
04:00Mon 	 9c 	 92%
04:00Mon 	 9c 	 92%
04:00Mon 	 9c 	 92%
04:00Mon 	 9c 	 90%
04:00Mon 	 9c 	 90%
04:00Mon 	 9c 	 90%
04:00Mon 	 9c 	 90%
04:00Mon 	 9c 	 90%
04:00Mon 	 9c 	 90%
04:00Mon 	 9c 	 90%
04:00Mon 	 9c 	 90%
04:00Mon 	 9c 	 94%
04:00Mon 	 9c 	 94%
04:00Mon 	 9c 	 94%
04:00Mon 	 9c 	 94%
04:00Mon 	 9c 	 94%
04:00Mon 	 9c 	 94%
04:00Mon 	 9c 	 94%
04:00Mon 	 9c 	 94%
04:00Mon 	 9c 	 94%
04:00Mon 	 9c 	 94%
04:00Mon 	 9c 	 94%
04:00Mon 	 9c 	 94%
04:00Mon 	 9c 	 94%
04:00Mon 	 9c 	 94%
04:00Mon 	 9c 	 94%
04:00Mon 	 9c 	 94%
04:00Mon 	 9c 	 94%
04:00Mon 	 9c 	 94%
04:00Mon 	 9c 	 94%
04:00Mon 	 9c 	 94%
04:00Mon 	 9c 	 94%
04:00Mon 	 9c 	 94%
04:00Mon 	 9c 	 94%
04:00Mon 	 9c 	 94%
04:00Mon 	 9c 	 94%
04:00Mon 	 9c 	 94%
04:00Mon 	 9c 	 94%
04:00Mon 	 9c 	 94%
04:00Mon 	 9c 	 94%
04:00Mon 	 9c 	 94%
04:00Mon 	 9c 	 94%
04:00Mon 	 9c 	 94%
04:00Mon 	 9c 	 94%
04:00Mon 	 9c 	 94%
04:00Mon 	 9c 	 94%
04:00Mon 	 9c 	 94%
04:00Mon 	 9c 	 94%
04:00Mon 	 9c 	 94%
04:00Mon 	 9c 	 94%
04:00Mon 	 9c 	 94%
04:00Mon 	 9c 	 92%
04:00Mon 	 9c 	 92%
04:00Mon 	 9c 	 92%
04:00Mon 	 9c 	 92%
04:00Mon 	 9c 	 92%
04:00Mon 	 9c 	 92%
04:00Mon 	 9c 	 92%
04:00Mon 	 9c 	 92%
04:00Mon 	 9c 	 92%
04:00Mon 	 9c 	 91%
04:00Mon 	 9c 	 91%
04:00Mon 	 9c 	 91%

05:00Mon 	 10c 	 93%
05:00Mon 	 10c 	 93%
05:00Mon 	 10c 	 93%
05:00Mon 	 10c 	 93%
05:00Mon 	 10c 	 93%
05:00Mon 	 10c 	 93%
05:00Mon 	 10c 	 93%
05:00Mon 	 10c 	 93%
05:00Mon 	 10c 	 93%
05:00Mon 	 10c 	 93%
05:00Mon 	 10c 	 93%
05:00Mon 	 10c 	 93%
05:00Mon 	 9c 	 94%
05:00Mon 	 9c 	 94%
05:00Mon 	 9c 	 94%
05:00Mon 	 9c 	 94%
05:00Mon 	 9c 	 94%
05:00Mon 	 9c 	 94%
05:00Mon 	 9c 	 94%
05:00Mon 	 9c 	 94%
05:00Mon 	 9c 	 94%
05:00Mon 	 9c 	 94%
05:00Mon 	 9c 	 94%
05:00Mon 	 9c 	 94%
05:00Mon 	 9c 	 94%
05:00Mon 	 9c 	 94%
05:00Mon 	 9c 	 94%
05:00Mon 	 9c 	 94%
05:00Mon 	 9c 	 94%
05:00Mon 	 9c 	 94%
05:00Mon 	 9c 	 94%
05:00Mon 	 9c 	 94%
05:00Mon 	 9c 	 94%
05:00Mon 	 9c 	 94%
05:00Mon 	 9c 	 94%
05:00Mon 	 9c 	 94%
05:00Mon 	 9c 	 94%
05:00Mon 	 9c 	 94%
05:00Mon 	 9c 	 94%
05:00Mon 	 9c 	 94%
05:00Mon 	 9c 	 94%
05:00Mon 	 9c 	 94%
05:00Mon 	 9c 	 94%
05:00Mon 	 9c 	 94%
05:00Mon 	 9c 	 94%
05:00Mon 	 9c 	 94%
05:00Mon 	 9c 	 94%
05:00Mon 	 9c 	 94%
05:00Mon 	 9c 	 94%
05:00Mon 	 9c 	 94%
05:00Mon 	 9c 	 94%
05:00Mon 	 9c 	 94%
05:00Mon 	 9c 	 94%
05:00Mon 	 9c 	 94%
05:00Mon 	 9c 	 94%
05:00Mon 	 9c 	 94%
05:00Mon 	 9c 	 94%
05:00Mon 	 9c 	 94%
05:00Mon 	 9c 	 94%
05:00Mon 	 9c 	 94%
05:00Mon 	 9c 	 93%
05:00Mon 	 9c 	 93%
05:00Mon 	 9c 	 93%
05:00Mon 	 9c 	 93%
05:00Mon 	 9c 	 93%
05:00Mon 	 9c 	 93%
05:00Mon 	 9c 	 93%
05:00Mon 	 9c 	 93%
05:00Mon 	 9c 	 93%
05:00Mon 	 9c 	 91%
05:00Mon 	 9c 	 91%
05:00Mon 	 9c 	 91%



















