00:00Mon 	 6c 	 2%

01:00Mon 	 6c 	 52%
01:00Mon 	 6c 	 52%
01:00Mon 	 6c 	 52%
01:00Mon 	 6c 	 93%
01:00Mon 	 6c 	 93%

02:00Mon 	 6c 	 9%
02:00Mon 	 6c 	 9%
02:00Mon 	 6c 	 9%
02:00Mon 	 6c 	 36%
02:00Mon 	 6c 	 36%
02:00Mon 	 6c 	 36%
02:00Mon 	 6c 	 36%
02:00Mon 	 6c 	 36%
02:00Mon 	 6c 	 88%

03:00Mon 	 5c 	 9%
03:00Mon 	 5c 	 9%
03:00Mon 	 5c 	 9%
03:00Mon 	 6c 	 9%
03:00Mon 	 6c 	 9%
03:00Mon 	 6c 	 9%
03:00Mon 	 6c 	 9%
03:00Mon 	 6c 	 9%
03:00Mon 	 5c 	 84%
03:00Mon 	 5c 	 84%
03:00Mon 	 5c 	 84%
03:00Mon 	 6c 	 11%
03:00Mon 	 6c 	 11%

04:00Mon 	 5c 	 7%
04:00Mon 	 5c 	 7%
04:00Mon 	 5c 	 7%
04:00Mon 	 5c 	 7%
04:00Mon 	 5c 	 7%
04:00Mon 	 5c 	 7%
04:00Mon 	 5c 	 7%
04:00Mon 	 5c 	 7%
04:00Mon 	 5c 	 5%
04:00Mon 	 5c 	 5%
04:00Mon 	 5c 	 5%
04:00Mon 	 6c 	 39%
04:00Mon 	 6c 	 39%
04:00Mon 	 6c 	 39%
04:00Mon 	 6c 	 39%
04:00Mon 	 5c 	 24%
04:00Mon 	 5c 	 24%

05:00Mon 	 5c 	 4%
05:00Mon 	 5c 	 4%
05:00Mon 	 5c 	 4%
05:00Mon 	 5c 	 4%
05:00Mon 	 5c 	 4%
05:00Mon 	 5c 	 4%
05:00Mon 	 5c 	 4%
05:00Mon 	 5c 	 4%
05:00Mon 	 5c 	 2%
05:00Mon 	 5c 	 2%
05:00Mon 	 5c 	 2%
05:00Mon 	 5c 	 7%
05:00Mon 	 5c 	 7%
05:00Mon 	 5c 	 7%
05:00Mon 	 5c 	 7%
05:00Mon 	 5c 	 19%
05:00Mon 	 5c 	 19%
05:00Mon 	 5c 	 19%
05:00Mon 	 5c 	 19%
05:00Mon 	 5c 	 1%
05:00Mon 	 5c 	 1%

06:00Mon 	 6c 	 1%
06:00Mon 	 6c 	 1%
06:00Mon 	 5c 	 3%
06:00Mon 	 5c 	 3%
06:00Mon 	 5c 	 3%
06:00Mon 	 5c 	 3%
06:00Mon 	 5c 	 3%
06:00Mon 	 5c 	 3%
06:00Mon 	 5c 	 3%
06:00Mon 	 5c 	 2%
06:00Mon 	 5c 	 2%
06:00Mon 	 5c 	 2%
06:00Mon 	 5c 	 2%
06:00Mon 	 5c 	 1%
06:00Mon 	 5c 	 1%
06:00Mon 	 5c 	 1%
06:00Mon 	 5c 	 1%
06:00Mon 	 6c 	 1%
06:00Mon 	 6c 	 1%
06:00Mon 	 6c 	 1%
06:00Mon 	 6c 	 1%
06:00Mon 	 6c 	 1%
06:00Mon 	 6c 	 1%
06:00Mon 	 6c 	 1%
06:00Mon 	 6c 	 1%

07:00Mon 	 6c 	 2%
07:00Mon 	 6c 	 2%
07:00Mon 	 6c 	 2%
07:00Mon 	 6c 	 2%
07:00Mon 	 6c 	 0%
07:00Mon 	 6c 	 0%
07:00Mon 	 6c 	 3%
07:00Mon 	 6c 	 3%
07:00Mon 	 6c 	 3%
07:00Mon 	 6c 	 3%
07:00Mon 	 6c 	 3%
07:00Mon 	 6c 	 3%
07:00Mon 	 6c 	 3%
07:00Mon 	 6c 	 3%
07:00Mon 	 6c 	 3%
07:00Mon 	 6c 	 3%
07:00Mon 	 6c 	 3%
07:00Mon 	 6c 	 2%
07:00Mon 	 6c 	 2%
07:00Mon 	 6c 	 2%
07:00Mon 	 6c 	 2%
07:00Mon 	 6c 	 2%
07:00Mon 	 6c 	 2%
07:00Mon 	 6c 	 2%
07:00Mon 	 6c 	 2%
07:00Mon 	 6c 	 3%
07:00Mon 	 6c 	 3%
07:00Mon 	 6c 	 3%
07:00Mon 	 6c 	 3%

08:00Mon 	 7c 	 4%
08:00Mon 	 7c 	 4%
08:00Mon 	 7c 	 4%
08:00Mon 	 7c 	 4%
08:00Mon 	 7c 	 2%
08:00Mon 	 7c 	 2%
08:00Mon 	 7c 	 2%
08:00Mon 	 7c 	 2%
08:00Mon 	 7c 	 1%
08:00Mon 	 7c 	 1%
08:00Mon 	 7c 	 4%
08:00Mon 	 7c 	 4%
08:00Mon 	 7c 	 4%
08:00Mon 	 7c 	 4%
08:00Mon 	 7c 	 4%
08:00Mon 	 7c 	 4%
08:00Mon 	 7c 	 4%
08:00Mon 	 7c 	 4%
08:00Mon 	 7c 	 4%
08:00Mon 	 7c 	 4%
08:00Mon 	 7c 	 4%
08:00Mon 	 7c 	 3%
08:00Mon 	 7c 	 3%
08:00Mon 	 7c 	 3%
08:00Mon 	 7c 	 3%
08:00Mon 	 7c 	 2%
08:00Mon 	 7c 	 2%
08:00Mon 	 7c 	 2%
08:00Mon 	 7c 	 2%
08:00Mon 	 7c 	 5%
08:00Mon 	 7c 	 5%
08:00Mon 	 7c 	 5%
08:00Mon 	 7c 	 5%

09:00Mon 	 7c 	 5%
09:00Mon 	 7c 	 5%
09:00Mon 	 7c 	 5%
09:00Mon 	 7c 	 5%
09:00Mon 	 7c 	 5%
09:00Mon 	 7c 	 5%
09:00Mon 	 7c 	 5%
09:00Mon 	 7c 	 5%
09:00Mon 	 7c 	 0%
09:00Mon 	 7c 	 0%
09:00Mon 	 7c 	 0%
09:00Mon 	 7c 	 0%
09:00Mon 	 7c 	 0%
09:00Mon 	 7c 	 0%
09:00Mon 	 7c 	 4%
09:00Mon 	 7c 	 4%
09:00Mon 	 7c 	 4%
09:00Mon 	 7c 	 4%
09:00Mon 	 7c 	 4%
09:00Mon 	 7c 	 4%
09:00Mon 	 7c 	 4%
09:00Mon 	 7c 	 4%
09:00Mon 	 7c 	 4%
09:00Mon 	 7c 	 4%
09:00Mon 	 7c 	 4%
09:00Mon 	 7c 	 4%
09:00Mon 	 7c 	 4%
09:00Mon 	 7c 	 4%
09:00Mon 	 7c 	 4%
09:00Mon 	 7c 	 4%
09:00Mon 	 7c 	 4%
09:00Mon 	 7c 	 4%
09:00Mon 	 7c 	 4%
09:00Mon 	 7c 	 4%
09:00Mon 	 7c 	 4%
09:00Mon 	 7c 	 4%
09:00Mon 	 7c 	 4%

10:00Mon 	 8c 	 6%
10:00Mon 	 8c 	 6%
10:00Mon 	 8c 	 6%
10:00Mon 	 8c 	 6%
10:00Mon 	 8c 	 6%
10:00Mon 	 8c 	 6%
10:00Mon 	 8c 	 6%
10:00Mon 	 8c 	 6%
10:00Mon 	 8c 	 2%
10:00Mon 	 8c 	 2%
10:00Mon 	 8c 	 2%
10:00Mon 	 8c 	 2%
10:00Mon 	 8c 	 1%
10:00Mon 	 8c 	 1%
10:00Mon 	 8c 	 1%
10:00Mon 	 8c 	 1%
10:00Mon 	 8c 	 0%
10:00Mon 	 8c 	 0%
10:00Mon 	 8c 	 6%
10:00Mon 	 8c 	 6%
10:00Mon 	 8c 	 6%
10:00Mon 	 8c 	 6%
10:00Mon 	 8c 	 6%
10:00Mon 	 8c 	 6%
10:00Mon 	 8c 	 6%
10:00Mon 	 8c 	 6%
10:00Mon 	 8c 	 6%
10:00Mon 	 8c 	 6%
10:00Mon 	 8c 	 6%
10:00Mon 	 8c 	 6%
10:00Mon 	 8c 	 6%
10:00Mon 	 8c 	 6%
10:00Mon 	 8c 	 6%
10:00Mon 	 8c 	 6%
10:00Mon 	 8c 	 6%
10:00Mon 	 8c 	 6%
10:00Mon 	 8c 	 6%
10:00Mon 	 8c 	 6%
10:00Mon 	 8c 	 6%
10:00Mon 	 8c 	 6%
10:00Mon 	 8c 	 6%

11:00Mon 	 9c 	 8%
11:00Mon 	 9c 	 8%
11:00Mon 	 9c 	 8%
11:00Mon 	 9c 	 8%
11:00Mon 	 9c 	 8%
11:00Mon 	 9c 	 8%
11:00Mon 	 9c 	 8%
11:00Mon 	 9c 	 8%
11:00Mon 	 8c 	 5%
11:00Mon 	 8c 	 5%
11:00Mon 	 8c 	 5%
11:00Mon 	 8c 	 5%
11:00Mon 	 8c 	 2%
11:00Mon 	 8c 	 2%
11:00Mon 	 8c 	 2%
11:00Mon 	 8c 	 2%
11:00Mon 	 8c 	 0%
11:00Mon 	 8c 	 0%
11:00Mon 	 8c 	 0%
11:00Mon 	 8c 	 0%
11:00Mon 	 8c 	 1%
11:00Mon 	 9c 	 8%
11:00Mon 	 9c 	 8%
11:00Mon 	 9c 	 8%
11:00Mon 	 9c 	 8%
11:00Mon 	 9c 	 8%
11:00Mon 	 9c 	 8%
11:00Mon 	 9c 	 8%
11:00Mon 	 9c 	 8%
11:00Mon 	 9c 	 8%
11:00Mon 	 9c 	 8%
11:00Mon 	 9c 	 8%
11:00Mon 	 9c 	 8%
11:00Mon 	 9c 	 8%
11:00Mon 	 9c 	 8%
11:00Mon 	 9c 	 8%
11:00Mon 	 9c 	 8%
11:00Mon 	 9c 	 8%
11:00Mon 	 9c 	 8%
11:00Mon 	 9c 	 8%
11:00Mon 	 9c 	 8%
11:00Mon 	 9c 	 8%
11:00Mon 	 9c 	 8%
11:00Mon 	 9c 	 8%

12:00Mon 	 9c 	 12%
12:00Mon 	 9c 	 12%
12:00Mon 	 9c 	 12%
12:00Mon 	 9c 	 12%
12:00Mon 	 9c 	 12%
12:00Mon 	 9c 	 12%
12:00Mon 	 9c 	 12%
12:00Mon 	 9c 	 12%
12:00Mon 	 9c 	 9%
12:00Mon 	 9c 	 9%
12:00Mon 	 9c 	 9%
12:00Mon 	 9c 	 9%
12:00Mon 	 9c 	 10%
12:00Mon 	 9c 	 10%
12:00Mon 	 9c 	 10%
12:00Mon 	 9c 	 10%
12:00Mon 	 9c 	 5%
12:00Mon 	 9c 	 5%
12:00Mon 	 9c 	 5%
12:00Mon 	 9c 	 5%
12:00Mon 	 8c 	 2%
12:00Mon 	 8c 	 2%
12:00Mon 	 8c 	 2%
12:00Mon 	 8c 	 2%
12:00Mon 	 8c 	 1%
12:00Mon 	 8c 	 1%
12:00Mon 	 9c 	 12%
12:00Mon 	 9c 	 12%
12:00Mon 	 9c 	 12%
12:00Mon 	 9c 	 12%
12:00Mon 	 9c 	 12%
12:00Mon 	 9c 	 12%
12:00Mon 	 9c 	 12%
12:00Mon 	 9c 	 12%
12:00Mon 	 9c 	 12%
12:00Mon 	 9c 	 12%
12:00Mon 	 9c 	 12%
12:00Mon 	 9c 	 12%
12:00Mon 	 9c 	 12%
12:00Mon 	 9c 	 12%
12:00Mon 	 9c 	 12%
12:00Mon 	 9c 	 12%
12:00Mon 	 9c 	 12%
12:00Mon 	 9c 	 12%
12:00Mon 	 9c 	 12%
12:00Mon 	 9c 	 12%
12:00Mon 	 9c 	 12%
12:00Mon 	 9c 	 12%
12:00Mon 	 9c 	 12%

13:00Mon 	 9c 	 21%
13:00Mon 	 9c 	 21%
13:00Mon 	 9c 	 21%
13:00Mon 	 9c 	 21%
13:00Mon 	 9c 	 21%
13:00Mon 	 9c 	 21%
13:00Mon 	 9c 	 21%
13:00Mon 	 9c 	 21%
13:00Mon 	 8c 	 21%
13:00Mon 	 8c 	 21%
13:00Mon 	 8c 	 21%
13:00Mon 	 8c 	 21%
13:00Mon 	 9c 	 21%
13:00Mon 	 9c 	 21%
13:00Mon 	 9c 	 21%
13:00Mon 	 9c 	 21%
13:00Mon 	 9c 	 21%
13:00Mon 	 9c 	 21%
13:00Mon 	 9c 	 21%
13:00Mon 	 9c 	 21%
13:00Mon 	 9c 	 11%
13:00Mon 	 9c 	 11%
13:00Mon 	 9c 	 11%
13:00Mon 	 9c 	 11%
13:00Mon 	 8c 	 5%
13:00Mon 	 8c 	 5%
13:00Mon 	 8c 	 5%
13:00Mon 	 8c 	 5%
13:00Mon 	 9c 	 2%
13:00Mon 	 9c 	 21%
13:00Mon 	 9c 	 21%
13:00Mon 	 9c 	 21%
13:00Mon 	 9c 	 21%
13:00Mon 	 9c 	 21%
13:00Mon 	 9c 	 21%
13:00Mon 	 9c 	 21%
13:00Mon 	 9c 	 21%
13:00Mon 	 9c 	 21%
13:00Mon 	 9c 	 21%
13:00Mon 	 9c 	 21%
13:00Mon 	 9c 	 21%
13:00Mon 	 9c 	 21%
13:00Mon 	 9c 	 21%
13:00Mon 	 9c 	 21%
13:00Mon 	 9c 	 21%
13:00Mon 	 9c 	 21%
13:00Mon 	 9c 	 21%
13:00Mon 	 9c 	 21%
13:00Mon 	 9c 	 21%
13:00Mon 	 9c 	 21%
13:00Mon 	 9c 	 21%
13:00Mon 	 9c 	 21%

14:00Mon 	 9c 	 30%
14:00Mon 	 9c 	 30%
14:00Mon 	 9c 	 30%
14:00Mon 	 9c 	 30%
14:00Mon 	 9c 	 30%
14:00Mon 	 9c 	 30%
14:00Mon 	 9c 	 30%
14:00Mon 	 9c 	 30%
14:00Mon 	 8c 	 36%
14:00Mon 	 8c 	 36%
14:00Mon 	 8c 	 36%
14:00Mon 	 8c 	 36%
14:00Mon 	 8c 	 37%
14:00Mon 	 8c 	 37%
14:00Mon 	 8c 	 37%
14:00Mon 	 8c 	 37%
14:00Mon 	 8c 	 37%
14:00Mon 	 8c 	 37%
14:00Mon 	 8c 	 37%
14:00Mon 	 8c 	 37%
14:00Mon 	 8c 	 38%
14:00Mon 	 8c 	 38%
14:00Mon 	 8c 	 38%
14:00Mon 	 8c 	 38%
14:00Mon 	 8c 	 25%
14:00Mon 	 8c 	 25%
14:00Mon 	 8c 	 25%
14:00Mon 	 8c 	 25%
14:00Mon 	 8c 	 71%
14:00Mon 	 8c 	 71%
14:00Mon 	 8c 	 71%
14:00Mon 	 8c 	 71%
14:00Mon 	 9c 	 87%
14:00Mon 	 9c 	 87%
14:00Mon 	 9c 	 30%
14:00Mon 	 9c 	 30%
14:00Mon 	 9c 	 30%
14:00Mon 	 9c 	 30%
14:00Mon 	 9c 	 30%
14:00Mon 	 9c 	 30%
14:00Mon 	 9c 	 30%
14:00Mon 	 9c 	 30%
14:00Mon 	 9c 	 30%
14:00Mon 	 9c 	 30%
14:00Mon 	 9c 	 30%
14:00Mon 	 9c 	 30%
14:00Mon 	 9c 	 30%
14:00Mon 	 9c 	 30%
14:00Mon 	 9c 	 30%
14:00Mon 	 9c 	 30%
14:00Mon 	 9c 	 30%
14:00Mon 	 9c 	 30%
14:00Mon 	 9c 	 30%
14:00Mon 	 9c 	 30%
14:00Mon 	 9c 	 30%
14:00Mon 	 9c 	 30%
14:00Mon 	 9c 	 30%

15:00Mon 	 9c 	 38%
15:00Mon 	 9c 	 38%
15:00Mon 	 9c 	 38%
15:00Mon 	 9c 	 38%
15:00Mon 	 9c 	 38%
15:00Mon 	 9c 	 38%
15:00Mon 	 9c 	 38%
15:00Mon 	 9c 	 38%
15:00Mon 	 8c 	 50%
15:00Mon 	 8c 	 50%
15:00Mon 	 8c 	 50%
15:00Mon 	 8c 	 50%
15:00Mon 	 8c 	 50%
15:00Mon 	 8c 	 50%
15:00Mon 	 8c 	 50%
15:00Mon 	 8c 	 50%
15:00Mon 	 8c 	 50%
15:00Mon 	 8c 	 50%
15:00Mon 	 8c 	 50%
15:00Mon 	 8c 	 50%
15:00Mon 	 8c 	 50%
15:00Mon 	 8c 	 50%
15:00Mon 	 8c 	 50%
15:00Mon 	 8c 	 50%
15:00Mon 	 8c 	 50%
15:00Mon 	 8c 	 50%
15:00Mon 	 8c 	 50%
15:00Mon 	 8c 	 50%
15:00Mon 	 8c 	 70%
15:00Mon 	 8c 	 70%
15:00Mon 	 8c 	 70%
15:00Mon 	 8c 	 70%
15:00Mon 	 8c 	 87%
15:00Mon 	 8c 	 87%
15:00Mon 	 8c 	 87%
15:00Mon 	 8c 	 87%
15:00Mon 	 8c 	 99%
15:00Mon 	 8c 	 99%
15:00Mon 	 9c 	 38%
15:00Mon 	 9c 	 38%
15:00Mon 	 9c 	 38%
15:00Mon 	 9c 	 38%
15:00Mon 	 9c 	 38%
15:00Mon 	 9c 	 38%
15:00Mon 	 9c 	 38%
15:00Mon 	 9c 	 38%
15:00Mon 	 9c 	 38%
15:00Mon 	 9c 	 38%
15:00Mon 	 9c 	 38%
15:00Mon 	 9c 	 38%
15:00Mon 	 9c 	 38%
15:00Mon 	 9c 	 38%
15:00Mon 	 9c 	 38%
15:00Mon 	 9c 	 38%
15:00Mon 	 9c 	 38%
15:00Mon 	 9c 	 38%
15:00Mon 	 9c 	 38%
15:00Mon 	 9c 	 38%
15:00Mon 	 9c 	 38%
15:00Mon 	 9c 	 38%
15:00Mon 	 9c 	 38%

16:00Mon 	 8c 	 53%
16:00Mon 	 8c 	 53%
16:00Mon 	 8c 	 53%
16:00Mon 	 8c 	 53%
16:00Mon 	 8c 	 53%
16:00Mon 	 8c 	 53%
16:00Mon 	 8c 	 53%
16:00Mon 	 8c 	 53%
16:00Mon 	 8c 	 59%
16:00Mon 	 8c 	 59%
16:00Mon 	 8c 	 59%
16:00Mon 	 8c 	 59%
16:00Mon 	 8c 	 59%
16:00Mon 	 8c 	 59%
16:00Mon 	 8c 	 59%
16:00Mon 	 8c 	 59%
16:00Mon 	 8c 	 59%
16:00Mon 	 8c 	 59%
16:00Mon 	 8c 	 59%
16:00Mon 	 8c 	 59%
16:00Mon 	 8c 	 59%
16:00Mon 	 8c 	 59%
16:00Mon 	 8c 	 59%
16:00Mon 	 8c 	 59%
16:00Mon 	 8c 	 59%
16:00Mon 	 8c 	 59%
16:00Mon 	 8c 	 59%
16:00Mon 	 8c 	 59%
16:00Mon 	 8c 	 54%
16:00Mon 	 8c 	 54%
16:00Mon 	 8c 	 54%
16:00Mon 	 8c 	 54%
16:00Mon 	 8c 	 75%
16:00Mon 	 8c 	 75%
16:00Mon 	 8c 	 75%
16:00Mon 	 8c 	 75%
16:00Mon 	 8c 	 96%
16:00Mon 	 8c 	 96%
16:00Mon 	 8c 	 96%
16:00Mon 	 8c 	 96%
16:00Mon 	 8c 	 99%
16:00Mon 	 8c 	 99%
16:00Mon 	 8c 	 53%
16:00Mon 	 8c 	 53%
16:00Mon 	 8c 	 53%
16:00Mon 	 8c 	 53%
16:00Mon 	 8c 	 53%
16:00Mon 	 8c 	 53%
16:00Mon 	 8c 	 53%
16:00Mon 	 8c 	 53%
16:00Mon 	 8c 	 53%
16:00Mon 	 8c 	 53%
16:00Mon 	 8c 	 53%
16:00Mon 	 8c 	 53%
16:00Mon 	 8c 	 53%
16:00Mon 	 8c 	 53%
16:00Mon 	 8c 	 53%
16:00Mon 	 8c 	 53%
16:00Mon 	 8c 	 53%
16:00Mon 	 8c 	 53%
16:00Mon 	 8c 	 53%
16:00Mon 	 8c 	 53%
16:00Mon 	 8c 	 53%
16:00Mon 	 8c 	 53%
16:00Mon 	 8c 	 53%

17:00Mon 	 8c 	 71%
17:00Mon 	 8c 	 71%
17:00Mon 	 8c 	 71%
17:00Mon 	 8c 	 71%
17:00Mon 	 8c 	 71%
17:00Mon 	 8c 	 71%
17:00Mon 	 8c 	 71%
17:00Mon 	 8c 	 71%
17:00Mon 	 8c 	 70%
17:00Mon 	 8c 	 70%
17:00Mon 	 8c 	 70%
17:00Mon 	 8c 	 70%
17:00Mon 	 8c 	 70%
17:00Mon 	 8c 	 70%
17:00Mon 	 8c 	 70%
17:00Mon 	 8c 	 70%
17:00Mon 	 8c 	 70%
17:00Mon 	 8c 	 70%
17:00Mon 	 8c 	 70%
17:00Mon 	 8c 	 70%
17:00Mon 	 8c 	 70%
17:00Mon 	 8c 	 70%
17:00Mon 	 8c 	 70%
17:00Mon 	 8c 	 70%
17:00Mon 	 8c 	 70%
17:00Mon 	 8c 	 70%
17:00Mon 	 8c 	 70%
17:00Mon 	 8c 	 70%
17:00Mon 	 8c 	 67%
17:00Mon 	 8c 	 67%
17:00Mon 	 8c 	 67%
17:00Mon 	 8c 	 67%
17:00Mon 	 8c 	 65%
17:00Mon 	 8c 	 65%
17:00Mon 	 8c 	 65%
17:00Mon 	 8c 	 65%
17:00Mon 	 8c 	 87%
17:00Mon 	 8c 	 87%
17:00Mon 	 8c 	 87%
17:00Mon 	 8c 	 87%
17:00Mon 	 8c 	 97%
17:00Mon 	 8c 	 97%
17:00Mon 	 8c 	 97%
17:00Mon 	 8c 	 97%
17:00Mon 	 8c 	 97%
17:00Mon 	 8c 	 98%
17:00Mon 	 8c 	 71%
17:00Mon 	 8c 	 71%
17:00Mon 	 8c 	 71%
17:00Mon 	 8c 	 71%
17:00Mon 	 8c 	 71%
17:00Mon 	 8c 	 71%
17:00Mon 	 8c 	 71%
17:00Mon 	 8c 	 71%
17:00Mon 	 8c 	 71%
17:00Mon 	 8c 	 71%
17:00Mon 	 8c 	 71%
17:00Mon 	 8c 	 71%
17:00Mon 	 8c 	 71%
17:00Mon 	 8c 	 71%
17:00Mon 	 8c 	 71%
17:00Mon 	 8c 	 71%
17:00Mon 	 8c 	 71%
17:00Mon 	 8c 	 71%
17:00Mon 	 8c 	 71%
17:00Mon 	 8c 	 71%
17:00Mon 	 8c 	 71%
17:00Mon 	 8c 	 71%
17:00Mon 	 8c 	 71%

18:00Mon 	 8c 	 85%
18:00Mon 	 8c 	 85%
18:00Mon 	 8c 	 85%
18:00Mon 	 8c 	 85%
18:00Mon 	 8c 	 85%
18:00Mon 	 8c 	 85%
18:00Mon 	 8c 	 85%
18:00Mon 	 8c 	 85%
18:00Mon 	 8c 	 83%
18:00Mon 	 8c 	 83%
18:00Mon 	 8c 	 83%
18:00Mon 	 8c 	 83%
18:00Mon 	 8c 	 83%
18:00Mon 	 8c 	 83%
18:00Mon 	 8c 	 83%
18:00Mon 	 8c 	 83%
18:00Mon 	 8c 	 83%
18:00Mon 	 8c 	 83%
18:00Mon 	 8c 	 83%
18:00Mon 	 8c 	 83%
18:00Mon 	 8c 	 83%
18:00Mon 	 8c 	 83%
18:00Mon 	 8c 	 83%
18:00Mon 	 8c 	 83%
18:00Mon 	 8c 	 83%
18:00Mon 	 8c 	 83%
18:00Mon 	 8c 	 83%
18:00Mon 	 8c 	 83%
18:00Mon 	 8c 	 82%
18:00Mon 	 8c 	 82%
18:00Mon 	 8c 	 82%
18:00Mon 	 8c 	 82%
18:00Mon 	 8c 	 80%
18:00Mon 	 8c 	 80%
18:00Mon 	 8c 	 80%
18:00Mon 	 8c 	 80%
18:00Mon 	 8c 	 80%
18:00Mon 	 8c 	 80%
18:00Mon 	 8c 	 80%
18:00Mon 	 8c 	 80%
18:00Mon 	 8c 	 91%
18:00Mon 	 8c 	 91%
18:00Mon 	 8c 	 91%
18:00Mon 	 8c 	 91%
18:00Mon 	 8c 	 91%
18:00Mon 	 8c 	 97%
18:00Mon 	 8c 	 97%
18:00Mon 	 8c 	 97%
18:00Mon 	 8c 	 100%
18:00Mon 	 8c 	 100%
18:00Mon 	 8c 	 85%
18:00Mon 	 8c 	 85%
18:00Mon 	 8c 	 85%
18:00Mon 	 8c 	 85%
18:00Mon 	 8c 	 85%
18:00Mon 	 8c 	 85%
18:00Mon 	 8c 	 85%
18:00Mon 	 8c 	 85%
18:00Mon 	 8c 	 85%
18:00Mon 	 8c 	 85%
18:00Mon 	 8c 	 85%
18:00Mon 	 8c 	 85%
18:00Mon 	 8c 	 85%
18:00Mon 	 8c 	 85%
18:00Mon 	 8c 	 85%
18:00Mon 	 8c 	 85%
18:00Mon 	 8c 	 85%
18:00Mon 	 8c 	 85%
18:00Mon 	 8c 	 85%
18:00Mon 	 8c 	 85%
18:00Mon 	 8c 	 85%
18:00Mon 	 8c 	 85%
18:00Mon 	 8c 	 85%

19:00Mon 	 9c 	 93%
19:00Mon 	 9c 	 93%
19:00Mon 	 9c 	 93%
19:00Mon 	 9c 	 93%
19:00Mon 	 9c 	 93%
19:00Mon 	 9c 	 93%
19:00Mon 	 9c 	 93%
19:00Mon 	 9c 	 93%
19:00Mon 	 9c 	 94%
19:00Mon 	 9c 	 94%
19:00Mon 	 9c 	 94%
19:00Mon 	 9c 	 94%
19:00Mon 	 9c 	 94%
19:00Mon 	 9c 	 94%
19:00Mon 	 9c 	 94%
19:00Mon 	 9c 	 94%
19:00Mon 	 9c 	 94%
19:00Mon 	 9c 	 94%
19:00Mon 	 9c 	 94%
19:00Mon 	 9c 	 94%
19:00Mon 	 9c 	 94%
19:00Mon 	 9c 	 94%
19:00Mon 	 9c 	 94%
19:00Mon 	 9c 	 94%
19:00Mon 	 9c 	 94%
19:00Mon 	 9c 	 94%
19:00Mon 	 9c 	 94%
19:00Mon 	 9c 	 94%
19:00Mon 	 9c 	 94%
19:00Mon 	 9c 	 94%
19:00Mon 	 9c 	 94%
19:00Mon 	 9c 	 94%
19:00Mon 	 9c 	 93%
19:00Mon 	 9c 	 93%
19:00Mon 	 9c 	 93%
19:00Mon 	 9c 	 93%
19:00Mon 	 9c 	 91%
19:00Mon 	 9c 	 91%
19:00Mon 	 9c 	 91%
19:00Mon 	 9c 	 91%
19:00Mon 	 9c 	 89%
19:00Mon 	 9c 	 89%
19:00Mon 	 9c 	 89%
19:00Mon 	 9c 	 89%
19:00Mon 	 9c 	 89%
19:00Mon 	 9c 	 91%
19:00Mon 	 9c 	 91%
19:00Mon 	 9c 	 91%
19:00Mon 	 9c 	 99%
19:00Mon 	 9c 	 99%
19:00Mon 	 9c 	 99%
19:00Mon 	 9c 	 99%
19:00Mon 	 9c 	 100%
19:00Mon 	 9c 	 100%
19:00Mon 	 9c 	 93%
19:00Mon 	 9c 	 93%
19:00Mon 	 9c 	 93%
19:00Mon 	 9c 	 93%
19:00Mon 	 9c 	 93%
19:00Mon 	 9c 	 93%
19:00Mon 	 9c 	 93%
19:00Mon 	 9c 	 93%
19:00Mon 	 9c 	 93%
19:00Mon 	 9c 	 93%
19:00Mon 	 9c 	 93%
19:00Mon 	 9c 	 93%
19:00Mon 	 9c 	 93%
19:00Mon 	 9c 	 93%
19:00Mon 	 9c 	 93%
19:00Mon 	 9c 	 93%
19:00Mon 	 9c 	 93%
19:00Mon 	 9c 	 93%
19:00Mon 	 9c 	 93%
19:00Mon 	 9c 	 93%
19:00Mon 	 9c 	 93%
19:00Mon 	 9c 	 93%
19:00Mon 	 9c 	 93%

20:00Mon 	 9c 	 92%
20:00Mon 	 9c 	 92%
20:00Mon 	 9c 	 92%
20:00Mon 	 9c 	 92%
20:00Mon 	 9c 	 92%
20:00Mon 	 9c 	 92%
20:00Mon 	 9c 	 92%
20:00Mon 	 9c 	 92%
20:00Mon 	 9c 	 99%
20:00Mon 	 9c 	 99%
20:00Mon 	 9c 	 99%
20:00Mon 	 9c 	 99%
20:00Mon 	 9c 	 100%
20:00Mon 	 9c 	 100%
20:00Mon 	 9c 	 100%
20:00Mon 	 9c 	 100%
20:00Mon 	 9c 	 100%
20:00Mon 	 9c 	 100%
20:00Mon 	 9c 	 100%
20:00Mon 	 9c 	 100%
20:00Mon 	 9c 	 100%
20:00Mon 	 9c 	 100%
20:00Mon 	 9c 	 100%
20:00Mon 	 9c 	 100%
20:00Mon 	 9c 	 100%
20:00Mon 	 9c 	 100%
20:00Mon 	 9c 	 100%
20:00Mon 	 9c 	 100%
20:00Mon 	 9c 	 100%
20:00Mon 	 9c 	 100%
20:00Mon 	 9c 	 100%
20:00Mon 	 9c 	 100%
20:00Mon 	 9c 	 100%
20:00Mon 	 9c 	 100%
20:00Mon 	 9c 	 100%
20:00Mon 	 9c 	 100%
20:00Mon 	 9c 	 99%
20:00Mon 	 9c 	 99%
20:00Mon 	 9c 	 99%
20:00Mon 	 9c 	 99%
20:00Mon 	 9c 	 97%
20:00Mon 	 9c 	 97%
20:00Mon 	 9c 	 97%
20:00Mon 	 9c 	 97%
20:00Mon 	 9c 	 97%
20:00Mon 	 9c 	 97%
20:00Mon 	 9c 	 97%
20:00Mon 	 9c 	 97%
20:00Mon 	 9c 	 98%
20:00Mon 	 9c 	 98%
20:00Mon 	 9c 	 98%
20:00Mon 	 9c 	 98%
20:00Mon 	 9c 	 99%
20:00Mon 	 9c 	 99%
20:00Mon 	 9c 	 99%
20:00Mon 	 9c 	 99%
20:00Mon 	 9c 	 100%
20:00Mon 	 9c 	 92%
20:00Mon 	 9c 	 92%
20:00Mon 	 9c 	 92%
20:00Mon 	 9c 	 92%
20:00Mon 	 9c 	 92%
20:00Mon 	 9c 	 92%
20:00Mon 	 9c 	 92%
20:00Mon 	 9c 	 92%
20:00Mon 	 9c 	 92%
20:00Mon 	 9c 	 92%
20:00Mon 	 9c 	 92%
20:00Mon 	 9c 	 92%
20:00Mon 	 9c 	 92%
20:00Mon 	 9c 	 92%
20:00Mon 	 9c 	 92%
20:00Mon 	 9c 	 92%
20:00Mon 	 9c 	 92%
20:00Mon 	 9c 	 92%
20:00Mon 	 9c 	 92%
20:00Mon 	 9c 	 92%
20:00Mon 	 9c 	 92%
20:00Mon 	 9c 	 92%
20:00Mon 	 9c 	 92%

21:00Mon 	 10c 	 90%
21:00Mon 	 10c 	 90%
21:00Mon 	 10c 	 90%
21:00Mon 	 10c 	 90%
21:00Mon 	 10c 	 90%
21:00Mon 	 10c 	 90%
21:00Mon 	 10c 	 90%
21:00Mon 	 10c 	 90%
21:00Mon 	 10c 	 100%
21:00Mon 	 10c 	 100%
21:00Mon 	 10c 	 100%
21:00Mon 	 10c 	 100%
21:00Mon 	 10c 	 100%
21:00Mon 	 10c 	 100%
21:00Mon 	 10c 	 100%
21:00Mon 	 10c 	 100%
21:00Mon 	 10c 	 100%
21:00Mon 	 10c 	 100%
21:00Mon 	 10c 	 100%
21:00Mon 	 10c 	 100%
21:00Mon 	 10c 	 100%
21:00Mon 	 10c 	 100%
21:00Mon 	 10c 	 100%
21:00Mon 	 10c 	 100%
21:00Mon 	 10c 	 100%
21:00Mon 	 10c 	 100%
21:00Mon 	 10c 	 100%
21:00Mon 	 10c 	 100%
21:00Mon 	 10c 	 100%
21:00Mon 	 10c 	 100%
21:00Mon 	 10c 	 100%
21:00Mon 	 10c 	 100%
21:00Mon 	 10c 	 100%
21:00Mon 	 10c 	 100%
21:00Mon 	 10c 	 100%
21:00Mon 	 10c 	 100%
21:00Mon 	 10c 	 100%
21:00Mon 	 10c 	 100%
21:00Mon 	 10c 	 100%
21:00Mon 	 10c 	 100%
21:00Mon 	 10c 	 99%
21:00Mon 	 10c 	 99%
21:00Mon 	 10c 	 99%
21:00Mon 	 10c 	 99%
21:00Mon 	 10c 	 99%
21:00Mon 	 10c 	 97%
21:00Mon 	 10c 	 97%
21:00Mon 	 10c 	 97%
21:00Mon 	 10c 	 97%
21:00Mon 	 10c 	 97%
21:00Mon 	 10c 	 97%
21:00Mon 	 10c 	 97%
21:00Mon 	 10c 	 97%
21:00Mon 	 10c 	 97%
21:00Mon 	 10c 	 97%
21:00Mon 	 10c 	 97%
21:00Mon 	 10c 	 100%
21:00Mon 	 10c 	 100%
21:00Mon 	 10c 	 100%
21:00Mon 	 10c 	 100%
21:00Mon 	 9c 	 100%
21:00Mon 	 9c 	 100%
21:00Mon 	 10c 	 90%
21:00Mon 	 10c 	 90%
21:00Mon 	 10c 	 90%
21:00Mon 	 10c 	 90%
21:00Mon 	 10c 	 90%
21:00Mon 	 10c 	 90%
21:00Mon 	 10c 	 90%
21:00Mon 	 10c 	 90%
21:00Mon 	 10c 	 90%
21:00Mon 	 10c 	 90%
21:00Mon 	 10c 	 90%
21:00Mon 	 10c 	 90%
21:00Mon 	 10c 	 90%
21:00Mon 	 10c 	 90%
21:00Mon 	 10c 	 90%
21:00Mon 	 10c 	 90%
21:00Mon 	 10c 	 90%
21:00Mon 	 10c 	 90%
21:00Mon 	 10c 	 90%
21:00Mon 	 10c 	 90%
21:00Mon 	 10c 	 90%
21:00Mon 	 10c 	 90%
21:00Mon 	 10c 	 90%

22:00Mon 	 10c 	 91%
22:00Mon 	 10c 	 91%
22:00Mon 	 10c 	 91%
22:00Mon 	 10c 	 91%
22:00Mon 	 10c 	 91%
22:00Mon 	 10c 	 91%
22:00Mon 	 10c 	 91%
22:00Mon 	 10c 	 91%
22:00Mon 	 10c 	 99%
22:00Mon 	 10c 	 99%
22:00Mon 	 10c 	 99%
22:00Mon 	 10c 	 99%
22:00Mon 	 10c 	 99%
22:00Mon 	 10c 	 99%
22:00Mon 	 10c 	 99%
22:00Mon 	 10c 	 99%
22:00Mon 	 10c 	 99%
22:00Mon 	 10c 	 99%
22:00Mon 	 10c 	 99%
22:00Mon 	 10c 	 99%
22:00Mon 	 10c 	 99%
22:00Mon 	 10c 	 99%
22:00Mon 	 10c 	 99%
22:00Mon 	 10c 	 99%
22:00Mon 	 10c 	 99%
22:00Mon 	 10c 	 99%
22:00Mon 	 10c 	 99%
22:00Mon 	 10c 	 99%
22:00Mon 	 10c 	 99%
22:00Mon 	 10c 	 99%
22:00Mon 	 10c 	 99%
22:00Mon 	 10c 	 99%
22:00Mon 	 10c 	 99%
22:00Mon 	 10c 	 99%
22:00Mon 	 10c 	 99%
22:00Mon 	 10c 	 99%
22:00Mon 	 10c 	 99%
22:00Mon 	 10c 	 99%
22:00Mon 	 10c 	 99%
22:00Mon 	 10c 	 99%
22:00Mon 	 10c 	 99%
22:00Mon 	 10c 	 99%
22:00Mon 	 10c 	 99%
22:00Mon 	 10c 	 99%
22:00Mon 	 10c 	 99%
22:00Mon 	 10c 	 98%
22:00Mon 	 10c 	 98%
22:00Mon 	 10c 	 98%
22:00Mon 	 10c 	 98%
22:00Mon 	 10c 	 98%
22:00Mon 	 10c 	 98%
22:00Mon 	 10c 	 98%
22:00Mon 	 10c 	 98%
22:00Mon 	 10c 	 98%
22:00Mon 	 10c 	 98%
22:00Mon 	 10c 	 98%
22:00Mon 	 10c 	 95%
22:00Mon 	 10c 	 95%
22:00Mon 	 10c 	 95%
22:00Mon 	 10c 	 95%
22:00Mon 	 10c 	 99%
22:00Mon 	 10c 	 99%
22:00Mon 	 10c 	 99%
22:00Mon 	 10c 	 99%
22:00Mon 	 10c 	 100%
22:00Mon 	 10c 	 100%
22:00Mon 	 10c 	 91%
22:00Mon 	 10c 	 91%
22:00Mon 	 10c 	 91%
22:00Mon 	 10c 	 91%
22:00Mon 	 10c 	 91%
22:00Mon 	 10c 	 91%
22:00Mon 	 10c 	 91%
22:00Mon 	 10c 	 91%
22:00Mon 	 10c 	 91%
22:00Mon 	 10c 	 91%
22:00Mon 	 10c 	 91%
22:00Mon 	 10c 	 91%
22:00Mon 	 10c 	 91%
22:00Mon 	 10c 	 91%
22:00Mon 	 10c 	 91%
22:00Mon 	 10c 	 91%
22:00Mon 	 10c 	 91%
22:00Mon 	 10c 	 91%
22:00Mon 	 10c 	 91%
22:00Mon 	 10c 	 91%
22:00Mon 	 10c 	 91%
22:00Mon 	 10c 	 91%
22:00Mon 	 10c 	 91%

23:00Mon 	 11c 	 90%
23:00Mon 	 11c 	 90%
23:00Mon 	 11c 	 90%
23:00Mon 	 11c 	 90%
23:00Mon 	 11c 	 90%
23:00Mon 	 11c 	 90%
23:00Mon 	 11c 	 90%
23:00Mon 	 11c 	 90%
23:00Mon 	 11c 	 92%
23:00Mon 	 11c 	 92%
23:00Mon 	 11c 	 92%
23:00Mon 	 11c 	 92%
23:00Mon 	 11c 	 93%
23:00Mon 	 11c 	 93%
23:00Mon 	 11c 	 93%
23:00Mon 	 11c 	 93%
23:00Mon 	 11c 	 93%
23:00Mon 	 11c 	 93%
23:00Mon 	 11c 	 93%
23:00Mon 	 11c 	 93%
23:00Mon 	 11c 	 93%
23:00Mon 	 11c 	 93%
23:00Mon 	 11c 	 93%
23:00Mon 	 11c 	 93%
23:00Mon 	 11c 	 93%
23:00Mon 	 11c 	 93%
23:00Mon 	 11c 	 93%
23:00Mon 	 11c 	 93%
23:00Mon 	 11c 	 93%
23:00Mon 	 11c 	 93%
23:00Mon 	 11c 	 93%
23:00Mon 	 11c 	 93%
23:00Mon 	 11c 	 93%
23:00Mon 	 11c 	 93%
23:00Mon 	 11c 	 93%
23:00Mon 	 11c 	 93%
23:00Mon 	 11c 	 93%
23:00Mon 	 11c 	 93%
23:00Mon 	 11c 	 93%
23:00Mon 	 11c 	 93%
23:00Mon 	 11c 	 93%
23:00Mon 	 11c 	 93%
23:00Mon 	 11c 	 93%
23:00Mon 	 11c 	 93%
23:00Mon 	 11c 	 93%
23:00Mon 	 11c 	 93%
23:00Mon 	 11c 	 93%
23:00Mon 	 11c 	 93%
23:00Mon 	 11c 	 93%
23:00Mon 	 11c 	 93%
23:00Mon 	 11c 	 93%
23:00Mon 	 11c 	 93%
23:00Mon 	 11c 	 93%
23:00Mon 	 11c 	 93%
23:00Mon 	 11c 	 93%
23:00Mon 	 11c 	 93%
23:00Mon 	 11c 	 93%
23:00Mon 	 11c 	 93%
23:00Mon 	 11c 	 93%
23:00Mon 	 11c 	 93%
23:00Mon 	 10c 	 96%
23:00Mon 	 10c 	 96%
23:00Mon 	 10c 	 96%
23:00Mon 	 10c 	 96%
23:00Mon 	 10c 	 100%
23:00Mon 	 10c 	 100%
23:00Mon 	 10c 	 100%
23:00Mon 	 10c 	 100%
23:00Mon 	 11c 	 100%
23:00Mon 	 11c 	 100%
23:00Mon 	 11c 	 90%
23:00Mon 	 11c 	 90%
23:00Mon 	 11c 	 90%
23:00Mon 	 11c 	 90%
23:00Mon 	 11c 	 90%
23:00Mon 	 11c 	 90%
23:00Mon 	 11c 	 90%
23:00Mon 	 11c 	 90%
23:00Mon 	 11c 	 90%
23:00Mon 	 11c 	 90%
23:00Mon 	 11c 	 90%
23:00Mon 	 11c 	 90%
23:00Mon 	 11c 	 90%
23:00Mon 	 11c 	 90%
23:00Mon 	 11c 	 90%
23:00Mon 	 11c 	 90%
23:00Mon 	 11c 	 90%
23:00Mon 	 11c 	 90%
23:00Mon 	 11c 	 90%
23:00Mon 	 11c 	 90%
23:00Mon 	 11c 	 90%
23:00Mon 	 11c 	 90%
23:00Mon 	 11c 	 90%

