00:00Thu 	 5c 	 4%
01:00Thu 	 5c 	 4%
02:00Thu 	 5c 	 4%
03:00Thu 	 4c 	 5%
04:00Thu 	 4c 	 6%
05:00Thu 	 5c 	 6%
00:00Thu 	 5c 	 4%
01:00Thu 	 5c 	 4%
02:00Thu 	 5c 	 4%
03:00Thu 	 4c 	 5%
04:00Thu 	 4c 	 6%
05:00Thu 	 5c 	 6%
00:00Thu 	 5c 	 4%
01:00Thu 	 5c 	 4%
02:00Thu 	 5c 	 4%
03:00Thu 	 4c 	 5%
04:00Thu 	 4c 	 6%
05:00Thu 	 5c 	 6%
00:00Thu 	 5c 	 4%
01:00Thu 	 5c 	 4%
02:00Thu 	 5c 	 4%
03:00Thu 	 4c 	 5%
04:00Thu 	 4c 	 6%
05:00Thu 	 5c 	 6%
00:00Thu 	 5c 	 4%
01:00Thu 	 5c 	 4%
02:00Thu 	 5c 	 4%
03:00Thu 	 4c 	 5%
04:00Thu 	 4c 	 6%
05:00Thu 	 5c 	 6%
00:00Thu 	 5c 	 4%
01:00Thu 	 5c 	 4%
02:00Thu 	 5c 	 4%
03:00Thu 	 4c 	 5%
04:00Thu 	 4c 	 6%
05:00Thu 	 5c 	 6%
00:00Thu 	 5c 	 4%
01:00Thu 	 5c 	 4%
02:00Thu 	 5c 	 4%
03:00Thu 	 4c 	 5%
04:00Thu 	 4c 	 6%
05:00Thu 	 5c 	 6%
00:00Thu 	 5c 	 4%
01:00Thu 	 5c 	 4%
02:00Thu 	 5c 	 4%
03:00Thu 	 4c 	 5%
04:00Thu 	 4c 	 6%
05:00Thu 	 5c 	 6%
00:00Thu 	 5c 	 4%
01:00Thu 	 5c 	 4%
02:00Thu 	 5c 	 4%
03:00Thu 	 4c 	 5%
04:00Thu 	 4c 	 6%
05:00Thu 	 5c 	 6%
00:00Thu 	 5c 	 4%
01:00Thu 	 5c 	 4%
02:00Thu 	 5c 	 4%
03:00Thu 	 4c 	 5%
04:00Thu 	 4c 	 6%
05:00Thu 	 5c 	 6%
00:00Thu 	 5c 	 4%
01:00Thu 	 5c 	 4%
02:00Thu 	 5c 	 4%
03:00Thu 	 4c 	 5%
04:00Thu 	 4c 	 6%
05:00Thu 	 5c 	 6%
00:00Thu 	 5c 	 4%
01:00Thu 	 5c 	 4%
02:00Thu 	 5c 	 4%
03:00Thu 	 4c 	 5%
04:00Thu 	 4c 	 6%
05:00Thu 	 5c 	 6%
00:00Thu 	 5c 	 4%
01:00Thu 	 5c 	 4%
02:00Thu 	 5c 	 4%
03:00Thu 	 4c 	 5%
04:00Thu 	 4c 	 6%
05:00Thu 	 5c 	 6%
00:00Thu 	 5c 	 4%
01:00Thu 	 5c 	 4%
02:00Thu 	 5c 	 4%
03:00Thu 	 4c 	 5%
04:00Thu 	 4c 	 6%
05:00Thu 	 5c 	 6%
00:00Thu 	 5c 	 4%
01:00Thu 	 5c 	 4%
02:00Thu 	 5c 	 4%
03:00Thu 	 4c 	 5%
04:00Thu 	 4c 	 6%
05:00Thu 	 5c 	 6%
00:00Thu 	 5c 	 4%
01:00Thu 	 5c 	 4%
02:00Thu 	 5c 	 4%
03:00Thu 	 4c 	 5%
04:00Thu 	 4c 	 6%
05:00Thu 	 5c 	 6%
00:00Thu 	 5c 	 4%
01:00Thu 	 5c 	 4%
02:00Thu 	 5c 	 4%
03:00Thu 	 4c 	 5%
04:00Thu 	 4c 	 6%
05:00Thu 	 5c 	 6%
00:00Thu 	 5c 	 4%
01:00Thu 	 5c 	 4%
02:00Thu 	 5c 	 4%
03:00Thu 	 4c 	 5%
04:00Thu 	 4c 	 6%
05:00Thu 	 5c 	 6%
00:00Thu 	 5c 	 4%
01:00Thu 	 5c 	 4%
02:00Thu 	 4c 	 4%
03:00Thu 	 4c 	 5%
04:00Thu 	 4c 	 6%
05:00Thu 	 5c 	 6%
00:00Thu 	 5c 	 4%
01:00Thu 	 5c 	 4%
02:00Thu 	 4c 	 4%
03:00Thu 	 4c 	 5%
04:00Thu 	 4c 	 6%
05:00Thu 	 5c 	 6%
00:00Thu 	 5c 	 4%
01:00Thu 	 5c 	 4%
02:00Thu 	 4c 	 4%
03:00Thu 	 4c 	 5%
04:00Thu 	 4c 	 6%
05:00Thu 	 5c 	 6%
00:00Thu 	 5c 	 4%
01:00Thu 	 5c 	 4%
02:00Thu 	 4c 	 4%
03:00Thu 	 4c 	 5%
04:00Thu 	 4c 	 6%
05:00Thu 	 5c 	 6%
06:00Thu 	 5c 	 0%
07:00Thu 	 6c 	 1%
08:00Thu 	 7c 	 1%
09:00Thu 	 8c 	 1%
10:00Thu 	 9c 	 1%
11:00Thu 	 11c 	 1%
12:00Thu 	 11c 	 1%
13:00Thu 	 12c 	 1%
14:00Thu 	 13c 	 1%
15:00Thu 	 13c 	 2%
16:00Thu 	 12c 	 1%
17:00Thu 	 11c 	 1%
18:00Thu 	 10c 	 2%
19:00Thu 	 9c 	 2%
20:00Thu 	 8c 	 2%
21:00Thu 	 7c 	 2%
22:00Thu 	 6c 	 3%
23:00Thu 	 5c 	 4%


00:00Thu 	 5c 	 4%
01:00Thu 	 5c 	 4%
02:00Thu 	 4c 	 4%
03:00Thu 	 4c 	 5%
04:00Thu 	 4c 	 6%
05:00Thu 	 5c 	 6%
00:00Thu 	 5c 	 4%
01:00Thu 	 5c 	 4%
02:00Thu 	 4c 	 4%
03:00Thu 	 4c 	 5%
04:00Thu 	 4c 	 6%
05:00Thu 	 5c 	 6%
06:00Thu 	 5c 	 7%
07:00Thu 	 6c 	 6%
08:00Thu 	 7c 	 5%
09:00Thu 	 8c 	 6%
10:00Thu 	 9c 	 6%
11:00Thu 	 10c 	 7%
12:00Thu 	 11c 	 8%
13:00Thu 	 12c 	 7%
14:00Thu 	 12c 	 7%
15:00Thu 	 12c 	 7%
16:00Thu 	 11c 	 7%
17:00Thu 	 11c 	 7%
18:00Thu 	 10c 	 8%
19:00Thu 	 10c 	 9%
20:00Thu 	 9c 	 10%
21:00Thu 	 9c 	 10%
22:00Thu 	 9c 	 11%
23:00Thu 	 9c 	 11%


00:00Thu 	 5c 	 4%
01:00Thu 	 5c 	 4%
02:00Thu 	 4c 	 4%
03:00Thu 	 4c 	 5%
04:00Thu 	 4c 	 6%
05:00Thu 	 5c 	 6%
06:00Thu 	 5c 	 7%
07:00Thu 	 6c 	 6%
08:00Thu 	 7c 	 5%
09:00Thu 	 8c 	 6%
10:00Thu 	 9c 	 6%
11:00Thu 	 10c 	 7%
12:00Thu 	 11c 	 8%
13:00Thu 	 12c 	 7%
14:00Thu 	 12c 	 7%
15:00Thu 	 12c 	 7%
16:00Thu 	 11c 	 7%
17:00Thu 	 11c 	 7%
18:00Thu 	 10c 	 8%
19:00Thu 	 10c 	 9%
20:00Thu 	 9c 	 10%
21:00Thu 	 9c 	 10%
22:00Thu 	 9c 	 11%
23:00Thu 	 9c 	 11%


00:00Thu 	 5c 	 4%
01:00Thu 	 5c 	 4%
02:00Thu 	 4c 	 4%
03:00Thu 	 4c 	 5%
04:00Thu 	 4c 	 6%
05:00Thu 	 5c 	 6%
06:00Thu 	 5c 	 7%
07:00Thu 	 6c 	 6%
08:00Thu 	 7c 	 5%
09:00Thu 	 8c 	 6%
10:00Thu 	 9c 	 6%
11:00Thu 	 10c 	 7%
12:00Thu 	 11c 	 8%
13:00Thu 	 12c 	 7%
14:00Thu 	 12c 	 7%
15:00Thu 	 12c 	 7%
16:00Thu 	 11c 	 7%
17:00Thu 	 11c 	 7%
18:00Thu 	 10c 	 8%
19:00Thu 	 10c 	 9%
20:00Thu 	 9c 	 10%
21:00Thu 	 9c 	 10%
22:00Thu 	 9c 	 11%
23:00Thu 	 9c 	 11%


00:00Thu 	 5c 	 4%
01:00Thu 	 5c 	 4%
02:00Thu 	 4c 	 4%
03:00Thu 	 4c 	 5%
04:00Thu 	 4c 	 6%
05:00Thu 	 5c 	 6%
06:00Thu 	 5c 	 7%
07:00Thu 	 6c 	 6%
08:00Thu 	 7c 	 5%
09:00Thu 	 8c 	 6%
10:00Thu 	 9c 	 6%
11:00Thu 	 10c 	 7%
12:00Thu 	 11c 	 8%
13:00Thu 	 12c 	 7%
14:00Thu 	 12c 	 7%
15:00Thu 	 12c 	 7%
16:00Thu 	 11c 	 7%
17:00Thu 	 11c 	 7%
18:00Thu 	 10c 	 8%
19:00Thu 	 10c 	 9%
20:00Thu 	 9c 	 10%
21:00Thu 	 9c 	 10%
22:00Thu 	 9c 	 11%
23:00Thu 	 9c 	 11%


00:00Thu 	 5c 	 4%
01:00Thu 	 5c 	 4%
02:00Thu 	 4c 	 4%
03:00Thu 	 4c 	 5%
04:00Thu 	 4c 	 6%
05:00Thu 	 5c 	 6%
06:00Thu 	 5c 	 7%
07:00Thu 	 6c 	 6%
08:00Thu 	 7c 	 5%
09:00Thu 	 8c 	 6%
10:00Thu 	 9c 	 6%
11:00Thu 	 10c 	 7%
12:00Thu 	 11c 	 8%
13:00Thu 	 12c 	 7%
14:00Thu 	 12c 	 7%
15:00Thu 	 12c 	 7%
16:00Thu 	 11c 	 7%
17:00Thu 	 11c 	 7%
18:00Thu 	 10c 	 8%
19:00Thu 	 10c 	 9%
20:00Thu 	 9c 	 10%
21:00Thu 	 9c 	 10%
22:00Thu 	 9c 	 11%
23:00Thu 	 9c 	 11%


00:00Thu 	 5c 	 4%
01:00Thu 	 5c 	 4%
02:00Thu 	 4c 	 4%
03:00Thu 	 4c 	 5%
04:00Thu 	 4c 	 6%
05:00Thu 	 5c 	 6%
06:00Thu 	 5c 	 7%
07:00Thu 	 6c 	 6%
08:00Thu 	 7c 	 5%
09:00Thu 	 8c 	 6%
10:00Thu 	 9c 	 6%
11:00Thu 	 10c 	 7%
12:00Thu 	 11c 	 8%
13:00Thu 	 12c 	 7%
14:00Thu 	 12c 	 7%
15:00Thu 	 12c 	 7%
16:00Thu 	 11c 	 7%
17:00Thu 	 11c 	 7%
18:00Thu 	 10c 	 8%
19:00Thu 	 10c 	 9%
20:00Thu 	 9c 	 10%
21:00Thu 	 9c 	 10%
22:00Thu 	 9c 	 11%
23:00Thu 	 9c 	 11%


00:00Thu 	 5c 	 4%
01:00Thu 	 5c 	 4%
02:00Thu 	 4c 	 4%
03:00Thu 	 4c 	 5%
04:00Thu 	 4c 	 6%
05:00Thu 	 5c 	 6%
06:00Thu 	 5c 	 7%
07:00Thu 	 6c 	 6%
08:00Thu 	 7c 	 5%
09:00Thu 	 8c 	 6%
10:00Thu 	 9c 	 6%
11:00Thu 	 10c 	 7%
12:00Thu 	 11c 	 8%
13:00Thu 	 12c 	 7%
14:00Thu 	 12c 	 7%
15:00Thu 	 12c 	 7%
16:00Thu 	 11c 	 7%
17:00Thu 	 11c 	 7%
18:00Thu 	 10c 	 8%
19:00Thu 	 10c 	 9%
20:00Thu 	 9c 	 10%
21:00Thu 	 9c 	 10%
22:00Thu 	 9c 	 11%
23:00Thu 	 9c 	 11%


00:00Thu 	 5c 	 4%
01:00Thu 	 5c 	 4%
02:00Thu 	 4c 	 4%
03:00Thu 	 4c 	 5%
04:00Thu 	 4c 	 6%
05:00Thu 	 5c 	 6%
06:00Thu 	 5c 	 7%
07:00Thu 	 6c 	 6%
08:00Thu 	 7c 	 5%
09:00Thu 	 8c 	 6%
10:00Thu 	 9c 	 6%
11:00Thu 	 10c 	 7%
12:00Thu 	 11c 	 8%
13:00Thu 	 12c 	 7%
14:00Thu 	 12c 	 7%
15:00Thu 	 12c 	 7%
16:00Thu 	 11c 	 7%
17:00Thu 	 11c 	 7%
18:00Thu 	 10c 	 8%
19:00Thu 	 10c 	 9%
20:00Thu 	 9c 	 10%
21:00Thu 	 9c 	 10%
22:00Thu 	 9c 	 11%
23:00Thu 	 9c 	 11%


00:00Thu 	 5c 	 5%
01:00Thu 	 5c 	 5%
02:00Thu 	 5c 	 5%
03:00Thu 	 5c 	 5%
04:00Thu 	 5c 	 3%
05:00Thu 	 5c 	 2%
06:00Thu 	 6c 	 3%
07:00Thu 	 6c 	 5%
08:00Thu 	 7c 	 9%
09:00Thu 	 8c 	 12%
10:00Thu 	 9c 	 9%
11:00Thu 	 10c 	 6%
12:00Thu 	 11c 	 5%
13:00Thu 	 11c 	 5%
14:00Thu 	 11c 	 5%
15:00Thu 	 11c 	 4%
16:00Thu 	 11c 	 5%
17:00Thu 	 11c 	 5%
18:00Thu 	 10c 	 6%
19:00Thu 	 9c 	 6%
20:00Thu 	 9c 	 7%
21:00Thu 	 9c 	 9%
22:00Thu 	 9c 	 10%
23:00Thu 	 9c 	 11%


00:00Thu 	 5c 	 5%
01:00Thu 	 5c 	 5%
02:00Thu 	 5c 	 5%
03:00Thu 	 5c 	 5%
04:00Thu 	 5c 	 3%
05:00Thu 	 5c 	 2%
06:00Thu 	 6c 	 3%
07:00Thu 	 6c 	 5%
08:00Thu 	 7c 	 9%
09:00Thu 	 8c 	 12%
10:00Thu 	 9c 	 9%
11:00Thu 	 10c 	 6%
12:00Thu 	 11c 	 5%
13:00Thu 	 11c 	 5%
14:00Thu 	 11c 	 5%
15:00Thu 	 11c 	 4%
16:00Thu 	 11c 	 5%
17:00Thu 	 11c 	 5%
18:00Thu 	 10c 	 6%
19:00Thu 	 9c 	 6%
20:00Thu 	 9c 	 7%
21:00Thu 	 9c 	 9%
22:00Thu 	 9c 	 10%
23:00Thu 	 9c 	 11%


00:00Thu 	 5c 	 5%
01:00Thu 	 5c 	 5%
02:00Thu 	 5c 	 5%
03:00Thu 	 5c 	 5%
04:00Thu 	 5c 	 3%
05:00Thu 	 5c 	 2%
06:00Thu 	 6c 	 3%
07:00Thu 	 6c 	 5%
08:00Thu 	 7c 	 9%
09:00Thu 	 8c 	 12%
10:00Thu 	 9c 	 9%
11:00Thu 	 10c 	 6%
12:00Thu 	 11c 	 5%
13:00Thu 	 11c 	 5%
14:00Thu 	 11c 	 5%
15:00Thu 	 11c 	 4%
16:00Thu 	 11c 	 5%
17:00Thu 	 11c 	 5%
18:00Thu 	 10c 	 6%
19:00Thu 	 9c 	 6%
20:00Thu 	 9c 	 7%
21:00Thu 	 9c 	 9%
22:00Thu 	 9c 	 10%
23:00Thu 	 9c 	 11%


00:00Thu 	 5c 	 5%
01:00Thu 	 5c 	 5%
02:00Thu 	 5c 	 5%
03:00Thu 	 5c 	 5%
04:00Thu 	 5c 	 3%
05:00Thu 	 5c 	 2%
06:00Thu 	 6c 	 3%
07:00Thu 	 6c 	 5%
08:00Thu 	 7c 	 9%
09:00Thu 	 8c 	 12%
10:00Thu 	 9c 	 9%
11:00Thu 	 10c 	 6%
12:00Thu 	 11c 	 5%
13:00Thu 	 11c 	 5%
14:00Thu 	 11c 	 5%
15:00Thu 	 11c 	 4%
16:00Thu 	 11c 	 5%
17:00Thu 	 11c 	 5%
18:00Thu 	 10c 	 6%
19:00Thu 	 9c 	 6%
20:00Thu 	 9c 	 7%
21:00Thu 	 9c 	 9%
22:00Thu 	 9c 	 10%
23:00Thu 	 9c 	 11%


00:00Thu 	 5c 	 5%
01:00Thu 	 5c 	 5%
02:00Thu 	 5c 	 5%
03:00Thu 	 5c 	 5%
04:00Thu 	 5c 	 3%
05:00Thu 	 5c 	 2%
06:00Thu 	 6c 	 3%
07:00Thu 	 6c 	 5%
08:00Thu 	 7c 	 9%
09:00Thu 	 8c 	 12%
10:00Thu 	 9c 	 9%
11:00Thu 	 10c 	 6%
12:00Thu 	 11c 	 5%
13:00Thu 	 11c 	 5%
14:00Thu 	 11c 	 5%
15:00Thu 	 11c 	 4%
16:00Thu 	 11c 	 5%
17:00Thu 	 11c 	 5%
18:00Thu 	 10c 	 6%
19:00Thu 	 9c 	 6%
20:00Thu 	 9c 	 7%
21:00Thu 	 9c 	 9%
22:00Thu 	 9c 	 10%
23:00Thu 	 9c 	 11%


00:00Thu 	 5c 	 5%
01:00Thu 	 5c 	 5%
02:00Thu 	 5c 	 5%
03:00Thu 	 5c 	 5%
04:00Thu 	 5c 	 3%
05:00Thu 	 5c 	 2%
06:00Thu 	 6c 	 3%
07:00Thu 	 6c 	 5%
08:00Thu 	 7c 	 9%
09:00Thu 	 8c 	 12%
10:00Thu 	 9c 	 9%
11:00Thu 	 10c 	 6%
12:00Thu 	 11c 	 5%
13:00Thu 	 11c 	 5%
14:00Thu 	 11c 	 5%
15:00Thu 	 11c 	 4%
16:00Thu 	 11c 	 5%
17:00Thu 	 11c 	 5%
18:00Thu 	 10c 	 6%
19:00Thu 	 9c 	 6%
20:00Thu 	 9c 	 7%
21:00Thu 	 9c 	 9%
22:00Thu 	 9c 	 10%
23:00Thu 	 9c 	 11%


00:00Thu 	 5c 	 5%
01:00Thu 	 5c 	 5%
02:00Thu 	 5c 	 5%
03:00Thu 	 5c 	 5%
04:00Thu 	 5c 	 3%
05:00Thu 	 5c 	 2%
06:00Thu 	 6c 	 3%
07:00Thu 	 6c 	 5%
08:00Thu 	 7c 	 9%
09:00Thu 	 8c 	 12%
10:00Thu 	 9c 	 9%
11:00Thu 	 10c 	 6%
12:00Thu 	 11c 	 5%
13:00Thu 	 11c 	 5%
14:00Thu 	 11c 	 5%
15:00Thu 	 11c 	 4%
16:00Thu 	 11c 	 5%
17:00Thu 	 11c 	 5%
18:00Thu 	 10c 	 6%
19:00Thu 	 9c 	 6%
20:00Thu 	 9c 	 7%
21:00Thu 	 9c 	 9%
22:00Thu 	 9c 	 10%
23:00Thu 	 9c 	 11%


00:00Thu 	 5c 	 5%
01:00Thu 	 5c 	 5%
02:00Thu 	 5c 	 5%
03:00Thu 	 5c 	 5%
04:00Thu 	 5c 	 3%
05:00Thu 	 5c 	 2%
06:00Thu 	 6c 	 3%
07:00Thu 	 6c 	 5%
08:00Thu 	 7c 	 9%
09:00Thu 	 8c 	 12%
10:00Thu 	 9c 	 9%
11:00Thu 	 10c 	 6%
12:00Thu 	 11c 	 5%
13:00Thu 	 11c 	 5%
14:00Thu 	 11c 	 5%
15:00Thu 	 11c 	 4%
16:00Thu 	 11c 	 5%
17:00Thu 	 11c 	 5%
18:00Thu 	 10c 	 6%
19:00Thu 	 9c 	 6%
20:00Thu 	 9c 	 7%
21:00Thu 	 9c 	 9%
22:00Thu 	 9c 	 10%
23:00Thu 	 9c 	 11%


00:00Thu 	 5c 	 5%
01:00Thu 	 5c 	 5%
02:00Thu 	 5c 	 5%
03:00Thu 	 5c 	 5%
04:00Thu 	 5c 	 3%
05:00Thu 	 5c 	 2%
06:00Thu 	 5c 	 3%
07:00Thu 	 6c 	 5%
08:00Thu 	 7c 	 9%
09:00Thu 	 8c 	 12%
10:00Thu 	 9c 	 9%
11:00Thu 	 10c 	 6%
12:00Thu 	 11c 	 5%
13:00Thu 	 11c 	 5%
14:00Thu 	 11c 	 5%
15:00Thu 	 11c 	 4%
16:00Thu 	 11c 	 5%
17:00Thu 	 11c 	 5%
18:00Thu 	 10c 	 6%
19:00Thu 	 9c 	 5%
20:00Thu 	 9c 	 6%
21:00Thu 	 8c 	 8%
22:00Thu 	 8c 	 11%
23:00Thu 	 8c 	 15%


00:00Thu 	 5c 	 5%
01:00Thu 	 5c 	 5%
02:00Thu 	 5c 	 5%
03:00Thu 	 5c 	 5%
04:00Thu 	 5c 	 3%
05:00Thu 	 5c 	 2%
06:00Thu 	 5c 	 3%
07:00Thu 	 6c 	 5%
08:00Thu 	 7c 	 9%
09:00Thu 	 8c 	 12%
10:00Thu 	 9c 	 9%
11:00Thu 	 10c 	 6%
12:00Thu 	 11c 	 5%
13:00Thu 	 11c 	 5%
14:00Thu 	 11c 	 5%
15:00Thu 	 11c 	 4%
16:00Thu 	 11c 	 5%
17:00Thu 	 11c 	 5%
18:00Thu 	 10c 	 6%
19:00Thu 	 9c 	 5%
20:00Thu 	 9c 	 6%
21:00Thu 	 8c 	 8%
22:00Thu 	 8c 	 11%
23:00Thu 	 8c 	 15%


00:00Thu 	 5c 	 5%
01:00Thu 	 5c 	 5%
02:00Thu 	 5c 	 5%
03:00Thu 	 5c 	 5%
04:00Thu 	 5c 	 3%
05:00Thu 	 5c 	 2%
06:00Thu 	 5c 	 3%
07:00Thu 	 6c 	 5%
08:00Thu 	 7c 	 9%
09:00Thu 	 8c 	 12%
10:00Thu 	 9c 	 9%
11:00Thu 	 10c 	 6%
12:00Thu 	 11c 	 5%
13:00Thu 	 11c 	 5%
14:00Thu 	 11c 	 5%
15:00Thu 	 11c 	 4%
16:00Thu 	 11c 	 5%
17:00Thu 	 11c 	 5%
18:00Thu 	 10c 	 6%
19:00Thu 	 9c 	 5%
20:00Thu 	 9c 	 6%
21:00Thu 	 8c 	 8%
22:00Thu 	 8c 	 11%
23:00Thu 	 8c 	 15%


00:00Thu 	 5c 	 5%
01:00Thu 	 5c 	 5%
02:00Thu 	 5c 	 5%
03:00Thu 	 5c 	 5%
04:00Thu 	 5c 	 3%
05:00Thu 	 5c 	 2%
06:00Thu 	 5c 	 3%
07:00Thu 	 6c 	 5%
08:00Thu 	 7c 	 9%
09:00Thu 	 8c 	 12%
10:00Thu 	 9c 	 9%
11:00Thu 	 10c 	 6%
12:00Thu 	 11c 	 5%
13:00Thu 	 11c 	 5%
14:00Thu 	 11c 	 5%
15:00Thu 	 11c 	 4%
16:00Thu 	 11c 	 5%
17:00Thu 	 11c 	 5%
18:00Thu 	 10c 	 6%
19:00Thu 	 9c 	 5%
20:00Thu 	 9c 	 6%
21:00Thu 	 8c 	 8%
22:00Thu 	 8c 	 11%
23:00Thu 	 8c 	 15%


00:00Thu 	 5c 	 5%
01:00Thu 	 5c 	 5%
02:00Thu 	 5c 	 5%
03:00Thu 	 5c 	 5%
04:00Thu 	 5c 	 3%
05:00Thu 	 5c 	 2%
06:00Thu 	 5c 	 3%
07:00Thu 	 6c 	 5%
08:00Thu 	 7c 	 9%
09:00Thu 	 8c 	 12%
10:00Thu 	 9c 	 9%
11:00Thu 	 10c 	 6%
12:00Thu 	 11c 	 5%
13:00Thu 	 11c 	 5%
14:00Thu 	 11c 	 5%
15:00Thu 	 11c 	 4%
16:00Thu 	 11c 	 5%
17:00Thu 	 11c 	 5%
18:00Thu 	 10c 	 6%
19:00Thu 	 9c 	 5%
20:00Thu 	 9c 	 6%
21:00Thu 	 8c 	 8%
22:00Thu 	 8c 	 11%
23:00Thu 	 8c 	 15%


00:00Thu 	 5c 	 5%
01:00Thu 	 5c 	 5%
02:00Thu 	 5c 	 5%
03:00Thu 	 5c 	 5%
04:00Thu 	 5c 	 3%
05:00Thu 	 5c 	 2%
06:00Thu 	 5c 	 3%
07:00Thu 	 6c 	 5%
08:00Thu 	 7c 	 9%
09:00Thu 	 8c 	 12%
10:00Thu 	 9c 	 9%
11:00Thu 	 10c 	 6%
12:00Thu 	 11c 	 5%
13:00Thu 	 11c 	 5%
14:00Thu 	 11c 	 5%
15:00Thu 	 11c 	 4%
16:00Thu 	 11c 	 5%
17:00Thu 	 11c 	 5%
18:00Thu 	 10c 	 6%
19:00Thu 	 9c 	 5%
20:00Thu 	 9c 	 6%
21:00Thu 	 8c 	 8%
22:00Thu 	 8c 	 11%
23:00Thu 	 8c 	 15%


00:00Thu 	 5c 	 5%
01:00Thu 	 5c 	 5%
02:00Thu 	 5c 	 5%
03:00Thu 	 5c 	 5%
04:00Thu 	 5c 	 3%
05:00Thu 	 5c 	 2%
06:00Thu 	 5c 	 3%
07:00Thu 	 6c 	 5%
08:00Thu 	 7c 	 9%
09:00Thu 	 8c 	 12%
10:00Thu 	 9c 	 9%
11:00Thu 	 10c 	 6%
12:00Thu 	 11c 	 5%
13:00Thu 	 11c 	 5%
14:00Thu 	 11c 	 5%
15:00Thu 	 11c 	 4%
16:00Thu 	 11c 	 5%
17:00Thu 	 11c 	 5%
18:00Thu 	 10c 	 6%
19:00Thu 	 9c 	 5%
20:00Thu 	 9c 	 6%
21:00Thu 	 8c 	 8%
22:00Thu 	 8c 	 11%
23:00Thu 	 8c 	 15%


00:00Thu 	 5c 	 5%
01:00Thu 	 5c 	 5%
02:00Thu 	 5c 	 5%
03:00Thu 	 5c 	 5%
04:00Thu 	 5c 	 3%
05:00Thu 	 5c 	 2%
06:00Thu 	 5c 	 3%
07:00Thu 	 6c 	 5%
08:00Thu 	 7c 	 9%
09:00Thu 	 8c 	 12%
10:00Thu 	 9c 	 9%
11:00Thu 	 10c 	 6%
12:00Thu 	 11c 	 5%
13:00Thu 	 11c 	 5%
14:00Thu 	 11c 	 5%
15:00Thu 	 11c 	 4%
16:00Thu 	 11c 	 5%
17:00Thu 	 11c 	 5%
18:00Thu 	 10c 	 6%
19:00Thu 	 9c 	 5%
20:00Thu 	 9c 	 6%
21:00Thu 	 8c 	 8%
22:00Thu 	 8c 	 11%
23:00Thu 	 8c 	 15%


00:00Thu 	 5c 	 5%
01:00Thu 	 5c 	 5%
02:00Thu 	 5c 	 5%
03:00Thu 	 5c 	 5%
04:00Thu 	 5c 	 3%
05:00Thu 	 5c 	 2%
06:00Thu 	 5c 	 3%
07:00Thu 	 6c 	 5%
08:00Thu 	 7c 	 9%
09:00Thu 	 8c 	 12%
10:00Thu 	 9c 	 9%
11:00Thu 	 10c 	 6%
12:00Thu 	 11c 	 5%
13:00Thu 	 11c 	 5%
14:00Thu 	 11c 	 5%
15:00Thu 	 11c 	 4%
16:00Thu 	 11c 	 5%
17:00Thu 	 11c 	 5%
18:00Thu 	 10c 	 6%
19:00Thu 	 9c 	 6%
20:00Thu 	 9c 	 6%
21:00Thu 	 8c 	 8%
22:00Thu 	 8c 	 11%
23:00Thu 	 8c 	 14%


00:00Thu 	 5c 	 5%
01:00Thu 	 5c 	 5%
02:00Thu 	 5c 	 5%
03:00Thu 	 5c 	 5%
04:00Thu 	 5c 	 3%
05:00Thu 	 5c 	 2%
06:00Thu 	 5c 	 3%
07:00Thu 	 6c 	 5%
08:00Thu 	 7c 	 9%
09:00Thu 	 8c 	 12%
10:00Thu 	 9c 	 9%
11:00Thu 	 10c 	 6%
12:00Thu 	 11c 	 5%
13:00Thu 	 11c 	 5%
14:00Thu 	 11c 	 5%
15:00Thu 	 11c 	 4%
16:00Thu 	 11c 	 5%
17:00Thu 	 11c 	 5%
18:00Thu 	 10c 	 6%
19:00Thu 	 9c 	 6%
20:00Thu 	 9c 	 6%
21:00Thu 	 8c 	 8%
22:00Thu 	 8c 	 11%
23:00Thu 	 8c 	 14%


00:00Thu 	 5c 	 5%
01:00Thu 	 5c 	 5%
02:00Thu 	 5c 	 5%
03:00Thu 	 5c 	 5%
04:00Thu 	 5c 	 3%
05:00Thu 	 5c 	 2%
06:00Thu 	 5c 	 3%
07:00Thu 	 6c 	 5%
08:00Thu 	 7c 	 9%
09:00Thu 	 8c 	 12%
10:00Thu 	 9c 	 9%
11:00Thu 	 10c 	 6%
12:00Thu 	 11c 	 5%
13:00Thu 	 11c 	 5%
14:00Thu 	 11c 	 5%
15:00Thu 	 11c 	 4%
16:00Thu 	 11c 	 5%
17:00Thu 	 11c 	 5%
18:00Thu 	 10c 	 6%
19:00Thu 	 9c 	 6%
20:00Thu 	 9c 	 6%
21:00Thu 	 8c 	 8%
22:00Thu 	 8c 	 11%
23:00Thu 	 8c 	 14%


00:00Thu 	 5c 	 5%
01:00Thu 	 5c 	 5%
02:00Thu 	 5c 	 5%
03:00Thu 	 5c 	 5%
04:00Thu 	 5c 	 3%
05:00Thu 	 5c 	 2%
06:00Thu 	 5c 	 3%
07:00Thu 	 6c 	 5%
08:00Thu 	 7c 	 9%
09:00Thu 	 8c 	 12%
10:00Thu 	 9c 	 9%
11:00Thu 	 10c 	 6%
12:00Thu 	 11c 	 5%
13:00Thu 	 11c 	 5%
14:00Thu 	 11c 	 5%
15:00Thu 	 11c 	 4%
16:00Thu 	 11c 	 5%
17:00Thu 	 11c 	 5%
18:00Thu 	 10c 	 6%
19:00Thu 	 9c 	 6%
20:00Thu 	 9c 	 6%
21:00Thu 	 8c 	 8%
22:00Thu 	 8c 	 11%
23:00Thu 	 8c 	 14%


00:00Thu 	 5c 	 5%
01:00Thu 	 5c 	 5%
02:00Thu 	 5c 	 5%
03:00Thu 	 5c 	 5%
04:00Thu 	 5c 	 3%
05:00Thu 	 5c 	 2%
06:00Thu 	 5c 	 3%
07:00Thu 	 6c 	 5%
08:00Thu 	 7c 	 9%
09:00Thu 	 8c 	 12%
10:00Thu 	 9c 	 9%
11:00Thu 	 10c 	 6%
12:00Thu 	 11c 	 5%
13:00Thu 	 11c 	 5%
14:00Thu 	 11c 	 5%
15:00Thu 	 11c 	 4%
16:00Thu 	 11c 	 5%
17:00Thu 	 11c 	 5%
18:00Thu 	 10c 	 6%
19:00Thu 	 9c 	 6%
20:00Thu 	 9c 	 6%
21:00Thu 	 8c 	 8%
22:00Thu 	 8c 	 11%
23:00Thu 	 8c 	 14%


00:00Thu 	 5c 	 5%
01:00Thu 	 5c 	 5%
02:00Thu 	 5c 	 5%
03:00Thu 	 5c 	 5%
04:00Thu 	 5c 	 3%
05:00Thu 	 5c 	 2%
06:00Thu 	 5c 	 3%
07:00Thu 	 6c 	 5%
08:00Thu 	 7c 	 9%
09:00Thu 	 8c 	 12%
10:00Thu 	 9c 	 9%
11:00Thu 	 10c 	 6%
12:00Thu 	 11c 	 5%
13:00Thu 	 11c 	 5%
14:00Thu 	 11c 	 5%
15:00Thu 	 11c 	 4%
16:00Thu 	 11c 	 5%
17:00Thu 	 11c 	 5%
18:00Thu 	 10c 	 6%
19:00Thu 	 9c 	 6%
20:00Thu 	 9c 	 6%
21:00Thu 	 8c 	 8%
22:00Thu 	 8c 	 11%
23:00Thu 	 8c 	 14%


00:00Thu 	 5c 	 5%
01:00Thu 	 5c 	 5%
02:00Thu 	 5c 	 5%
03:00Thu 	 5c 	 5%
04:00Thu 	 5c 	 3%
05:00Thu 	 5c 	 2%
06:00Thu 	 5c 	 3%
07:00Thu 	 6c 	 5%
08:00Thu 	 7c 	 9%
09:00Thu 	 8c 	 12%
10:00Thu 	 9c 	 9%
11:00Thu 	 10c 	 6%
12:00Thu 	 11c 	 5%
13:00Thu 	 11c 	 5%
14:00Thu 	 11c 	 5%
15:00Thu 	 11c 	 4%
16:00Thu 	 11c 	 5%
17:00Thu 	 11c 	 5%
18:00Thu 	 10c 	 6%
19:00Thu 	 9c 	 6%
20:00Thu 	 9c 	 6%
21:00Thu 	 8c 	 8%
22:00Thu 	 8c 	 11%
23:00Thu 	 8c 	 14%


00:00Thu 	 5c 	 5%
01:00Thu 	 5c 	 5%
02:00Thu 	 5c 	 5%
03:00Thu 	 5c 	 5%
04:00Thu 	 5c 	 3%
05:00Thu 	 5c 	 2%
06:00Thu 	 5c 	 3%
07:00Thu 	 6c 	 5%
08:00Thu 	 7c 	 9%
09:00Thu 	 8c 	 12%
10:00Thu 	 9c 	 9%
11:00Thu 	 10c 	 6%
12:00Thu 	 11c 	 5%
13:00Thu 	 11c 	 5%
14:00Thu 	 11c 	 5%
15:00Thu 	 11c 	 4%
16:00Thu 	 11c 	 5%
17:00Thu 	 11c 	 5%
18:00Thu 	 10c 	 6%
19:00Thu 	 9c 	 6%
20:00Thu 	 9c 	 6%
21:00Thu 	 8c 	 8%
22:00Thu 	 8c 	 11%
23:00Thu 	 8c 	 14%


00:00Thu 	 5c 	 5%
01:00Thu 	 5c 	 5%
02:00Thu 	 5c 	 5%
03:00Thu 	 5c 	 5%
04:00Thu 	 5c 	 3%
05:00Thu 	 5c 	 2%
06:00Thu 	 5c 	 3%
07:00Thu 	 6c 	 5%
08:00Thu 	 7c 	 9%
09:00Thu 	 8c 	 12%
10:00Thu 	 9c 	 9%
11:00Thu 	 10c 	 6%
12:00Thu 	 11c 	 5%
13:00Thu 	 11c 	 5%
14:00Thu 	 11c 	 5%
15:00Thu 	 11c 	 4%
16:00Thu 	 11c 	 5%
17:00Thu 	 11c 	 5%
18:00Thu 	 10c 	 6%
19:00Thu 	 9c 	 6%
20:00Thu 	 9c 	 6%
21:00Thu 	 8c 	 8%
22:00Thu 	 8c 	 11%
23:00Thu 	 8c 	 14%


00:00Thu 	 5c 	 5%
01:00Thu 	 5c 	 5%
02:00Thu 	 5c 	 5%
03:00Thu 	 5c 	 5%
04:00Thu 	 5c 	 3%
05:00Thu 	 5c 	 2%
06:00Thu 	 5c 	 3%
07:00Thu 	 6c 	 5%
08:00Thu 	 7c 	 9%
09:00Thu 	 8c 	 12%
10:00Thu 	 9c 	 9%
11:00Thu 	 10c 	 6%
12:00Thu 	 11c 	 5%
13:00Thu 	 11c 	 5%
14:00Thu 	 11c 	 5%
15:00Thu 	 11c 	 4%
16:00Thu 	 11c 	 5%
17:00Thu 	 11c 	 5%
18:00Thu 	 10c 	 6%
19:00Thu 	 9c 	 6%
20:00Thu 	 9c 	 6%
21:00Thu 	 8c 	 8%
22:00Thu 	 8c 	 11%
23:00Thu 	 8c 	 14%


00:00Thu 	 5c 	 5%
01:00Thu 	 5c 	 5%
02:00Thu 	 5c 	 5%
03:00Thu 	 5c 	 5%
04:00Thu 	 5c 	 3%
05:00Thu 	 5c 	 2%
06:00Thu 	 5c 	 3%
07:00Thu 	 6c 	 5%
08:00Thu 	 7c 	 9%
09:00Thu 	 8c 	 12%
10:00Thu 	 9c 	 9%
11:00Thu 	 10c 	 6%
12:00Thu 	 11c 	 5%
13:00Thu 	 11c 	 5%
14:00Thu 	 11c 	 5%
15:00Thu 	 11c 	 4%
16:00Thu 	 11c 	 5%
17:00Thu 	 11c 	 5%
18:00Thu 	 10c 	 6%
19:00Thu 	 9c 	 6%
20:00Thu 	 9c 	 6%
21:00Thu 	 8c 	 8%
22:00Thu 	 8c 	 11%
23:00Thu 	 8c 	 14%


00:00Thu 	 5c 	 5%
01:00Thu 	 5c 	 5%
02:00Thu 	 5c 	 5%
03:00Thu 	 5c 	 5%
04:00Thu 	 5c 	 3%
05:00Thu 	 5c 	 2%
06:00Thu 	 5c 	 3%
07:00Thu 	 6c 	 5%
08:00Thu 	 7c 	 9%
09:00Thu 	 8c 	 12%
10:00Thu 	 9c 	 9%
11:00Thu 	 10c 	 6%
12:00Thu 	 11c 	 5%
13:00Thu 	 11c 	 5%
14:00Thu 	 11c 	 5%
15:00Thu 	 11c 	 4%
16:00Thu 	 11c 	 5%
17:00Thu 	 11c 	 5%
18:00Thu 	 10c 	 6%
19:00Thu 	 9c 	 6%
20:00Thu 	 9c 	 6%
21:00Thu 	 8c 	 8%
22:00Thu 	 8c 	 11%
23:00Thu 	 8c 	 14%


00:00Thu 	 5c 	 5%
01:00Thu 	 5c 	 5%
02:00Thu 	 5c 	 5%
03:00Thu 	 5c 	 5%
04:00Thu 	 5c 	 3%
05:00Thu 	 5c 	 2%
06:00Thu 	 5c 	 3%
07:00Thu 	 6c 	 5%
08:00Thu 	 7c 	 9%
09:00Thu 	 8c 	 12%
10:00Thu 	 9c 	 9%
11:00Thu 	 10c 	 6%
12:00Thu 	 11c 	 5%
13:00Thu 	 11c 	 5%
14:00Thu 	 11c 	 5%
15:00Thu 	 11c 	 4%
16:00Thu 	 11c 	 5%
17:00Thu 	 11c 	 5%
18:00Thu 	 10c 	 6%
19:00Thu 	 9c 	 6%
20:00Thu 	 9c 	 6%
21:00Thu 	 8c 	 8%
22:00Thu 	 8c 	 11%
23:00Thu 	 8c 	 14%


00:00Thu 	 5c 	 5%
01:00Thu 	 5c 	 5%
02:00Thu 	 5c 	 5%
03:00Thu 	 5c 	 5%
04:00Thu 	 5c 	 3%
05:00Thu 	 5c 	 2%
06:00Thu 	 5c 	 3%
07:00Thu 	 6c 	 5%
08:00Thu 	 7c 	 9%
09:00Thu 	 8c 	 12%
10:00Thu 	 9c 	 9%
11:00Thu 	 10c 	 6%
12:00Thu 	 11c 	 5%
13:00Thu 	 11c 	 5%
14:00Thu 	 11c 	 5%
15:00Thu 	 11c 	 4%
16:00Thu 	 11c 	 5%
17:00Thu 	 11c 	 5%
18:00Thu 	 10c 	 6%
19:00Thu 	 9c 	 6%
20:00Thu 	 9c 	 6%
21:00Thu 	 8c 	 8%
22:00Thu 	 8c 	 11%
23:00Thu 	 8c 	 14%


00:00Thu 	 5c 	 5%
01:00Thu 	 5c 	 5%
02:00Thu 	 5c 	 5%
03:00Thu 	 5c 	 5%
04:00Thu 	 5c 	 3%
05:00Thu 	 5c 	 2%
06:00Thu 	 5c 	 3%
07:00Thu 	 6c 	 5%
08:00Thu 	 7c 	 9%
09:00Thu 	 8c 	 12%
10:00Thu 	 9c 	 9%
11:00Thu 	 10c 	 6%
12:00Thu 	 11c 	 5%
13:00Thu 	 11c 	 5%
14:00Thu 	 11c 	 5%
15:00Thu 	 11c 	 4%
16:00Thu 	 11c 	 5%
17:00Thu 	 11c 	 5%
18:00Thu 	 10c 	 6%
19:00Thu 	 9c 	 6%
20:00Thu 	 9c 	 6%
21:00Thu 	 8c 	 8%
22:00Thu 	 8c 	 11%
23:00Thu 	 8c 	 14%


00:00Thu 	 5c 	 5%
01:00Thu 	 5c 	 5%
02:00Thu 	 5c 	 5%
03:00Thu 	 5c 	 5%
04:00Thu 	 5c 	 3%
05:00Thu 	 5c 	 2%
06:00Thu 	 5c 	 3%
07:00Thu 	 6c 	 5%
08:00Thu 	 7c 	 9%
09:00Thu 	 8c 	 12%
10:00Thu 	 9c 	 9%
11:00Thu 	 10c 	 6%
12:00Thu 	 11c 	 5%
13:00Thu 	 11c 	 5%
14:00Thu 	 11c 	 5%
15:00Thu 	 11c 	 4%
16:00Thu 	 11c 	 5%
17:00Thu 	 11c 	 5%
18:00Thu 	 10c 	 6%
19:00Thu 	 9c 	 6%
20:00Thu 	 9c 	 6%
21:00Thu 	 8c 	 8%
22:00Thu 	 8c 	 11%
23:00Thu 	 8c 	 14%


00:00Thu 	 5c 	 5%
01:00Thu 	 5c 	 5%
02:00Thu 	 5c 	 5%
03:00Thu 	 5c 	 5%
04:00Thu 	 5c 	 3%
05:00Thu 	 5c 	 2%
06:00Thu 	 5c 	 3%
07:00Thu 	 6c 	 5%
08:00Thu 	 7c 	 9%
09:00Thu 	 8c 	 12%
10:00Thu 	 9c 	 9%
11:00Thu 	 10c 	 6%
12:00Thu 	 11c 	 5%
13:00Thu 	 11c 	 5%
14:00Thu 	 11c 	 5%
15:00Thu 	 11c 	 4%
16:00Thu 	 11c 	 5%
17:00Thu 	 11c 	 5%
18:00Thu 	 10c 	 6%
19:00Thu 	 9c 	 6%
20:00Thu 	 9c 	 6%
21:00Thu 	 8c 	 8%
22:00Thu 	 8c 	 11%
23:00Thu 	 8c 	 14%


00:00Thu 	 5c 	 5%
01:00Thu 	 5c 	 5%
02:00Thu 	 5c 	 5%
03:00Thu 	 5c 	 5%
04:00Thu 	 5c 	 3%
05:00Thu 	 5c 	 2%
06:00Thu 	 5c 	 3%
07:00Thu 	 6c 	 5%
08:00Thu 	 7c 	 9%
09:00Thu 	 8c 	 12%
10:00Thu 	 9c 	 9%
11:00Thu 	 10c 	 6%
12:00Thu 	 11c 	 5%
13:00Thu 	 11c 	 5%
14:00Thu 	 11c 	 5%
15:00Thu 	 11c 	 4%
16:00Thu 	 11c 	 5%
17:00Thu 	 11c 	 5%
18:00Thu 	 10c 	 6%
19:00Thu 	 9c 	 6%
20:00Thu 	 9c 	 6%
21:00Thu 	 8c 	 8%
22:00Thu 	 8c 	 11%
23:00Thu 	 8c 	 14%


00:00Thu 	 5c 	 5%
01:00Thu 	 5c 	 5%
02:00Thu 	 5c 	 5%
03:00Thu 	 5c 	 5%
04:00Thu 	 5c 	 3%
05:00Thu 	 5c 	 2%
06:00Thu 	 5c 	 3%
07:00Thu 	 6c 	 5%
08:00Thu 	 7c 	 9%
09:00Thu 	 8c 	 12%
10:00Thu 	 9c 	 9%
11:00Thu 	 10c 	 6%
12:00Thu 	 11c 	 5%
13:00Thu 	 11c 	 5%
14:00Thu 	 11c 	 5%
15:00Thu 	 11c 	 4%
16:00Thu 	 11c 	 5%
17:00Thu 	 11c 	 5%
18:00Thu 	 10c 	 6%
19:00Thu 	 9c 	 6%
20:00Thu 	 9c 	 6%
21:00Thu 	 8c 	 8%
22:00Thu 	 8c 	 11%
23:00Thu 	 8c 	 14%


00:00Thu 	 5c 	 5%
01:00Thu 	 5c 	 5%
02:00Thu 	 5c 	 5%
03:00Thu 	 5c 	 5%
04:00Thu 	 5c 	 3%
05:00Thu 	 5c 	 2%
06:00Thu 	 5c 	 3%
07:00Thu 	 6c 	 5%
08:00Thu 	 7c 	 9%
09:00Thu 	 8c 	 12%
10:00Thu 	 9c 	 9%
11:00Thu 	 10c 	 6%
12:00Thu 	 11c 	 5%
13:00Thu 	 11c 	 5%
14:00Thu 	 11c 	 5%
15:00Thu 	 11c 	 4%
16:00Thu 	 11c 	 5%
17:00Thu 	 11c 	 5%
18:00Thu 	 10c 	 6%
19:00Thu 	 9c 	 6%
20:00Thu 	 9c 	 6%
21:00Thu 	 8c 	 8%
22:00Thu 	 8c 	 11%
23:00Thu 	 8c 	 14%


00:00Thu 	 5c 	 5%
01:00Thu 	 5c 	 5%
02:00Thu 	 5c 	 5%
03:00Thu 	 5c 	 5%
04:00Thu 	 5c 	 3%
05:00Thu 	 5c 	 2%
06:00Thu 	 5c 	 3%
07:00Thu 	 6c 	 5%
08:00Thu 	 7c 	 9%
09:00Thu 	 8c 	 12%
10:00Thu 	 9c 	 9%
11:00Thu 	 10c 	 6%
12:00Thu 	 11c 	 5%
13:00Thu 	 11c 	 5%
14:00Thu 	 11c 	 5%
15:00Thu 	 11c 	 4%
16:00Thu 	 11c 	 5%
17:00Thu 	 11c 	 5%
18:00Thu 	 10c 	 6%
19:00Thu 	 9c 	 6%
20:00Thu 	 9c 	 6%
21:00Thu 	 8c 	 8%
22:00Thu 	 8c 	 11%
23:00Thu 	 8c 	 14%


00:00Thu 	 5c 	 5%
01:00Thu 	 5c 	 5%
02:00Thu 	 5c 	 5%
03:00Thu 	 5c 	 5%
04:00Thu 	 5c 	 3%
05:00Thu 	 5c 	 2%
06:00Thu 	 5c 	 3%
07:00Thu 	 6c 	 5%
08:00Thu 	 7c 	 9%
09:00Thu 	 8c 	 12%
10:00Thu 	 9c 	 9%
11:00Thu 	 10c 	 6%
12:00Thu 	 11c 	 5%
13:00Thu 	 11c 	 5%
14:00Thu 	 11c 	 5%
15:00Thu 	 11c 	 4%
16:00Thu 	 11c 	 5%
17:00Thu 	 11c 	 5%
18:00Thu 	 10c 	 6%
19:00Thu 	 9c 	 6%
20:00Thu 	 9c 	 6%
21:00Thu 	 8c 	 8%
22:00Thu 	 8c 	 11%
23:00Thu 	 8c 	 14%


00:00Thu 	 5c 	 5%
01:00Thu 	 5c 	 5%
02:00Thu 	 5c 	 5%
03:00Thu 	 5c 	 5%
04:00Thu 	 5c 	 3%
05:00Thu 	 5c 	 2%
06:00Thu 	 5c 	 3%
07:00Thu 	 6c 	 5%
08:00Thu 	 7c 	 9%
09:00Thu 	 8c 	 12%
10:00Thu 	 9c 	 9%
11:00Thu 	 10c 	 6%
12:00Thu 	 11c 	 5%
13:00Thu 	 11c 	 5%
14:00Thu 	 11c 	 5%
15:00Thu 	 11c 	 4%
16:00Thu 	 11c 	 5%
17:00Thu 	 11c 	 5%
18:00Thu 	 10c 	 6%
19:00Thu 	 9c 	 6%
20:00Thu 	 9c 	 6%
21:00Thu 	 8c 	 8%
22:00Thu 	 8c 	 11%
23:00Thu 	 8c 	 14%


00:00Thu 	 5c 	 5%
01:00Thu 	 5c 	 5%
02:00Thu 	 5c 	 5%
03:00Thu 	 5c 	 5%
04:00Thu 	 5c 	 3%
05:00Thu 	 5c 	 2%
06:00Thu 	 5c 	 3%
07:00Thu 	 6c 	 5%
08:00Thu 	 7c 	 9%
09:00Thu 	 8c 	 12%
10:00Thu 	 9c 	 9%
11:00Thu 	 10c 	 6%
12:00Thu 	 11c 	 5%
13:00Thu 	 11c 	 5%
14:00Thu 	 11c 	 5%
15:00Thu 	 11c 	 4%
16:00Thu 	 11c 	 5%
17:00Thu 	 11c 	 5%
18:00Thu 	 10c 	 6%
19:00Thu 	 9c 	 6%
20:00Thu 	 9c 	 6%
21:00Thu 	 8c 	 8%
22:00Thu 	 8c 	 11%
23:00Thu 	 8c 	 14%


00:00Thu 	 5c 	 5%
01:00Thu 	 5c 	 5%
02:00Thu 	 5c 	 5%
03:00Thu 	 5c 	 5%
04:00Thu 	 5c 	 3%
05:00Thu 	 5c 	 2%
06:00Thu 	 5c 	 3%
07:00Thu 	 6c 	 5%
08:00Thu 	 7c 	 9%
09:00Thu 	 8c 	 12%
10:00Thu 	 9c 	 9%
11:00Thu 	 10c 	 6%
12:00Thu 	 11c 	 5%
13:00Thu 	 11c 	 5%
14:00Thu 	 11c 	 5%
15:00Thu 	 11c 	 4%
16:00Thu 	 11c 	 5%
17:00Thu 	 11c 	 5%
18:00Thu 	 10c 	 6%
19:00Thu 	 9c 	 6%
20:00Thu 	 9c 	 6%
21:00Thu 	 8c 	 8%
22:00Thu 	 8c 	 11%
23:00Thu 	 8c 	 14%


00:00Thu 	 5c 	 5%
01:00Thu 	 5c 	 5%
02:00Thu 	 5c 	 5%
03:00Thu 	 5c 	 5%
04:00Thu 	 5c 	 3%
05:00Thu 	 5c 	 2%
06:00Thu 	 5c 	 3%
07:00Thu 	 6c 	 5%
08:00Thu 	 7c 	 9%
09:00Thu 	 8c 	 12%
10:00Thu 	 9c 	 9%
11:00Thu 	 10c 	 6%
12:00Thu 	 11c 	 5%
13:00Thu 	 11c 	 5%
14:00Thu 	 11c 	 5%
15:00Thu 	 11c 	 4%
16:00Thu 	 11c 	 5%
17:00Thu 	 11c 	 5%
18:00Thu 	 10c 	 6%
19:00Thu 	 9c 	 6%
20:00Thu 	 9c 	 6%
21:00Thu 	 8c 	 8%
22:00Thu 	 8c 	 11%
23:00Thu 	 8c 	 14%


00:00Thu 	 5c 	 5%
01:00Thu 	 5c 	 5%
02:00Thu 	 5c 	 5%
03:00Thu 	 5c 	 5%
04:00Thu 	 5c 	 3%
05:00Thu 	 5c 	 2%
06:00Thu 	 5c 	 3%
07:00Thu 	 6c 	 5%
08:00Thu 	 7c 	 9%
09:00Thu 	 8c 	 12%
10:00Thu 	 9c 	 9%
11:00Thu 	 10c 	 6%
12:00Thu 	 11c 	 5%
13:00Thu 	 11c 	 5%
14:00Thu 	 11c 	 5%
15:00Thu 	 11c 	 4%
16:00Thu 	 11c 	 5%
17:00Thu 	 11c 	 5%
18:00Thu 	 10c 	 6%
19:00Thu 	 9c 	 6%
20:00Thu 	 9c 	 6%
21:00Thu 	 8c 	 8%
22:00Thu 	 8c 	 11%
23:00Thu 	 8c 	 14%


00:00Thu 	 5c 	 5%
01:00Thu 	 5c 	 5%
02:00Thu 	 5c 	 5%
03:00Thu 	 5c 	 5%
04:00Thu 	 5c 	 3%
05:00Thu 	 5c 	 2%
06:00Thu 	 5c 	 3%
07:00Thu 	 6c 	 5%
08:00Thu 	 7c 	 9%
09:00Thu 	 8c 	 12%
10:00Thu 	 9c 	 9%
11:00Thu 	 10c 	 6%
12:00Thu 	 11c 	 5%
13:00Thu 	 11c 	 5%
14:00Thu 	 11c 	 5%
15:00Thu 	 11c 	 4%
16:00Thu 	 11c 	 5%
17:00Thu 	 11c 	 5%
18:00Thu 	 10c 	 6%
19:00Thu 	 9c 	 6%
20:00Thu 	 9c 	 6%
21:00Thu 	 8c 	 8%
22:00Thu 	 8c 	 11%
23:00Thu 	 8c 	 14%


00:00Thu 	 5c 	 5%
01:00Thu 	 5c 	 5%
02:00Thu 	 5c 	 5%
03:00Thu 	 5c 	 5%
04:00Thu 	 5c 	 3%
05:00Thu 	 5c 	 2%
06:00Thu 	 5c 	 3%
07:00Thu 	 6c 	 5%
08:00Thu 	 7c 	 9%
09:00Thu 	 8c 	 12%
10:00Thu 	 9c 	 9%
11:00Thu 	 10c 	 6%
12:00Thu 	 11c 	 5%
13:00Thu 	 11c 	 5%
14:00Thu 	 11c 	 5%
15:00Thu 	 11c 	 4%
16:00Thu 	 11c 	 5%
17:00Thu 	 11c 	 5%
18:00Thu 	 10c 	 6%
19:00Thu 	 9c 	 6%
20:00Thu 	 9c 	 6%
21:00Thu 	 8c 	 8%
22:00Thu 	 8c 	 11%
23:00Thu 	 8c 	 14%


00:00Thu 	 5c 	 5%
01:00Thu 	 5c 	 5%
02:00Thu 	 5c 	 5%
03:00Thu 	 5c 	 5%
04:00Thu 	 5c 	 3%
05:00Thu 	 5c 	 2%
06:00Thu 	 5c 	 3%
07:00Thu 	 6c 	 5%
08:00Thu 	 7c 	 9%
09:00Thu 	 8c 	 12%
10:00Thu 	 9c 	 9%
11:00Thu 	 10c 	 6%
12:00Thu 	 11c 	 5%
13:00Thu 	 11c 	 5%
14:00Thu 	 11c 	 5%
15:00Thu 	 11c 	 4%
16:00Thu 	 11c 	 5%
17:00Thu 	 11c 	 5%
18:00Thu 	 10c 	 6%
19:00Thu 	 9c 	 6%
20:00Thu 	 9c 	 6%
21:00Thu 	 8c 	 8%
22:00Thu 	 8c 	 11%
23:00Thu 	 8c 	 14%


00:00Thu 	 5c 	 5%
01:00Thu 	 5c 	 5%
02:00Thu 	 5c 	 5%
03:00Thu 	 5c 	 5%
04:00Thu 	 5c 	 3%
05:00Thu 	 5c 	 2%
06:00Thu 	 5c 	 3%
07:00Thu 	 6c 	 5%
08:00Thu 	 7c 	 9%
09:00Thu 	 8c 	 12%
10:00Thu 	 9c 	 9%
11:00Thu 	 10c 	 6%
12:00Thu 	 11c 	 5%
13:00Thu 	 11c 	 5%
14:00Thu 	 11c 	 5%
15:00Thu 	 11c 	 4%
16:00Thu 	 11c 	 5%
17:00Thu 	 11c 	 5%
18:00Thu 	 10c 	 6%
19:00Thu 	 9c 	 6%
20:00Thu 	 9c 	 6%
21:00Thu 	 8c 	 8%
22:00Thu 	 8c 	 11%
23:00Thu 	 8c 	 14%


00:00Thu 	 5c 	 5%
01:00Thu 	 5c 	 5%
02:00Thu 	 5c 	 5%
03:00Thu 	 5c 	 5%
04:00Thu 	 5c 	 3%
05:00Thu 	 5c 	 2%
06:00Thu 	 5c 	 3%
07:00Thu 	 6c 	 5%
08:00Thu 	 7c 	 9%
09:00Thu 	 8c 	 12%
10:00Thu 	 9c 	 9%
11:00Thu 	 10c 	 6%
12:00Thu 	 11c 	 5%
13:00Thu 	 11c 	 5%
14:00Thu 	 11c 	 5%
15:00Thu 	 11c 	 4%
16:00Thu 	 11c 	 5%
17:00Thu 	 11c 	 5%
18:00Thu 	 10c 	 6%
19:00Thu 	 9c 	 6%
20:00Thu 	 9c 	 6%
21:00Thu 	 8c 	 8%
22:00Thu 	 8c 	 11%
23:00Thu 	 8c 	 14%


00:00Thu 	 5c 	 5%
01:00Thu 	 5c 	 5%
02:00Thu 	 5c 	 5%
03:00Thu 	 5c 	 5%
04:00Thu 	 5c 	 3%
05:00Thu 	 5c 	 2%
06:00Thu 	 5c 	 3%
07:00Thu 	 6c 	 5%
08:00Thu 	 7c 	 9%
09:00Thu 	 8c 	 12%
10:00Thu 	 9c 	 9%
11:00Thu 	 10c 	 6%
12:00Thu 	 11c 	 5%
13:00Thu 	 11c 	 5%
14:00Thu 	 11c 	 5%
15:00Thu 	 11c 	 4%
16:00Thu 	 11c 	 5%
17:00Thu 	 11c 	 5%
18:00Thu 	 10c 	 6%
19:00Thu 	 9c 	 6%
20:00Thu 	 9c 	 6%
21:00Thu 	 8c 	 8%
22:00Thu 	 8c 	 11%
23:00Thu 	 8c 	 14%


00:00Thu 	 5c 	 5%
01:00Thu 	 5c 	 5%
02:00Thu 	 5c 	 5%
03:00Thu 	 5c 	 5%
04:00Thu 	 5c 	 3%
05:00Thu 	 5c 	 2%
06:00Thu 	 5c 	 3%
07:00Thu 	 6c 	 5%
08:00Thu 	 7c 	 9%
09:00Thu 	 8c 	 12%
10:00Thu 	 9c 	 9%
11:00Thu 	 10c 	 6%
12:00Thu 	 11c 	 5%
13:00Thu 	 11c 	 5%
14:00Thu 	 11c 	 5%
15:00Thu 	 11c 	 4%
16:00Thu 	 11c 	 5%
17:00Thu 	 11c 	 5%
18:00Thu 	 10c 	 6%
19:00Thu 	 9c 	 6%
20:00Thu 	 9c 	 6%
21:00Thu 	 8c 	 8%
22:00Thu 	 8c 	 11%
23:00Thu 	 8c 	 14%


00:00Thu 	 5c 	 5%
01:00Thu 	 5c 	 5%
02:00Thu 	 5c 	 5%
03:00Thu 	 5c 	 5%
04:00Thu 	 5c 	 3%
05:00Thu 	 5c 	 2%
06:00Thu 	 5c 	 3%
07:00Thu 	 6c 	 5%
08:00Thu 	 7c 	 9%
09:00Thu 	 8c 	 12%
10:00Thu 	 9c 	 9%
11:00Thu 	 10c 	 6%
12:00Thu 	 11c 	 5%
13:00Thu 	 11c 	 5%
14:00Thu 	 11c 	 5%
15:00Thu 	 11c 	 4%
16:00Thu 	 11c 	 5%
17:00Thu 	 11c 	 5%
18:00Thu 	 10c 	 6%
19:00Thu 	 9c 	 6%
20:00Thu 	 9c 	 6%
21:00Thu 	 8c 	 8%
22:00Thu 	 8c 	 11%
23:00Thu 	 8c 	 14%


00:00Thu 	 5c 	 5%
01:00Thu 	 5c 	 5%
02:00Thu 	 5c 	 5%
03:00Thu 	 5c 	 5%
04:00Thu 	 5c 	 3%
05:00Thu 	 5c 	 2%
06:00Thu 	 5c 	 3%
07:00Thu 	 6c 	 5%
08:00Thu 	 7c 	 9%
09:00Thu 	 8c 	 12%
10:00Thu 	 9c 	 9%
11:00Thu 	 10c 	 6%
12:00Thu 	 11c 	 5%
13:00Thu 	 11c 	 5%
14:00Thu 	 11c 	 5%
15:00Thu 	 11c 	 4%
16:00Thu 	 11c 	 5%
17:00Thu 	 11c 	 5%
18:00Thu 	 10c 	 6%
19:00Thu 	 9c 	 6%
20:00Thu 	 9c 	 6%
21:00Thu 	 8c 	 8%
22:00Thu 	 8c 	 11%
23:00Thu 	 8c 	 14%


00:00Thu 	 5c 	 5%
01:00Thu 	 5c 	 5%
02:00Thu 	 5c 	 5%
03:00Thu 	 5c 	 5%
04:00Thu 	 5c 	 3%
05:00Thu 	 5c 	 2%
06:00Thu 	 5c 	 3%
07:00Thu 	 6c 	 5%
08:00Thu 	 7c 	 9%
09:00Thu 	 8c 	 12%
10:00Thu 	 9c 	 9%
11:00Thu 	 10c 	 6%
12:00Thu 	 11c 	 5%
13:00Thu 	 11c 	 5%
14:00Thu 	 11c 	 5%
15:00Thu 	 11c 	 4%
16:00Thu 	 11c 	 5%
17:00Thu 	 11c 	 5%
18:00Thu 	 10c 	 6%
19:00Thu 	 9c 	 6%
20:00Thu 	 9c 	 7%
21:00Thu 	 9c 	 10%
22:00Thu 	 8c 	 12%
23:00Thu 	 8c 	 14%


00:00Thu 	 5c 	 5%
01:00Thu 	 5c 	 5%
02:00Thu 	 5c 	 5%
03:00Thu 	 5c 	 5%
04:00Thu 	 5c 	 3%
05:00Thu 	 5c 	 2%
06:00Thu 	 5c 	 3%
07:00Thu 	 6c 	 5%
08:00Thu 	 7c 	 9%
09:00Thu 	 8c 	 12%
10:00Thu 	 9c 	 9%
11:00Thu 	 10c 	 6%
12:00Thu 	 11c 	 5%
13:00Thu 	 11c 	 5%
14:00Thu 	 11c 	 5%
15:00Thu 	 11c 	 4%
16:00Thu 	 11c 	 5%
17:00Thu 	 11c 	 5%
18:00Thu 	 10c 	 6%
19:00Thu 	 9c 	 6%
20:00Thu 	 9c 	 7%
21:00Thu 	 9c 	 10%
22:00Thu 	 8c 	 12%
23:00Thu 	 8c 	 14%


00:00Thu 	 5c 	 5%
01:00Thu 	 5c 	 5%
02:00Thu 	 5c 	 5%
03:00Thu 	 5c 	 5%
04:00Thu 	 5c 	 3%
05:00Thu 	 5c 	 2%
06:00Thu 	 5c 	 3%
07:00Thu 	 6c 	 5%
08:00Thu 	 7c 	 9%
09:00Thu 	 8c 	 12%
10:00Thu 	 9c 	 9%
11:00Thu 	 10c 	 6%
12:00Thu 	 11c 	 5%
13:00Thu 	 11c 	 5%
14:00Thu 	 11c 	 5%
15:00Thu 	 11c 	 4%
16:00Thu 	 11c 	 5%
17:00Thu 	 11c 	 5%
18:00Thu 	 10c 	 6%
19:00Thu 	 9c 	 6%
20:00Thu 	 9c 	 7%
21:00Thu 	 9c 	 10%
22:00Thu 	 8c 	 12%
23:00Thu 	 8c 	 14%


00:00Thu 	 5c 	 5%
01:00Thu 	 5c 	 5%
02:00Thu 	 5c 	 5%
03:00Thu 	 5c 	 5%
04:00Thu 	 5c 	 3%
05:00Thu 	 5c 	 2%
06:00Thu 	 5c 	 3%
07:00Thu 	 6c 	 5%
08:00Thu 	 7c 	 9%
09:00Thu 	 8c 	 12%
10:00Thu 	 9c 	 9%
11:00Thu 	 10c 	 6%
12:00Thu 	 11c 	 5%
13:00Thu 	 11c 	 5%
14:00Thu 	 11c 	 5%
15:00Thu 	 11c 	 4%
16:00Thu 	 11c 	 5%
17:00Thu 	 11c 	 5%
18:00Thu 	 10c 	 6%
19:00Thu 	 9c 	 6%
20:00Thu 	 9c 	 7%
21:00Thu 	 9c 	 10%
22:00Thu 	 8c 	 12%
23:00Thu 	 8c 	 14%


00:00Thu 	 5c 	 5%
01:00Thu 	 5c 	 5%
02:00Thu 	 5c 	 5%
03:00Thu 	 5c 	 5%
04:00Thu 	 5c 	 3%
05:00Thu 	 5c 	 2%
06:00Thu 	 5c 	 3%
07:00Thu 	 6c 	 5%
08:00Thu 	 7c 	 9%
09:00Thu 	 8c 	 12%
10:00Thu 	 9c 	 9%
11:00Thu 	 10c 	 6%
12:00Thu 	 11c 	 5%
13:00Thu 	 11c 	 5%
14:00Thu 	 11c 	 5%
15:00Thu 	 11c 	 4%
16:00Thu 	 11c 	 5%
17:00Thu 	 11c 	 5%
18:00Thu 	 10c 	 6%
19:00Thu 	 9c 	 6%
20:00Thu 	 9c 	 7%
21:00Thu 	 9c 	 10%
22:00Thu 	 8c 	 12%
23:00Thu 	 8c 	 14%


00:00Thu 	 5c 	 3%
01:00Thu 	 5c 	 5%
02:00Thu 	 4c 	 5%
03:00Thu 	 4c 	 5%
04:00Thu 	 4c 	 3%
05:00Thu 	 4c 	 2%
06:00Thu 	 5c 	 3%
07:00Thu 	 6c 	 5%
08:00Thu 	 7c 	 8%
09:00Thu 	 8c 	 12%
10:00Thu 	 9c 	 9%
11:00Thu 	 10c 	 6%
12:00Thu 	 11c 	 6%
13:00Thu 	 11c 	 5%
14:00Thu 	 11c 	 5%
15:00Thu 	 11c 	 6%
16:00Thu 	 11c 	 6%
17:00Thu 	 11c 	 6%
18:00Thu 	 10c 	 7%
19:00Thu 	 10c 	 8%
20:00Thu 	 9c 	 9%
21:00Thu 	 9c 	 11%
22:00Thu 	 9c 	 13%
23:00Thu 	 9c 	 14%


00:00Thu 	 5c 	 3%
01:00Thu 	 5c 	 5%
02:00Thu 	 4c 	 5%
03:00Thu 	 4c 	 5%
04:00Thu 	 4c 	 3%
05:00Thu 	 4c 	 2%
06:00Thu 	 5c 	 3%
07:00Thu 	 6c 	 5%
08:00Thu 	 7c 	 8%
09:00Thu 	 8c 	 12%
10:00Thu 	 9c 	 9%
11:00Thu 	 10c 	 6%
12:00Thu 	 11c 	 6%
13:00Thu 	 11c 	 5%
14:00Thu 	 11c 	 5%
15:00Thu 	 11c 	 6%
16:00Thu 	 11c 	 6%
17:00Thu 	 11c 	 6%
18:00Thu 	 10c 	 7%
19:00Thu 	 10c 	 8%
20:00Thu 	 9c 	 9%
21:00Thu 	 9c 	 11%
22:00Thu 	 9c 	 13%
23:00Thu 	 9c 	 14%


00:00Thu 	 5c 	 3%
01:00Thu 	 5c 	 5%
02:00Thu 	 4c 	 5%
03:00Thu 	 4c 	 5%
04:00Thu 	 4c 	 3%
05:00Thu 	 4c 	 2%
06:00Thu 	 5c 	 3%
07:00Thu 	 6c 	 5%
08:00Thu 	 7c 	 8%
09:00Thu 	 8c 	 12%
10:00Thu 	 9c 	 9%
11:00Thu 	 10c 	 6%
12:00Thu 	 11c 	 6%
13:00Thu 	 11c 	 5%
14:00Thu 	 11c 	 5%
15:00Thu 	 11c 	 6%
16:00Thu 	 11c 	 6%
17:00Thu 	 11c 	 6%
18:00Thu 	 10c 	 7%
19:00Thu 	 10c 	 8%
20:00Thu 	 9c 	 9%
21:00Thu 	 9c 	 11%
22:00Thu 	 9c 	 13%
23:00Thu 	 9c 	 14%


00:00Thu 	 5c 	 3%
01:00Thu 	 5c 	 5%
02:00Thu 	 4c 	 5%
03:00Thu 	 4c 	 5%
04:00Thu 	 4c 	 3%
05:00Thu 	 4c 	 2%
06:00Thu 	 5c 	 3%
07:00Thu 	 6c 	 5%
08:00Thu 	 7c 	 8%
09:00Thu 	 8c 	 12%
10:00Thu 	 9c 	 9%
11:00Thu 	 10c 	 6%
12:00Thu 	 11c 	 6%
13:00Thu 	 11c 	 5%
14:00Thu 	 11c 	 5%
15:00Thu 	 11c 	 6%
16:00Thu 	 11c 	 6%
17:00Thu 	 11c 	 6%
18:00Thu 	 10c 	 7%
19:00Thu 	 10c 	 8%
20:00Thu 	 9c 	 9%
21:00Thu 	 9c 	 11%
22:00Thu 	 9c 	 13%
23:00Thu 	 9c 	 14%


00:00Thu 	 5c 	 1%
01:00Thu 	 5c 	 5%
02:00Thu 	 4c 	 5%
03:00Thu 	 4c 	 5%
04:00Thu 	 4c 	 3%
05:00Thu 	 4c 	 2%
06:00Thu 	 5c 	 3%
07:00Thu 	 6c 	 5%
08:00Thu 	 7c 	 8%
09:00Thu 	 8c 	 12%
10:00Thu 	 9c 	 9%
11:00Thu 	 10c 	 6%
12:00Thu 	 11c 	 6%
13:00Thu 	 11c 	 5%
14:00Thu 	 11c 	 5%
15:00Thu 	 11c 	 6%
16:00Thu 	 11c 	 6%
17:00Thu 	 11c 	 6%
18:00Thu 	 10c 	 7%
19:00Thu 	 10c 	 8%
20:00Thu 	 9c 	 9%
21:00Thu 	 9c 	 12%
22:00Thu 	 9c 	 14%
23:00Thu 	 9c 	 16%


00:00Thu 	 5c 	 1%
01:00Thu 	 5c 	 5%
02:00Thu 	 4c 	 5%
03:00Thu 	 4c 	 5%
04:00Thu 	 4c 	 3%
05:00Thu 	 4c 	 2%
06:00Thu 	 5c 	 3%
07:00Thu 	 6c 	 5%
08:00Thu 	 7c 	 8%
09:00Thu 	 8c 	 12%
10:00Thu 	 9c 	 9%
11:00Thu 	 10c 	 6%
12:00Thu 	 11c 	 6%
13:00Thu 	 11c 	 5%
14:00Thu 	 11c 	 5%
15:00Thu 	 11c 	 6%
16:00Thu 	 11c 	 6%
17:00Thu 	 11c 	 6%
18:00Thu 	 10c 	 7%
19:00Thu 	 10c 	 8%
20:00Thu 	 9c 	 9%
21:00Thu 	 9c 	 12%
22:00Thu 	 9c 	 14%
23:00Thu 	 9c 	 16%


00:00Thu 	 5c 	 1%
01:00Thu 	 5c 	 5%
02:00Thu 	 4c 	 5%
03:00Thu 	 4c 	 5%
04:00Thu 	 4c 	 3%
05:00Thu 	 4c 	 2%
06:00Thu 	 5c 	 3%
07:00Thu 	 6c 	 5%
08:00Thu 	 7c 	 8%
09:00Thu 	 8c 	 12%
10:00Thu 	 9c 	 9%
11:00Thu 	 10c 	 6%
12:00Thu 	 11c 	 6%
13:00Thu 	 11c 	 5%
14:00Thu 	 11c 	 5%
15:00Thu 	 11c 	 6%
16:00Thu 	 11c 	 6%
17:00Thu 	 11c 	 6%
18:00Thu 	 10c 	 7%
19:00Thu 	 10c 	 8%
20:00Thu 	 9c 	 9%
21:00Thu 	 9c 	 12%
22:00Thu 	 9c 	 14%
23:00Thu 	 9c 	 16%


00:00Thu 	 5c 	 0%
01:00Thu 	 5c 	 1%
02:00Thu 	 4c 	 5%
03:00Thu 	 4c 	 5%
04:00Thu 	 4c 	 3%
05:00Thu 	 4c 	 2%
06:00Thu 	 5c 	 3%
07:00Thu 	 6c 	 5%
08:00Thu 	 7c 	 8%
09:00Thu 	 8c 	 12%
10:00Thu 	 9c 	 9%
11:00Thu 	 10c 	 6%
12:00Thu 	 11c 	 6%
13:00Thu 	 11c 	 5%
14:00Thu 	 11c 	 5%
15:00Thu 	 11c 	 6%
16:00Thu 	 11c 	 6%
17:00Thu 	 11c 	 6%
18:00Thu 	 10c 	 7%
19:00Thu 	 10c 	 8%
20:00Thu 	 9c 	 9%
21:00Thu 	 9c 	 12%
22:00Thu 	 9c 	 14%
23:00Thu 	 9c 	 16%


00:00Thu 	 5c 	 0%
01:00Thu 	 5c 	 1%
02:00Thu 	 4c 	 5%
03:00Thu 	 4c 	 5%
04:00Thu 	 4c 	 3%
05:00Thu 	 4c 	 2%
06:00Thu 	 5c 	 3%
07:00Thu 	 6c 	 5%
08:00Thu 	 7c 	 8%
09:00Thu 	 8c 	 12%
10:00Thu 	 9c 	 9%
11:00Thu 	 10c 	 6%
12:00Thu 	 11c 	 6%
13:00Thu 	 11c 	 5%
14:00Thu 	 11c 	 5%
15:00Thu 	 11c 	 6%
16:00Thu 	 11c 	 6%
17:00Thu 	 11c 	 6%
18:00Thu 	 10c 	 7%
19:00Thu 	 10c 	 8%
20:00Thu 	 9c 	 9%
21:00Thu 	 9c 	 12%
22:00Thu 	 9c 	 14%
23:00Thu 	 9c 	 16%


