00:00Mon 	 1c 	 1%
00:00Mon 	 1c 	 1%
00:00Mon 	 1c 	 1%
00:00Mon 	 1c 	 1%
00:00Mon 	 1c 	 1%
00:00Mon 	 1c 	 1%
00:00Mon 	 1c 	 1%
00:00Mon 	 1c 	 1%
00:00Mon 	 1c 	 1%
00:00Mon 	 1c 	 1%
00:00Mon 	 1c 	 1%
00:00Mon 	 1c 	 1%
00:00Mon 	 1c 	 1%
00:00Mon 	 1c 	 1%
00:00Mon 	 1c 	 1%
00:00Mon 	 1c 	 1%
00:00Mon 	 1c 	 1%
00:00Mon 	 1c 	 1%
00:00Mon 	 1c 	 1%
00:00Mon 	 1c 	 1%
00:00Mon 	 1c 	 1%
00:00Mon 	 1c 	 1%
00:00Mon 	 1c 	 1%
00:00Mon 	 1c 	 1%
00:00Mon 	 1c 	 1%
00:00Mon 	 1c 	 1%
00:00Mon 	 1c 	 1%
00:00Mon 	 1c 	 1%
00:00Mon 	 1c 	 1%
00:00Mon 	 1c 	 1%
00:00Mon 	 1c 	 1%
00:00Mon 	 1c 	 1%
00:00Mon 	 1c 	 1%
00:00Mon 	 1c 	 1%
00:00Mon 	 1c 	 1%
00:00Mon 	 1c 	 1%
00:00Mon 	 1c 	 1%
00:00Mon 	 1c 	 1%
00:00Mon 	 1c 	 1%
00:00Mon 	 1c 	 1%
00:00Mon 	 1c 	 1%
00:00Mon 	 1c 	 1%
00:00Mon 	 1c 	 1%
00:00Mon 	 1c 	 1%
00:00Mon 	 1c 	 1%
00:00Mon 	 1c 	 1%
00:00Mon 	 1c 	 1%
00:00Mon 	 1c 	 1%
00:00Mon 	 1c 	 1%
00:00Mon 	 1c 	 1%
00:00Mon 	 1c 	 1%
00:00Mon 	 1c 	 1%
00:00Mon 	 1c 	 1%
00:00Mon 	 1c 	 1%
00:00Mon 	 1c 	 1%
00:00Mon 	 1c 	 1%
00:00Mon 	 1c 	 1%
00:00Mon 	 1c 	 1%
00:00Mon 	 1c 	 1%
00:00Mon 	 1c 	 1%
00:00Mon 	 1c 	 1%
00:00Mon 	 1c 	 1%
00:00Mon 	 1c 	 1%
00:00Mon 	 1c 	 1%
00:00Mon 	 1c 	 1%
00:00Mon 	 1c 	 1%
00:00Mon 	 1c 	 1%
00:00Mon 	 1c 	 1%
00:00Mon 	 1c 	 1%
00:00Mon 	 1c 	 1%
00:00Mon 	 1c 	 1%
00:00Mon 	 1c 	 1%
00:00Mon 	 1c 	 1%

01:00Mon 	 1c 	 2%
01:00Mon 	 1c 	 2%
01:00Mon 	 1c 	 2%
01:00Mon 	 1c 	 2%
01:00Mon 	 1c 	 2%
01:00Mon 	 1c 	 2%
01:00Mon 	 1c 	 2%
01:00Mon 	 1c 	 2%
01:00Mon 	 1c 	 2%
01:00Mon 	 1c 	 2%
01:00Mon 	 1c 	 2%
01:00Mon 	 1c 	 2%
01:00Mon 	 1c 	 1%
01:00Mon 	 1c 	 1%
01:00Mon 	 1c 	 1%
01:00Mon 	 1c 	 1%
01:00Mon 	 1c 	 1%
01:00Mon 	 1c 	 1%
01:00Mon 	 1c 	 1%
01:00Mon 	 1c 	 1%
01:00Mon 	 1c 	 0%
01:00Mon 	 1c 	 0%
01:00Mon 	 1c 	 0%
01:00Mon 	 1c 	 0%
01:00Mon 	 1c 	 0%
01:00Mon 	 1c 	 0%
01:00Mon 	 1c 	 0%
01:00Mon 	 1c 	 0%
01:00Mon 	 1c 	 0%
01:00Mon 	 1c 	 0%
01:00Mon 	 1c 	 0%
01:00Mon 	 1c 	 0%
01:00Mon 	 1c 	 0%
01:00Mon 	 1c 	 0%
01:00Mon 	 1c 	 0%
01:00Mon 	 1c 	 0%
01:00Mon 	 1c 	 0%
01:00Mon 	 1c 	 0%
01:00Mon 	 1c 	 0%
01:00Mon 	 1c 	 0%
01:00Mon 	 1c 	 0%
01:00Mon 	 1c 	 0%
01:00Mon 	 1c 	 0%
01:00Mon 	 1c 	 0%
01:00Mon 	 1c 	 0%
01:00Mon 	 1c 	 0%
01:00Mon 	 1c 	 0%
01:00Mon 	 1c 	 0%
01:00Mon 	 1c 	 0%
01:00Mon 	 1c 	 0%
01:00Mon 	 1c 	 0%
01:00Mon 	 1c 	 0%
01:00Mon 	 1c 	 0%
01:00Mon 	 1c 	 0%
01:00Mon 	 1c 	 0%
01:00Mon 	 1c 	 0%
01:00Mon 	 1c 	 0%
01:00Mon 	 1c 	 0%
01:00Mon 	 1c 	 0%
01:00Mon 	 1c 	 0%
01:00Mon 	 1c 	 0%
01:00Mon 	 1c 	 0%
01:00Mon 	 1c 	 0%
01:00Mon 	 1c 	 0%
01:00Mon 	 1c 	 0%
01:00Mon 	 1c 	 0%
01:00Mon 	 1c 	 0%
01:00Mon 	 1c 	 0%
01:00Mon 	 1c 	 0%
01:00Mon 	 1c 	 0%
01:00Mon 	 1c 	 0%
01:00Mon 	 1c 	 0%
01:00Mon 	 1c 	 0%

02:00Mon 	 1c 	 3%
02:00Mon 	 1c 	 3%
02:00Mon 	 1c 	 3%
02:00Mon 	 1c 	 3%
02:00Mon 	 1c 	 3%
02:00Mon 	 1c 	 3%
02:00Mon 	 1c 	 3%
02:00Mon 	 1c 	 3%
02:00Mon 	 1c 	 3%
02:00Mon 	 1c 	 3%
02:00Mon 	 1c 	 3%
02:00Mon 	 1c 	 3%
02:00Mon 	 1c 	 2%
02:00Mon 	 1c 	 2%
02:00Mon 	 1c 	 2%
02:00Mon 	 1c 	 2%
02:00Mon 	 1c 	 2%
02:00Mon 	 1c 	 2%
02:00Mon 	 1c 	 2%
02:00Mon 	 1c 	 2%
02:00Mon 	 1c 	 1%
02:00Mon 	 1c 	 1%
02:00Mon 	 1c 	 1%
02:00Mon 	 1c 	 1%
02:00Mon 	 1c 	 1%
02:00Mon 	 1c 	 1%
02:00Mon 	 1c 	 1%
02:00Mon 	 1c 	 1%
02:00Mon 	 1c 	 1%
02:00Mon 	 1c 	 1%
02:00Mon 	 1c 	 1%
02:00Mon 	 1c 	 1%
02:00Mon 	 1c 	 1%
02:00Mon 	 1c 	 1%
02:00Mon 	 1c 	 1%
02:00Mon 	 1c 	 1%
02:00Mon 	 1c 	 1%
02:00Mon 	 1c 	 1%
02:00Mon 	 1c 	 1%
02:00Mon 	 1c 	 1%
02:00Mon 	 1c 	 1%
02:00Mon 	 1c 	 1%
02:00Mon 	 1c 	 1%
02:00Mon 	 1c 	 1%
02:00Mon 	 1c 	 1%
02:00Mon 	 1c 	 1%
02:00Mon 	 1c 	 1%
02:00Mon 	 1c 	 1%
02:00Mon 	 1c 	 1%
02:00Mon 	 1c 	 1%
02:00Mon 	 1c 	 1%
02:00Mon 	 1c 	 1%
02:00Mon 	 1c 	 1%
02:00Mon 	 1c 	 1%
02:00Mon 	 1c 	 1%
02:00Mon 	 1c 	 1%
02:00Mon 	 1c 	 1%
02:00Mon 	 1c 	 1%
02:00Mon 	 1c 	 1%
02:00Mon 	 1c 	 1%
02:00Mon 	 0c 	 1%
02:00Mon 	 0c 	 1%
02:00Mon 	 0c 	 1%
02:00Mon 	 0c 	 1%
02:00Mon 	 0c 	 1%
02:00Mon 	 0c 	 1%
02:00Mon 	 0c 	 1%
02:00Mon 	 0c 	 1%
02:00Mon 	 0c 	 1%
02:00Mon 	 0c 	 1%
02:00Mon 	 0c 	 1%
02:00Mon 	 0c 	 1%
02:00Mon 	 0c 	 1%

03:00Mon 	 0c 	 5%
03:00Mon 	 0c 	 5%
03:00Mon 	 0c 	 5%
03:00Mon 	 0c 	 5%
03:00Mon 	 0c 	 5%
03:00Mon 	 0c 	 5%
03:00Mon 	 0c 	 5%
03:00Mon 	 0c 	 5%
03:00Mon 	 0c 	 5%
03:00Mon 	 0c 	 5%
03:00Mon 	 0c 	 5%
03:00Mon 	 0c 	 5%
03:00Mon 	 1c 	 3%
03:00Mon 	 1c 	 3%
03:00Mon 	 1c 	 3%
03:00Mon 	 1c 	 3%
03:00Mon 	 1c 	 3%
03:00Mon 	 1c 	 3%
03:00Mon 	 1c 	 3%
03:00Mon 	 1c 	 3%
03:00Mon 	 1c 	 3%
03:00Mon 	 1c 	 3%
03:00Mon 	 1c 	 3%
03:00Mon 	 1c 	 3%
03:00Mon 	 1c 	 3%
03:00Mon 	 1c 	 3%
03:00Mon 	 1c 	 3%
03:00Mon 	 1c 	 3%
03:00Mon 	 1c 	 3%
03:00Mon 	 1c 	 3%
03:00Mon 	 1c 	 3%
03:00Mon 	 1c 	 3%
03:00Mon 	 1c 	 3%
03:00Mon 	 1c 	 3%
03:00Mon 	 1c 	 3%
03:00Mon 	 1c 	 3%
03:00Mon 	 1c 	 3%
03:00Mon 	 1c 	 3%
03:00Mon 	 1c 	 3%
03:00Mon 	 1c 	 3%
03:00Mon 	 1c 	 3%
03:00Mon 	 1c 	 3%
03:00Mon 	 1c 	 3%
03:00Mon 	 1c 	 3%
03:00Mon 	 1c 	 3%
03:00Mon 	 1c 	 3%
03:00Mon 	 1c 	 3%
03:00Mon 	 1c 	 3%
03:00Mon 	 1c 	 3%
03:00Mon 	 1c 	 3%
03:00Mon 	 1c 	 3%
03:00Mon 	 1c 	 3%
03:00Mon 	 1c 	 3%
03:00Mon 	 1c 	 3%
03:00Mon 	 1c 	 3%
03:00Mon 	 1c 	 3%
03:00Mon 	 1c 	 3%
03:00Mon 	 1c 	 3%
03:00Mon 	 1c 	 3%
03:00Mon 	 1c 	 3%
03:00Mon 	 0c 	 3%
03:00Mon 	 0c 	 3%
03:00Mon 	 0c 	 3%
03:00Mon 	 0c 	 3%
03:00Mon 	 0c 	 3%
03:00Mon 	 0c 	 3%
03:00Mon 	 0c 	 3%
03:00Mon 	 0c 	 3%
03:00Mon 	 0c 	 3%
03:00Mon 	 0c 	 3%
03:00Mon 	 0c 	 3%
03:00Mon 	 0c 	 3%
03:00Mon 	 0c 	 3%

04:00Mon 	 0c 	 3%
04:00Mon 	 0c 	 3%
04:00Mon 	 0c 	 3%
04:00Mon 	 0c 	 3%
04:00Mon 	 0c 	 3%
04:00Mon 	 0c 	 3%
04:00Mon 	 0c 	 3%
04:00Mon 	 0c 	 3%
04:00Mon 	 0c 	 3%
04:00Mon 	 0c 	 3%
04:00Mon 	 0c 	 3%
04:00Mon 	 0c 	 3%
04:00Mon 	 1c 	 3%
04:00Mon 	 1c 	 3%
04:00Mon 	 1c 	 3%
04:00Mon 	 1c 	 3%
04:00Mon 	 1c 	 3%
04:00Mon 	 1c 	 3%
04:00Mon 	 1c 	 3%
04:00Mon 	 1c 	 3%
04:00Mon 	 1c 	 3%
04:00Mon 	 1c 	 3%
04:00Mon 	 1c 	 3%
04:00Mon 	 1c 	 3%
04:00Mon 	 1c 	 3%
04:00Mon 	 1c 	 3%
04:00Mon 	 1c 	 3%
04:00Mon 	 1c 	 3%
04:00Mon 	 1c 	 3%
04:00Mon 	 1c 	 3%
04:00Mon 	 1c 	 3%
04:00Mon 	 1c 	 3%
04:00Mon 	 1c 	 3%
04:00Mon 	 1c 	 3%
04:00Mon 	 1c 	 3%
04:00Mon 	 1c 	 3%
04:00Mon 	 1c 	 3%
04:00Mon 	 1c 	 3%
04:00Mon 	 1c 	 3%
04:00Mon 	 1c 	 3%
04:00Mon 	 1c 	 3%
04:00Mon 	 1c 	 3%
04:00Mon 	 1c 	 3%
04:00Mon 	 1c 	 3%
04:00Mon 	 1c 	 3%
04:00Mon 	 1c 	 3%
04:00Mon 	 1c 	 3%
04:00Mon 	 1c 	 3%
04:00Mon 	 1c 	 3%
04:00Mon 	 1c 	 3%
04:00Mon 	 1c 	 3%
04:00Mon 	 1c 	 3%
04:00Mon 	 1c 	 3%
04:00Mon 	 1c 	 3%
04:00Mon 	 1c 	 3%
04:00Mon 	 1c 	 3%
04:00Mon 	 1c 	 3%
04:00Mon 	 1c 	 3%
04:00Mon 	 1c 	 3%
04:00Mon 	 1c 	 3%
04:00Mon 	 0c 	 4%
04:00Mon 	 0c 	 4%
04:00Mon 	 0c 	 4%
04:00Mon 	 0c 	 4%
04:00Mon 	 0c 	 4%
04:00Mon 	 0c 	 4%
04:00Mon 	 0c 	 4%
04:00Mon 	 0c 	 4%
04:00Mon 	 0c 	 4%
04:00Mon 	 0c 	 4%
04:00Mon 	 0c 	 4%
04:00Mon 	 0c 	 4%
04:00Mon 	 0c 	 4%

05:00Mon 	 0c 	 2%
05:00Mon 	 0c 	 2%
05:00Mon 	 0c 	 2%
05:00Mon 	 0c 	 2%
05:00Mon 	 0c 	 2%
05:00Mon 	 0c 	 2%
05:00Mon 	 0c 	 2%
05:00Mon 	 0c 	 2%
05:00Mon 	 0c 	 2%
05:00Mon 	 0c 	 2%
05:00Mon 	 0c 	 2%
05:00Mon 	 0c 	 2%
05:00Mon 	 1c 	 3%
05:00Mon 	 1c 	 3%
05:00Mon 	 1c 	 3%
05:00Mon 	 1c 	 3%
05:00Mon 	 1c 	 3%
05:00Mon 	 1c 	 3%
05:00Mon 	 1c 	 3%
05:00Mon 	 1c 	 3%
05:00Mon 	 1c 	 3%
05:00Mon 	 1c 	 3%
05:00Mon 	 1c 	 3%
05:00Mon 	 1c 	 3%
05:00Mon 	 1c 	 3%
05:00Mon 	 1c 	 3%
05:00Mon 	 1c 	 3%
05:00Mon 	 1c 	 3%
05:00Mon 	 1c 	 3%
05:00Mon 	 1c 	 3%
05:00Mon 	 1c 	 3%
05:00Mon 	 1c 	 3%
05:00Mon 	 1c 	 3%
05:00Mon 	 1c 	 3%
05:00Mon 	 1c 	 3%
05:00Mon 	 1c 	 3%
05:00Mon 	 1c 	 3%
05:00Mon 	 1c 	 3%
05:00Mon 	 1c 	 3%
05:00Mon 	 1c 	 3%
05:00Mon 	 1c 	 3%
05:00Mon 	 1c 	 3%
05:00Mon 	 1c 	 3%
05:00Mon 	 1c 	 3%
05:00Mon 	 1c 	 3%
05:00Mon 	 1c 	 3%
05:00Mon 	 1c 	 3%
05:00Mon 	 1c 	 3%
05:00Mon 	 1c 	 3%
05:00Mon 	 1c 	 3%
05:00Mon 	 1c 	 3%
05:00Mon 	 1c 	 3%
05:00Mon 	 1c 	 3%
05:00Mon 	 1c 	 3%
05:00Mon 	 1c 	 3%
05:00Mon 	 1c 	 3%
05:00Mon 	 1c 	 3%
05:00Mon 	 1c 	 3%
05:00Mon 	 1c 	 3%
05:00Mon 	 1c 	 3%
05:00Mon 	 1c 	 3%
05:00Mon 	 1c 	 3%
05:00Mon 	 1c 	 3%
05:00Mon 	 1c 	 3%
05:00Mon 	 1c 	 3%
05:00Mon 	 1c 	 3%
05:00Mon 	 1c 	 3%
05:00Mon 	 1c 	 3%
05:00Mon 	 1c 	 4%
05:00Mon 	 1c 	 4%
05:00Mon 	 1c 	 4%
05:00Mon 	 1c 	 4%
05:00Mon 	 1c 	 4%



















