# /home/pi/Documents/bbc-weather-predictions/data/Nov02Sat/bbcweather_Friday1stNovember_2019-11-02_0000.txt
00:00Sat 	 12c 	 10%
01:00Sat 	 11c 	 73%
02:00Sat 	 11c 	 43%
03:00Sat 	 10c 	 44%
04:00Sat 	 9c 	 54%
05:00Sat 	 9c 	 69%
06:00Sat 	 9c 	 82%
07:00Sat 	 9c 	 91%
08:00Sat 	 9c 	 92%
09:00Sat 	 10c 	 92%
10:00Sat 	 11c 	 97%
11:00Sat 	 11c 	 95%
12:00Sat 	 11c 	 89%
13:00Sat 	 11c 	 90%
14:00Sat 	 11c 	 96%
15:00Sat 	 11c 	 99%
16:00Sat 	 11c 	 99%
17:00Sat 	 10c 	 98%
18:00Sat 	 10c 	 96%
19:00Sat 	 10c 	 98%
20:00Sat 	 10c 	 99%
21:00Sat 	 10c 	 96%
22:00Sat 	 10c 	 93%
23:00Sat 	 9c 	 89%


# /home/pi/Documents/bbc-weather-predictions/data/Nov02Sat/bbcweather_Friday1stNovember_2019-11-02_0015.txt
01:00Sat 	 11c 	 73%
02:00Sat 	 11c 	 43%
03:00Sat 	 10c 	 44%
04:00Sat 	 9c 	 54%
05:00Sat 	 9c 	 69%
06:00Sat 	 9c 	 82%
07:00Sat 	 9c 	 91%
08:00Sat 	 9c 	 92%
09:00Sat 	 10c 	 92%
10:00Sat 	 11c 	 97%
11:00Sat 	 11c 	 95%
12:00Sat 	 11c 	 89%
13:00Sat 	 11c 	 90%
14:00Sat 	 11c 	 96%
15:00Sat 	 11c 	 99%
16:00Sat 	 11c 	 99%
17:00Sat 	 10c 	 98%
18:00Sat 	 10c 	 96%
19:00Sat 	 10c 	 98%
20:00Sat 	 10c 	 99%
21:00Sat 	 10c 	 96%
22:00Sat 	 10c 	 93%
23:00Sat 	 9c 	 89%


# /home/pi/Documents/bbc-weather-predictions/data/Nov02Sat/bbcweather_Friday1stNovember_2019-11-02_0030.txt
01:00Sat 	 11c 	 73%
02:00Sat 	 11c 	 43%
03:00Sat 	 10c 	 44%
04:00Sat 	 9c 	 54%
05:00Sat 	 9c 	 69%
06:00Sat 	 9c 	 82%
07:00Sat 	 9c 	 91%
08:00Sat 	 9c 	 92%
09:00Sat 	 10c 	 92%
10:00Sat 	 11c 	 97%
11:00Sat 	 11c 	 95%
12:00Sat 	 11c 	 89%
13:00Sat 	 11c 	 90%
14:00Sat 	 11c 	 96%
15:00Sat 	 11c 	 99%
16:00Sat 	 11c 	 99%
17:00Sat 	 10c 	 98%
18:00Sat 	 10c 	 96%
19:00Sat 	 10c 	 98%
20:00Sat 	 10c 	 99%
21:00Sat 	 10c 	 96%
22:00Sat 	 10c 	 93%
23:00Sat 	 9c 	 89%


# /home/pi/Documents/bbc-weather-predictions/data/Nov02Sat/bbcweather_Friday1stNovember_2019-11-02_0045.txt
01:00Sat 	 11c 	 81%
02:00Sat 	 11c 	 64%
03:00Sat 	 10c 	 43%
04:00Sat 	 9c 	 53%
05:00Sat 	 9c 	 68%
06:00Sat 	 9c 	 82%
07:00Sat 	 9c 	 91%
08:00Sat 	 9c 	 92%
09:00Sat 	 10c 	 92%
10:00Sat 	 11c 	 97%
11:00Sat 	 11c 	 95%
12:00Sat 	 11c 	 89%
13:00Sat 	 11c 	 90%
14:00Sat 	 11c 	 96%
15:00Sat 	 11c 	 99%
16:00Sat 	 11c 	 99%
17:00Sat 	 10c 	 98%
18:00Sat 	 10c 	 96%
19:00Sat 	 10c 	 98%
20:00Sat 	 10c 	 99%
21:00Sat 	 10c 	 96%
22:00Sat 	 10c 	 93%
23:00Sat 	 9c 	 89%


# /home/pi/Documents/bbc-weather-predictions/data/Nov02Sat/bbcweather_Friday1stNovember_2019-11-02_0100.txt
02:00Sat 	 11c 	 64%
03:00Sat 	 10c 	 43%
04:00Sat 	 9c 	 53%
05:00Sat 	 9c 	 68%
06:00Sat 	 9c 	 82%
07:00Sat 	 9c 	 91%
08:00Sat 	 9c 	 92%
09:00Sat 	 10c 	 92%
10:00Sat 	 11c 	 97%
11:00Sat 	 11c 	 95%
12:00Sat 	 11c 	 89%
13:00Sat 	 11c 	 90%
14:00Sat 	 11c 	 96%
15:00Sat 	 11c 	 99%
16:00Sat 	 11c 	 99%
17:00Sat 	 10c 	 98%
18:00Sat 	 10c 	 96%
19:00Sat 	 10c 	 98%
20:00Sat 	 10c 	 99%
21:00Sat 	 10c 	 96%
22:00Sat 	 10c 	 93%
23:00Sat 	 9c 	 89%


# /home/pi/Documents/bbc-weather-predictions/data/Nov02Sat/bbcweather_Friday1stNovember_2019-11-02_0115.txt
02:00Sat 	 11c 	 64%
03:00Sat 	 10c 	 43%
04:00Sat 	 9c 	 53%
05:00Sat 	 9c 	 68%
06:00Sat 	 9c 	 82%
07:00Sat 	 9c 	 91%
08:00Sat 	 9c 	 92%
09:00Sat 	 10c 	 92%
10:00Sat 	 11c 	 97%
11:00Sat 	 11c 	 95%
12:00Sat 	 11c 	 89%
13:00Sat 	 11c 	 90%
14:00Sat 	 11c 	 96%
15:00Sat 	 11c 	 99%
16:00Sat 	 11c 	 99%
17:00Sat 	 10c 	 98%
18:00Sat 	 10c 	 96%
19:00Sat 	 10c 	 98%
20:00Sat 	 10c 	 99%
21:00Sat 	 10c 	 96%
22:00Sat 	 10c 	 93%
23:00Sat 	 9c 	 89%


# /home/pi/Documents/bbc-weather-predictions/data/Nov02Sat/bbcweather_Friday1stNovember_2019-11-02_0130.txt
02:00Sat 	 11c 	 64%
03:00Sat 	 10c 	 43%
04:00Sat 	 9c 	 53%
05:00Sat 	 9c 	 68%
06:00Sat 	 9c 	 82%
07:00Sat 	 9c 	 91%
08:00Sat 	 9c 	 92%
09:00Sat 	 10c 	 92%
10:00Sat 	 11c 	 97%
11:00Sat 	 11c 	 95%
12:00Sat 	 11c 	 89%
13:00Sat 	 11c 	 90%
14:00Sat 	 11c 	 96%
15:00Sat 	 11c 	 99%
16:00Sat 	 11c 	 99%
17:00Sat 	 10c 	 98%
18:00Sat 	 10c 	 96%
19:00Sat 	 10c 	 98%
20:00Sat 	 10c 	 99%
21:00Sat 	 10c 	 96%
22:00Sat 	 10c 	 93%
23:00Sat 	 9c 	 89%


# /home/pi/Documents/bbc-weather-predictions/data/Nov02Sat/bbcweather_Friday1stNovember_2019-11-02_0145.txt
02:00Sat 	 11c 	 99%
03:00Sat 	 11c 	 77%
04:00Sat 	 10c 	 64%
05:00Sat 	 10c 	 65%
06:00Sat 	 9c 	 78%
07:00Sat 	 9c 	 91%
08:00Sat 	 9c 	 92%
09:00Sat 	 10c 	 92%
10:00Sat 	 11c 	 97%
11:00Sat 	 11c 	 95%
12:00Sat 	 11c 	 89%
13:00Sat 	 11c 	 90%
14:00Sat 	 11c 	 96%
15:00Sat 	 11c 	 99%
16:00Sat 	 11c 	 99%
17:00Sat 	 10c 	 98%
18:00Sat 	 10c 	 96%
19:00Sat 	 10c 	 98%
20:00Sat 	 10c 	 99%
21:00Sat 	 10c 	 96%
22:00Sat 	 10c 	 93%
23:00Sat 	 9c 	 89%


# /home/pi/Documents/bbc-weather-predictions/data/Nov02Sat/bbcweather_Friday1stNovember_2019-11-02_0200.txt
03:00Sat 	 11c 	 77%
04:00Sat 	 10c 	 64%
05:00Sat 	 10c 	 65%
06:00Sat 	 9c 	 78%
07:00Sat 	 9c 	 91%
08:00Sat 	 9c 	 92%
09:00Sat 	 10c 	 92%
10:00Sat 	 11c 	 97%
11:00Sat 	 11c 	 95%
12:00Sat 	 11c 	 89%
13:00Sat 	 11c 	 90%
14:00Sat 	 11c 	 96%
15:00Sat 	 11c 	 99%
16:00Sat 	 11c 	 99%
17:00Sat 	 10c 	 98%
18:00Sat 	 10c 	 96%
19:00Sat 	 10c 	 98%
20:00Sat 	 10c 	 99%
21:00Sat 	 10c 	 96%
22:00Sat 	 10c 	 93%
23:00Sat 	 9c 	 89%


# /home/pi/Documents/bbc-weather-predictions/data/Nov02Sat/bbcweather_Friday1stNovember_2019-11-02_0215.txt
03:00Sat 	 11c 	 77%
04:00Sat 	 10c 	 64%
05:00Sat 	 10c 	 65%
06:00Sat 	 9c 	 78%
07:00Sat 	 9c 	 91%
08:00Sat 	 9c 	 92%
09:00Sat 	 10c 	 92%
10:00Sat 	 11c 	 97%
11:00Sat 	 11c 	 95%
12:00Sat 	 11c 	 89%
13:00Sat 	 11c 	 90%
14:00Sat 	 11c 	 96%
15:00Sat 	 11c 	 99%
16:00Sat 	 11c 	 99%
17:00Sat 	 10c 	 98%
18:00Sat 	 10c 	 96%
19:00Sat 	 10c 	 98%
20:00Sat 	 10c 	 99%
21:00Sat 	 10c 	 96%
22:00Sat 	 10c 	 93%
23:00Sat 	 9c 	 89%


# /home/pi/Documents/bbc-weather-predictions/data/Nov02Sat/bbcweather_Friday1stNovember_2019-11-02_0230.txt
03:00Sat 	 11c 	 77%
04:00Sat 	 10c 	 64%
05:00Sat 	 10c 	 65%
06:00Sat 	 9c 	 78%
07:00Sat 	 9c 	 91%
08:00Sat 	 9c 	 92%
09:00Sat 	 10c 	 92%
10:00Sat 	 11c 	 97%
11:00Sat 	 11c 	 95%
12:00Sat 	 11c 	 89%
13:00Sat 	 11c 	 90%
14:00Sat 	 11c 	 96%
15:00Sat 	 11c 	 99%
16:00Sat 	 11c 	 99%
17:00Sat 	 10c 	 98%
18:00Sat 	 10c 	 96%
19:00Sat 	 10c 	 98%
20:00Sat 	 10c 	 99%
21:00Sat 	 10c 	 96%
22:00Sat 	 10c 	 93%
23:00Sat 	 9c 	 89%


# /home/pi/Documents/bbc-weather-predictions/data/Nov02Sat/bbcweather_Friday1stNovember_2019-11-02_0245.txt
03:00Sat 	 11c 	 49%
04:00Sat 	 10c 	 81%
05:00Sat 	 10c 	 66%
06:00Sat 	 10c 	 73%
07:00Sat 	 9c 	 87%
08:00Sat 	 9c 	 92%
09:00Sat 	 10c 	 92%
10:00Sat 	 11c 	 97%
11:00Sat 	 11c 	 95%
12:00Sat 	 11c 	 89%
13:00Sat 	 11c 	 90%
14:00Sat 	 11c 	 96%
15:00Sat 	 11c 	 99%
16:00Sat 	 11c 	 99%
17:00Sat 	 10c 	 98%
18:00Sat 	 10c 	 96%
19:00Sat 	 10c 	 98%
20:00Sat 	 10c 	 99%
21:00Sat 	 10c 	 96%
22:00Sat 	 10c 	 93%
23:00Sat 	 9c 	 89%


# /home/pi/Documents/bbc-weather-predictions/data/Nov02Sat/bbcweather_Friday1stNovember_2019-11-02_0300.txt
03:00Sat 	 11c 	 49%
04:00Sat 	 10c 	 81%
05:00Sat 	 10c 	 66%
06:00Sat 	 10c 	 73%
07:00Sat 	 9c 	 87%
08:00Sat 	 9c 	 92%
09:00Sat 	 10c 	 92%
10:00Sat 	 11c 	 97%
11:00Sat 	 11c 	 95%
12:00Sat 	 11c 	 89%
13:00Sat 	 11c 	 90%
14:00Sat 	 11c 	 96%
15:00Sat 	 11c 	 99%
16:00Sat 	 11c 	 99%
17:00Sat 	 10c 	 98%
18:00Sat 	 10c 	 96%
19:00Sat 	 10c 	 98%
20:00Sat 	 10c 	 99%
21:00Sat 	 10c 	 96%
22:00Sat 	 10c 	 93%
23:00Sat 	 9c 	 89%


# /home/pi/Documents/bbc-weather-predictions/data/Nov02Sat/bbcweather_Friday1stNovember_2019-11-02_0315.txt
04:00Sat 	 10c 	 81%
05:00Sat 	 10c 	 66%
06:00Sat 	 10c 	 73%
07:00Sat 	 9c 	 87%
08:00Sat 	 9c 	 92%
09:00Sat 	 10c 	 92%
10:00Sat 	 11c 	 97%
11:00Sat 	 11c 	 95%
12:00Sat 	 11c 	 89%
13:00Sat 	 11c 	 90%
14:00Sat 	 11c 	 96%
15:00Sat 	 11c 	 99%
16:00Sat 	 11c 	 99%
17:00Sat 	 10c 	 98%
18:00Sat 	 10c 	 96%
19:00Sat 	 10c 	 98%
20:00Sat 	 10c 	 99%
21:00Sat 	 10c 	 96%
22:00Sat 	 10c 	 93%
23:00Sat 	 9c 	 89%


# /home/pi/Documents/bbc-weather-predictions/data/Nov02Sat/bbcweather_Friday1stNovember_2019-11-02_0330.txt
04:00Sat 	 10c 	 81%
05:00Sat 	 10c 	 66%
06:00Sat 	 10c 	 73%
07:00Sat 	 9c 	 87%
08:00Sat 	 9c 	 92%
09:00Sat 	 10c 	 92%
10:00Sat 	 11c 	 97%
11:00Sat 	 11c 	 95%
12:00Sat 	 11c 	 89%
13:00Sat 	 11c 	 90%
14:00Sat 	 11c 	 96%
15:00Sat 	 11c 	 99%
16:00Sat 	 11c 	 99%
17:00Sat 	 10c 	 98%
18:00Sat 	 10c 	 96%
19:00Sat 	 10c 	 98%
20:00Sat 	 10c 	 99%
21:00Sat 	 10c 	 96%
22:00Sat 	 10c 	 93%
23:00Sat 	 9c 	 89%


# /home/pi/Documents/bbc-weather-predictions/data/Nov02Sat/bbcweather_Friday1stNovember_2019-11-02_0345.txt
04:00Sat 	 10c 	 81%
05:00Sat 	 10c 	 94%
06:00Sat 	 10c 	 86%
07:00Sat 	 10c 	 83%
08:00Sat 	 10c 	 90%
09:00Sat 	 10c 	 92%
10:00Sat 	 11c 	 97%
11:00Sat 	 11c 	 95%
12:00Sat 	 11c 	 89%
13:00Sat 	 11c 	 90%
14:00Sat 	 11c 	 96%
15:00Sat 	 11c 	 99%
16:00Sat 	 11c 	 99%
17:00Sat 	 10c 	 98%
18:00Sat 	 10c 	 96%
19:00Sat 	 10c 	 98%
20:00Sat 	 10c 	 99%
21:00Sat 	 10c 	 96%
22:00Sat 	 10c 	 93%
23:00Sat 	 9c 	 89%


# /home/pi/Documents/bbc-weather-predictions/data/Nov02Sat/bbcweather_Friday1stNovember_2019-11-02_0400.txt
05:00Sat 	 10c 	 94%
06:00Sat 	 10c 	 86%
07:00Sat 	 10c 	 83%
08:00Sat 	 10c 	 90%
09:00Sat 	 10c 	 92%
10:00Sat 	 11c 	 97%
11:00Sat 	 11c 	 95%
12:00Sat 	 11c 	 89%
13:00Sat 	 11c 	 90%
14:00Sat 	 11c 	 96%
15:00Sat 	 11c 	 99%
16:00Sat 	 11c 	 99%
17:00Sat 	 10c 	 98%
18:00Sat 	 10c 	 96%
19:00Sat 	 10c 	 98%
20:00Sat 	 10c 	 99%
21:00Sat 	 10c 	 96%
22:00Sat 	 10c 	 93%
23:00Sat 	 9c 	 89%


# /home/pi/Documents/bbc-weather-predictions/data/Nov02Sat/bbcweather_Friday1stNovember_2019-11-02_0415.txt
05:00Sat 	 10c 	 94%
06:00Sat 	 10c 	 86%
07:00Sat 	 10c 	 83%
08:00Sat 	 10c 	 90%
09:00Sat 	 10c 	 92%
10:00Sat 	 11c 	 97%
11:00Sat 	 11c 	 95%
12:00Sat 	 11c 	 89%
13:00Sat 	 11c 	 90%
14:00Sat 	 11c 	 96%
15:00Sat 	 11c 	 99%
16:00Sat 	 11c 	 99%
17:00Sat 	 10c 	 98%
18:00Sat 	 10c 	 96%
19:00Sat 	 10c 	 98%
20:00Sat 	 10c 	 99%
21:00Sat 	 10c 	 96%
22:00Sat 	 10c 	 93%
23:00Sat 	 9c 	 89%


# /home/pi/Documents/bbc-weather-predictions/data/Nov02Sat/bbcweather_Friday1stNovember_2019-11-02_0430.txt
05:00Sat 	 10c 	 94%
06:00Sat 	 10c 	 86%
07:00Sat 	 10c 	 83%
08:00Sat 	 10c 	 90%
09:00Sat 	 10c 	 92%
10:00Sat 	 11c 	 97%
11:00Sat 	 11c 	 95%
12:00Sat 	 11c 	 89%
13:00Sat 	 11c 	 90%
14:00Sat 	 11c 	 96%
15:00Sat 	 11c 	 99%
16:00Sat 	 11c 	 99%
17:00Sat 	 10c 	 98%
18:00Sat 	 10c 	 96%
19:00Sat 	 10c 	 98%
20:00Sat 	 10c 	 99%
21:00Sat 	 10c 	 96%
22:00Sat 	 10c 	 93%
23:00Sat 	 9c 	 89%


# /home/pi/Documents/bbc-weather-predictions/data/Nov02Sat/bbcweather_Friday1stNovember_2019-11-02_0445.txt
05:00Sat 	 10c 	 96%
06:00Sat 	 10c 	 93%
07:00Sat 	 10c 	 83%
08:00Sat 	 10c 	 90%
09:00Sat 	 10c 	 92%
10:00Sat 	 11c 	 97%
11:00Sat 	 11c 	 95%
12:00Sat 	 11c 	 89%
13:00Sat 	 11c 	 90%
14:00Sat 	 11c 	 96%
15:00Sat 	 11c 	 99%
16:00Sat 	 11c 	 99%
17:00Sat 	 10c 	 98%
18:00Sat 	 10c 	 96%
19:00Sat 	 10c 	 98%
20:00Sat 	 10c 	 99%
21:00Sat 	 10c 	 96%
22:00Sat 	 10c 	 93%
23:00Sat 	 9c 	 89%


# /home/pi/Documents/bbc-weather-predictions/data/Nov02Sat/bbcweather_Friday1stNovember_2019-11-02_0500.txt
05:00Sat 	 10c 	 96%
06:00Sat 	 10c 	 93%
07:00Sat 	 10c 	 83%
08:00Sat 	 10c 	 90%
09:00Sat 	 10c 	 92%
10:00Sat 	 11c 	 97%
11:00Sat 	 11c 	 95%
12:00Sat 	 11c 	 89%
13:00Sat 	 11c 	 90%
14:00Sat 	 11c 	 96%
15:00Sat 	 11c 	 99%
16:00Sat 	 11c 	 99%
17:00Sat 	 10c 	 98%
18:00Sat 	 10c 	 96%
19:00Sat 	 10c 	 98%
20:00Sat 	 10c 	 99%
21:00Sat 	 10c 	 96%
22:00Sat 	 10c 	 93%
23:00Sat 	 9c 	 89%


# /home/pi/Documents/bbc-weather-predictions/data/Nov02Sat/bbcweather_Saturday2ndNovember_2019-11-02_0515.txt
06:00Sat 	 10c 	 93%
07:00Sat 	 10c 	 83%
08:00Sat 	 10c 	 90%
09:00Sat 	 10c 	 92%
10:00Sat 	 11c 	 97%
11:00Sat 	 11c 	 95%
12:00Sat 	 11c 	 89%
13:00Sat 	 11c 	 90%
14:00Sat 	 11c 	 96%
15:00Sat 	 11c 	 99%
16:00Sat 	 11c 	 99%
17:00Sat 	 10c 	 98%
18:00Sat 	 10c 	 96%
19:00Sat 	 10c 	 98%
20:00Sat 	 10c 	 99%
21:00Sat 	 10c 	 96%
22:00Sat 	 10c 	 93%
23:00Sat 	 9c 	 89%


# /home/pi/Documents/bbc-weather-predictions/data/Nov02Sat/bbcweather_Saturday2ndNovember_2019-11-02_0530.txt
06:00Sat 	 10c 	 93%
07:00Sat 	 10c 	 83%
08:00Sat 	 10c 	 90%
09:00Sat 	 10c 	 92%
10:00Sat 	 11c 	 97%
11:00Sat 	 11c 	 95%
12:00Sat 	 11c 	 89%
13:00Sat 	 11c 	 90%
14:00Sat 	 11c 	 96%
15:00Sat 	 11c 	 99%
16:00Sat 	 11c 	 99%
17:00Sat 	 10c 	 98%
18:00Sat 	 10c 	 96%
19:00Sat 	 10c 	 98%
20:00Sat 	 10c 	 99%
21:00Sat 	 10c 	 96%
22:00Sat 	 10c 	 93%
23:00Sat 	 9c 	 89%


# /home/pi/Documents/bbc-weather-predictions/data/Nov02Sat/bbcweather_Saturday2ndNovember_2019-11-02_0545.txt
06:00Sat 	 10c 	 98%
07:00Sat 	 10c 	 91%
08:00Sat 	 10c 	 81%
09:00Sat 	 10c 	 89%
10:00Sat 	 11c 	 93%
11:00Sat 	 11c 	 95%
12:00Sat 	 11c 	 89%
13:00Sat 	 11c 	 90%
14:00Sat 	 11c 	 96%
15:00Sat 	 11c 	 99%
16:00Sat 	 11c 	 99%
17:00Sat 	 10c 	 98%
18:00Sat 	 10c 	 96%
19:00Sat 	 10c 	 98%
20:00Sat 	 10c 	 99%
21:00Sat 	 10c 	 96%
22:00Sat 	 10c 	 93%
23:00Sat 	 9c 	 89%


# /home/pi/Documents/bbc-weather-predictions/data/Nov02Sat/bbcweather_Saturday2ndNovember_2019-11-02_0600.txt
06:00Sat 	 10c 	 98%
07:00Sat 	 10c 	 91%
08:00Sat 	 10c 	 81%
09:00Sat 	 10c 	 89%
10:00Sat 	 11c 	 93%
11:00Sat 	 11c 	 95%
12:00Sat 	 11c 	 89%
13:00Sat 	 11c 	 90%
14:00Sat 	 11c 	 96%
15:00Sat 	 11c 	 99%
16:00Sat 	 11c 	 99%
17:00Sat 	 10c 	 98%
18:00Sat 	 10c 	 96%
19:00Sat 	 10c 	 98%
20:00Sat 	 10c 	 99%
21:00Sat 	 10c 	 96%
22:00Sat 	 10c 	 93%
23:00Sat 	 9c 	 89%


# /home/pi/Documents/bbc-weather-predictions/data/Nov02Sat/bbcweather_Saturday2ndNovember_2019-11-02_0615.txt
07:00Sat 	 10c 	 91%
08:00Sat 	 10c 	 81%
09:00Sat 	 10c 	 89%
10:00Sat 	 11c 	 93%
11:00Sat 	 11c 	 95%
12:00Sat 	 11c 	 89%
13:00Sat 	 11c 	 90%
14:00Sat 	 11c 	 96%
15:00Sat 	 11c 	 99%
16:00Sat 	 11c 	 99%
17:00Sat 	 10c 	 98%
18:00Sat 	 10c 	 96%
19:00Sat 	 10c 	 98%
20:00Sat 	 10c 	 99%
21:00Sat 	 10c 	 96%
22:00Sat 	 10c 	 93%
23:00Sat 	 9c 	 89%


# /home/pi/Documents/bbc-weather-predictions/data/Nov02Sat/bbcweather_Saturday2ndNovember_2019-11-02_0630.txt
07:00Sat 	 10c 	 91%
08:00Sat 	 10c 	 81%
09:00Sat 	 10c 	 89%
10:00Sat 	 11c 	 93%
11:00Sat 	 11c 	 95%
12:00Sat 	 11c 	 89%
13:00Sat 	 11c 	 90%
14:00Sat 	 11c 	 96%
15:00Sat 	 11c 	 99%
16:00Sat 	 11c 	 99%
17:00Sat 	 10c 	 98%
18:00Sat 	 10c 	 96%
19:00Sat 	 10c 	 98%
20:00Sat 	 10c 	 99%
21:00Sat 	 10c 	 96%
22:00Sat 	 10c 	 93%
23:00Sat 	 9c 	 89%


# /home/pi/Documents/bbc-weather-predictions/data/Nov02Sat/bbcweather_Saturday2ndNovember_2019-11-02_0645.txt
07:00Sat 	 9c 	 98%
08:00Sat 	 10c 	 95%
09:00Sat 	 10c 	 86%
10:00Sat 	 11c 	 87%
11:00Sat 	 11c 	 90%
12:00Sat 	 11c 	 89%
13:00Sat 	 11c 	 90%
14:00Sat 	 11c 	 96%
15:00Sat 	 11c 	 99%
16:00Sat 	 11c 	 99%
17:00Sat 	 10c 	 98%
18:00Sat 	 10c 	 96%
19:00Sat 	 10c 	 98%
20:00Sat 	 10c 	 99%
21:00Sat 	 10c 	 96%
22:00Sat 	 10c 	 93%
23:00Sat 	 9c 	 89%


# /home/pi/Documents/bbc-weather-predictions/data/Nov02Sat/bbcweather_Saturday2ndNovember_2019-11-02_0700.txt
07:00Sat 	 9c 	 98%
08:00Sat 	 10c 	 95%
09:00Sat 	 10c 	 86%
10:00Sat 	 11c 	 87%
11:00Sat 	 11c 	 90%
12:00Sat 	 11c 	 89%
13:00Sat 	 11c 	 90%
14:00Sat 	 11c 	 96%
15:00Sat 	 11c 	 99%
16:00Sat 	 11c 	 99%
17:00Sat 	 10c 	 98%
18:00Sat 	 10c 	 96%
19:00Sat 	 10c 	 98%
20:00Sat 	 10c 	 99%
21:00Sat 	 10c 	 96%
22:00Sat 	 10c 	 93%
23:00Sat 	 9c 	 89%


# /home/pi/Documents/bbc-weather-predictions/data/Nov02Sat/bbcweather_Saturday2ndNovember_2019-11-02_0715.txt
08:00Sat 	 10c 	 95%
09:00Sat 	 10c 	 86%
10:00Sat 	 11c 	 87%
11:00Sat 	 11c 	 90%
12:00Sat 	 11c 	 89%
13:00Sat 	 11c 	 90%
14:00Sat 	 11c 	 96%
15:00Sat 	 11c 	 99%
16:00Sat 	 11c 	 99%
17:00Sat 	 10c 	 98%
18:00Sat 	 10c 	 96%
19:00Sat 	 10c 	 98%
20:00Sat 	 10c 	 99%
21:00Sat 	 10c 	 96%
22:00Sat 	 10c 	 93%
23:00Sat 	 9c 	 89%


# /home/pi/Documents/bbc-weather-predictions/data/Nov02Sat/bbcweather_Saturday2ndNovember_2019-11-02_0730.txt
08:00Sat 	 10c 	 95%
09:00Sat 	 10c 	 86%
10:00Sat 	 11c 	 87%
11:00Sat 	 11c 	 90%
12:00Sat 	 11c 	 89%
13:00Sat 	 11c 	 90%
14:00Sat 	 11c 	 96%
15:00Sat 	 11c 	 99%
16:00Sat 	 11c 	 99%
17:00Sat 	 10c 	 98%
18:00Sat 	 10c 	 96%
19:00Sat 	 10c 	 98%
20:00Sat 	 10c 	 99%
21:00Sat 	 10c 	 96%
22:00Sat 	 10c 	 93%
23:00Sat 	 9c 	 89%


# /home/pi/Documents/bbc-weather-predictions/data/Nov02Sat/bbcweather_Saturday2ndNovember_2019-11-02_0745.txt
08:00Sat 	 10c 	 100%
09:00Sat 	 10c 	 100%
10:00Sat 	 11c 	 74%
11:00Sat 	 11c 	 79%
12:00Sat 	 11c 	 69%
13:00Sat 	 11c 	 72%
14:00Sat 	 11c 	 84%
15:00Sat 	 11c 	 93%
16:00Sat 	 11c 	 95%
17:00Sat 	 11c 	 95%
18:00Sat 	 10c 	 98%
19:00Sat 	 10c 	 100%
20:00Sat 	 10c 	 100%
21:00Sat 	 10c 	 100%
22:00Sat 	 10c 	 99%
23:00Sat 	 9c 	 98%


# /home/pi/Documents/bbc-weather-predictions/data/Nov02Sat/bbcweather_Saturday2ndNovember_2019-11-02_0800.txt
08:00Sat 	 10c 	 100%
09:00Sat 	 10c 	 100%
10:00Sat 	 11c 	 74%
11:00Sat 	 11c 	 79%
12:00Sat 	 11c 	 69%
13:00Sat 	 11c 	 72%
14:00Sat 	 11c 	 84%
15:00Sat 	 11c 	 93%
16:00Sat 	 11c 	 95%
17:00Sat 	 11c 	 95%
18:00Sat 	 10c 	 98%
19:00Sat 	 10c 	 100%
20:00Sat 	 10c 	 100%
21:00Sat 	 10c 	 100%
22:00Sat 	 10c 	 99%
23:00Sat 	 9c 	 98%


# /home/pi/Documents/bbc-weather-predictions/data/Nov02Sat/bbcweather_Saturday2ndNovember_2019-11-02_0815.txt
09:00Sat 	 10c 	 100%
10:00Sat 	 11c 	 74%
11:00Sat 	 11c 	 79%
12:00Sat 	 11c 	 69%
13:00Sat 	 11c 	 72%
14:00Sat 	 11c 	 84%
15:00Sat 	 11c 	 93%
16:00Sat 	 11c 	 95%
17:00Sat 	 11c 	 95%
18:00Sat 	 10c 	 98%
19:00Sat 	 10c 	 100%
20:00Sat 	 10c 	 100%
21:00Sat 	 10c 	 100%
22:00Sat 	 10c 	 99%
23:00Sat 	 9c 	 98%


# /home/pi/Documents/bbc-weather-predictions/data/Nov02Sat/bbcweather_Saturday2ndNovember_2019-11-02_0830.txt
09:00Sat 	 10c 	 100%
10:00Sat 	 11c 	 74%
11:00Sat 	 11c 	 79%
12:00Sat 	 11c 	 69%
13:00Sat 	 11c 	 72%
14:00Sat 	 11c 	 84%
15:00Sat 	 11c 	 93%
16:00Sat 	 11c 	 95%
17:00Sat 	 11c 	 95%
18:00Sat 	 10c 	 98%
19:00Sat 	 10c 	 100%
20:00Sat 	 10c 	 100%
21:00Sat 	 10c 	 100%
22:00Sat 	 10c 	 99%
23:00Sat 	 9c 	 98%


# /home/pi/Documents/bbc-weather-predictions/data/Nov02Sat/bbcweather_Saturday2ndNovember_2019-11-02_0845.txt
09:00Sat 	 10c 	 99%
10:00Sat 	 11c 	 79%
11:00Sat 	 11c 	 80%
12:00Sat 	 11c 	 70%
13:00Sat 	 11c 	 77%
14:00Sat 	 11c 	 92%
15:00Sat 	 11c 	 99%
16:00Sat 	 11c 	 99%
17:00Sat 	 11c 	 99%
18:00Sat 	 10c 	 99%
19:00Sat 	 10c 	 99%
20:00Sat 	 10c 	 100%
21:00Sat 	 10c 	 98%
22:00Sat 	 10c 	 95%
23:00Sat 	 10c 	 95%


# /home/pi/Documents/bbc-weather-predictions/data/Nov02Sat/bbcweather_Saturday2ndNovember_2019-11-02_0900.txt
09:00Sat 	 10c 	 99%
10:00Sat 	 11c 	 79%
11:00Sat 	 11c 	 80%
12:00Sat 	 11c 	 70%
13:00Sat 	 11c 	 77%
14:00Sat 	 11c 	 92%
15:00Sat 	 11c 	 99%
16:00Sat 	 11c 	 99%
17:00Sat 	 11c 	 99%
18:00Sat 	 10c 	 99%
19:00Sat 	 10c 	 99%
20:00Sat 	 10c 	 100%
21:00Sat 	 10c 	 98%
22:00Sat 	 10c 	 95%
23:00Sat 	 10c 	 95%


# /home/pi/Documents/bbc-weather-predictions/data/Nov02Sat/bbcweather_Saturday2ndNovember_2019-11-02_0915.txt
10:00Sat 	 11c 	 79%
11:00Sat 	 11c 	 80%
12:00Sat 	 11c 	 70%
13:00Sat 	 11c 	 77%
14:00Sat 	 11c 	 92%
15:00Sat 	 11c 	 99%
16:00Sat 	 11c 	 99%
17:00Sat 	 11c 	 99%
18:00Sat 	 10c 	 99%
19:00Sat 	 10c 	 99%
20:00Sat 	 10c 	 100%
21:00Sat 	 10c 	 98%
22:00Sat 	 10c 	 95%
23:00Sat 	 10c 	 95%


# /home/pi/Documents/bbc-weather-predictions/data/Nov02Sat/bbcweather_Saturday2ndNovember_2019-11-02_0930.txt
10:00Sat 	 11c 	 79%
11:00Sat 	 11c 	 80%
12:00Sat 	 11c 	 70%
13:00Sat 	 11c 	 77%
14:00Sat 	 11c 	 92%
15:00Sat 	 11c 	 99%
16:00Sat 	 11c 	 99%
17:00Sat 	 11c 	 99%
18:00Sat 	 10c 	 99%
19:00Sat 	 10c 	 99%
20:00Sat 	 10c 	 100%
21:00Sat 	 10c 	 98%
22:00Sat 	 10c 	 95%
23:00Sat 	 10c 	 95%


# /home/pi/Documents/bbc-weather-predictions/data/Nov02Sat/bbcweather_Saturday2ndNovember_2019-11-02_0945.txt
10:00Sat 	 10c 	 95%
11:00Sat 	 11c 	 4%
12:00Sat 	 11c 	 35%
13:00Sat 	 11c 	 76%
14:00Sat 	 11c 	 92%
15:00Sat 	 11c 	 99%
16:00Sat 	 11c 	 99%
17:00Sat 	 11c 	 99%
18:00Sat 	 10c 	 99%
19:00Sat 	 10c 	 99%
20:00Sat 	 10c 	 100%
21:00Sat 	 10c 	 98%
22:00Sat 	 10c 	 95%
23:00Sat 	 10c 	 95%


# /home/pi/Documents/bbc-weather-predictions/data/Nov02Sat/bbcweather_Saturday2ndNovember_2019-11-02_1000.txt
10:00Sat 	 10c 	 95%
11:00Sat 	 11c 	 4%
12:00Sat 	 11c 	 35%
13:00Sat 	 11c 	 76%
14:00Sat 	 11c 	 92%
15:00Sat 	 11c 	 99%
16:00Sat 	 11c 	 99%
17:00Sat 	 11c 	 99%
18:00Sat 	 10c 	 99%
19:00Sat 	 10c 	 99%
20:00Sat 	 10c 	 100%
21:00Sat 	 10c 	 98%
22:00Sat 	 10c 	 95%
23:00Sat 	 10c 	 95%


# /home/pi/Documents/bbc-weather-predictions/data/Nov02Sat/bbcweather_Saturday2ndNovember_2019-11-02_1015.txt
11:00Sat 	 11c 	 4%
12:00Sat 	 11c 	 35%
13:00Sat 	 11c 	 76%
14:00Sat 	 11c 	 92%
15:00Sat 	 11c 	 99%
16:00Sat 	 11c 	 99%
17:00Sat 	 11c 	 99%
18:00Sat 	 10c 	 99%
19:00Sat 	 10c 	 99%
20:00Sat 	 10c 	 100%
21:00Sat 	 10c 	 98%
22:00Sat 	 10c 	 95%
23:00Sat 	 10c 	 95%


# /home/pi/Documents/bbc-weather-predictions/data/Nov02Sat/bbcweather_Saturday2ndNovember_2019-11-02_1030.txt
11:00Sat 	 11c 	 4%
12:00Sat 	 11c 	 35%
13:00Sat 	 11c 	 76%
14:00Sat 	 11c 	 92%
15:00Sat 	 11c 	 99%
16:00Sat 	 11c 	 99%
17:00Sat 	 11c 	 99%
18:00Sat 	 10c 	 99%
19:00Sat 	 10c 	 99%
20:00Sat 	 10c 	 100%
21:00Sat 	 10c 	 98%
22:00Sat 	 10c 	 95%
23:00Sat 	 10c 	 95%


# /home/pi/Documents/bbc-weather-predictions/data/Nov02Sat/bbcweather_Saturday2ndNovember_2019-11-02_1045.txt
11:00Sat 	 11c 	 16%
12:00Sat 	 11c 	 32%
13:00Sat 	 11c 	 75%
14:00Sat 	 11c 	 91%
15:00Sat 	 11c 	 98%
16:00Sat 	 11c 	 99%
17:00Sat 	 11c 	 99%
18:00Sat 	 10c 	 99%
19:00Sat 	 10c 	 99%
20:00Sat 	 10c 	 100%
21:00Sat 	 10c 	 98%
22:00Sat 	 10c 	 95%
23:00Sat 	 10c 	 95%


# /home/pi/Documents/bbc-weather-predictions/data/Nov02Sat/bbcweather_Saturday2ndNovember_2019-11-02_1100.txt
11:00Sat 	 11c 	 16%
12:00Sat 	 11c 	 32%
13:00Sat 	 11c 	 75%
14:00Sat 	 11c 	 91%
15:00Sat 	 11c 	 98%
16:00Sat 	 11c 	 99%
17:00Sat 	 11c 	 99%
18:00Sat 	 10c 	 99%
19:00Sat 	 10c 	 99%
20:00Sat 	 10c 	 100%
21:00Sat 	 10c 	 98%
22:00Sat 	 10c 	 95%
23:00Sat 	 10c 	 95%


# /home/pi/Documents/bbc-weather-predictions/data/Nov02Sat/bbcweather_Saturday2ndNovember_2019-11-02_1115.txt
12:00Sat 	 11c 	 32%
13:00Sat 	 11c 	 75%
14:00Sat 	 11c 	 91%
15:00Sat 	 11c 	 98%
16:00Sat 	 11c 	 99%
17:00Sat 	 11c 	 99%
18:00Sat 	 10c 	 99%
19:00Sat 	 10c 	 99%
20:00Sat 	 10c 	 100%
21:00Sat 	 10c 	 98%
22:00Sat 	 10c 	 95%
23:00Sat 	 10c 	 95%


# /home/pi/Documents/bbc-weather-predictions/data/Nov02Sat/bbcweather_Saturday2ndNovember_2019-11-02_1130.txt
12:00Sat 	 11c 	 32%
13:00Sat 	 11c 	 75%
14:00Sat 	 11c 	 91%
15:00Sat 	 11c 	 98%
16:00Sat 	 11c 	 99%
17:00Sat 	 11c 	 99%
18:00Sat 	 10c 	 99%
19:00Sat 	 10c 	 99%
20:00Sat 	 10c 	 100%
21:00Sat 	 10c 	 98%
22:00Sat 	 10c 	 95%
23:00Sat 	 10c 	 95%


# /home/pi/Documents/bbc-weather-predictions/data/Nov02Sat/bbcweather_Saturday2ndNovember_2019-11-02_1145.txt
12:00Sat 	 11c 	 29%
13:00Sat 	 11c 	 97%
14:00Sat 	 11c 	 97%
15:00Sat 	 11c 	 99%
16:00Sat 	 11c 	 99%
17:00Sat 	 11c 	 99%
18:00Sat 	 10c 	 99%
19:00Sat 	 10c 	 99%
20:00Sat 	 10c 	 100%
21:00Sat 	 10c 	 98%
22:00Sat 	 10c 	 95%
23:00Sat 	 10c 	 95%


# /home/pi/Documents/bbc-weather-predictions/data/Nov02Sat/bbcweather_Saturday2ndNovember_2019-11-02_1200.txt
12:00Sat 	 11c 	 29%
13:00Sat 	 11c 	 97%
14:00Sat 	 11c 	 97%
15:00Sat 	 11c 	 99%
16:00Sat 	 11c 	 99%
17:00Sat 	 11c 	 99%
18:00Sat 	 10c 	 99%
19:00Sat 	 10c 	 99%
20:00Sat 	 10c 	 100%
21:00Sat 	 10c 	 98%
22:00Sat 	 10c 	 95%
23:00Sat 	 10c 	 95%


# /home/pi/Documents/bbc-weather-predictions/data/Nov02Sat/bbcweather_Saturday2ndNovember_2019-11-02_1215.txt
13:00Sat 	 11c 	 97%
14:00Sat 	 11c 	 97%
15:00Sat 	 11c 	 99%
16:00Sat 	 11c 	 99%
17:00Sat 	 11c 	 99%
18:00Sat 	 10c 	 99%
19:00Sat 	 10c 	 99%
20:00Sat 	 10c 	 100%
21:00Sat 	 10c 	 98%
22:00Sat 	 10c 	 95%
23:00Sat 	 10c 	 95%


# /home/pi/Documents/bbc-weather-predictions/data/Nov02Sat/bbcweather_Saturday2ndNovember_2019-11-02_1230.txt
13:00Sat 	 11c 	 97%
14:00Sat 	 11c 	 97%
15:00Sat 	 11c 	 99%
16:00Sat 	 11c 	 99%
17:00Sat 	 11c 	 99%
18:00Sat 	 10c 	 99%
19:00Sat 	 10c 	 99%
20:00Sat 	 10c 	 100%
21:00Sat 	 10c 	 98%
22:00Sat 	 10c 	 95%
23:00Sat 	 10c 	 95%


# /home/pi/Documents/bbc-weather-predictions/data/Nov02Sat/bbcweather_Saturday2ndNovember_2019-11-02_1245.txt
13:00Sat 	 11c 	 99%
14:00Sat 	 11c 	 99%
15:00Sat 	 11c 	 99%
16:00Sat 	 11c 	 99%
17:00Sat 	 11c 	 99%
18:00Sat 	 10c 	 99%
19:00Sat 	 10c 	 99%
20:00Sat 	 10c 	 100%
21:00Sat 	 10c 	 98%
22:00Sat 	 10c 	 95%
23:00Sat 	 10c 	 95%


# /home/pi/Documents/bbc-weather-predictions/data/Nov02Sat/bbcweather_Saturday2ndNovember_2019-11-02_1300.txt
13:00Sat 	 11c 	 99%
14:00Sat 	 11c 	 99%
15:00Sat 	 11c 	 99%
16:00Sat 	 11c 	 99%
17:00Sat 	 11c 	 99%
18:00Sat 	 10c 	 99%
19:00Sat 	 10c 	 99%
20:00Sat 	 10c 	 100%
21:00Sat 	 10c 	 98%
22:00Sat 	 10c 	 95%
23:00Sat 	 10c 	 95%


# /home/pi/Documents/bbc-weather-predictions/data/Nov02Sat/bbcweather_Saturday2ndNovember_2019-11-02_1315.txt
14:00Sat 	 11c 	 99%
15:00Sat 	 11c 	 99%
16:00Sat 	 11c 	 99%
17:00Sat 	 11c 	 99%
18:00Sat 	 10c 	 99%
19:00Sat 	 10c 	 99%
20:00Sat 	 10c 	 100%
21:00Sat 	 10c 	 98%
22:00Sat 	 10c 	 95%
23:00Sat 	 10c 	 95%


# /home/pi/Documents/bbc-weather-predictions/data/Nov02Sat/bbcweather_Saturday2ndNovember_2019-11-02_1330.txt
14:00Sat 	 11c 	 99%
15:00Sat 	 11c 	 99%
16:00Sat 	 11c 	 99%
17:00Sat 	 11c 	 99%
18:00Sat 	 10c 	 99%
19:00Sat 	 10c 	 99%
20:00Sat 	 10c 	 100%
21:00Sat 	 10c 	 98%
22:00Sat 	 10c 	 95%
23:00Sat 	 10c 	 95%


# /home/pi/Documents/bbc-weather-predictions/data/Nov02Sat/bbcweather_Saturday2ndNovember_2019-11-02_1345.txt
14:00Sat 	 11c 	 100%
15:00Sat 	 11c 	 100%
16:00Sat 	 11c 	 100%
17:00Sat 	 10c 	 99%
18:00Sat 	 10c 	 99%
19:00Sat 	 10c 	 99%
20:00Sat 	 10c 	 100%
21:00Sat 	 10c 	 98%
22:00Sat 	 10c 	 95%
23:00Sat 	 10c 	 95%


# /home/pi/Documents/bbc-weather-predictions/data/Nov02Sat/bbcweather_Saturday2ndNovember_2019-11-02_1400.txt
14:00Sat 	 11c 	 100%
15:00Sat 	 11c 	 100%
16:00Sat 	 11c 	 100%
17:00Sat 	 10c 	 99%
18:00Sat 	 10c 	 99%
19:00Sat 	 10c 	 99%
20:00Sat 	 10c 	 100%
21:00Sat 	 10c 	 98%
22:00Sat 	 10c 	 95%
23:00Sat 	 10c 	 95%


# /home/pi/Documents/bbc-weather-predictions/data/Nov02Sat/bbcweather_Saturday2ndNovember_2019-11-02_1415.txt
15:00Sat 	 11c 	 100%
16:00Sat 	 11c 	 100%
17:00Sat 	 10c 	 99%
18:00Sat 	 10c 	 99%
19:00Sat 	 10c 	 99%
20:00Sat 	 10c 	 100%
21:00Sat 	 10c 	 98%
22:00Sat 	 10c 	 95%
23:00Sat 	 10c 	 95%


# /home/pi/Documents/bbc-weather-predictions/data/Nov02Sat/bbcweather_Saturday2ndNovember_2019-11-02_1430.txt
15:00Sat 	 11c 	 100%
16:00Sat 	 11c 	 100%
17:00Sat 	 10c 	 99%
18:00Sat 	 10c 	 99%
19:00Sat 	 10c 	 99%
20:00Sat 	 10c 	 100%
21:00Sat 	 10c 	 98%
22:00Sat 	 10c 	 95%
23:00Sat 	 10c 	 95%


# /home/pi/Documents/bbc-weather-predictions/data/Nov02Sat/bbcweather_Saturday2ndNovember_2019-11-02_1445.txt
15:00Sat 	 11c 	 100%
16:00Sat 	 10c 	 100%
17:00Sat 	 10c 	 100%
18:00Sat 	 10c 	 99%
19:00Sat 	 10c 	 99%
20:00Sat 	 10c 	 100%
21:00Sat 	 10c 	 98%
22:00Sat 	 10c 	 95%
23:00Sat 	 10c 	 95%


# /home/pi/Documents/bbc-weather-predictions/data/Nov02Sat/bbcweather_Saturday2ndNovember_2019-11-02_1500.txt
15:00Sat 	 11c 	 100%
16:00Sat 	 10c 	 100%
17:00Sat 	 10c 	 100%
18:00Sat 	 10c 	 99%
19:00Sat 	 10c 	 99%
20:00Sat 	 10c 	 100%
21:00Sat 	 10c 	 98%
22:00Sat 	 10c 	 95%
23:00Sat 	 10c 	 95%


# /home/pi/Documents/bbc-weather-predictions/data/Nov02Sat/bbcweather_Saturday2ndNovember_2019-11-02_1515.txt
16:00Sat 	 10c 	 100%
17:00Sat 	 10c 	 100%
18:00Sat 	 10c 	 99%
19:00Sat 	 10c 	 99%
20:00Sat 	 10c 	 100%
21:00Sat 	 10c 	 98%
22:00Sat 	 10c 	 95%
23:00Sat 	 10c 	 95%


# /home/pi/Documents/bbc-weather-predictions/data/Nov02Sat/bbcweather_Saturday2ndNovember_2019-11-02_1530.txt
16:00Sat 	 10c 	 100%
17:00Sat 	 10c 	 100%
18:00Sat 	 10c 	 99%
19:00Sat 	 10c 	 99%
20:00Sat 	 10c 	 100%
21:00Sat 	 10c 	 98%
22:00Sat 	 10c 	 95%
23:00Sat 	 10c 	 95%


# /home/pi/Documents/bbc-weather-predictions/data/Nov02Sat/bbcweather_Saturday2ndNovember_2019-11-02_1545.txt
16:00Sat 	 10c 	 100%
17:00Sat 	 10c 	 100%
18:00Sat 	 10c 	 99%
19:00Sat 	 10c 	 99%
20:00Sat 	 10c 	 100%
21:00Sat 	 10c 	 98%
22:00Sat 	 10c 	 95%
23:00Sat 	 10c 	 95%


# /home/pi/Documents/bbc-weather-predictions/data/Nov02Sat/bbcweather_Saturday2ndNovember_2019-11-02_1600.txt
16:00Sat 	 10c 	 100%
17:00Sat 	 10c 	 100%
18:00Sat 	 10c 	 99%
19:00Sat 	 10c 	 99%
20:00Sat 	 10c 	 100%
21:00Sat 	 10c 	 98%
22:00Sat 	 10c 	 95%
23:00Sat 	 10c 	 95%


# /home/pi/Documents/bbc-weather-predictions/data/Nov02Sat/bbcweather_Saturday2ndNovember_2019-11-02_1615.txt
17:00Sat 	 10c 	 100%
18:00Sat 	 10c 	 99%
19:00Sat 	 10c 	 99%
20:00Sat 	 10c 	 100%
21:00Sat 	 10c 	 98%
22:00Sat 	 10c 	 95%
23:00Sat 	 10c 	 95%


# /home/pi/Documents/bbc-weather-predictions/data/Nov02Sat/bbcweather_Saturday2ndNovember_2019-11-02_1630.txt
17:00Sat 	 10c 	 100%
18:00Sat 	 10c 	 99%
19:00Sat 	 10c 	 99%
20:00Sat 	 10c 	 100%
21:00Sat 	 10c 	 98%
22:00Sat 	 10c 	 95%
23:00Sat 	 10c 	 95%


# /home/pi/Documents/bbc-weather-predictions/data/Nov02Sat/bbcweather_Saturday2ndNovember_2019-11-02_1645.txt
17:00Sat 	 10c 	 100%
18:00Sat 	 10c 	 100%
19:00Sat 	 10c 	 99%
20:00Sat 	 10c 	 100%
21:00Sat 	 10c 	 98%
22:00Sat 	 10c 	 95%
23:00Sat 	 10c 	 95%


# /home/pi/Documents/bbc-weather-predictions/data/Nov02Sat/bbcweather_Saturday2ndNovember_2019-11-02_1700.txt
17:00Sat 	 10c 	 100%
18:00Sat 	 10c 	 100%
19:00Sat 	 10c 	 99%
20:00Sat 	 10c 	 100%
21:00Sat 	 10c 	 98%
22:00Sat 	 10c 	 95%
23:00Sat 	 10c 	 95%


# /home/pi/Documents/bbc-weather-predictions/data/Nov02Sat/bbcweather_Saturday2ndNovember_2019-11-02_1715.txt
18:00Sat 	 10c 	 100%
19:00Sat 	 10c 	 99%
20:00Sat 	 10c 	 100%
21:00Sat 	 10c 	 98%
22:00Sat 	 10c 	 95%
23:00Sat 	 10c 	 95%


# /home/pi/Documents/bbc-weather-predictions/data/Nov02Sat/bbcweather_Saturday2ndNovember_2019-11-02_1730.txt
18:00Sat 	 10c 	 100%
19:00Sat 	 10c 	 99%
20:00Sat 	 10c 	 100%
21:00Sat 	 10c 	 98%
22:00Sat 	 10c 	 95%
23:00Sat 	 10c 	 95%


# /home/pi/Documents/bbc-weather-predictions/data/Nov02Sat/bbcweather_Saturday2ndNovember_2019-11-02_1745.txt
18:00Sat 	 10c 	 100%
19:00Sat 	 10c 	 100%
20:00Sat 	 10c 	 100%
21:00Sat 	 10c 	 98%
22:00Sat 	 10c 	 96%
23:00Sat 	 10c 	 96%


# /home/pi/Documents/bbc-weather-predictions/data/Nov02Sat/bbcweather_Saturday2ndNovember_2019-11-02_1800.txt
18:00Sat 	 10c 	 100%
19:00Sat 	 10c 	 100%
20:00Sat 	 10c 	 100%
21:00Sat 	 10c 	 98%
22:00Sat 	 10c 	 96%
23:00Sat 	 10c 	 96%


# /home/pi/Documents/bbc-weather-predictions/data/Nov02Sat/bbcweather_Saturday2ndNovember_2019-11-02_1815.txt
19:00Sat 	 10c 	 100%
20:00Sat 	 10c 	 100%
21:00Sat 	 10c 	 98%
22:00Sat 	 10c 	 96%
23:00Sat 	 10c 	 96%


# /home/pi/Documents/bbc-weather-predictions/data/Nov02Sat/bbcweather_Saturday2ndNovember_2019-11-02_1830.txt
19:00Sat 	 10c 	 100%
20:00Sat 	 10c 	 100%
21:00Sat 	 10c 	 98%
22:00Sat 	 10c 	 96%
23:00Sat 	 10c 	 96%


# /home/pi/Documents/bbc-weather-predictions/data/Nov02Sat/bbcweather_Saturday2ndNovember_2019-11-02_1845.txt
19:00Sat 	 10c 	 100%
20:00Sat 	 10c 	 100%
21:00Sat 	 10c 	 98%
22:00Sat 	 10c 	 96%
23:00Sat 	 10c 	 96%


# /home/pi/Documents/bbc-weather-predictions/data/Nov02Sat/bbcweather_Saturday2ndNovember_2019-11-02_1900.txt
19:00Sat 	 10c 	 100%
20:00Sat 	 10c 	 100%
21:00Sat 	 10c 	 98%
22:00Sat 	 10c 	 96%
23:00Sat 	 10c 	 96%


# /home/pi/Documents/bbc-weather-predictions/data/Nov02Sat/bbcweather_Saturday2ndNovember_2019-11-02_1915.txt
20:00Sat 	 10c 	 100%
21:00Sat 	 10c 	 98%
22:00Sat 	 10c 	 96%
23:00Sat 	 10c 	 96%


# /home/pi/Documents/bbc-weather-predictions/data/Nov02Sat/bbcweather_Saturday2ndNovember_2019-11-02_1930.txt
20:00Sat 	 10c 	 100%
21:00Sat 	 10c 	 98%
22:00Sat 	 10c 	 96%
23:00Sat 	 10c 	 96%


# /home/pi/Documents/bbc-weather-predictions/data/Nov02Sat/bbcweather_Saturday2ndNovember_2019-11-02_1945.txt
20:00Sat 	 9c 	 100%
21:00Sat 	 10c 	 100%
22:00Sat 	 10c 	 98%
23:00Sat 	 9c 	 96%


# /home/pi/Documents/bbc-weather-predictions/data/Nov02Sat/bbcweather_Saturday2ndNovember_2019-11-02_2000.txt
20:00Sat 	 9c 	 100%
21:00Sat 	 10c 	 100%
22:00Sat 	 10c 	 98%
23:00Sat 	 9c 	 96%


# /home/pi/Documents/bbc-weather-predictions/data/Nov02Sat/bbcweather_Saturday2ndNovember_2019-11-02_2015.txt
21:00Sat 	 10c 	 100%
22:00Sat 	 10c 	 98%
23:00Sat 	 9c 	 96%


# /home/pi/Documents/bbc-weather-predictions/data/Nov02Sat/bbcweather_Saturday2ndNovember_2019-11-02_2030.txt
21:00Sat 	 10c 	 100%
22:00Sat 	 10c 	 98%
23:00Sat 	 9c 	 96%


# /home/pi/Documents/bbc-weather-predictions/data/Nov02Sat/bbcweather_Saturday2ndNovember_2019-11-02_2045.txt
21:00Sat 	 9c 	 88%
22:00Sat 	 9c 	 90%
23:00Sat 	 9c 	 96%


# /home/pi/Documents/bbc-weather-predictions/data/Nov02Sat/bbcweather_Saturday2ndNovember_2019-11-02_2100.txt
21:00Sat 	 9c 	 88%
22:00Sat 	 9c 	 90%
23:00Sat 	 9c 	 96%


# /home/pi/Documents/bbc-weather-predictions/data/Nov02Sat/bbcweather_Saturday2ndNovember_2019-11-02_2115.txt
22:00Sat 	 9c 	 90%
23:00Sat 	 9c 	 96%


# /home/pi/Documents/bbc-weather-predictions/data/Nov02Sat/bbcweather_Saturday2ndNovember_2019-11-02_2130.txt
22:00Sat 	 9c 	 90%
23:00Sat 	 9c 	 96%


# /home/pi/Documents/bbc-weather-predictions/data/Nov02Sat/bbcweather_Saturday2ndNovember_2019-11-02_2145.txt
22:00Sat 	 9c 	 100%
23:00Sat 	 9c 	 98%


# /home/pi/Documents/bbc-weather-predictions/data/Nov02Sat/bbcweather_Saturday2ndNovember_2019-11-02_2200.txt
22:00Sat 	 9c 	 100%
23:00Sat 	 9c 	 98%


# /home/pi/Documents/bbc-weather-predictions/data/Nov02Sat/bbcweather_Saturday2ndNovember_2019-11-02_2215.txt
23:00Sat 	 9c 	 98%


# /home/pi/Documents/bbc-weather-predictions/data/Nov02Sat/bbcweather_Saturday2ndNovember_2019-11-02_2230.txt
23:00Sat 	 9c 	 98%


# /home/pi/Documents/bbc-weather-predictions/data/Nov02Sat/bbcweather_Saturday2ndNovember_2019-11-02_2245.txt
23:00Sat 	 9c 	 99%


# /home/pi/Documents/bbc-weather-predictions/data/Nov02Sat/bbcweather_Saturday2ndNovember_2019-11-02_2300.txt
23:00Sat 	 9c 	 99%


# /home/pi/Documents/bbc-weather-predictions/data/Nov02Sat/bbcweather_Saturday2ndNovember_2019-11-02_2315.txt
# /home/pi/Documents/bbc-weather-predictions/data/Nov02Sat/bbcweather_Saturday2ndNovember_2019-11-02_2330.txt
# /home/pi/Documents/bbc-weather-predictions/data/Nov02Sat/bbcweather_Saturday2ndNovember_2019-11-02_2345.txt
