
# /home/pi/Documents/bbc-weather-predictions/data/Feb10Wed/bbcweather_Tuesday9thFebruary_2021-02-10_0000.txt
# time 	 temp 	 rain
00:00Wed 	 2c 	 4%
01:00Wed 	 2c 	 89%
02:00Wed 	 2c 	 52%
03:00Wed 	 2c 	 5%
04:00Wed 	 2c 	 4%
05:00Wed 	 2c 	 3%
06:00Wed 	 2c 	 3%
07:00Wed 	 2c 	 4%
08:00Wed 	 2c 	 6%
09:00Wed 	 1c 	 7%
10:00Wed 	 0c 	 7%
11:00Wed 	 1c 	 7%
12:00Wed 	 1c 	 7%
13:00Wed 	 2c 	 7%
14:00Wed 	 2c 	 6%
15:00Wed 	 2c 	 5%
16:00Wed 	 1c 	 4%
17:00Wed 	 1c 	 3%
18:00Wed 	 0c 	 2%
19:00Wed 	 1c 	 1%
20:00Wed 	 2c 	 1%
21:00Wed 	 2c 	 1%
22:00Wed 	 2c 	 2%
23:00Wed 	 3c 	 3%
00:00Thu 	 3c 	 2%
01:00Thu 	 3c 	 2%
02:00Thu 	 3c 	 3%
03:00Thu 	 3c 	 4%
04:00Thu 	 3c 	 3%
05:00Thu 	 3c 	 2%

# /home/pi/Documents/bbc-weather-predictions/data/Feb10Wed/bbcweather_Tuesday9thFebruary_2021-02-10_0015.txt
# time 	 temp 	 rain
01:00Wed 	 2c 	 89%
02:00Wed 	 2c 	 52%
03:00Wed 	 2c 	 5%
04:00Wed 	 2c 	 4%
05:00Wed 	 2c 	 3%
06:00Wed 	 2c 	 3%
07:00Wed 	 2c 	 4%
08:00Wed 	 2c 	 6%
09:00Wed 	 1c 	 7%
10:00Wed 	 0c 	 7%
11:00Wed 	 1c 	 7%
12:00Wed 	 1c 	 7%
13:00Wed 	 2c 	 7%
14:00Wed 	 2c 	 6%
15:00Wed 	 2c 	 5%
16:00Wed 	 1c 	 4%
17:00Wed 	 1c 	 3%
18:00Wed 	 0c 	 2%
19:00Wed 	 1c 	 1%
20:00Wed 	 2c 	 1%
21:00Wed 	 2c 	 1%
22:00Wed 	 2c 	 2%
23:00Wed 	 3c 	 3%
00:00Thu 	 3c 	 2%
01:00Thu 	 3c 	 2%
02:00Thu 	 3c 	 3%
03:00Thu 	 3c 	 4%
04:00Thu 	 3c 	 3%
05:00Thu 	 3c 	 2%

# /home/pi/Documents/bbc-weather-predictions/data/Feb10Wed/bbcweather_Tuesday9thFebruary_2021-02-10_0030.txt
# time 	 temp 	 rain
01:00Wed 	 2c 	 89%
02:00Wed 	 2c 	 52%
03:00Wed 	 2c 	 5%
04:00Wed 	 2c 	 4%
05:00Wed 	 2c 	 3%
06:00Wed 	 2c 	 3%
07:00Wed 	 2c 	 4%
08:00Wed 	 2c 	 6%
09:00Wed 	 1c 	 7%
10:00Wed 	 0c 	 7%
11:00Wed 	 1c 	 7%
12:00Wed 	 1c 	 7%
13:00Wed 	 2c 	 7%
14:00Wed 	 2c 	 6%
15:00Wed 	 2c 	 5%
16:00Wed 	 1c 	 4%
17:00Wed 	 1c 	 3%
18:00Wed 	 0c 	 2%
19:00Wed 	 1c 	 1%
20:00Wed 	 2c 	 1%
21:00Wed 	 2c 	 1%
22:00Wed 	 2c 	 2%
23:00Wed 	 3c 	 3%
00:00Thu 	 3c 	 2%
01:00Thu 	 3c 	 2%
02:00Thu 	 3c 	 3%
03:00Thu 	 3c 	 4%
04:00Thu 	 3c 	 3%
05:00Thu 	 3c 	 2%

# /home/pi/Documents/bbc-weather-predictions/data/Feb10Wed/bbcweather_Tuesday9thFebruary_2021-02-10_0045.txt
# time 	 temp 	 rain
01:00Wed 	 2c 	 89%
02:00Wed 	 2c 	 52%
03:00Wed 	 2c 	 5%
04:00Wed 	 2c 	 4%
05:00Wed 	 2c 	 3%
06:00Wed 	 2c 	 3%
07:00Wed 	 2c 	 4%
08:00Wed 	 2c 	 6%
09:00Wed 	 1c 	 7%
10:00Wed 	 0c 	 7%
11:00Wed 	 1c 	 7%
12:00Wed 	 1c 	 7%
13:00Wed 	 2c 	 7%
14:00Wed 	 2c 	 6%
15:00Wed 	 2c 	 5%
16:00Wed 	 1c 	 4%
17:00Wed 	 1c 	 3%
18:00Wed 	 0c 	 2%
19:00Wed 	 1c 	 1%
20:00Wed 	 2c 	 1%
21:00Wed 	 2c 	 1%
22:00Wed 	 2c 	 2%
23:00Wed 	 3c 	 3%
00:00Thu 	 3c 	 2%
01:00Thu 	 3c 	 2%
02:00Thu 	 3c 	 3%
03:00Thu 	 3c 	 4%
04:00Thu 	 3c 	 3%
05:00Thu 	 3c 	 2%

# /home/pi/Documents/bbc-weather-predictions/data/Feb10Wed/bbcweather_Tuesday9thFebruary_2021-02-10_0100.txt
# time 	 temp 	 rain
01:00Wed 	 2c 	 89%
02:00Wed 	 2c 	 52%
03:00Wed 	 2c 	 5%
04:00Wed 	 2c 	 4%
05:00Wed 	 2c 	 3%
06:00Wed 	 2c 	 3%
07:00Wed 	 2c 	 4%
08:00Wed 	 2c 	 6%
09:00Wed 	 1c 	 7%
10:00Wed 	 0c 	 7%
11:00Wed 	 1c 	 7%
12:00Wed 	 1c 	 7%
13:00Wed 	 2c 	 7%
14:00Wed 	 2c 	 6%
15:00Wed 	 2c 	 5%
16:00Wed 	 1c 	 4%
17:00Wed 	 1c 	 3%
18:00Wed 	 0c 	 2%
19:00Wed 	 1c 	 1%
20:00Wed 	 2c 	 1%
21:00Wed 	 2c 	 1%
22:00Wed 	 2c 	 2%
23:00Wed 	 3c 	 3%
00:00Thu 	 3c 	 2%
01:00Thu 	 3c 	 2%
02:00Thu 	 3c 	 3%
03:00Thu 	 3c 	 4%
04:00Thu 	 3c 	 3%
05:00Thu 	 3c 	 2%

# /home/pi/Documents/bbc-weather-predictions/data/Feb10Wed/bbcweather_Tuesday9thFebruary_2021-02-10_0115.txt
# time 	 temp 	 rain
02:00Wed 	 2c 	 10%
03:00Wed 	 2c 	 47%
04:00Wed 	 2c 	 4%
05:00Wed 	 2c 	 3%
06:00Wed 	 2c 	 3%
07:00Wed 	 2c 	 4%
08:00Wed 	 2c 	 6%
09:00Wed 	 1c 	 7%
10:00Wed 	 0c 	 7%
11:00Wed 	 1c 	 7%
12:00Wed 	 1c 	 7%
13:00Wed 	 2c 	 7%
14:00Wed 	 2c 	 6%
15:00Wed 	 2c 	 5%
16:00Wed 	 1c 	 4%
17:00Wed 	 1c 	 3%
18:00Wed 	 0c 	 2%
19:00Wed 	 1c 	 1%
20:00Wed 	 2c 	 1%
21:00Wed 	 2c 	 1%
22:00Wed 	 2c 	 2%
23:00Wed 	 3c 	 3%
00:00Thu 	 3c 	 2%
01:00Thu 	 3c 	 2%
02:00Thu 	 3c 	 3%
03:00Thu 	 3c 	 4%
04:00Thu 	 3c 	 3%
05:00Thu 	 3c 	 2%

# /home/pi/Documents/bbc-weather-predictions/data/Feb10Wed/bbcweather_Tuesday9thFebruary_2021-02-10_0130.txt
# time 	 temp 	 rain
02:00Wed 	 2c 	 10%
03:00Wed 	 2c 	 47%
04:00Wed 	 2c 	 4%
05:00Wed 	 2c 	 3%
06:00Wed 	 2c 	 3%
07:00Wed 	 2c 	 4%
08:00Wed 	 2c 	 6%
09:00Wed 	 1c 	 7%
10:00Wed 	 0c 	 7%
11:00Wed 	 1c 	 7%
12:00Wed 	 1c 	 7%
13:00Wed 	 2c 	 7%
14:00Wed 	 2c 	 6%
15:00Wed 	 2c 	 5%
16:00Wed 	 1c 	 4%
17:00Wed 	 1c 	 3%
18:00Wed 	 0c 	 2%
19:00Wed 	 1c 	 1%
20:00Wed 	 2c 	 1%
21:00Wed 	 2c 	 1%
22:00Wed 	 2c 	 2%
23:00Wed 	 3c 	 3%
00:00Thu 	 3c 	 2%
01:00Thu 	 3c 	 2%
02:00Thu 	 3c 	 3%
03:00Thu 	 3c 	 4%
04:00Thu 	 3c 	 3%
05:00Thu 	 3c 	 2%

# /home/pi/Documents/bbc-weather-predictions/data/Feb10Wed/bbcweather_Tuesday9thFebruary_2021-02-10_0145.txt
# time 	 temp 	 rain
02:00Wed 	 2c 	 10%
03:00Wed 	 2c 	 47%
04:00Wed 	 2c 	 4%
05:00Wed 	 2c 	 3%
06:00Wed 	 2c 	 3%
07:00Wed 	 2c 	 4%
08:00Wed 	 2c 	 6%
09:00Wed 	 1c 	 7%
10:00Wed 	 0c 	 7%
11:00Wed 	 1c 	 7%
12:00Wed 	 1c 	 7%
13:00Wed 	 2c 	 7%
14:00Wed 	 2c 	 6%
15:00Wed 	 2c 	 5%
16:00Wed 	 1c 	 4%
17:00Wed 	 1c 	 3%
18:00Wed 	 0c 	 2%
19:00Wed 	 1c 	 1%
20:00Wed 	 2c 	 1%
21:00Wed 	 2c 	 1%
22:00Wed 	 2c 	 2%
23:00Wed 	 3c 	 3%
00:00Thu 	 3c 	 2%
01:00Thu 	 3c 	 2%
02:00Thu 	 3c 	 3%
03:00Thu 	 3c 	 4%
04:00Thu 	 3c 	 3%
05:00Thu 	 3c 	 2%

# /home/pi/Documents/bbc-weather-predictions/data/Feb10Wed/bbcweather_Tuesday9thFebruary_2021-02-10_0200.txt
# time 	 temp 	 rain
02:00Wed 	 2c 	 10%
03:00Wed 	 2c 	 47%
04:00Wed 	 2c 	 4%
05:00Wed 	 2c 	 3%
06:00Wed 	 2c 	 3%
07:00Wed 	 2c 	 4%
08:00Wed 	 2c 	 6%
09:00Wed 	 1c 	 7%
10:00Wed 	 0c 	 7%
11:00Wed 	 1c 	 7%
12:00Wed 	 1c 	 7%
13:00Wed 	 2c 	 7%
14:00Wed 	 2c 	 6%
15:00Wed 	 2c 	 5%
16:00Wed 	 1c 	 4%
17:00Wed 	 1c 	 3%
18:00Wed 	 0c 	 2%
19:00Wed 	 1c 	 1%
20:00Wed 	 2c 	 1%
21:00Wed 	 2c 	 1%
22:00Wed 	 2c 	 2%
23:00Wed 	 3c 	 3%
00:00Thu 	 3c 	 2%
01:00Thu 	 3c 	 2%
02:00Thu 	 3c 	 3%
03:00Thu 	 3c 	 4%
04:00Thu 	 3c 	 3%
05:00Thu 	 3c 	 2%

# /home/pi/Documents/bbc-weather-predictions/data/Feb10Wed/bbcweather_Tuesday9thFebruary_2021-02-10_0215.txt
# time 	 temp 	 rain
03:00Wed 	 2c 	 18%
04:00Wed 	 2c 	 60%
05:00Wed 	 2c 	 3%
06:00Wed 	 2c 	 3%
07:00Wed 	 2c 	 4%
08:00Wed 	 2c 	 6%
09:00Wed 	 1c 	 7%
10:00Wed 	 0c 	 7%
11:00Wed 	 1c 	 7%
12:00Wed 	 1c 	 7%
13:00Wed 	 2c 	 7%
14:00Wed 	 2c 	 6%
15:00Wed 	 2c 	 5%
16:00Wed 	 1c 	 4%
17:00Wed 	 1c 	 3%
18:00Wed 	 0c 	 2%
19:00Wed 	 1c 	 1%
20:00Wed 	 2c 	 1%
21:00Wed 	 2c 	 1%
22:00Wed 	 2c 	 2%
23:00Wed 	 3c 	 3%
00:00Thu 	 3c 	 2%
01:00Thu 	 3c 	 2%
02:00Thu 	 3c 	 3%
03:00Thu 	 3c 	 4%
04:00Thu 	 3c 	 3%
05:00Thu 	 3c 	 2%

# /home/pi/Documents/bbc-weather-predictions/data/Feb10Wed/bbcweather_Tuesday9thFebruary_2021-02-10_0230.txt
# time 	 temp 	 rain
03:00Wed 	 2c 	 18%
04:00Wed 	 2c 	 60%
05:00Wed 	 2c 	 3%
06:00Wed 	 2c 	 3%
07:00Wed 	 2c 	 4%
08:00Wed 	 2c 	 6%
09:00Wed 	 1c 	 7%
10:00Wed 	 0c 	 7%
11:00Wed 	 1c 	 7%
12:00Wed 	 1c 	 7%
13:00Wed 	 2c 	 7%
14:00Wed 	 2c 	 6%
15:00Wed 	 2c 	 5%
16:00Wed 	 1c 	 4%
17:00Wed 	 1c 	 3%
18:00Wed 	 0c 	 2%
19:00Wed 	 1c 	 1%
20:00Wed 	 2c 	 1%
21:00Wed 	 2c 	 1%
22:00Wed 	 2c 	 2%
23:00Wed 	 3c 	 3%
00:00Thu 	 3c 	 2%
01:00Thu 	 3c 	 2%
02:00Thu 	 3c 	 3%
03:00Thu 	 3c 	 4%
04:00Thu 	 3c 	 3%
05:00Thu 	 3c 	 2%

# /home/pi/Documents/bbc-weather-predictions/data/Feb10Wed/bbcweather_Tuesday9thFebruary_2021-02-10_0245.txt
# time 	 temp 	 rain
03:00Wed 	 2c 	 18%
04:00Wed 	 2c 	 60%
05:00Wed 	 2c 	 3%
06:00Wed 	 2c 	 3%
07:00Wed 	 2c 	 4%
08:00Wed 	 2c 	 6%
09:00Wed 	 1c 	 7%
10:00Wed 	 0c 	 7%
11:00Wed 	 1c 	 7%
12:00Wed 	 1c 	 7%
13:00Wed 	 2c 	 7%
14:00Wed 	 2c 	 6%
15:00Wed 	 2c 	 5%
16:00Wed 	 1c 	 4%
17:00Wed 	 1c 	 3%
18:00Wed 	 0c 	 2%
19:00Wed 	 1c 	 1%
20:00Wed 	 2c 	 1%
21:00Wed 	 2c 	 1%
22:00Wed 	 2c 	 2%
23:00Wed 	 3c 	 3%
00:00Thu 	 3c 	 2%
01:00Thu 	 3c 	 2%
02:00Thu 	 3c 	 3%
03:00Thu 	 3c 	 4%
04:00Thu 	 3c 	 3%
05:00Thu 	 3c 	 2%

# /home/pi/Documents/bbc-weather-predictions/data/Feb10Wed/bbcweather_Tuesday9thFebruary_2021-02-10_0300.txt
# time 	 temp 	 rain
03:00Wed 	 2c 	 43%
04:00Wed 	 2c 	 94%
05:00Wed 	 2c 	 32%
06:00Wed 	 3c 	 3%
07:00Wed 	 2c 	 4%
08:00Wed 	 2c 	 6%
09:00Wed 	 1c 	 7%
10:00Wed 	 0c 	 7%
11:00Wed 	 1c 	 7%
12:00Wed 	 1c 	 7%
13:00Wed 	 2c 	 7%
14:00Wed 	 2c 	 6%
15:00Wed 	 2c 	 5%
16:00Wed 	 1c 	 4%
17:00Wed 	 1c 	 3%
18:00Wed 	 0c 	 2%
19:00Wed 	 1c 	 1%
20:00Wed 	 2c 	 1%
21:00Wed 	 2c 	 1%
22:00Wed 	 2c 	 2%
23:00Wed 	 3c 	 3%
00:00Thu 	 3c 	 2%
01:00Thu 	 3c 	 2%
02:00Thu 	 3c 	 3%
03:00Thu 	 3c 	 4%
04:00Thu 	 3c 	 3%
05:00Thu 	 3c 	 2%

# /home/pi/Documents/bbc-weather-predictions/data/Feb10Wed/bbcweather_Tuesday9thFebruary_2021-02-10_0315.txt
# time 	 temp 	 rain
04:00Wed 	 2c 	 94%
05:00Wed 	 2c 	 32%
06:00Wed 	 3c 	 3%
07:00Wed 	 2c 	 4%
08:00Wed 	 2c 	 6%
09:00Wed 	 1c 	 7%
10:00Wed 	 0c 	 7%
11:00Wed 	 1c 	 7%
12:00Wed 	 1c 	 7%
13:00Wed 	 2c 	 7%
14:00Wed 	 2c 	 6%
15:00Wed 	 2c 	 5%
16:00Wed 	 1c 	 4%
17:00Wed 	 1c 	 3%
18:00Wed 	 0c 	 2%
19:00Wed 	 1c 	 1%
20:00Wed 	 2c 	 1%
21:00Wed 	 2c 	 1%
22:00Wed 	 2c 	 2%
23:00Wed 	 3c 	 3%
00:00Thu 	 3c 	 2%
01:00Thu 	 3c 	 2%
02:00Thu 	 3c 	 3%
03:00Thu 	 3c 	 4%
04:00Thu 	 3c 	 3%
05:00Thu 	 3c 	 2%

# /home/pi/Documents/bbc-weather-predictions/data/Feb10Wed/bbcweather_Tuesday9thFebruary_2021-02-10_0330.txt
# time 	 temp 	 rain
04:00Wed 	 2c 	 94%
05:00Wed 	 2c 	 32%
06:00Wed 	 3c 	 3%
07:00Wed 	 2c 	 4%
08:00Wed 	 2c 	 6%
09:00Wed 	 1c 	 7%
10:00Wed 	 0c 	 7%
11:00Wed 	 1c 	 7%
12:00Wed 	 1c 	 7%
13:00Wed 	 2c 	 7%
14:00Wed 	 2c 	 6%
15:00Wed 	 2c 	 5%
16:00Wed 	 1c 	 4%
17:00Wed 	 1c 	 3%
18:00Wed 	 0c 	 2%
19:00Wed 	 1c 	 1%
20:00Wed 	 2c 	 1%
21:00Wed 	 2c 	 1%
22:00Wed 	 2c 	 2%
23:00Wed 	 3c 	 3%
00:00Thu 	 3c 	 2%
01:00Thu 	 3c 	 2%
02:00Thu 	 3c 	 3%
03:00Thu 	 3c 	 4%
04:00Thu 	 3c 	 3%
05:00Thu 	 3c 	 2%

# /home/pi/Documents/bbc-weather-predictions/data/Feb10Wed/bbcweather_Tuesday9thFebruary_2021-02-10_0345.txt
# time 	 temp 	 rain
04:00Wed 	 2c 	 94%
05:00Wed 	 2c 	 32%
06:00Wed 	 3c 	 3%
07:00Wed 	 2c 	 4%
08:00Wed 	 2c 	 6%
09:00Wed 	 1c 	 7%
10:00Wed 	 0c 	 7%
11:00Wed 	 1c 	 7%
12:00Wed 	 1c 	 7%
13:00Wed 	 2c 	 7%
14:00Wed 	 2c 	 6%
15:00Wed 	 2c 	 5%
16:00Wed 	 1c 	 4%
17:00Wed 	 1c 	 3%
18:00Wed 	 0c 	 2%
19:00Wed 	 1c 	 1%
20:00Wed 	 2c 	 1%
21:00Wed 	 2c 	 1%
22:00Wed 	 2c 	 2%
23:00Wed 	 3c 	 3%
00:00Thu 	 3c 	 2%
01:00Thu 	 3c 	 2%
02:00Thu 	 3c 	 3%
03:00Thu 	 3c 	 4%
04:00Thu 	 3c 	 3%
05:00Thu 	 3c 	 2%

# /home/pi/Documents/bbc-weather-predictions/data/Feb10Wed/bbcweather_Tuesday9thFebruary_2021-02-10_0400.txt
# time 	 temp 	 rain
04:00Wed 	 2c 	 1%
05:00Wed 	 2c 	 1%
06:00Wed 	 3c 	 13%
07:00Wed 	 3c 	 4%
08:00Wed 	 2c 	 6%
09:00Wed 	 1c 	 7%
10:00Wed 	 0c 	 7%
11:00Wed 	 1c 	 7%
12:00Wed 	 1c 	 7%
13:00Wed 	 2c 	 7%
14:00Wed 	 2c 	 6%
15:00Wed 	 2c 	 5%
16:00Wed 	 1c 	 4%
17:00Wed 	 1c 	 3%
18:00Wed 	 0c 	 2%
19:00Wed 	 1c 	 1%
20:00Wed 	 2c 	 1%
21:00Wed 	 2c 	 1%
22:00Wed 	 2c 	 2%
23:00Wed 	 3c 	 3%
00:00Thu 	 3c 	 2%
01:00Thu 	 3c 	 2%
02:00Thu 	 3c 	 3%
03:00Thu 	 3c 	 4%
04:00Thu 	 3c 	 3%
05:00Thu 	 3c 	 2%

# /home/pi/Documents/bbc-weather-predictions/data/Feb10Wed/bbcweather_Tuesday9thFebruary_2021-02-10_0415.txt
# time 	 temp 	 rain
05:00Wed 	 2c 	 1%
06:00Wed 	 3c 	 13%
07:00Wed 	 3c 	 4%
08:00Wed 	 2c 	 6%
09:00Wed 	 1c 	 7%
10:00Wed 	 0c 	 7%
11:00Wed 	 1c 	 7%
12:00Wed 	 1c 	 7%
13:00Wed 	 2c 	 7%
14:00Wed 	 2c 	 6%
15:00Wed 	 2c 	 5%
16:00Wed 	 1c 	 4%
17:00Wed 	 1c 	 3%
18:00Wed 	 0c 	 2%
19:00Wed 	 1c 	 1%
20:00Wed 	 2c 	 1%
21:00Wed 	 2c 	 1%
22:00Wed 	 2c 	 2%
23:00Wed 	 3c 	 3%
00:00Thu 	 3c 	 2%
01:00Thu 	 3c 	 2%
02:00Thu 	 3c 	 3%
03:00Thu 	 3c 	 4%
04:00Thu 	 3c 	 3%
05:00Thu 	 3c 	 2%

# /home/pi/Documents/bbc-weather-predictions/data/Feb10Wed/bbcweather_Tuesday9thFebruary_2021-02-10_0430.txt
# time 	 temp 	 rain
05:00Wed 	 2c 	 1%
06:00Wed 	 3c 	 13%
07:00Wed 	 3c 	 4%
08:00Wed 	 2c 	 6%
09:00Wed 	 1c 	 7%
10:00Wed 	 0c 	 7%
11:00Wed 	 1c 	 7%
12:00Wed 	 1c 	 7%
13:00Wed 	 2c 	 7%
14:00Wed 	 2c 	 6%
15:00Wed 	 2c 	 5%
16:00Wed 	 1c 	 4%
17:00Wed 	 1c 	 3%
18:00Wed 	 0c 	 2%
19:00Wed 	 1c 	 1%
20:00Wed 	 2c 	 1%
21:00Wed 	 2c 	 1%
22:00Wed 	 2c 	 2%
23:00Wed 	 3c 	 3%
00:00Thu 	 3c 	 2%
01:00Thu 	 3c 	 2%
02:00Thu 	 3c 	 3%
03:00Thu 	 3c 	 4%
04:00Thu 	 3c 	 3%
05:00Thu 	 3c 	 2%

# /home/pi/Documents/bbc-weather-predictions/data/Feb10Wed/bbcweather_Tuesday9thFebruary_2021-02-10_0445.txt
# time 	 temp 	 rain
05:00Wed 	 2c 	 1%
06:00Wed 	 3c 	 13%
07:00Wed 	 3c 	 4%
08:00Wed 	 2c 	 6%
09:00Wed 	 1c 	 7%
10:00Wed 	 0c 	 7%
11:00Wed 	 1c 	 7%
12:00Wed 	 1c 	 7%
13:00Wed 	 2c 	 7%
14:00Wed 	 2c 	 6%
15:00Wed 	 2c 	 5%
16:00Wed 	 1c 	 4%
17:00Wed 	 1c 	 3%
18:00Wed 	 0c 	 2%
19:00Wed 	 1c 	 1%
20:00Wed 	 2c 	 1%
21:00Wed 	 2c 	 1%
22:00Wed 	 2c 	 2%
23:00Wed 	 3c 	 3%
00:00Thu 	 3c 	 2%
01:00Thu 	 3c 	 2%
02:00Thu 	 3c 	 3%
03:00Thu 	 3c 	 4%
04:00Thu 	 3c 	 3%
05:00Thu 	 3c 	 2%

# /home/pi/Documents/bbc-weather-predictions/data/Feb10Wed/bbcweather_Tuesday9thFebruary_2021-02-10_0500.txt
# time 	 temp 	 rain
05:00Wed 	 3c 	 0%
06:00Wed 	 3c 	 20%
07:00Wed 	 3c 	 60%
08:00Wed 	 2c 	 6%
09:00Wed 	 1c 	 7%
10:00Wed 	 0c 	 7%
11:00Wed 	 1c 	 7%
12:00Wed 	 1c 	 7%
13:00Wed 	 2c 	 7%
14:00Wed 	 2c 	 6%
15:00Wed 	 2c 	 5%
16:00Wed 	 1c 	 4%
17:00Wed 	 1c 	 3%
18:00Wed 	 0c 	 2%
19:00Wed 	 1c 	 1%
20:00Wed 	 2c 	 1%
21:00Wed 	 2c 	 1%
22:00Wed 	 2c 	 2%
23:00Wed 	 3c 	 3%
00:00Thu 	 3c 	 2%
01:00Thu 	 3c 	 2%
02:00Thu 	 3c 	 3%
03:00Thu 	 3c 	 4%
04:00Thu 	 3c 	 3%
05:00Thu 	 3c 	 2%

# /home/pi/Documents/bbc-weather-predictions/data/Feb10Wed/bbcweather_Wednesday10thFebruary_2021-02-10_0515.txt
# time 	 temp 	 rain
06:00Wed 	 3c 	 20%
07:00Wed 	 3c 	 60%
08:00Wed 	 2c 	 6%
09:00Wed 	 1c 	 7%
10:00Wed 	 0c 	 7%
11:00Wed 	 1c 	 7%
12:00Wed 	 1c 	 7%
13:00Wed 	 2c 	 7%
14:00Wed 	 2c 	 6%
15:00Wed 	 2c 	 5%
16:00Wed 	 1c 	 4%
17:00Wed 	 1c 	 3%
18:00Wed 	 0c 	 2%
19:00Wed 	 1c 	 1%
20:00Wed 	 2c 	 1%
21:00Wed 	 2c 	 1%
22:00Wed 	 2c 	 2%
23:00Wed 	 3c 	 3%
00:00Thu 	 3c 	 2%
01:00Thu 	 3c 	 2%
02:00Thu 	 3c 	 3%
03:00Thu 	 3c 	 4%
04:00Thu 	 3c 	 3%
05:00Thu 	 3c 	 2%
06:00Thu 	 3c 	 3%
07:00Thu 	 3c 	 4%
08:00Thu 	 3c 	 3%
09:00Thu 	 2c 	 3%
10:00Thu 	 1c 	 5%
11:00Thu 	 0c 	 6%
12:00Thu 	 1c 	 7%
13:00Thu 	 1c 	 8%
14:00Thu 	 1c 	 8%
15:00Thu 	 0c 	 8%
16:00Thu 	 1c 	 8%
17:00Thu 	 1c 	 8%
18:00Thu 	 2c 	 8%
19:00Thu 	 2c 	 8%
20:00Thu 	 2c 	 8%
21:00Thu 	 1c 	 9%
22:00Thu 	 1c 	 10%
23:00Thu 	 1c 	 11%
00:00Fri 	 1c 	 12%
01:00Fri 	 1c 	 12%
02:00Fri 	 1c 	 15%
03:00Fri 	 1c 	 17%
04:00Fri 	 1c 	 16%
05:00Fri 	 1c 	 16%

# /home/pi/Documents/bbc-weather-predictions/data/Feb10Wed/bbcweather_Wednesday10thFebruary_2021-02-10_0530.txt
# time 	 temp 	 rain
06:00Wed 	 3c 	 20%
07:00Wed 	 3c 	 60%
08:00Wed 	 2c 	 6%
09:00Wed 	 1c 	 7%
10:00Wed 	 0c 	 7%
11:00Wed 	 1c 	 7%
12:00Wed 	 1c 	 7%
13:00Wed 	 2c 	 7%
14:00Wed 	 2c 	 6%
15:00Wed 	 2c 	 5%
16:00Wed 	 1c 	 4%
17:00Wed 	 1c 	 3%
18:00Wed 	 0c 	 2%
19:00Wed 	 1c 	 1%
20:00Wed 	 2c 	 1%
21:00Wed 	 2c 	 1%
22:00Wed 	 2c 	 2%
23:00Wed 	 3c 	 3%
00:00Thu 	 3c 	 2%
01:00Thu 	 3c 	 2%
02:00Thu 	 3c 	 3%
03:00Thu 	 3c 	 4%
04:00Thu 	 3c 	 3%
05:00Thu 	 3c 	 2%
06:00Thu 	 3c 	 3%
07:00Thu 	 3c 	 4%
08:00Thu 	 3c 	 3%
09:00Thu 	 2c 	 3%
10:00Thu 	 1c 	 5%
11:00Thu 	 0c 	 6%
12:00Thu 	 1c 	 7%
13:00Thu 	 1c 	 8%
14:00Thu 	 1c 	 8%
15:00Thu 	 0c 	 8%
16:00Thu 	 1c 	 8%
17:00Thu 	 1c 	 8%
18:00Thu 	 2c 	 8%
19:00Thu 	 2c 	 8%
20:00Thu 	 2c 	 8%
21:00Thu 	 1c 	 9%
22:00Thu 	 1c 	 10%
23:00Thu 	 1c 	 11%
00:00Fri 	 1c 	 12%
01:00Fri 	 1c 	 12%
02:00Fri 	 1c 	 15%
03:00Fri 	 1c 	 17%
04:00Fri 	 1c 	 16%
05:00Fri 	 1c 	 16%

# /home/pi/Documents/bbc-weather-predictions/data/Feb10Wed/bbcweather_Wednesday10thFebruary_2021-02-10_0545.txt
# time 	 temp 	 rain
06:00Wed 	 3c 	 20%
07:00Wed 	 3c 	 60%
08:00Wed 	 2c 	 6%
09:00Wed 	 1c 	 7%
10:00Wed 	 0c 	 7%
11:00Wed 	 1c 	 7%
12:00Wed 	 1c 	 7%
13:00Wed 	 2c 	 7%
14:00Wed 	 2c 	 6%
15:00Wed 	 2c 	 5%
16:00Wed 	 1c 	 4%
17:00Wed 	 1c 	 3%
18:00Wed 	 0c 	 2%
19:00Wed 	 1c 	 1%
20:00Wed 	 2c 	 1%
21:00Wed 	 2c 	 1%
22:00Wed 	 2c 	 2%
23:00Wed 	 3c 	 3%
00:00Thu 	 3c 	 2%
01:00Thu 	 3c 	 2%
02:00Thu 	 3c 	 3%
03:00Thu 	 3c 	 4%
04:00Thu 	 3c 	 3%
05:00Thu 	 3c 	 2%
06:00Thu 	 3c 	 3%
07:00Thu 	 3c 	 4%
08:00Thu 	 3c 	 3%
09:00Thu 	 2c 	 3%
10:00Thu 	 1c 	 5%
11:00Thu 	 0c 	 6%
12:00Thu 	 1c 	 7%
13:00Thu 	 1c 	 8%
14:00Thu 	 1c 	 8%
15:00Thu 	 0c 	 8%
16:00Thu 	 1c 	 8%
17:00Thu 	 1c 	 8%
18:00Thu 	 2c 	 8%
19:00Thu 	 2c 	 8%
20:00Thu 	 2c 	 8%
21:00Thu 	 1c 	 9%
22:00Thu 	 1c 	 10%
23:00Thu 	 1c 	 11%
00:00Fri 	 1c 	 12%
01:00Fri 	 1c 	 12%
02:00Fri 	 1c 	 15%
03:00Fri 	 1c 	 17%
04:00Fri 	 1c 	 16%
05:00Fri 	 1c 	 16%

# /home/pi/Documents/bbc-weather-predictions/data/Feb10Wed/bbcweather_Wednesday10thFebruary_2021-02-10_0600.txt
# time 	 temp 	 rain
06:00Wed 	 3c 	 20%
07:00Wed 	 3c 	 60%
08:00Wed 	 2c 	 6%
09:00Wed 	 1c 	 7%
10:00Wed 	 0c 	 7%
11:00Wed 	 1c 	 7%
12:00Wed 	 1c 	 7%
13:00Wed 	 2c 	 7%
14:00Wed 	 2c 	 6%
15:00Wed 	 2c 	 5%
16:00Wed 	 1c 	 4%
17:00Wed 	 1c 	 3%
18:00Wed 	 0c 	 2%
19:00Wed 	 1c 	 1%
20:00Wed 	 2c 	 1%
21:00Wed 	 2c 	 1%
22:00Wed 	 2c 	 2%
23:00Wed 	 3c 	 3%
00:00Thu 	 3c 	 2%
01:00Thu 	 3c 	 2%
02:00Thu 	 3c 	 3%
03:00Thu 	 3c 	 4%
04:00Thu 	 3c 	 3%
05:00Thu 	 3c 	 2%
06:00Thu 	 3c 	 3%
07:00Thu 	 3c 	 4%
08:00Thu 	 3c 	 3%
09:00Thu 	 2c 	 3%
10:00Thu 	 1c 	 5%
11:00Thu 	 0c 	 6%
12:00Thu 	 1c 	 7%
13:00Thu 	 1c 	 8%
14:00Thu 	 1c 	 8%
15:00Thu 	 0c 	 8%
16:00Thu 	 1c 	 8%
17:00Thu 	 1c 	 8%
18:00Thu 	 2c 	 8%
19:00Thu 	 2c 	 8%
20:00Thu 	 2c 	 8%
21:00Thu 	 1c 	 9%
22:00Thu 	 1c 	 10%
23:00Thu 	 1c 	 11%
00:00Fri 	 1c 	 12%
01:00Fri 	 1c 	 12%
02:00Fri 	 1c 	 15%
03:00Fri 	 1c 	 17%
04:00Fri 	 1c 	 16%
05:00Fri 	 1c 	 16%

# /home/pi/Documents/bbc-weather-predictions/data/Feb10Wed/bbcweather_Wednesday10thFebruary_2021-02-10_0615.txt
# time 	 temp 	 rain
07:00Wed 	 3c 	 0%
08:00Wed 	 3c 	 2%
09:00Wed 	 2c 	 7%
10:00Wed 	 1c 	 7%
11:00Wed 	 1c 	 7%
12:00Wed 	 1c 	 7%
13:00Wed 	 2c 	 7%
14:00Wed 	 2c 	 6%
15:00Wed 	 2c 	 5%
16:00Wed 	 1c 	 4%
17:00Wed 	 1c 	 3%
18:00Wed 	 0c 	 2%
19:00Wed 	 1c 	 1%
20:00Wed 	 2c 	 1%
21:00Wed 	 2c 	 1%
22:00Wed 	 2c 	 2%
23:00Wed 	 3c 	 3%
00:00Thu 	 3c 	 2%
01:00Thu 	 3c 	 2%
02:00Thu 	 3c 	 3%
03:00Thu 	 3c 	 4%
04:00Thu 	 3c 	 3%
05:00Thu 	 3c 	 2%
06:00Thu 	 3c 	 3%
07:00Thu 	 3c 	 4%
08:00Thu 	 3c 	 3%
09:00Thu 	 2c 	 3%
10:00Thu 	 1c 	 5%
11:00Thu 	 0c 	 6%
12:00Thu 	 1c 	 7%
13:00Thu 	 1c 	 8%
14:00Thu 	 1c 	 8%
15:00Thu 	 0c 	 8%
16:00Thu 	 1c 	 8%
17:00Thu 	 1c 	 8%
18:00Thu 	 2c 	 8%
19:00Thu 	 2c 	 8%
20:00Thu 	 2c 	 8%
21:00Thu 	 1c 	 9%
22:00Thu 	 1c 	 10%
23:00Thu 	 1c 	 11%
00:00Fri 	 1c 	 12%
01:00Fri 	 1c 	 12%
02:00Fri 	 1c 	 15%
03:00Fri 	 1c 	 17%
04:00Fri 	 1c 	 16%
05:00Fri 	 1c 	 16%

# /home/pi/Documents/bbc-weather-predictions/data/Feb10Wed/bbcweather_Wednesday10thFebruary_2021-02-10_0630.txt
# time 	 temp 	 rain
07:00Wed 	 3c 	 0%
08:00Wed 	 3c 	 2%
09:00Wed 	 2c 	 7%
10:00Wed 	 1c 	 7%
11:00Wed 	 1c 	 7%
12:00Wed 	 1c 	 7%
13:00Wed 	 2c 	 7%
14:00Wed 	 2c 	 6%
15:00Wed 	 2c 	 5%
16:00Wed 	 1c 	 4%
17:00Wed 	 1c 	 3%
18:00Wed 	 0c 	 2%
19:00Wed 	 1c 	 1%
20:00Wed 	 2c 	 1%
21:00Wed 	 2c 	 1%
22:00Wed 	 2c 	 2%
23:00Wed 	 3c 	 3%
00:00Thu 	 3c 	 2%
01:00Thu 	 3c 	 2%
02:00Thu 	 3c 	 3%
03:00Thu 	 3c 	 4%
04:00Thu 	 3c 	 3%
05:00Thu 	 3c 	 2%
06:00Thu 	 3c 	 3%
07:00Thu 	 3c 	 4%
08:00Thu 	 3c 	 3%
09:00Thu 	 2c 	 3%
10:00Thu 	 1c 	 5%
11:00Thu 	 0c 	 6%
12:00Thu 	 1c 	 7%
13:00Thu 	 1c 	 8%
14:00Thu 	 1c 	 8%
15:00Thu 	 0c 	 8%
16:00Thu 	 1c 	 8%
17:00Thu 	 1c 	 8%
18:00Thu 	 2c 	 8%
19:00Thu 	 2c 	 8%
20:00Thu 	 2c 	 8%
21:00Thu 	 1c 	 9%
22:00Thu 	 1c 	 10%
23:00Thu 	 1c 	 11%
00:00Fri 	 1c 	 12%
01:00Fri 	 1c 	 12%
02:00Fri 	 1c 	 15%
03:00Fri 	 1c 	 17%
04:00Fri 	 1c 	 16%
05:00Fri 	 1c 	 16%

# /home/pi/Documents/bbc-weather-predictions/data/Feb10Wed/bbcweather_Wednesday10thFebruary_2021-02-10_0645.txt
# time 	 temp 	 rain
07:00Wed 	 3c 	 0%
08:00Wed 	 3c 	 2%
09:00Wed 	 2c 	 7%
10:00Wed 	 1c 	 7%
11:00Wed 	 1c 	 7%
12:00Wed 	 1c 	 7%
13:00Wed 	 2c 	 7%
14:00Wed 	 2c 	 6%
15:00Wed 	 2c 	 5%
16:00Wed 	 1c 	 4%
17:00Wed 	 1c 	 3%
18:00Wed 	 0c 	 2%
19:00Wed 	 1c 	 1%
20:00Wed 	 2c 	 1%
21:00Wed 	 2c 	 1%
22:00Wed 	 2c 	 2%
23:00Wed 	 3c 	 3%
00:00Thu 	 3c 	 2%
01:00Thu 	 3c 	 2%
02:00Thu 	 3c 	 3%
03:00Thu 	 3c 	 4%
04:00Thu 	 3c 	 3%
05:00Thu 	 3c 	 2%
06:00Thu 	 3c 	 3%
07:00Thu 	 3c 	 4%
08:00Thu 	 3c 	 3%
09:00Thu 	 2c 	 3%
10:00Thu 	 1c 	 5%
11:00Thu 	 0c 	 6%
12:00Thu 	 1c 	 7%
13:00Thu 	 1c 	 8%
14:00Thu 	 1c 	 8%
15:00Thu 	 0c 	 8%
16:00Thu 	 1c 	 8%
17:00Thu 	 1c 	 8%
18:00Thu 	 2c 	 8%
19:00Thu 	 2c 	 8%
20:00Thu 	 2c 	 8%
21:00Thu 	 1c 	 9%
22:00Thu 	 1c 	 10%
23:00Thu 	 1c 	 11%
00:00Fri 	 1c 	 12%
01:00Fri 	 1c 	 12%
02:00Fri 	 1c 	 15%
03:00Fri 	 1c 	 17%
04:00Fri 	 1c 	 16%
05:00Fri 	 1c 	 16%

# /home/pi/Documents/bbc-weather-predictions/data/Feb10Wed/bbcweather_Wednesday10thFebruary_2021-02-10_0700.txt
# time 	 temp 	 rain
07:00Wed 	 3c 	 0%
08:00Wed 	 2c 	 0%
09:00Wed 	 1c 	 1%
10:00Wed 	 0c 	 3%
11:00Wed 	 1c 	 5%
12:00Wed 	 2c 	 7%
13:00Wed 	 2c 	 7%
14:00Wed 	 2c 	 6%
15:00Wed 	 2c 	 5%
16:00Wed 	 2c 	 4%
17:00Wed 	 1c 	 2%
18:00Wed 	 0c 	 1%
19:00Wed 	 1c 	 1%
20:00Wed 	 2c 	 0%
21:00Wed 	 2c 	 1%
22:00Wed 	 2c 	 1%
23:00Wed 	 3c 	 1%
00:00Thu 	 3c 	 1%
01:00Thu 	 3c 	 2%
02:00Thu 	 3c 	 3%
03:00Thu 	 3c 	 3%
04:00Thu 	 3c 	 2%
05:00Thu 	 3c 	 2%
06:00Thu 	 3c 	 3%
07:00Thu 	 3c 	 3%
08:00Thu 	 2c 	 3%
09:00Thu 	 2c 	 3%
10:00Thu 	 1c 	 2%
11:00Thu 	 0c 	 2%
12:00Thu 	 1c 	 3%
13:00Thu 	 1c 	 3%
14:00Thu 	 1c 	 4%
15:00Thu 	 1c 	 4%
16:00Thu 	 0c 	 7%
17:00Thu 	 1c 	 11%
18:00Thu 	 1c 	 13%
19:00Thu 	 2c 	 12%
20:00Thu 	 2c 	 11%
21:00Thu 	 1c 	 11%
22:00Thu 	 1c 	 11%
23:00Thu 	 1c 	 12%
00:00Fri 	 1c 	 12%
01:00Fri 	 1c 	 12%
02:00Fri 	 1c 	 15%
03:00Fri 	 1c 	 17%
04:00Fri 	 1c 	 16%
05:00Fri 	 1c 	 16%

# /home/pi/Documents/bbc-weather-predictions/data/Feb10Wed/bbcweather_Wednesday10thFebruary_2021-02-10_0715.txt
# time 	 temp 	 rain
08:00Wed 	 2c 	 0%
09:00Wed 	 1c 	 1%
10:00Wed 	 0c 	 3%
11:00Wed 	 1c 	 5%
12:00Wed 	 2c 	 7%
13:00Wed 	 2c 	 7%
14:00Wed 	 2c 	 6%
15:00Wed 	 2c 	 5%
16:00Wed 	 2c 	 4%
17:00Wed 	 1c 	 2%
18:00Wed 	 0c 	 1%
19:00Wed 	 1c 	 1%
20:00Wed 	 2c 	 0%
21:00Wed 	 2c 	 1%
22:00Wed 	 2c 	 1%
23:00Wed 	 3c 	 1%
00:00Thu 	 3c 	 1%
01:00Thu 	 3c 	 2%
02:00Thu 	 3c 	 3%
03:00Thu 	 3c 	 3%
04:00Thu 	 3c 	 2%
05:00Thu 	 3c 	 2%
06:00Thu 	 3c 	 3%
07:00Thu 	 3c 	 3%
08:00Thu 	 2c 	 3%
09:00Thu 	 2c 	 3%
10:00Thu 	 1c 	 2%
11:00Thu 	 0c 	 2%
12:00Thu 	 1c 	 3%
13:00Thu 	 1c 	 3%
14:00Thu 	 1c 	 4%
15:00Thu 	 1c 	 4%
16:00Thu 	 0c 	 7%
17:00Thu 	 1c 	 11%
18:00Thu 	 1c 	 13%
19:00Thu 	 2c 	 12%
20:00Thu 	 2c 	 11%
21:00Thu 	 1c 	 11%
22:00Thu 	 1c 	 11%
23:00Thu 	 1c 	 12%
00:00Fri 	 1c 	 12%
01:00Fri 	 1c 	 12%
02:00Fri 	 1c 	 15%
03:00Fri 	 1c 	 17%
04:00Fri 	 1c 	 16%
05:00Fri 	 1c 	 16%

# /home/pi/Documents/bbc-weather-predictions/data/Feb10Wed/bbcweather_Wednesday10thFebruary_2021-02-10_0730.txt
# time 	 temp 	 rain
08:00Wed 	 2c 	 0%
09:00Wed 	 1c 	 1%
10:00Wed 	 0c 	 3%
11:00Wed 	 1c 	 5%
12:00Wed 	 2c 	 7%
13:00Wed 	 2c 	 7%
14:00Wed 	 2c 	 6%
15:00Wed 	 2c 	 5%
16:00Wed 	 2c 	 4%
17:00Wed 	 1c 	 2%
18:00Wed 	 0c 	 1%
19:00Wed 	 1c 	 1%
20:00Wed 	 2c 	 0%
21:00Wed 	 2c 	 1%
22:00Wed 	 2c 	 1%
23:00Wed 	 3c 	 1%
00:00Thu 	 3c 	 1%
01:00Thu 	 3c 	 2%
02:00Thu 	 3c 	 3%
03:00Thu 	 3c 	 3%
04:00Thu 	 3c 	 2%
05:00Thu 	 3c 	 2%
06:00Thu 	 3c 	 3%
07:00Thu 	 3c 	 3%
08:00Thu 	 2c 	 3%
09:00Thu 	 2c 	 3%
10:00Thu 	 1c 	 2%
11:00Thu 	 0c 	 2%
12:00Thu 	 1c 	 3%
13:00Thu 	 1c 	 3%
14:00Thu 	 1c 	 4%
15:00Thu 	 1c 	 4%
16:00Thu 	 0c 	 7%
17:00Thu 	 1c 	 11%
18:00Thu 	 1c 	 13%
19:00Thu 	 2c 	 12%
20:00Thu 	 2c 	 11%
21:00Thu 	 1c 	 11%
22:00Thu 	 1c 	 11%
23:00Thu 	 1c 	 12%
00:00Fri 	 1c 	 12%
01:00Fri 	 1c 	 12%
02:00Fri 	 1c 	 15%
03:00Fri 	 1c 	 17%
04:00Fri 	 1c 	 16%
05:00Fri 	 1c 	 16%

# /home/pi/Documents/bbc-weather-predictions/data/Feb10Wed/bbcweather_Wednesday10thFebruary_2021-02-10_0745.txt
# time 	 temp 	 rain
08:00Wed 	 2c 	 0%
09:00Wed 	 1c 	 1%
10:00Wed 	 0c 	 3%
11:00Wed 	 1c 	 5%
12:00Wed 	 2c 	 7%
13:00Wed 	 2c 	 7%
14:00Wed 	 2c 	 6%
15:00Wed 	 2c 	 5%
16:00Wed 	 2c 	 4%
17:00Wed 	 1c 	 2%
18:00Wed 	 0c 	 1%
19:00Wed 	 1c 	 1%
20:00Wed 	 2c 	 0%
21:00Wed 	 2c 	 1%
22:00Wed 	 2c 	 1%
23:00Wed 	 3c 	 1%
00:00Thu 	 3c 	 1%
01:00Thu 	 3c 	 2%
02:00Thu 	 3c 	 3%
03:00Thu 	 3c 	 3%
04:00Thu 	 3c 	 2%
05:00Thu 	 3c 	 2%
06:00Thu 	 3c 	 3%
07:00Thu 	 3c 	 3%
08:00Thu 	 2c 	 3%
09:00Thu 	 2c 	 3%
10:00Thu 	 1c 	 2%
11:00Thu 	 0c 	 2%
12:00Thu 	 1c 	 3%
13:00Thu 	 1c 	 3%
14:00Thu 	 1c 	 4%
15:00Thu 	 1c 	 4%
16:00Thu 	 0c 	 7%
17:00Thu 	 1c 	 11%
18:00Thu 	 1c 	 13%
19:00Thu 	 2c 	 12%
20:00Thu 	 2c 	 11%
21:00Thu 	 1c 	 11%
22:00Thu 	 1c 	 11%
23:00Thu 	 1c 	 12%
00:00Fri 	 1c 	 12%
01:00Fri 	 1c 	 12%
02:00Fri 	 1c 	 15%
03:00Fri 	 1c 	 17%
04:00Fri 	 1c 	 16%
05:00Fri 	 1c 	 16%

# /home/pi/Documents/bbc-weather-predictions/data/Feb10Wed/bbcweather_Wednesday10thFebruary_2021-02-10_0800.txt
# time 	 temp 	 rain
08:00Wed 	 2c 	 0%
09:00Wed 	 1c 	 0%
10:00Wed 	 0c 	 2%
11:00Wed 	 1c 	 5%
12:00Wed 	 2c 	 7%
13:00Wed 	 2c 	 7%
14:00Wed 	 2c 	 6%
15:00Wed 	 2c 	 5%
16:00Wed 	 2c 	 4%
17:00Wed 	 1c 	 2%
18:00Wed 	 0c 	 1%
19:00Wed 	 1c 	 1%
20:00Wed 	 2c 	 0%
21:00Wed 	 2c 	 1%
22:00Wed 	 2c 	 1%
23:00Wed 	 3c 	 1%
00:00Thu 	 3c 	 1%
01:00Thu 	 3c 	 2%
02:00Thu 	 3c 	 3%
03:00Thu 	 3c 	 3%
04:00Thu 	 3c 	 2%
05:00Thu 	 3c 	 2%
06:00Thu 	 3c 	 3%
07:00Thu 	 3c 	 3%
08:00Thu 	 2c 	 3%
09:00Thu 	 2c 	 3%
10:00Thu 	 1c 	 2%
11:00Thu 	 0c 	 2%
12:00Thu 	 1c 	 3%
13:00Thu 	 1c 	 3%
14:00Thu 	 1c 	 4%
15:00Thu 	 1c 	 4%
16:00Thu 	 0c 	 7%
17:00Thu 	 1c 	 11%
18:00Thu 	 1c 	 13%
19:00Thu 	 2c 	 12%
20:00Thu 	 2c 	 11%
21:00Thu 	 1c 	 11%
22:00Thu 	 1c 	 11%
23:00Thu 	 1c 	 12%
00:00Fri 	 1c 	 12%
01:00Fri 	 1c 	 12%
02:00Fri 	 1c 	 15%
03:00Fri 	 1c 	 17%
04:00Fri 	 1c 	 16%
05:00Fri 	 1c 	 16%

# /home/pi/Documents/bbc-weather-predictions/data/Feb10Wed/bbcweather_Wednesday10thFebruary_2021-02-10_0815.txt
# time 	 temp 	 rain
09:00Wed 	 1c 	 0%
10:00Wed 	 0c 	 2%
11:00Wed 	 1c 	 5%
12:00Wed 	 2c 	 7%
13:00Wed 	 2c 	 7%
14:00Wed 	 2c 	 6%
15:00Wed 	 2c 	 5%
16:00Wed 	 2c 	 4%
17:00Wed 	 1c 	 2%
18:00Wed 	 0c 	 1%
19:00Wed 	 1c 	 1%
20:00Wed 	 2c 	 0%
21:00Wed 	 2c 	 1%
22:00Wed 	 2c 	 1%
23:00Wed 	 3c 	 1%
00:00Thu 	 3c 	 1%
01:00Thu 	 3c 	 2%
02:00Thu 	 3c 	 3%
03:00Thu 	 3c 	 3%
04:00Thu 	 3c 	 2%
05:00Thu 	 3c 	 2%
06:00Thu 	 3c 	 3%
07:00Thu 	 3c 	 3%
08:00Thu 	 2c 	 3%
09:00Thu 	 2c 	 3%
10:00Thu 	 1c 	 2%
11:00Thu 	 0c 	 2%
12:00Thu 	 1c 	 3%
13:00Thu 	 1c 	 3%
14:00Thu 	 1c 	 4%
15:00Thu 	 1c 	 4%
16:00Thu 	 0c 	 7%
17:00Thu 	 1c 	 11%
18:00Thu 	 1c 	 13%
19:00Thu 	 2c 	 12%
20:00Thu 	 2c 	 11%
21:00Thu 	 1c 	 11%
22:00Thu 	 1c 	 11%
23:00Thu 	 1c 	 12%
00:00Fri 	 1c 	 12%
01:00Fri 	 1c 	 12%
02:00Fri 	 1c 	 15%
03:00Fri 	 1c 	 17%
04:00Fri 	 1c 	 16%
05:00Fri 	 1c 	 16%

# /home/pi/Documents/bbc-weather-predictions/data/Feb10Wed/bbcweather_Wednesday10thFebruary_2021-02-10_0830.txt
# time 	 temp 	 rain
09:00Wed 	 1c 	 0%
10:00Wed 	 0c 	 2%
11:00Wed 	 1c 	 5%
12:00Wed 	 2c 	 7%
13:00Wed 	 2c 	 7%
14:00Wed 	 2c 	 6%
15:00Wed 	 2c 	 5%
16:00Wed 	 2c 	 4%
17:00Wed 	 1c 	 2%
18:00Wed 	 0c 	 1%
19:00Wed 	 1c 	 1%
20:00Wed 	 2c 	 0%
21:00Wed 	 2c 	 1%
22:00Wed 	 2c 	 1%
23:00Wed 	 3c 	 1%
00:00Thu 	 3c 	 1%
01:00Thu 	 3c 	 2%
02:00Thu 	 3c 	 3%
03:00Thu 	 3c 	 3%
04:00Thu 	 3c 	 2%
05:00Thu 	 3c 	 2%
06:00Thu 	 3c 	 3%
07:00Thu 	 3c 	 3%
08:00Thu 	 2c 	 3%
09:00Thu 	 2c 	 3%
10:00Thu 	 1c 	 2%
11:00Thu 	 0c 	 2%
12:00Thu 	 1c 	 3%
13:00Thu 	 1c 	 3%
14:00Thu 	 1c 	 4%
15:00Thu 	 1c 	 4%
16:00Thu 	 0c 	 7%
17:00Thu 	 1c 	 11%
18:00Thu 	 1c 	 13%
19:00Thu 	 2c 	 12%
20:00Thu 	 2c 	 11%
21:00Thu 	 1c 	 11%
22:00Thu 	 1c 	 11%
23:00Thu 	 1c 	 12%
00:00Fri 	 1c 	 12%
01:00Fri 	 1c 	 12%
02:00Fri 	 1c 	 15%
03:00Fri 	 1c 	 17%
04:00Fri 	 1c 	 16%
05:00Fri 	 1c 	 16%

# /home/pi/Documents/bbc-weather-predictions/data/Feb10Wed/bbcweather_Wednesday10thFebruary_2021-02-10_0845.txt
# time 	 temp 	 rain
09:00Wed 	 1c 	 0%
10:00Wed 	 0c 	 2%
11:00Wed 	 1c 	 5%
12:00Wed 	 2c 	 7%
13:00Wed 	 2c 	 7%
14:00Wed 	 2c 	 6%
15:00Wed 	 2c 	 5%
16:00Wed 	 2c 	 4%
17:00Wed 	 1c 	 2%
18:00Wed 	 0c 	 1%
19:00Wed 	 1c 	 1%
20:00Wed 	 2c 	 0%
21:00Wed 	 2c 	 1%
22:00Wed 	 2c 	 1%
23:00Wed 	 3c 	 1%
00:00Thu 	 3c 	 1%
01:00Thu 	 3c 	 2%
02:00Thu 	 3c 	 3%
03:00Thu 	 3c 	 3%
04:00Thu 	 3c 	 2%
05:00Thu 	 3c 	 2%
06:00Thu 	 3c 	 3%
07:00Thu 	 3c 	 3%
08:00Thu 	 2c 	 3%
09:00Thu 	 2c 	 3%
10:00Thu 	 1c 	 2%
11:00Thu 	 0c 	 2%
12:00Thu 	 1c 	 3%
13:00Thu 	 1c 	 3%
14:00Thu 	 1c 	 4%
15:00Thu 	 1c 	 4%
16:00Thu 	 0c 	 7%
17:00Thu 	 1c 	 11%
18:00Thu 	 1c 	 13%
19:00Thu 	 2c 	 12%
20:00Thu 	 2c 	 11%
21:00Thu 	 1c 	 11%
22:00Thu 	 1c 	 11%
23:00Thu 	 1c 	 12%
00:00Fri 	 1c 	 12%
01:00Fri 	 1c 	 12%
02:00Fri 	 1c 	 15%
03:00Fri 	 1c 	 17%
04:00Fri 	 1c 	 16%
05:00Fri 	 1c 	 16%

# /home/pi/Documents/bbc-weather-predictions/data/Feb10Wed/bbcweather_Wednesday10thFebruary_2021-02-10_0900.txt
# time 	 temp 	 rain
09:00Wed 	 2c 	 0%
10:00Wed 	 1c 	 1%
11:00Wed 	 1c 	 1%
12:00Wed 	 1c 	 6%
13:00Wed 	 2c 	 7%
14:00Wed 	 2c 	 6%
15:00Wed 	 2c 	 5%
16:00Wed 	 2c 	 4%
17:00Wed 	 1c 	 2%
18:00Wed 	 0c 	 2%
19:00Wed 	 1c 	 1%
20:00Wed 	 2c 	 1%
21:00Wed 	 2c 	 1%
22:00Wed 	 2c 	 1%
23:00Wed 	 3c 	 1%
00:00Thu 	 3c 	 1%
01:00Thu 	 3c 	 2%
02:00Thu 	 3c 	 2%
03:00Thu 	 3c 	 3%
04:00Thu 	 3c 	 2%
05:00Thu 	 3c 	 2%
06:00Thu 	 3c 	 3%
07:00Thu 	 3c 	 3%
08:00Thu 	 2c 	 3%
09:00Thu 	 2c 	 4%
10:00Thu 	 1c 	 4%
11:00Thu 	 0c 	 3%
12:00Thu 	 1c 	 3%
13:00Thu 	 1c 	 4%
14:00Thu 	 1c 	 5%
15:00Thu 	 1c 	 5%
16:00Thu 	 0c 	 9%
17:00Thu 	 1c 	 13%
18:00Thu 	 1c 	 14%
19:00Thu 	 2c 	 14%
20:00Thu 	 1c 	 13%
21:00Thu 	 1c 	 13%
22:00Thu 	 1c 	 14%
23:00Thu 	 1c 	 15%
00:00Fri 	 1c 	 15%
01:00Fri 	 1c 	 15%
02:00Fri 	 1c 	 15%
03:00Fri 	 1c 	 15%
04:00Fri 	 1c 	 15%
05:00Fri 	 1c 	 16%

# /home/pi/Documents/bbc-weather-predictions/data/Feb10Wed/bbcweather_Wednesday10thFebruary_2021-02-10_0915.txt
# time 	 temp 	 rain
10:00Wed 	 1c 	 1%
11:00Wed 	 1c 	 1%
12:00Wed 	 1c 	 6%
13:00Wed 	 2c 	 7%
14:00Wed 	 2c 	 6%
15:00Wed 	 2c 	 5%
16:00Wed 	 2c 	 4%
17:00Wed 	 1c 	 2%
18:00Wed 	 0c 	 2%
19:00Wed 	 1c 	 1%
20:00Wed 	 2c 	 1%
21:00Wed 	 2c 	 1%
22:00Wed 	 2c 	 1%
23:00Wed 	 3c 	 1%
00:00Thu 	 3c 	 1%
01:00Thu 	 3c 	 2%
02:00Thu 	 3c 	 2%
03:00Thu 	 3c 	 3%
04:00Thu 	 3c 	 2%
05:00Thu 	 3c 	 2%
06:00Thu 	 3c 	 3%
07:00Thu 	 3c 	 3%
08:00Thu 	 2c 	 3%
09:00Thu 	 2c 	 4%
10:00Thu 	 1c 	 4%
11:00Thu 	 0c 	 3%
12:00Thu 	 1c 	 3%
13:00Thu 	 1c 	 4%
14:00Thu 	 1c 	 5%
15:00Thu 	 1c 	 5%
16:00Thu 	 0c 	 9%
17:00Thu 	 1c 	 13%
18:00Thu 	 1c 	 14%
19:00Thu 	 2c 	 14%
20:00Thu 	 1c 	 13%
21:00Thu 	 1c 	 13%
22:00Thu 	 1c 	 14%
23:00Thu 	 1c 	 15%
00:00Fri 	 1c 	 15%
01:00Fri 	 1c 	 15%
02:00Fri 	 1c 	 15%
03:00Fri 	 1c 	 15%
04:00Fri 	 1c 	 15%
05:00Fri 	 1c 	 16%

# /home/pi/Documents/bbc-weather-predictions/data/Feb10Wed/bbcweather_Wednesday10thFebruary_2021-02-10_0930.txt
# time 	 temp 	 rain
10:00Wed 	 1c 	 1%
11:00Wed 	 1c 	 1%
12:00Wed 	 1c 	 6%
13:00Wed 	 2c 	 7%
14:00Wed 	 2c 	 6%
15:00Wed 	 2c 	 5%
16:00Wed 	 2c 	 4%
17:00Wed 	 1c 	 2%
18:00Wed 	 0c 	 2%
19:00Wed 	 1c 	 1%
20:00Wed 	 2c 	 1%
21:00Wed 	 2c 	 1%
22:00Wed 	 2c 	 1%
23:00Wed 	 3c 	 1%
00:00Thu 	 3c 	 1%
01:00Thu 	 3c 	 2%
02:00Thu 	 3c 	 2%
03:00Thu 	 3c 	 3%
04:00Thu 	 3c 	 2%
05:00Thu 	 3c 	 2%
06:00Thu 	 3c 	 3%
07:00Thu 	 3c 	 3%
08:00Thu 	 2c 	 3%
09:00Thu 	 2c 	 4%
10:00Thu 	 1c 	 4%
11:00Thu 	 0c 	 3%
12:00Thu 	 1c 	 3%
13:00Thu 	 1c 	 4%
14:00Thu 	 1c 	 5%
15:00Thu 	 1c 	 5%
16:00Thu 	 0c 	 9%
17:00Thu 	 1c 	 13%
18:00Thu 	 1c 	 14%
19:00Thu 	 2c 	 14%
20:00Thu 	 1c 	 13%
21:00Thu 	 1c 	 13%
22:00Thu 	 1c 	 14%
23:00Thu 	 1c 	 15%
00:00Fri 	 1c 	 15%
01:00Fri 	 1c 	 15%
02:00Fri 	 1c 	 15%
03:00Fri 	 1c 	 15%
04:00Fri 	 1c 	 15%
05:00Fri 	 1c 	 16%

# /home/pi/Documents/bbc-weather-predictions/data/Feb10Wed/bbcweather_Wednesday10thFebruary_2021-02-10_0945.txt
# time 	 temp 	 rain
10:00Wed 	 1c 	 1%
11:00Wed 	 1c 	 1%
12:00Wed 	 1c 	 6%
13:00Wed 	 2c 	 7%
14:00Wed 	 2c 	 6%
15:00Wed 	 2c 	 5%
16:00Wed 	 2c 	 4%
17:00Wed 	 1c 	 2%
18:00Wed 	 0c 	 2%
19:00Wed 	 1c 	 1%
20:00Wed 	 2c 	 1%
21:00Wed 	 2c 	 1%
22:00Wed 	 2c 	 1%
23:00Wed 	 3c 	 1%
00:00Thu 	 3c 	 1%
01:00Thu 	 3c 	 2%
02:00Thu 	 3c 	 2%
03:00Thu 	 3c 	 3%
04:00Thu 	 3c 	 2%
05:00Thu 	 3c 	 2%
06:00Thu 	 3c 	 3%
07:00Thu 	 3c 	 3%
08:00Thu 	 2c 	 3%
09:00Thu 	 2c 	 4%
10:00Thu 	 1c 	 4%
11:00Thu 	 0c 	 3%
12:00Thu 	 1c 	 3%
13:00Thu 	 1c 	 4%
14:00Thu 	 1c 	 5%
15:00Thu 	 1c 	 5%
16:00Thu 	 0c 	 9%
17:00Thu 	 1c 	 13%
18:00Thu 	 1c 	 14%
19:00Thu 	 2c 	 14%
20:00Thu 	 1c 	 13%
21:00Thu 	 1c 	 13%
22:00Thu 	 1c 	 14%
23:00Thu 	 1c 	 15%
00:00Fri 	 1c 	 15%
01:00Fri 	 1c 	 15%
02:00Fri 	 1c 	 15%
03:00Fri 	 1c 	 15%
04:00Fri 	 1c 	 15%
05:00Fri 	 1c 	 16%

# /home/pi/Documents/bbc-weather-predictions/data/Feb10Wed/bbcweather_Wednesday10thFebruary_2021-02-10_1000.txt
# time 	 temp 	 rain
10:00Wed 	 1c 	 1%
11:00Wed 	 1c 	 1%
12:00Wed 	 1c 	 6%
13:00Wed 	 2c 	 7%
14:00Wed 	 2c 	 6%
15:00Wed 	 2c 	 5%
16:00Wed 	 2c 	 4%
17:00Wed 	 1c 	 2%
18:00Wed 	 0c 	 2%
19:00Wed 	 1c 	 1%
20:00Wed 	 2c 	 1%
21:00Wed 	 2c 	 1%
22:00Wed 	 2c 	 1%
23:00Wed 	 3c 	 1%
00:00Thu 	 3c 	 1%
01:00Thu 	 3c 	 2%
02:00Thu 	 3c 	 2%
03:00Thu 	 3c 	 3%
04:00Thu 	 3c 	 2%
05:00Thu 	 3c 	 2%
06:00Thu 	 3c 	 3%
07:00Thu 	 3c 	 3%
08:00Thu 	 2c 	 3%
09:00Thu 	 2c 	 4%
10:00Thu 	 1c 	 4%
11:00Thu 	 0c 	 3%
12:00Thu 	 1c 	 3%
13:00Thu 	 1c 	 4%
14:00Thu 	 1c 	 5%
15:00Thu 	 1c 	 5%
16:00Thu 	 0c 	 9%
17:00Thu 	 1c 	 13%
18:00Thu 	 1c 	 14%
19:00Thu 	 2c 	 14%
20:00Thu 	 1c 	 13%
21:00Thu 	 1c 	 13%
22:00Thu 	 1c 	 14%
23:00Thu 	 1c 	 15%
00:00Fri 	 1c 	 15%
01:00Fri 	 1c 	 15%
02:00Fri 	 1c 	 15%
03:00Fri 	 1c 	 15%
04:00Fri 	 1c 	 15%
05:00Fri 	 1c 	 16%

# /home/pi/Documents/bbc-weather-predictions/data/Feb10Wed/bbcweather_Wednesday10thFebruary_2021-02-10_1015.txt
# time 	 temp 	 rain
11:00Wed 	 1c 	 0%
12:00Wed 	 1c 	 10%
13:00Wed 	 2c 	 7%
14:00Wed 	 2c 	 6%
15:00Wed 	 2c 	 5%
16:00Wed 	 2c 	 4%
17:00Wed 	 0c 	 2%
18:00Wed 	 1c 	 2%
19:00Wed 	 2c 	 1%
20:00Wed 	 3c 	 1%
21:00Wed 	 3c 	 1%
22:00Wed 	 3c 	 1%
23:00Wed 	 4c 	 1%
00:00Thu 	 4c 	 1%
01:00Thu 	 4c 	 2%
02:00Thu 	 4c 	 2%
03:00Thu 	 4c 	 3%
04:00Thu 	 4c 	 2%
05:00Thu 	 4c 	 2%
06:00Thu 	 4c 	 3%
07:00Thu 	 4c 	 3%
08:00Thu 	 2c 	 3%
09:00Thu 	 2c 	 4%
10:00Thu 	 1c 	 4%
11:00Thu 	 0c 	 3%
12:00Thu 	 1c 	 3%
13:00Thu 	 1c 	 4%
14:00Thu 	 1c 	 5%
15:00Thu 	 1c 	 5%
16:00Thu 	 0c 	 9%
17:00Thu 	 1c 	 13%
18:00Thu 	 1c 	 14%
19:00Thu 	 2c 	 14%
20:00Thu 	 1c 	 13%
21:00Thu 	 1c 	 13%
22:00Thu 	 1c 	 14%
23:00Thu 	 1c 	 15%
00:00Fri 	 1c 	 15%
01:00Fri 	 1c 	 15%
02:00Fri 	 1c 	 15%
03:00Fri 	 1c 	 15%
04:00Fri 	 1c 	 15%
05:00Fri 	 1c 	 16%

# /home/pi/Documents/bbc-weather-predictions/data/Feb10Wed/bbcweather_Wednesday10thFebruary_2021-02-10_1030.txt
# time 	 temp 	 rain
11:00Wed 	 1c 	 0%
12:00Wed 	 1c 	 10%
13:00Wed 	 2c 	 7%
14:00Wed 	 2c 	 6%
15:00Wed 	 2c 	 5%
16:00Wed 	 2c 	 4%
17:00Wed 	 0c 	 2%
18:00Wed 	 1c 	 2%
19:00Wed 	 2c 	 1%
20:00Wed 	 3c 	 1%
21:00Wed 	 3c 	 1%
22:00Wed 	 3c 	 1%
23:00Wed 	 4c 	 1%
00:00Thu 	 4c 	 1%
01:00Thu 	 4c 	 2%
02:00Thu 	 4c 	 2%
03:00Thu 	 4c 	 3%
04:00Thu 	 4c 	 2%
05:00Thu 	 4c 	 2%
06:00Thu 	 4c 	 3%
07:00Thu 	 4c 	 3%
08:00Thu 	 2c 	 3%
09:00Thu 	 2c 	 4%
10:00Thu 	 1c 	 4%
11:00Thu 	 0c 	 3%
12:00Thu 	 1c 	 3%
13:00Thu 	 1c 	 4%
14:00Thu 	 1c 	 5%
15:00Thu 	 1c 	 5%
16:00Thu 	 0c 	 9%
17:00Thu 	 1c 	 13%
18:00Thu 	 1c 	 14%
19:00Thu 	 2c 	 14%
20:00Thu 	 1c 	 13%
21:00Thu 	 1c 	 13%
22:00Thu 	 1c 	 14%
23:00Thu 	 1c 	 15%
00:00Fri 	 1c 	 15%
01:00Fri 	 1c 	 15%
02:00Fri 	 1c 	 15%
03:00Fri 	 1c 	 15%
04:00Fri 	 1c 	 15%
05:00Fri 	 1c 	 16%

# /home/pi/Documents/bbc-weather-predictions/data/Feb10Wed/bbcweather_Wednesday10thFebruary_2021-02-10_1045.txt
# time 	 temp 	 rain
11:00Wed 	 1c 	 0%
12:00Wed 	 1c 	 10%
13:00Wed 	 2c 	 7%
14:00Wed 	 2c 	 6%
15:00Wed 	 2c 	 5%
16:00Wed 	 2c 	 4%
17:00Wed 	 0c 	 2%
18:00Wed 	 1c 	 2%
19:00Wed 	 2c 	 1%
20:00Wed 	 3c 	 1%
21:00Wed 	 3c 	 1%
22:00Wed 	 3c 	 1%
23:00Wed 	 4c 	 1%
00:00Thu 	 4c 	 1%
01:00Thu 	 4c 	 2%
02:00Thu 	 4c 	 2%
03:00Thu 	 4c 	 3%
04:00Thu 	 4c 	 2%
05:00Thu 	 4c 	 2%
06:00Thu 	 4c 	 3%
07:00Thu 	 4c 	 3%
08:00Thu 	 2c 	 3%
09:00Thu 	 2c 	 4%
10:00Thu 	 1c 	 4%
11:00Thu 	 0c 	 3%
12:00Thu 	 1c 	 3%
13:00Thu 	 1c 	 4%
14:00Thu 	 1c 	 5%
15:00Thu 	 1c 	 5%
16:00Thu 	 0c 	 9%
17:00Thu 	 1c 	 13%
18:00Thu 	 1c 	 14%
19:00Thu 	 2c 	 14%
20:00Thu 	 1c 	 13%
21:00Thu 	 1c 	 13%
22:00Thu 	 1c 	 14%
23:00Thu 	 1c 	 15%
00:00Fri 	 1c 	 15%
01:00Fri 	 1c 	 15%
02:00Fri 	 1c 	 15%
03:00Fri 	 1c 	 15%
04:00Fri 	 1c 	 15%
05:00Fri 	 1c 	 16%

# /home/pi/Documents/bbc-weather-predictions/data/Feb10Wed/bbcweather_Wednesday10thFebruary_2021-02-10_1100.txt
# time 	 temp 	 rain
11:00Wed 	 1c 	 0%
12:00Wed 	 1c 	 10%
13:00Wed 	 2c 	 7%
14:00Wed 	 2c 	 6%
15:00Wed 	 2c 	 5%
16:00Wed 	 2c 	 4%
17:00Wed 	 0c 	 2%
18:00Wed 	 1c 	 2%
19:00Wed 	 2c 	 1%
20:00Wed 	 3c 	 1%
21:00Wed 	 3c 	 1%
22:00Wed 	 3c 	 1%
23:00Wed 	 4c 	 1%
00:00Thu 	 4c 	 1%
01:00Thu 	 4c 	 2%
02:00Thu 	 4c 	 2%
03:00Thu 	 4c 	 3%
04:00Thu 	 4c 	 2%
05:00Thu 	 4c 	 2%
06:00Thu 	 4c 	 3%
07:00Thu 	 4c 	 3%
08:00Thu 	 2c 	 3%
09:00Thu 	 2c 	 4%
10:00Thu 	 1c 	 4%
11:00Thu 	 0c 	 3%
12:00Thu 	 1c 	 3%
13:00Thu 	 1c 	 4%
14:00Thu 	 1c 	 5%
15:00Thu 	 1c 	 5%
16:00Thu 	 0c 	 9%
17:00Thu 	 1c 	 13%
18:00Thu 	 1c 	 14%
19:00Thu 	 2c 	 14%
20:00Thu 	 1c 	 13%
21:00Thu 	 1c 	 13%
22:00Thu 	 1c 	 14%
23:00Thu 	 1c 	 15%
00:00Fri 	 1c 	 15%
01:00Fri 	 1c 	 15%
02:00Fri 	 1c 	 15%
03:00Fri 	 1c 	 15%
04:00Fri 	 1c 	 15%
05:00Fri 	 1c 	 16%

# /home/pi/Documents/bbc-weather-predictions/data/Feb10Wed/bbcweather_Wednesday10thFebruary_2021-02-10_1115.txt
# time 	 temp 	 rain
12:00Wed 	 1c 	 31%
13:00Wed 	 2c 	 71%
14:00Wed 	 2c 	 7%
15:00Wed 	 2c 	 5%
16:00Wed 	 2c 	 4%
17:00Wed 	 0c 	 2%
18:00Wed 	 1c 	 2%
19:00Wed 	 2c 	 1%
20:00Wed 	 3c 	 1%
21:00Wed 	 3c 	 1%
22:00Wed 	 3c 	 1%
23:00Wed 	 4c 	 1%
00:00Thu 	 4c 	 1%
01:00Thu 	 4c 	 2%
02:00Thu 	 4c 	 2%
03:00Thu 	 4c 	 3%
04:00Thu 	 4c 	 2%
05:00Thu 	 4c 	 2%
06:00Thu 	 4c 	 3%
07:00Thu 	 4c 	 3%
08:00Thu 	 2c 	 3%
09:00Thu 	 2c 	 4%
10:00Thu 	 1c 	 4%
11:00Thu 	 0c 	 3%
12:00Thu 	 1c 	 3%
13:00Thu 	 1c 	 4%
14:00Thu 	 1c 	 5%
15:00Thu 	 1c 	 5%
16:00Thu 	 0c 	 9%
17:00Thu 	 1c 	 13%
18:00Thu 	 1c 	 14%
19:00Thu 	 2c 	 14%
20:00Thu 	 1c 	 13%
21:00Thu 	 1c 	 13%
22:00Thu 	 1c 	 14%
23:00Thu 	 1c 	 15%
00:00Fri 	 1c 	 15%
01:00Fri 	 1c 	 15%
02:00Fri 	 1c 	 15%
03:00Fri 	 1c 	 15%
04:00Fri 	 1c 	 15%
05:00Fri 	 1c 	 16%

# /home/pi/Documents/bbc-weather-predictions/data/Feb10Wed/bbcweather_Wednesday10thFebruary_2021-02-10_1130.txt
# time 	 temp 	 rain
12:00Wed 	 1c 	 31%
13:00Wed 	 2c 	 71%
14:00Wed 	 2c 	 7%
15:00Wed 	 2c 	 5%
16:00Wed 	 2c 	 4%
17:00Wed 	 0c 	 2%
18:00Wed 	 1c 	 2%
19:00Wed 	 2c 	 1%
20:00Wed 	 3c 	 1%
21:00Wed 	 3c 	 1%
22:00Wed 	 3c 	 1%
23:00Wed 	 4c 	 1%
00:00Thu 	 4c 	 1%
01:00Thu 	 4c 	 2%
02:00Thu 	 4c 	 2%
03:00Thu 	 4c 	 3%
04:00Thu 	 4c 	 2%
05:00Thu 	 4c 	 2%
06:00Thu 	 4c 	 3%
07:00Thu 	 4c 	 3%
08:00Thu 	 2c 	 3%
09:00Thu 	 2c 	 4%
10:00Thu 	 1c 	 4%
11:00Thu 	 0c 	 3%
12:00Thu 	 1c 	 3%
13:00Thu 	 1c 	 4%
14:00Thu 	 1c 	 5%
15:00Thu 	 1c 	 5%
16:00Thu 	 0c 	 9%
17:00Thu 	 1c 	 13%
18:00Thu 	 1c 	 14%
19:00Thu 	 2c 	 14%
20:00Thu 	 1c 	 13%
21:00Thu 	 1c 	 13%
22:00Thu 	 1c 	 14%
23:00Thu 	 1c 	 15%
00:00Fri 	 1c 	 15%
01:00Fri 	 1c 	 15%
02:00Fri 	 1c 	 15%
03:00Fri 	 1c 	 15%
04:00Fri 	 1c 	 15%
05:00Fri 	 1c 	 16%

# /home/pi/Documents/bbc-weather-predictions/data/Feb10Wed/bbcweather_Wednesday10thFebruary_2021-02-10_1145.txt
# time 	 temp 	 rain
12:00Wed 	 1c 	 31%
13:00Wed 	 2c 	 71%
14:00Wed 	 2c 	 7%
15:00Wed 	 2c 	 5%
16:00Wed 	 2c 	 4%
17:00Wed 	 0c 	 2%
18:00Wed 	 1c 	 2%
19:00Wed 	 2c 	 1%
20:00Wed 	 3c 	 1%
21:00Wed 	 3c 	 1%
22:00Wed 	 3c 	 1%
23:00Wed 	 4c 	 1%
00:00Thu 	 4c 	 1%
01:00Thu 	 4c 	 2%
02:00Thu 	 4c 	 2%
03:00Thu 	 4c 	 3%
04:00Thu 	 4c 	 2%
05:00Thu 	 4c 	 2%
06:00Thu 	 4c 	 3%
07:00Thu 	 4c 	 3%
08:00Thu 	 2c 	 3%
09:00Thu 	 2c 	 4%
10:00Thu 	 1c 	 4%
11:00Thu 	 0c 	 3%
12:00Thu 	 1c 	 3%
13:00Thu 	 1c 	 4%
14:00Thu 	 1c 	 5%
15:00Thu 	 1c 	 5%
16:00Thu 	 0c 	 9%
17:00Thu 	 1c 	 13%
18:00Thu 	 1c 	 14%
19:00Thu 	 2c 	 14%
20:00Thu 	 1c 	 13%
21:00Thu 	 1c 	 13%
22:00Thu 	 1c 	 14%
23:00Thu 	 1c 	 15%
00:00Fri 	 1c 	 15%
01:00Fri 	 1c 	 15%
02:00Fri 	 1c 	 15%
03:00Fri 	 1c 	 15%
04:00Fri 	 1c 	 15%
05:00Fri 	 1c 	 16%

# /home/pi/Documents/bbc-weather-predictions/data/Feb10Wed/bbcweather_Wednesday10thFebruary_2021-02-10_1200.txt
# time 	 temp 	 rain
12:00Wed 	 1c 	 0%
13:00Wed 	 1c 	 14%
14:00Wed 	 2c 	 72%
15:00Wed 	 2c 	 4%
16:00Wed 	 2c 	 3%
17:00Wed 	 0c 	 2%
18:00Wed 	 1c 	 2%
19:00Wed 	 2c 	 1%
20:00Wed 	 3c 	 1%
21:00Wed 	 3c 	 1%
22:00Wed 	 3c 	 1%
23:00Wed 	 4c 	 1%
00:00Thu 	 4c 	 1%
01:00Thu 	 4c 	 2%
02:00Thu 	 4c 	 2%
03:00Thu 	 4c 	 3%
04:00Thu 	 4c 	 2%
05:00Thu 	 4c 	 2%
06:00Thu 	 4c 	 3%
07:00Thu 	 4c 	 3%
08:00Thu 	 2c 	 3%
09:00Thu 	 2c 	 4%
10:00Thu 	 1c 	 4%
11:00Thu 	 0c 	 3%
12:00Thu 	 1c 	 3%
13:00Thu 	 1c 	 4%
14:00Thu 	 1c 	 5%
15:00Thu 	 1c 	 5%
16:00Thu 	 0c 	 9%
17:00Thu 	 1c 	 13%
18:00Thu 	 1c 	 14%
19:00Thu 	 2c 	 14%
20:00Thu 	 1c 	 13%
21:00Thu 	 1c 	 13%
22:00Thu 	 1c 	 14%
23:00Thu 	 1c 	 15%
00:00Fri 	 1c 	 15%
01:00Fri 	 1c 	 15%
02:00Fri 	 1c 	 15%
03:00Fri 	 1c 	 15%
04:00Fri 	 1c 	 15%
05:00Fri 	 1c 	 16%

# /home/pi/Documents/bbc-weather-predictions/data/Feb10Wed/bbcweather_Wednesday10thFebruary_2021-02-10_1215.txt
# time 	 temp 	 rain
13:00Wed 	 1c 	 14%
14:00Wed 	 2c 	 72%
15:00Wed 	 2c 	 4%
16:00Wed 	 2c 	 3%
17:00Wed 	 0c 	 2%
18:00Wed 	 1c 	 2%
19:00Wed 	 2c 	 1%
20:00Wed 	 3c 	 1%
21:00Wed 	 3c 	 1%
22:00Wed 	 3c 	 1%
23:00Wed 	 4c 	 1%
00:00Thu 	 4c 	 1%
01:00Thu 	 4c 	 2%
02:00Thu 	 4c 	 2%
03:00Thu 	 4c 	 3%
04:00Thu 	 4c 	 2%
05:00Thu 	 4c 	 2%
06:00Thu 	 4c 	 3%
07:00Thu 	 4c 	 3%
08:00Thu 	 2c 	 3%
09:00Thu 	 2c 	 4%
10:00Thu 	 1c 	 4%
11:00Thu 	 0c 	 3%
12:00Thu 	 1c 	 3%
13:00Thu 	 1c 	 4%
14:00Thu 	 1c 	 5%
15:00Thu 	 1c 	 5%
16:00Thu 	 0c 	 9%
17:00Thu 	 1c 	 13%
18:00Thu 	 1c 	 14%
19:00Thu 	 2c 	 14%
20:00Thu 	 1c 	 13%
21:00Thu 	 1c 	 13%
22:00Thu 	 1c 	 14%
23:00Thu 	 1c 	 15%
00:00Fri 	 1c 	 15%
01:00Fri 	 1c 	 15%
02:00Fri 	 1c 	 15%
03:00Fri 	 1c 	 15%
04:00Fri 	 1c 	 15%
05:00Fri 	 1c 	 16%

# /home/pi/Documents/bbc-weather-predictions/data/Feb10Wed/bbcweather_Wednesday10thFebruary_2021-02-10_1230.txt
# time 	 temp 	 rain
13:00Wed 	 1c 	 14%
14:00Wed 	 2c 	 72%
15:00Wed 	 2c 	 4%
16:00Wed 	 2c 	 3%
17:00Wed 	 0c 	 2%
18:00Wed 	 1c 	 2%
19:00Wed 	 2c 	 1%
20:00Wed 	 3c 	 1%
21:00Wed 	 3c 	 1%
22:00Wed 	 3c 	 1%
23:00Wed 	 4c 	 1%
00:00Thu 	 4c 	 1%
01:00Thu 	 4c 	 2%
02:00Thu 	 4c 	 2%
03:00Thu 	 4c 	 3%
04:00Thu 	 4c 	 2%
05:00Thu 	 4c 	 2%
06:00Thu 	 4c 	 3%
07:00Thu 	 4c 	 3%
08:00Thu 	 2c 	 3%
09:00Thu 	 2c 	 4%
10:00Thu 	 1c 	 4%
11:00Thu 	 0c 	 3%
12:00Thu 	 1c 	 3%
13:00Thu 	 1c 	 4%
14:00Thu 	 1c 	 5%
15:00Thu 	 1c 	 5%
16:00Thu 	 0c 	 9%
17:00Thu 	 1c 	 13%
18:00Thu 	 1c 	 14%
19:00Thu 	 2c 	 14%
20:00Thu 	 1c 	 13%
21:00Thu 	 1c 	 13%
22:00Thu 	 1c 	 14%
23:00Thu 	 1c 	 15%
00:00Fri 	 1c 	 15%
01:00Fri 	 1c 	 15%
02:00Fri 	 1c 	 15%
03:00Fri 	 1c 	 15%
04:00Fri 	 1c 	 15%
05:00Fri 	 1c 	 16%

# /home/pi/Documents/bbc-weather-predictions/data/Feb10Wed/bbcweather_Wednesday10thFebruary_2021-02-10_1245.txt
# time 	 temp 	 rain
13:00Wed 	 1c 	 14%
14:00Wed 	 2c 	 72%
15:00Wed 	 2c 	 4%
16:00Wed 	 2c 	 3%
17:00Wed 	 0c 	 2%
18:00Wed 	 1c 	 2%
19:00Wed 	 2c 	 1%
20:00Wed 	 3c 	 1%
21:00Wed 	 3c 	 1%
22:00Wed 	 3c 	 1%
23:00Wed 	 4c 	 1%
00:00Thu 	 4c 	 1%
01:00Thu 	 4c 	 2%
02:00Thu 	 4c 	 2%
03:00Thu 	 4c 	 3%
04:00Thu 	 4c 	 2%
05:00Thu 	 4c 	 2%
06:00Thu 	 4c 	 3%
07:00Thu 	 4c 	 3%
08:00Thu 	 2c 	 3%
09:00Thu 	 2c 	 4%
10:00Thu 	 1c 	 4%
11:00Thu 	 0c 	 3%
12:00Thu 	 1c 	 3%
13:00Thu 	 1c 	 4%
14:00Thu 	 1c 	 5%
15:00Thu 	 1c 	 5%
16:00Thu 	 0c 	 9%
17:00Thu 	 1c 	 13%
18:00Thu 	 1c 	 14%
19:00Thu 	 2c 	 14%
20:00Thu 	 1c 	 13%
21:00Thu 	 1c 	 13%
22:00Thu 	 1c 	 14%
23:00Thu 	 1c 	 15%
00:00Fri 	 1c 	 15%
01:00Fri 	 1c 	 15%
02:00Fri 	 1c 	 15%
03:00Fri 	 1c 	 15%
04:00Fri 	 1c 	 15%
05:00Fri 	 1c 	 16%

# /home/pi/Documents/bbc-weather-predictions/data/Feb10Wed/bbcweather_Wednesday10thFebruary_2021-02-10_1300.txt
# time 	 temp 	 rain
13:00Wed 	 2c 	 2%
14:00Wed 	 2c 	 53%
15:00Wed 	 2c 	 48%
16:00Wed 	 2c 	 3%
17:00Wed 	 0c 	 2%
18:00Wed 	 1c 	 2%
19:00Wed 	 2c 	 1%
20:00Wed 	 3c 	 1%
21:00Wed 	 3c 	 1%
22:00Wed 	 3c 	 1%
23:00Wed 	 4c 	 1%
00:00Thu 	 4c 	 1%
01:00Thu 	 4c 	 2%
02:00Thu 	 4c 	 2%
03:00Thu 	 4c 	 3%
04:00Thu 	 4c 	 2%
05:00Thu 	 4c 	 2%
06:00Thu 	 4c 	 3%
07:00Thu 	 4c 	 3%
08:00Thu 	 2c 	 3%
09:00Thu 	 2c 	 4%
10:00Thu 	 1c 	 4%
11:00Thu 	 0c 	 3%
12:00Thu 	 1c 	 3%
13:00Thu 	 1c 	 4%
14:00Thu 	 1c 	 5%
15:00Thu 	 1c 	 5%
16:00Thu 	 0c 	 9%
17:00Thu 	 1c 	 13%
18:00Thu 	 1c 	 14%
19:00Thu 	 2c 	 14%
20:00Thu 	 1c 	 13%
21:00Thu 	 1c 	 13%
22:00Thu 	 1c 	 14%
23:00Thu 	 1c 	 15%
00:00Fri 	 1c 	 15%
01:00Fri 	 1c 	 15%
02:00Fri 	 1c 	 15%
03:00Fri 	 1c 	 15%
04:00Fri 	 1c 	 15%
05:00Fri 	 1c 	 16%

# /home/pi/Documents/bbc-weather-predictions/data/Feb10Wed/bbcweather_Wednesday10thFebruary_2021-02-10_1315.txt
# time 	 temp 	 rain
14:00Wed 	 2c 	 53%
15:00Wed 	 2c 	 48%
16:00Wed 	 2c 	 3%
17:00Wed 	 0c 	 2%
18:00Wed 	 1c 	 2%
19:00Wed 	 2c 	 1%
20:00Wed 	 3c 	 1%
21:00Wed 	 3c 	 1%
22:00Wed 	 3c 	 1%
23:00Wed 	 4c 	 1%
00:00Thu 	 4c 	 1%
01:00Thu 	 4c 	 2%
02:00Thu 	 4c 	 2%
03:00Thu 	 4c 	 3%
04:00Thu 	 4c 	 2%
05:00Thu 	 4c 	 2%
06:00Thu 	 4c 	 3%
07:00Thu 	 4c 	 3%
08:00Thu 	 2c 	 3%
09:00Thu 	 2c 	 4%
10:00Thu 	 1c 	 4%
11:00Thu 	 0c 	 3%
12:00Thu 	 1c 	 3%
13:00Thu 	 1c 	 4%
14:00Thu 	 1c 	 5%
15:00Thu 	 1c 	 5%
16:00Thu 	 0c 	 9%
17:00Thu 	 1c 	 13%
18:00Thu 	 1c 	 14%
19:00Thu 	 2c 	 14%
20:00Thu 	 1c 	 13%
21:00Thu 	 1c 	 13%
22:00Thu 	 1c 	 14%
23:00Thu 	 1c 	 15%
00:00Fri 	 1c 	 15%
01:00Fri 	 1c 	 15%
02:00Fri 	 1c 	 15%
03:00Fri 	 1c 	 15%
04:00Fri 	 1c 	 15%
05:00Fri 	 1c 	 16%

# /home/pi/Documents/bbc-weather-predictions/data/Feb10Wed/bbcweather_Wednesday10thFebruary_2021-02-10_1330.txt
# time 	 temp 	 rain
14:00Wed 	 2c 	 53%
15:00Wed 	 2c 	 48%
16:00Wed 	 2c 	 3%
17:00Wed 	 0c 	 2%
18:00Wed 	 1c 	 2%
19:00Wed 	 2c 	 1%
20:00Wed 	 3c 	 1%
21:00Wed 	 3c 	 1%
22:00Wed 	 3c 	 1%
23:00Wed 	 4c 	 1%
00:00Thu 	 4c 	 1%
01:00Thu 	 4c 	 2%
02:00Thu 	 4c 	 2%
03:00Thu 	 4c 	 3%
04:00Thu 	 4c 	 2%
05:00Thu 	 4c 	 2%
06:00Thu 	 4c 	 3%
07:00Thu 	 4c 	 3%
08:00Thu 	 2c 	 3%
09:00Thu 	 2c 	 4%
10:00Thu 	 1c 	 4%
11:00Thu 	 0c 	 3%
12:00Thu 	 1c 	 3%
13:00Thu 	 1c 	 4%
14:00Thu 	 1c 	 5%
15:00Thu 	 1c 	 5%
16:00Thu 	 0c 	 9%
17:00Thu 	 1c 	 13%
18:00Thu 	 1c 	 14%
19:00Thu 	 2c 	 14%
20:00Thu 	 1c 	 13%
21:00Thu 	 1c 	 13%
22:00Thu 	 1c 	 14%
23:00Thu 	 1c 	 15%
00:00Fri 	 1c 	 15%
01:00Fri 	 1c 	 15%
02:00Fri 	 1c 	 15%
03:00Fri 	 1c 	 15%
04:00Fri 	 1c 	 15%
05:00Fri 	 1c 	 16%

# /home/pi/Documents/bbc-weather-predictions/data/Feb10Wed/bbcweather_Wednesday10thFebruary_2021-02-10_1345.txt
# time 	 temp 	 rain
14:00Wed 	 2c 	 53%
15:00Wed 	 2c 	 48%
16:00Wed 	 2c 	 3%
17:00Wed 	 0c 	 2%
18:00Wed 	 1c 	 2%
19:00Wed 	 2c 	 1%
20:00Wed 	 3c 	 1%
21:00Wed 	 3c 	 1%
22:00Wed 	 3c 	 1%
23:00Wed 	 4c 	 1%
00:00Thu 	 4c 	 1%
01:00Thu 	 4c 	 2%
02:00Thu 	 4c 	 2%
03:00Thu 	 4c 	 3%
04:00Thu 	 4c 	 2%
05:00Thu 	 4c 	 2%
06:00Thu 	 4c 	 3%
07:00Thu 	 4c 	 3%
08:00Thu 	 2c 	 3%
09:00Thu 	 2c 	 4%
10:00Thu 	 1c 	 4%
11:00Thu 	 0c 	 3%
12:00Thu 	 1c 	 3%
13:00Thu 	 1c 	 4%
14:00Thu 	 1c 	 5%
15:00Thu 	 1c 	 5%
16:00Thu 	 0c 	 9%
17:00Thu 	 1c 	 13%
18:00Thu 	 1c 	 14%
19:00Thu 	 2c 	 14%
20:00Thu 	 1c 	 13%
21:00Thu 	 1c 	 13%
22:00Thu 	 1c 	 14%
23:00Thu 	 1c 	 15%
00:00Fri 	 1c 	 15%
01:00Fri 	 1c 	 15%
02:00Fri 	 1c 	 15%
03:00Fri 	 1c 	 15%
04:00Fri 	 1c 	 15%
05:00Fri 	 1c 	 16%

# /home/pi/Documents/bbc-weather-predictions/data/Feb10Wed/bbcweather_Wednesday10thFebruary_2021-02-10_1400.txt
# time 	 temp 	 rain
14:00Wed 	 2c 	 12%
15:00Wed 	 2c 	 54%
16:00Wed 	 2c 	 16%
17:00Wed 	 1c 	 1%
18:00Wed 	 1c 	 1%
19:00Wed 	 2c 	 1%
20:00Wed 	 3c 	 1%
21:00Wed 	 3c 	 1%
22:00Wed 	 3c 	 1%
23:00Wed 	 4c 	 1%
00:00Thu 	 4c 	 1%
01:00Thu 	 4c 	 2%
02:00Thu 	 4c 	 2%
03:00Thu 	 4c 	 3%
04:00Thu 	 4c 	 2%
05:00Thu 	 4c 	 2%
06:00Thu 	 4c 	 3%
07:00Thu 	 4c 	 3%
08:00Thu 	 2c 	 3%
09:00Thu 	 2c 	 4%
10:00Thu 	 1c 	 4%
11:00Thu 	 0c 	 3%
12:00Thu 	 1c 	 3%
13:00Thu 	 1c 	 4%
14:00Thu 	 1c 	 5%
15:00Thu 	 1c 	 5%
16:00Thu 	 0c 	 9%
17:00Thu 	 1c 	 13%
18:00Thu 	 1c 	 14%
19:00Thu 	 2c 	 14%
20:00Thu 	 1c 	 13%
21:00Thu 	 1c 	 13%
22:00Thu 	 1c 	 14%
23:00Thu 	 1c 	 15%
00:00Fri 	 1c 	 15%
01:00Fri 	 1c 	 15%
02:00Fri 	 1c 	 15%
03:00Fri 	 1c 	 15%
04:00Fri 	 1c 	 15%
05:00Fri 	 1c 	 16%

# /home/pi/Documents/bbc-weather-predictions/data/Feb10Wed/bbcweather_Wednesday10thFebruary_2021-02-10_1415.txt
# time 	 temp 	 rain
15:00Wed 	 2c 	 54%
16:00Wed 	 2c 	 16%
17:00Wed 	 1c 	 1%
18:00Wed 	 1c 	 1%
19:00Wed 	 2c 	 1%
20:00Wed 	 3c 	 1%
21:00Wed 	 3c 	 1%
22:00Wed 	 3c 	 1%
23:00Wed 	 4c 	 1%
00:00Thu 	 4c 	 1%
01:00Thu 	 4c 	 2%
02:00Thu 	 4c 	 2%
03:00Thu 	 4c 	 3%
04:00Thu 	 4c 	 2%
05:00Thu 	 4c 	 2%
06:00Thu 	 4c 	 3%
07:00Thu 	 4c 	 3%
08:00Thu 	 2c 	 3%
09:00Thu 	 2c 	 4%
10:00Thu 	 1c 	 4%
11:00Thu 	 0c 	 3%
12:00Thu 	 1c 	 3%
13:00Thu 	 1c 	 4%
14:00Thu 	 1c 	 5%
15:00Thu 	 1c 	 5%
16:00Thu 	 0c 	 9%
17:00Thu 	 1c 	 13%
18:00Thu 	 1c 	 14%
19:00Thu 	 2c 	 14%
20:00Thu 	 1c 	 13%
21:00Thu 	 1c 	 13%
22:00Thu 	 1c 	 14%
23:00Thu 	 1c 	 15%
00:00Fri 	 1c 	 15%
01:00Fri 	 1c 	 15%
02:00Fri 	 1c 	 15%
03:00Fri 	 1c 	 15%
04:00Fri 	 1c 	 15%
05:00Fri 	 1c 	 16%

# /home/pi/Documents/bbc-weather-predictions/data/Feb10Wed/bbcweather_Wednesday10thFebruary_2021-02-10_1430.txt
# time 	 temp 	 rain
15:00Wed 	 2c 	 54%
16:00Wed 	 2c 	 16%
17:00Wed 	 1c 	 1%
18:00Wed 	 1c 	 1%
19:00Wed 	 2c 	 1%
20:00Wed 	 3c 	 1%
21:00Wed 	 3c 	 1%
22:00Wed 	 3c 	 1%
23:00Wed 	 4c 	 1%
00:00Thu 	 4c 	 1%
01:00Thu 	 4c 	 2%
02:00Thu 	 4c 	 2%
03:00Thu 	 4c 	 3%
04:00Thu 	 4c 	 2%
05:00Thu 	 4c 	 2%
06:00Thu 	 4c 	 3%
07:00Thu 	 4c 	 3%
08:00Thu 	 2c 	 3%
09:00Thu 	 2c 	 4%
10:00Thu 	 1c 	 4%
11:00Thu 	 0c 	 3%
12:00Thu 	 1c 	 3%
13:00Thu 	 1c 	 4%
14:00Thu 	 1c 	 5%
15:00Thu 	 1c 	 5%
16:00Thu 	 0c 	 9%
17:00Thu 	 1c 	 13%
18:00Thu 	 1c 	 14%
19:00Thu 	 2c 	 14%
20:00Thu 	 1c 	 13%
21:00Thu 	 1c 	 13%
22:00Thu 	 1c 	 14%
23:00Thu 	 1c 	 15%
00:00Fri 	 1c 	 15%
01:00Fri 	 1c 	 15%
02:00Fri 	 1c 	 15%
03:00Fri 	 1c 	 15%
04:00Fri 	 1c 	 15%
05:00Fri 	 1c 	 16%

# /home/pi/Documents/bbc-weather-predictions/data/Feb10Wed/bbcweather_Wednesday10thFebruary_2021-02-10_1445.txt
# time 	 temp 	 rain
15:00Wed 	 2c 	 54%
16:00Wed 	 2c 	 16%
17:00Wed 	 1c 	 1%
18:00Wed 	 1c 	 1%
19:00Wed 	 2c 	 1%
20:00Wed 	 3c 	 1%
21:00Wed 	 3c 	 1%
22:00Wed 	 3c 	 1%
23:00Wed 	 4c 	 1%
00:00Thu 	 4c 	 1%
01:00Thu 	 4c 	 2%
02:00Thu 	 4c 	 2%
03:00Thu 	 4c 	 3%
04:00Thu 	 4c 	 2%
05:00Thu 	 4c 	 2%
06:00Thu 	 4c 	 3%
07:00Thu 	 4c 	 3%
08:00Thu 	 2c 	 3%
09:00Thu 	 2c 	 4%
10:00Thu 	 1c 	 4%
11:00Thu 	 0c 	 3%
12:00Thu 	 1c 	 3%
13:00Thu 	 1c 	 4%
14:00Thu 	 1c 	 5%
15:00Thu 	 1c 	 5%
16:00Thu 	 0c 	 9%
17:00Thu 	 1c 	 13%
18:00Thu 	 1c 	 14%
19:00Thu 	 2c 	 14%
20:00Thu 	 1c 	 13%
21:00Thu 	 1c 	 13%
22:00Thu 	 1c 	 14%
23:00Thu 	 1c 	 15%
00:00Fri 	 1c 	 15%
01:00Fri 	 1c 	 15%
02:00Fri 	 1c 	 15%
03:00Fri 	 1c 	 15%
04:00Fri 	 1c 	 15%
05:00Fri 	 1c 	 16%

# /home/pi/Documents/bbc-weather-predictions/data/Feb10Wed/bbcweather_Wednesday10thFebruary_2021-02-10_1500.txt
# time 	 temp 	 rain
15:00Wed 	 2c 	 54%
16:00Wed 	 2c 	 16%
17:00Wed 	 1c 	 1%
18:00Wed 	 1c 	 1%
19:00Wed 	 2c 	 1%
20:00Wed 	 3c 	 1%
21:00Wed 	 3c 	 1%
22:00Wed 	 3c 	 1%
23:00Wed 	 4c 	 1%
00:00Thu 	 4c 	 1%
01:00Thu 	 4c 	 2%
02:00Thu 	 4c 	 2%
03:00Thu 	 4c 	 3%
04:00Thu 	 4c 	 2%
05:00Thu 	 4c 	 2%
06:00Thu 	 4c 	 3%
07:00Thu 	 4c 	 3%
08:00Thu 	 2c 	 3%
09:00Thu 	 2c 	 4%
10:00Thu 	 1c 	 4%
11:00Thu 	 0c 	 3%
12:00Thu 	 1c 	 3%
13:00Thu 	 1c 	 4%
14:00Thu 	 1c 	 5%
15:00Thu 	 1c 	 5%
16:00Thu 	 0c 	 9%
17:00Thu 	 1c 	 13%
18:00Thu 	 1c 	 14%
19:00Thu 	 2c 	 14%
20:00Thu 	 1c 	 13%
21:00Thu 	 1c 	 13%
22:00Thu 	 1c 	 14%
23:00Thu 	 1c 	 15%
00:00Fri 	 1c 	 15%
01:00Fri 	 1c 	 15%
02:00Fri 	 1c 	 15%
03:00Fri 	 1c 	 15%
04:00Fri 	 1c 	 15%
05:00Fri 	 1c 	 16%

# /home/pi/Documents/bbc-weather-predictions/data/Feb10Wed/bbcweather_Wednesday10thFebruary_2021-02-10_1515.txt
# time 	 temp 	 rain
16:00Wed 	 1c 	 8%
17:00Wed 	 0c 	 36%
18:00Wed 	 0c 	 1%
19:00Wed 	 1c 	 1%
20:00Wed 	 2c 	 1%
21:00Wed 	 3c 	 1%
22:00Wed 	 3c 	 1%
23:00Wed 	 4c 	 1%
00:00Thu 	 4c 	 1%
01:00Thu 	 4c 	 2%
02:00Thu 	 4c 	 2%
03:00Thu 	 4c 	 3%
04:00Thu 	 4c 	 2%
05:00Thu 	 4c 	 2%
06:00Thu 	 4c 	 3%
07:00Thu 	 4c 	 3%
08:00Thu 	 2c 	 3%
09:00Thu 	 2c 	 4%
10:00Thu 	 1c 	 4%
11:00Thu 	 0c 	 3%
12:00Thu 	 1c 	 3%
13:00Thu 	 1c 	 4%
14:00Thu 	 1c 	 5%
15:00Thu 	 1c 	 5%
16:00Thu 	 0c 	 9%
17:00Thu 	 1c 	 13%
18:00Thu 	 1c 	 14%
19:00Thu 	 2c 	 14%
20:00Thu 	 1c 	 13%
21:00Thu 	 1c 	 13%
22:00Thu 	 1c 	 14%
23:00Thu 	 1c 	 15%
00:00Fri 	 1c 	 15%
01:00Fri 	 1c 	 15%
02:00Fri 	 1c 	 15%
03:00Fri 	 1c 	 15%
04:00Fri 	 1c 	 15%
05:00Fri 	 1c 	 16%

# /home/pi/Documents/bbc-weather-predictions/data/Feb10Wed/bbcweather_Wednesday10thFebruary_2021-02-10_1530.txt
# time 	 temp 	 rain
16:00Wed 	 1c 	 8%
17:00Wed 	 0c 	 36%
18:00Wed 	 0c 	 1%
19:00Wed 	 1c 	 1%
20:00Wed 	 2c 	 1%
21:00Wed 	 3c 	 1%
22:00Wed 	 3c 	 1%
23:00Wed 	 4c 	 1%
00:00Thu 	 4c 	 1%
01:00Thu 	 4c 	 2%
02:00Thu 	 4c 	 2%
03:00Thu 	 4c 	 3%
04:00Thu 	 4c 	 2%
05:00Thu 	 4c 	 2%
06:00Thu 	 4c 	 3%
07:00Thu 	 4c 	 3%
08:00Thu 	 2c 	 3%
09:00Thu 	 2c 	 4%
10:00Thu 	 1c 	 4%
11:00Thu 	 0c 	 3%
12:00Thu 	 1c 	 3%
13:00Thu 	 1c 	 4%
14:00Thu 	 1c 	 5%
15:00Thu 	 1c 	 5%
16:00Thu 	 0c 	 9%
17:00Thu 	 1c 	 13%
18:00Thu 	 1c 	 14%
19:00Thu 	 2c 	 14%
20:00Thu 	 1c 	 13%
21:00Thu 	 1c 	 13%
22:00Thu 	 1c 	 14%
23:00Thu 	 1c 	 15%
00:00Fri 	 1c 	 15%
01:00Fri 	 1c 	 15%
02:00Fri 	 1c 	 15%
03:00Fri 	 1c 	 15%
04:00Fri 	 1c 	 15%
05:00Fri 	 1c 	 16%

# /home/pi/Documents/bbc-weather-predictions/data/Feb10Wed/bbcweather_Wednesday10thFebruary_2021-02-10_1545.txt
# time 	 temp 	 rain
16:00Wed 	 1c 	 8%
17:00Wed 	 0c 	 36%
18:00Wed 	 0c 	 1%
19:00Wed 	 1c 	 1%
20:00Wed 	 2c 	 1%
21:00Wed 	 3c 	 1%
22:00Wed 	 3c 	 1%
23:00Wed 	 4c 	 1%
00:00Thu 	 4c 	 1%
01:00Thu 	 4c 	 2%
02:00Thu 	 4c 	 2%
03:00Thu 	 4c 	 3%
04:00Thu 	 4c 	 2%
05:00Thu 	 4c 	 2%
06:00Thu 	 4c 	 3%
07:00Thu 	 4c 	 3%
08:00Thu 	 2c 	 3%
09:00Thu 	 2c 	 4%
10:00Thu 	 1c 	 4%
11:00Thu 	 0c 	 3%
12:00Thu 	 1c 	 3%
13:00Thu 	 1c 	 4%
14:00Thu 	 1c 	 5%
15:00Thu 	 1c 	 5%
16:00Thu 	 0c 	 9%
17:00Thu 	 1c 	 13%
18:00Thu 	 1c 	 14%
19:00Thu 	 2c 	 14%
20:00Thu 	 1c 	 13%
21:00Thu 	 1c 	 13%
22:00Thu 	 1c 	 14%
23:00Thu 	 1c 	 15%
00:00Fri 	 1c 	 15%
01:00Fri 	 1c 	 15%
02:00Fri 	 1c 	 15%
03:00Fri 	 1c 	 15%
04:00Fri 	 1c 	 15%
05:00Fri 	 1c 	 16%

# /home/pi/Documents/bbc-weather-predictions/data/Feb10Wed/bbcweather_Wednesday10thFebruary_2021-02-10_1600.txt
# time 	 temp 	 rain
16:00Wed 	 1c 	 0%
17:00Wed 	 1c 	 18%
18:00Wed 	 0c 	 64%
19:00Wed 	 1c 	 1%
20:00Wed 	 2c 	 1%
21:00Wed 	 3c 	 1%
22:00Wed 	 3c 	 1%
23:00Wed 	 4c 	 1%
00:00Thu 	 4c 	 1%
01:00Thu 	 4c 	 2%
02:00Thu 	 4c 	 2%
03:00Thu 	 4c 	 3%
04:00Thu 	 4c 	 2%
05:00Thu 	 4c 	 2%
06:00Thu 	 4c 	 3%
07:00Thu 	 4c 	 3%
08:00Thu 	 2c 	 3%
09:00Thu 	 2c 	 4%
10:00Thu 	 1c 	 4%
11:00Thu 	 0c 	 3%
12:00Thu 	 1c 	 3%
13:00Thu 	 1c 	 4%
14:00Thu 	 1c 	 5%
15:00Thu 	 1c 	 5%
16:00Thu 	 0c 	 9%
17:00Thu 	 1c 	 13%
18:00Thu 	 1c 	 14%
19:00Thu 	 2c 	 14%
20:00Thu 	 1c 	 13%
21:00Thu 	 1c 	 13%
22:00Thu 	 1c 	 14%
23:00Thu 	 1c 	 15%
00:00Fri 	 1c 	 15%
01:00Fri 	 1c 	 15%
02:00Fri 	 1c 	 15%
03:00Fri 	 1c 	 15%
04:00Fri 	 1c 	 15%
05:00Fri 	 1c 	 16%

# /home/pi/Documents/bbc-weather-predictions/data/Feb10Wed/bbcweather_Wednesday10thFebruary_2021-02-10_1615.txt
# time 	 temp 	 rain
17:00Wed 	 1c 	 18%
18:00Wed 	 0c 	 64%
19:00Wed 	 1c 	 1%
20:00Wed 	 2c 	 1%
21:00Wed 	 3c 	 1%
22:00Wed 	 3c 	 1%
23:00Wed 	 4c 	 1%
00:00Thu 	 4c 	 1%
01:00Thu 	 4c 	 2%
02:00Thu 	 4c 	 2%
03:00Thu 	 4c 	 3%
04:00Thu 	 4c 	 2%
05:00Thu 	 4c 	 2%
06:00Thu 	 4c 	 3%
07:00Thu 	 4c 	 3%
08:00Thu 	 2c 	 3%
09:00Thu 	 2c 	 4%
10:00Thu 	 1c 	 4%
11:00Thu 	 0c 	 3%
12:00Thu 	 1c 	 3%
13:00Thu 	 1c 	 4%
14:00Thu 	 1c 	 5%
15:00Thu 	 1c 	 5%
16:00Thu 	 0c 	 9%
17:00Thu 	 1c 	 13%
18:00Thu 	 1c 	 14%
19:00Thu 	 2c 	 14%
20:00Thu 	 1c 	 13%
21:00Thu 	 1c 	 13%
22:00Thu 	 1c 	 14%
23:00Thu 	 1c 	 15%
00:00Fri 	 1c 	 15%
01:00Fri 	 1c 	 15%
02:00Fri 	 1c 	 15%
03:00Fri 	 1c 	 15%
04:00Fri 	 1c 	 15%
05:00Fri 	 1c 	 16%

# /home/pi/Documents/bbc-weather-predictions/data/Feb10Wed/bbcweather_Wednesday10thFebruary_2021-02-10_1630.txt
# time 	 temp 	 rain
17:00Wed 	 1c 	 18%
18:00Wed 	 0c 	 64%
19:00Wed 	 1c 	 1%
20:00Wed 	 2c 	 1%
21:00Wed 	 3c 	 1%
22:00Wed 	 3c 	 1%
23:00Wed 	 4c 	 1%
00:00Thu 	 4c 	 1%
01:00Thu 	 4c 	 2%
02:00Thu 	 4c 	 2%
03:00Thu 	 4c 	 3%
04:00Thu 	 4c 	 2%
05:00Thu 	 4c 	 2%
06:00Thu 	 4c 	 3%
07:00Thu 	 4c 	 3%
08:00Thu 	 2c 	 3%
09:00Thu 	 2c 	 4%
10:00Thu 	 1c 	 4%
11:00Thu 	 0c 	 3%
12:00Thu 	 1c 	 3%
13:00Thu 	 1c 	 4%
14:00Thu 	 1c 	 5%
15:00Thu 	 1c 	 5%
16:00Thu 	 0c 	 9%
17:00Thu 	 1c 	 13%
18:00Thu 	 1c 	 14%
19:00Thu 	 2c 	 14%
20:00Thu 	 1c 	 13%
21:00Thu 	 1c 	 13%
22:00Thu 	 1c 	 14%
23:00Thu 	 1c 	 15%
00:00Fri 	 1c 	 15%
01:00Fri 	 1c 	 15%
02:00Fri 	 1c 	 15%
03:00Fri 	 1c 	 15%
04:00Fri 	 1c 	 15%
05:00Fri 	 1c 	 16%

# /home/pi/Documents/bbc-weather-predictions/data/Feb10Wed/bbcweather_Wednesday10thFebruary_2021-02-10_1645.txt
# time 	 temp 	 rain
17:00Wed 	 1c 	 18%
18:00Wed 	 0c 	 64%
19:00Wed 	 1c 	 1%
20:00Wed 	 2c 	 1%
21:00Wed 	 3c 	 1%
22:00Wed 	 3c 	 1%
23:00Wed 	 4c 	 1%
00:00Thu 	 4c 	 1%
01:00Thu 	 4c 	 2%
02:00Thu 	 4c 	 2%
03:00Thu 	 4c 	 3%
04:00Thu 	 4c 	 2%
05:00Thu 	 4c 	 2%
06:00Thu 	 4c 	 3%
07:00Thu 	 4c 	 3%
08:00Thu 	 2c 	 3%
09:00Thu 	 2c 	 4%
10:00Thu 	 1c 	 4%
11:00Thu 	 0c 	 3%
12:00Thu 	 1c 	 3%
13:00Thu 	 1c 	 4%
14:00Thu 	 1c 	 5%
15:00Thu 	 1c 	 5%
16:00Thu 	 0c 	 9%
17:00Thu 	 1c 	 13%
18:00Thu 	 1c 	 14%
19:00Thu 	 2c 	 14%
20:00Thu 	 1c 	 13%
21:00Thu 	 1c 	 13%
22:00Thu 	 1c 	 14%
23:00Thu 	 1c 	 15%
00:00Fri 	 1c 	 15%
01:00Fri 	 1c 	 15%
02:00Fri 	 1c 	 15%
03:00Fri 	 1c 	 15%
04:00Fri 	 1c 	 15%
05:00Fri 	 1c 	 16%

# /home/pi/Documents/bbc-weather-predictions/data/Feb10Wed/bbcweather_Wednesday10thFebruary_2021-02-10_1700.txt
# time 	 temp 	 rain
17:00Wed 	 1c 	 1%
18:00Wed 	 0c 	 42%
19:00Wed 	 1c 	 51%
20:00Wed 	 2c 	 1%
21:00Wed 	 3c 	 1%
22:00Wed 	 3c 	 1%
23:00Wed 	 4c 	 1%
00:00Thu 	 4c 	 1%
01:00Thu 	 4c 	 2%
02:00Thu 	 4c 	 2%
03:00Thu 	 4c 	 3%
04:00Thu 	 4c 	 2%
05:00Thu 	 4c 	 2%
06:00Thu 	 4c 	 3%
07:00Thu 	 4c 	 3%
08:00Thu 	 2c 	 3%
09:00Thu 	 2c 	 4%
10:00Thu 	 1c 	 4%
11:00Thu 	 0c 	 3%
12:00Thu 	 1c 	 3%
13:00Thu 	 1c 	 4%
14:00Thu 	 1c 	 5%
15:00Thu 	 1c 	 5%
16:00Thu 	 0c 	 9%
17:00Thu 	 1c 	 13%
18:00Thu 	 1c 	 14%
19:00Thu 	 2c 	 14%
20:00Thu 	 1c 	 13%
21:00Thu 	 1c 	 13%
22:00Thu 	 1c 	 14%
23:00Thu 	 1c 	 15%
00:00Fri 	 1c 	 15%
01:00Fri 	 1c 	 15%
02:00Fri 	 1c 	 15%
03:00Fri 	 1c 	 15%
04:00Fri 	 1c 	 15%
05:00Fri 	 1c 	 16%

# /home/pi/Documents/bbc-weather-predictions/data/Feb10Wed/bbcweather_Wednesday10thFebruary_2021-02-10_1715.txt
# time 	 temp 	 rain
18:00Wed 	 0c 	 42%
19:00Wed 	 1c 	 51%
20:00Wed 	 2c 	 1%
21:00Wed 	 3c 	 1%
22:00Wed 	 3c 	 1%
23:00Wed 	 4c 	 1%
00:00Thu 	 4c 	 1%
01:00Thu 	 4c 	 2%
02:00Thu 	 4c 	 2%
03:00Thu 	 4c 	 3%
04:00Thu 	 4c 	 2%
05:00Thu 	 4c 	 2%
06:00Thu 	 4c 	 3%
07:00Thu 	 4c 	 3%
08:00Thu 	 2c 	 3%
09:00Thu 	 2c 	 4%
10:00Thu 	 1c 	 4%
11:00Thu 	 0c 	 3%
12:00Thu 	 1c 	 3%
13:00Thu 	 1c 	 4%
14:00Thu 	 1c 	 5%
15:00Thu 	 1c 	 5%
16:00Thu 	 0c 	 9%
17:00Thu 	 1c 	 13%
18:00Thu 	 1c 	 14%
19:00Thu 	 2c 	 14%
20:00Thu 	 1c 	 13%
21:00Thu 	 1c 	 13%
22:00Thu 	 1c 	 14%
23:00Thu 	 1c 	 15%
00:00Fri 	 1c 	 15%
01:00Fri 	 1c 	 15%
02:00Fri 	 1c 	 15%
03:00Fri 	 1c 	 15%
04:00Fri 	 1c 	 15%
05:00Fri 	 1c 	 16%

# /home/pi/Documents/bbc-weather-predictions/data/Feb10Wed/bbcweather_Wednesday10thFebruary_2021-02-10_1730.txt
# time 	 temp 	 rain
18:00Wed 	 0c 	 42%
19:00Wed 	 1c 	 51%
20:00Wed 	 2c 	 1%
21:00Wed 	 3c 	 1%
22:00Wed 	 3c 	 1%
23:00Wed 	 4c 	 1%
00:00Thu 	 4c 	 1%
01:00Thu 	 4c 	 2%
02:00Thu 	 4c 	 2%
03:00Thu 	 4c 	 3%
04:00Thu 	 4c 	 2%
05:00Thu 	 4c 	 2%
06:00Thu 	 4c 	 3%
07:00Thu 	 4c 	 3%
08:00Thu 	 2c 	 3%
09:00Thu 	 2c 	 4%
10:00Thu 	 1c 	 4%
11:00Thu 	 0c 	 3%
12:00Thu 	 1c 	 3%
13:00Thu 	 1c 	 4%
14:00Thu 	 1c 	 5%
15:00Thu 	 1c 	 5%
16:00Thu 	 0c 	 9%
17:00Thu 	 1c 	 13%
18:00Thu 	 1c 	 14%
19:00Thu 	 2c 	 14%
20:00Thu 	 1c 	 13%
21:00Thu 	 1c 	 13%
22:00Thu 	 1c 	 14%
23:00Thu 	 1c 	 15%
00:00Fri 	 1c 	 15%
01:00Fri 	 1c 	 15%
02:00Fri 	 1c 	 15%
03:00Fri 	 1c 	 15%
04:00Fri 	 1c 	 15%
05:00Fri 	 1c 	 16%

# /home/pi/Documents/bbc-weather-predictions/data/Feb10Wed/bbcweather_Wednesday10thFebruary_2021-02-10_1745.txt
# time 	 temp 	 rain
18:00Wed 	 0c 	 42%
19:00Wed 	 1c 	 51%
20:00Wed 	 2c 	 1%
21:00Wed 	 3c 	 1%
22:00Wed 	 3c 	 1%
23:00Wed 	 4c 	 1%
00:00Thu 	 4c 	 1%
01:00Thu 	 4c 	 2%
02:00Thu 	 4c 	 2%
03:00Thu 	 4c 	 3%
04:00Thu 	 4c 	 2%
05:00Thu 	 4c 	 2%
06:00Thu 	 4c 	 3%
07:00Thu 	 4c 	 3%
08:00Thu 	 2c 	 3%
09:00Thu 	 2c 	 4%
10:00Thu 	 1c 	 4%
11:00Thu 	 0c 	 3%
12:00Thu 	 1c 	 3%
13:00Thu 	 1c 	 4%
14:00Thu 	 1c 	 5%
15:00Thu 	 1c 	 5%
16:00Thu 	 0c 	 9%
17:00Thu 	 1c 	 13%
18:00Thu 	 1c 	 14%
19:00Thu 	 2c 	 14%
20:00Thu 	 1c 	 13%
21:00Thu 	 1c 	 13%
22:00Thu 	 1c 	 14%
23:00Thu 	 1c 	 15%
00:00Fri 	 1c 	 15%
01:00Fri 	 1c 	 15%
02:00Fri 	 1c 	 15%
03:00Fri 	 1c 	 15%
04:00Fri 	 1c 	 15%
05:00Fri 	 1c 	 16%

# /home/pi/Documents/bbc-weather-predictions/data/Feb10Wed/bbcweather_Wednesday10thFebruary_2021-02-10_1800.txt
# time 	 temp 	 rain
18:00Wed 	 0c 	 1%
19:00Wed 	 1c 	 4%
20:00Wed 	 2c 	 34%
21:00Wed 	 2c 	 1%
22:00Wed 	 3c 	 1%
23:00Wed 	 3c 	 1%
00:00Thu 	 4c 	 1%
01:00Thu 	 4c 	 2%
02:00Thu 	 4c 	 2%
03:00Thu 	 4c 	 3%
04:00Thu 	 4c 	 2%
05:00Thu 	 4c 	 2%
06:00Thu 	 4c 	 3%
07:00Thu 	 4c 	 3%
08:00Thu 	 2c 	 3%
09:00Thu 	 2c 	 4%
10:00Thu 	 1c 	 4%
11:00Thu 	 0c 	 3%
12:00Thu 	 1c 	 3%
13:00Thu 	 1c 	 4%
14:00Thu 	 1c 	 5%
15:00Thu 	 1c 	 5%
16:00Thu 	 0c 	 9%
17:00Thu 	 1c 	 13%
18:00Thu 	 1c 	 14%
19:00Thu 	 2c 	 14%
20:00Thu 	 1c 	 13%
21:00Thu 	 1c 	 13%
22:00Thu 	 1c 	 14%
23:00Thu 	 1c 	 15%
00:00Fri 	 1c 	 15%
01:00Fri 	 1c 	 15%
02:00Fri 	 1c 	 15%
03:00Fri 	 1c 	 15%
04:00Fri 	 1c 	 15%
05:00Fri 	 1c 	 16%

# /home/pi/Documents/bbc-weather-predictions/data/Feb10Wed/bbcweather_Wednesday10thFebruary_2021-02-10_1815.txt
# time 	 temp 	 rain
19:00Wed 	 1c 	 4%
20:00Wed 	 2c 	 34%
21:00Wed 	 2c 	 1%
22:00Wed 	 3c 	 1%
23:00Wed 	 3c 	 1%
00:00Thu 	 4c 	 1%
01:00Thu 	 4c 	 2%
02:00Thu 	 4c 	 2%
03:00Thu 	 4c 	 3%
04:00Thu 	 4c 	 2%
05:00Thu 	 4c 	 2%
06:00Thu 	 4c 	 3%
07:00Thu 	 4c 	 3%
08:00Thu 	 2c 	 3%
09:00Thu 	 2c 	 4%
10:00Thu 	 1c 	 4%
11:00Thu 	 0c 	 3%
12:00Thu 	 1c 	 3%
13:00Thu 	 1c 	 4%
14:00Thu 	 1c 	 5%
15:00Thu 	 1c 	 5%
16:00Thu 	 0c 	 9%
17:00Thu 	 1c 	 13%
18:00Thu 	 1c 	 14%
19:00Thu 	 2c 	 14%
20:00Thu 	 1c 	 13%
21:00Thu 	 1c 	 13%
22:00Thu 	 1c 	 14%
23:00Thu 	 1c 	 15%
00:00Fri 	 1c 	 15%
01:00Fri 	 1c 	 15%
02:00Fri 	 1c 	 15%
03:00Fri 	 1c 	 15%
04:00Fri 	 1c 	 15%
05:00Fri 	 1c 	 16%

# /home/pi/Documents/bbc-weather-predictions/data/Feb10Wed/bbcweather_Wednesday10thFebruary_2021-02-10_1830.txt
# time 	 temp 	 rain
19:00Wed 	 1c 	 4%
20:00Wed 	 2c 	 34%
21:00Wed 	 2c 	 1%
22:00Wed 	 3c 	 1%
23:00Wed 	 3c 	 1%
00:00Thu 	 4c 	 1%
01:00Thu 	 4c 	 2%
02:00Thu 	 4c 	 2%
03:00Thu 	 4c 	 3%
04:00Thu 	 4c 	 2%
05:00Thu 	 4c 	 2%
06:00Thu 	 4c 	 3%
07:00Thu 	 4c 	 3%
08:00Thu 	 2c 	 3%
09:00Thu 	 2c 	 4%
10:00Thu 	 1c 	 4%
11:00Thu 	 0c 	 3%
12:00Thu 	 1c 	 3%
13:00Thu 	 1c 	 4%
14:00Thu 	 1c 	 5%
15:00Thu 	 1c 	 5%
16:00Thu 	 0c 	 9%
17:00Thu 	 1c 	 13%
18:00Thu 	 1c 	 14%
19:00Thu 	 2c 	 14%
20:00Thu 	 1c 	 13%
21:00Thu 	 1c 	 13%
22:00Thu 	 1c 	 14%
23:00Thu 	 1c 	 15%
00:00Fri 	 1c 	 15%
01:00Fri 	 1c 	 15%
02:00Fri 	 1c 	 15%
03:00Fri 	 1c 	 15%
04:00Fri 	 1c 	 15%
05:00Fri 	 1c 	 16%

# /home/pi/Documents/bbc-weather-predictions/data/Feb10Wed/bbcweather_Wednesday10thFebruary_2021-02-10_1845.txt
# time 	 temp 	 rain
19:00Wed 	 1c 	 4%
20:00Wed 	 2c 	 34%
21:00Wed 	 2c 	 1%
22:00Wed 	 3c 	 1%
23:00Wed 	 3c 	 1%
00:00Thu 	 4c 	 1%
01:00Thu 	 4c 	 2%
02:00Thu 	 4c 	 2%
03:00Thu 	 4c 	 3%
04:00Thu 	 4c 	 2%
05:00Thu 	 4c 	 2%
06:00Thu 	 4c 	 3%
07:00Thu 	 4c 	 3%
08:00Thu 	 2c 	 3%
09:00Thu 	 2c 	 4%
10:00Thu 	 1c 	 4%
11:00Thu 	 0c 	 3%
12:00Thu 	 1c 	 3%
13:00Thu 	 1c 	 4%
14:00Thu 	 1c 	 5%
15:00Thu 	 1c 	 5%
16:00Thu 	 0c 	 9%
17:00Thu 	 1c 	 13%
18:00Thu 	 1c 	 14%
19:00Thu 	 2c 	 14%
20:00Thu 	 1c 	 13%
21:00Thu 	 1c 	 13%
22:00Thu 	 1c 	 14%
23:00Thu 	 1c 	 15%
00:00Fri 	 1c 	 15%
01:00Fri 	 1c 	 15%
02:00Fri 	 1c 	 15%
03:00Fri 	 1c 	 15%
04:00Fri 	 1c 	 15%
05:00Fri 	 1c 	 16%

# /home/pi/Documents/bbc-weather-predictions/data/Feb10Wed/bbcweather_Wednesday10thFebruary_2021-02-10_1900.txt
# time 	 temp 	 rain
19:00Wed 	 1c 	 4%
20:00Wed 	 2c 	 34%
21:00Wed 	 2c 	 1%
22:00Wed 	 3c 	 1%
23:00Wed 	 3c 	 1%
00:00Thu 	 4c 	 1%
01:00Thu 	 4c 	 2%
02:00Thu 	 4c 	 2%
03:00Thu 	 4c 	 3%
04:00Thu 	 4c 	 2%
05:00Thu 	 4c 	 2%
06:00Thu 	 4c 	 3%
07:00Thu 	 4c 	 3%
08:00Thu 	 2c 	 3%
09:00Thu 	 2c 	 4%
10:00Thu 	 1c 	 4%
11:00Thu 	 0c 	 3%
12:00Thu 	 1c 	 3%
13:00Thu 	 1c 	 4%
14:00Thu 	 1c 	 5%
15:00Thu 	 1c 	 5%
16:00Thu 	 0c 	 9%
17:00Thu 	 1c 	 13%
18:00Thu 	 1c 	 14%
19:00Thu 	 2c 	 14%
20:00Thu 	 1c 	 13%
21:00Thu 	 1c 	 13%
22:00Thu 	 1c 	 14%
23:00Thu 	 1c 	 15%
00:00Fri 	 1c 	 15%
01:00Fri 	 1c 	 15%
02:00Fri 	 1c 	 15%
03:00Fri 	 1c 	 15%
04:00Fri 	 1c 	 15%
05:00Fri 	 1c 	 16%

# /home/pi/Documents/bbc-weather-predictions/data/Feb10Wed/bbcweather_Wednesday10thFebruary_2021-02-10_1915.txt
# time 	 temp 	 rain
20:00Wed 	 2c 	 1%
21:00Wed 	 2c 	 1%
22:00Wed 	 3c 	 1%
23:00Wed 	 3c 	 1%
00:00Thu 	 4c 	 1%
01:00Thu 	 4c 	 2%
02:00Thu 	 4c 	 2%
03:00Thu 	 4c 	 3%
04:00Thu 	 4c 	 2%
05:00Thu 	 4c 	 2%
06:00Thu 	 4c 	 3%
07:00Thu 	 4c 	 3%
08:00Thu 	 2c 	 3%
09:00Thu 	 2c 	 4%
10:00Thu 	 1c 	 4%
11:00Thu 	 0c 	 3%
12:00Thu 	 1c 	 3%
13:00Thu 	 1c 	 4%
14:00Thu 	 1c 	 5%
15:00Thu 	 1c 	 5%
16:00Thu 	 0c 	 9%
17:00Thu 	 1c 	 13%
18:00Thu 	 1c 	 14%
19:00Thu 	 2c 	 14%
20:00Thu 	 1c 	 13%
21:00Thu 	 1c 	 13%
22:00Thu 	 1c 	 14%
23:00Thu 	 1c 	 15%
00:00Fri 	 1c 	 15%
01:00Fri 	 1c 	 15%
02:00Fri 	 1c 	 15%
03:00Fri 	 1c 	 15%
04:00Fri 	 1c 	 15%
05:00Fri 	 1c 	 16%

# /home/pi/Documents/bbc-weather-predictions/data/Feb10Wed/bbcweather_Wednesday10thFebruary_2021-02-10_1930.txt
# time 	 temp 	 rain
20:00Wed 	 2c 	 1%
21:00Wed 	 2c 	 1%
22:00Wed 	 3c 	 1%
23:00Wed 	 3c 	 1%
00:00Thu 	 4c 	 1%
01:00Thu 	 4c 	 2%
02:00Thu 	 4c 	 2%
03:00Thu 	 4c 	 3%
04:00Thu 	 4c 	 2%
05:00Thu 	 4c 	 2%
06:00Thu 	 4c 	 3%
07:00Thu 	 4c 	 3%
08:00Thu 	 2c 	 3%
09:00Thu 	 2c 	 4%
10:00Thu 	 1c 	 4%
11:00Thu 	 0c 	 3%
12:00Thu 	 1c 	 3%
13:00Thu 	 1c 	 4%
14:00Thu 	 1c 	 5%
15:00Thu 	 1c 	 5%
16:00Thu 	 0c 	 9%
17:00Thu 	 1c 	 13%
18:00Thu 	 1c 	 14%
19:00Thu 	 2c 	 14%
20:00Thu 	 1c 	 13%
21:00Thu 	 1c 	 13%
22:00Thu 	 1c 	 14%
23:00Thu 	 1c 	 15%
00:00Fri 	 1c 	 15%
01:00Fri 	 1c 	 15%
02:00Fri 	 1c 	 15%
03:00Fri 	 1c 	 15%
04:00Fri 	 1c 	 15%
05:00Fri 	 1c 	 16%

# /home/pi/Documents/bbc-weather-predictions/data/Feb10Wed/bbcweather_Wednesday10thFebruary_2021-02-10_1945.txt
# time 	 temp 	 rain
20:00Wed 	 2c 	 1%
21:00Wed 	 2c 	 1%
22:00Wed 	 3c 	 1%
23:00Wed 	 3c 	 1%
00:00Thu 	 4c 	 1%
01:00Thu 	 4c 	 2%
02:00Thu 	 4c 	 2%
03:00Thu 	 4c 	 3%
04:00Thu 	 4c 	 2%
05:00Thu 	 4c 	 2%
06:00Thu 	 4c 	 3%
07:00Thu 	 4c 	 3%
08:00Thu 	 2c 	 3%
09:00Thu 	 2c 	 4%
10:00Thu 	 1c 	 4%
11:00Thu 	 0c 	 3%
12:00Thu 	 1c 	 3%
13:00Thu 	 1c 	 4%
14:00Thu 	 1c 	 5%
15:00Thu 	 1c 	 5%
16:00Thu 	 0c 	 9%
17:00Thu 	 1c 	 13%
18:00Thu 	 1c 	 14%
19:00Thu 	 2c 	 14%
20:00Thu 	 1c 	 13%
21:00Thu 	 1c 	 13%
22:00Thu 	 1c 	 14%
23:00Thu 	 1c 	 15%
00:00Fri 	 1c 	 15%
01:00Fri 	 1c 	 15%
02:00Fri 	 1c 	 15%
03:00Fri 	 1c 	 15%
04:00Fri 	 1c 	 15%
05:00Fri 	 1c 	 16%

# /home/pi/Documents/bbc-weather-predictions/data/Feb10Wed/bbcweather_Wednesday10thFebruary_2021-02-10_2000.txt
# time 	 temp 	 rain
20:00Wed 	 2c 	 0%
21:00Wed 	 2c 	 1%
22:00Wed 	 3c 	 1%
23:00Wed 	 3c 	 1%
00:00Thu 	 4c 	 1%
01:00Thu 	 4c 	 2%
02:00Thu 	 4c 	 2%
03:00Thu 	 4c 	 3%
04:00Thu 	 4c 	 2%
05:00Thu 	 4c 	 2%
06:00Thu 	 4c 	 3%
07:00Thu 	 4c 	 3%
08:00Thu 	 2c 	 3%
09:00Thu 	 2c 	 4%
10:00Thu 	 1c 	 4%
11:00Thu 	 0c 	 3%
12:00Thu 	 1c 	 3%
13:00Thu 	 1c 	 4%
14:00Thu 	 1c 	 5%
15:00Thu 	 1c 	 5%
16:00Thu 	 0c 	 9%
17:00Thu 	 1c 	 13%
18:00Thu 	 1c 	 14%
19:00Thu 	 2c 	 14%
20:00Thu 	 1c 	 13%
21:00Thu 	 1c 	 13%
22:00Thu 	 1c 	 14%
23:00Thu 	 1c 	 15%
00:00Fri 	 1c 	 15%
01:00Fri 	 1c 	 15%
02:00Fri 	 1c 	 15%
03:00Fri 	 1c 	 15%
04:00Fri 	 1c 	 15%
05:00Fri 	 1c 	 16%

# /home/pi/Documents/bbc-weather-predictions/data/Feb10Wed/bbcweather_Wednesday10thFebruary_2021-02-10_2015.txt
# time 	 temp 	 rain
21:00Wed 	 2c 	 1%
22:00Wed 	 3c 	 1%
23:00Wed 	 3c 	 1%
00:00Thu 	 4c 	 1%
01:00Thu 	 4c 	 2%
02:00Thu 	 4c 	 2%
03:00Thu 	 4c 	 3%
04:00Thu 	 4c 	 2%
05:00Thu 	 4c 	 2%
06:00Thu 	 4c 	 3%
07:00Thu 	 4c 	 3%
08:00Thu 	 2c 	 3%
09:00Thu 	 2c 	 4%
10:00Thu 	 1c 	 4%
11:00Thu 	 0c 	 3%
12:00Thu 	 1c 	 3%
13:00Thu 	 1c 	 4%
14:00Thu 	 1c 	 5%
15:00Thu 	 1c 	 5%
16:00Thu 	 0c 	 9%
17:00Thu 	 1c 	 13%
18:00Thu 	 1c 	 14%
19:00Thu 	 2c 	 14%
20:00Thu 	 1c 	 13%
21:00Thu 	 1c 	 13%
22:00Thu 	 1c 	 14%
23:00Thu 	 1c 	 15%
00:00Fri 	 1c 	 15%
01:00Fri 	 1c 	 15%
02:00Fri 	 1c 	 15%
03:00Fri 	 1c 	 15%
04:00Fri 	 1c 	 15%
05:00Fri 	 1c 	 16%

# /home/pi/Documents/bbc-weather-predictions/data/Feb10Wed/bbcweather_Wednesday10thFebruary_2021-02-10_2030.txt
# time 	 temp 	 rain
21:00Wed 	 2c 	 1%
22:00Wed 	 3c 	 1%
23:00Wed 	 3c 	 1%
00:00Thu 	 4c 	 1%
01:00Thu 	 4c 	 2%
02:00Thu 	 4c 	 2%
03:00Thu 	 4c 	 3%
04:00Thu 	 4c 	 2%
05:00Thu 	 4c 	 2%
06:00Thu 	 4c 	 3%
07:00Thu 	 4c 	 3%
08:00Thu 	 2c 	 3%
09:00Thu 	 2c 	 4%
10:00Thu 	 1c 	 4%
11:00Thu 	 0c 	 3%
12:00Thu 	 1c 	 3%
13:00Thu 	 1c 	 4%
14:00Thu 	 1c 	 5%
15:00Thu 	 1c 	 5%
16:00Thu 	 0c 	 9%
17:00Thu 	 1c 	 13%
18:00Thu 	 1c 	 14%
19:00Thu 	 2c 	 14%
20:00Thu 	 1c 	 13%
21:00Thu 	 1c 	 13%
22:00Thu 	 1c 	 14%
23:00Thu 	 1c 	 15%
00:00Fri 	 1c 	 15%
01:00Fri 	 1c 	 15%
02:00Fri 	 1c 	 15%
03:00Fri 	 1c 	 15%
04:00Fri 	 1c 	 15%
05:00Fri 	 1c 	 16%

# /home/pi/Documents/bbc-weather-predictions/data/Feb10Wed/bbcweather_Wednesday10thFebruary_2021-02-10_2045.txt
# time 	 temp 	 rain
21:00Wed 	 2c 	 1%
22:00Wed 	 3c 	 1%
23:00Wed 	 3c 	 1%
00:00Thu 	 4c 	 1%
01:00Thu 	 4c 	 2%
02:00Thu 	 4c 	 2%
03:00Thu 	 4c 	 3%
04:00Thu 	 4c 	 2%
05:00Thu 	 4c 	 2%
06:00Thu 	 4c 	 3%
07:00Thu 	 4c 	 3%
08:00Thu 	 2c 	 3%
09:00Thu 	 2c 	 4%
10:00Thu 	 1c 	 4%
11:00Thu 	 0c 	 3%
12:00Thu 	 1c 	 3%
13:00Thu 	 1c 	 4%
14:00Thu 	 1c 	 5%
15:00Thu 	 1c 	 5%
16:00Thu 	 0c 	 9%
17:00Thu 	 1c 	 13%
18:00Thu 	 1c 	 14%
19:00Thu 	 2c 	 14%
20:00Thu 	 1c 	 13%
21:00Thu 	 1c 	 13%
22:00Thu 	 1c 	 14%
23:00Thu 	 1c 	 15%
00:00Fri 	 1c 	 15%
01:00Fri 	 1c 	 15%
02:00Fri 	 1c 	 15%
03:00Fri 	 1c 	 15%
04:00Fri 	 1c 	 15%
05:00Fri 	 1c 	 16%

# /home/pi/Documents/bbc-weather-predictions/data/Feb10Wed/bbcweather_Wednesday10thFebruary_2021-02-10_2100.txt
# time 	 temp 	 rain
21:00Wed 	 3c 	 0%
22:00Wed 	 3c 	 0%
23:00Wed 	 3c 	 1%
00:00Thu 	 3c 	 1%
01:00Thu 	 4c 	 2%
02:00Thu 	 4c 	 2%
03:00Thu 	 4c 	 3%
04:00Thu 	 4c 	 2%
05:00Thu 	 4c 	 2%
06:00Thu 	 4c 	 3%
07:00Thu 	 4c 	 3%
08:00Thu 	 2c 	 3%
09:00Thu 	 2c 	 4%
10:00Thu 	 1c 	 4%
11:00Thu 	 0c 	 3%
12:00Thu 	 1c 	 3%
13:00Thu 	 1c 	 4%
14:00Thu 	 1c 	 5%
15:00Thu 	 1c 	 5%
16:00Thu 	 0c 	 9%
17:00Thu 	 1c 	 13%
18:00Thu 	 1c 	 14%
19:00Thu 	 2c 	 13%
20:00Thu 	 1c 	 12%
21:00Thu 	 1c 	 12%
22:00Thu 	 1c 	 13%
23:00Thu 	 1c 	 15%
00:00Fri 	 1c 	 16%
01:00Fri 	 1c 	 16%
02:00Fri 	 1c 	 16%
03:00Fri 	 1c 	 15%
04:00Fri 	 1c 	 15%
05:00Fri 	 1c 	 16%

# /home/pi/Documents/bbc-weather-predictions/data/Feb10Wed/bbcweather_Wednesday10thFebruary_2021-02-10_2115.txt
# time 	 temp 	 rain
22:00Wed 	 3c 	 0%
23:00Wed 	 3c 	 1%
00:00Thu 	 3c 	 1%
01:00Thu 	 4c 	 2%
02:00Thu 	 4c 	 2%
03:00Thu 	 4c 	 3%
04:00Thu 	 4c 	 2%
05:00Thu 	 4c 	 2%
06:00Thu 	 4c 	 3%
07:00Thu 	 4c 	 3%
08:00Thu 	 2c 	 3%
09:00Thu 	 2c 	 4%
10:00Thu 	 1c 	 4%
11:00Thu 	 0c 	 3%
12:00Thu 	 1c 	 3%
13:00Thu 	 1c 	 4%
14:00Thu 	 1c 	 5%
15:00Thu 	 1c 	 5%
16:00Thu 	 0c 	 9%
17:00Thu 	 1c 	 13%
18:00Thu 	 1c 	 14%
19:00Thu 	 2c 	 13%
20:00Thu 	 1c 	 12%
21:00Thu 	 1c 	 12%
22:00Thu 	 1c 	 13%
23:00Thu 	 1c 	 15%
00:00Fri 	 1c 	 16%
01:00Fri 	 1c 	 16%
02:00Fri 	 1c 	 16%
03:00Fri 	 1c 	 15%
04:00Fri 	 1c 	 15%
05:00Fri 	 1c 	 16%

# /home/pi/Documents/bbc-weather-predictions/data/Feb10Wed/bbcweather_Wednesday10thFebruary_2021-02-10_2130.txt
# time 	 temp 	 rain
22:00Wed 	 3c 	 0%
23:00Wed 	 3c 	 1%
00:00Thu 	 3c 	 1%
01:00Thu 	 4c 	 2%
02:00Thu 	 4c 	 2%
03:00Thu 	 4c 	 3%
04:00Thu 	 4c 	 2%
05:00Thu 	 4c 	 2%
06:00Thu 	 4c 	 3%
07:00Thu 	 4c 	 3%
08:00Thu 	 2c 	 3%
09:00Thu 	 2c 	 4%
10:00Thu 	 1c 	 4%
11:00Thu 	 0c 	 3%
12:00Thu 	 1c 	 3%
13:00Thu 	 1c 	 4%
14:00Thu 	 1c 	 5%
15:00Thu 	 1c 	 5%
16:00Thu 	 0c 	 9%
17:00Thu 	 1c 	 13%
18:00Thu 	 1c 	 14%
19:00Thu 	 2c 	 13%
20:00Thu 	 1c 	 12%
21:00Thu 	 1c 	 12%
22:00Thu 	 1c 	 13%
23:00Thu 	 1c 	 15%
00:00Fri 	 1c 	 16%
01:00Fri 	 1c 	 16%
02:00Fri 	 1c 	 16%
03:00Fri 	 1c 	 15%
04:00Fri 	 1c 	 15%
05:00Fri 	 1c 	 16%

# /home/pi/Documents/bbc-weather-predictions/data/Feb10Wed/bbcweather_Wednesday10thFebruary_2021-02-10_2145.txt
# time 	 temp 	 rain
22:00Wed 	 3c 	 0%
23:00Wed 	 3c 	 1%
00:00Thu 	 3c 	 1%
01:00Thu 	 4c 	 2%
02:00Thu 	 4c 	 2%
03:00Thu 	 4c 	 3%
04:00Thu 	 4c 	 2%
05:00Thu 	 4c 	 2%
06:00Thu 	 4c 	 3%
07:00Thu 	 4c 	 3%
08:00Thu 	 2c 	 3%
09:00Thu 	 2c 	 4%
10:00Thu 	 1c 	 4%
11:00Thu 	 0c 	 3%
12:00Thu 	 1c 	 3%
13:00Thu 	 1c 	 4%
14:00Thu 	 1c 	 5%
15:00Thu 	 1c 	 5%
16:00Thu 	 0c 	 9%
17:00Thu 	 1c 	 13%
18:00Thu 	 1c 	 14%
19:00Thu 	 2c 	 13%
20:00Thu 	 1c 	 12%
21:00Thu 	 1c 	 12%
22:00Thu 	 1c 	 13%
23:00Thu 	 1c 	 15%
00:00Fri 	 1c 	 16%
01:00Fri 	 1c 	 16%
02:00Fri 	 1c 	 16%
03:00Fri 	 1c 	 15%
04:00Fri 	 1c 	 15%
05:00Fri 	 1c 	 16%

# /home/pi/Documents/bbc-weather-predictions/data/Feb10Wed/bbcweather_Wednesday10thFebruary_2021-02-10_2200.txt
# time 	 temp 	 rain
22:00Wed 	 3c 	 0%
23:00Wed 	 3c 	 1%
00:00Thu 	 3c 	 1%
01:00Thu 	 4c 	 2%
02:00Thu 	 4c 	 2%
03:00Thu 	 4c 	 3%
04:00Thu 	 4c 	 2%
05:00Thu 	 4c 	 2%
06:00Thu 	 4c 	 3%
07:00Thu 	 4c 	 3%
08:00Thu 	 2c 	 3%
09:00Thu 	 2c 	 4%
10:00Thu 	 1c 	 4%
11:00Thu 	 0c 	 3%
12:00Thu 	 1c 	 3%
13:00Thu 	 1c 	 4%
14:00Thu 	 1c 	 5%
15:00Thu 	 1c 	 5%
16:00Thu 	 0c 	 9%
17:00Thu 	 1c 	 13%
18:00Thu 	 1c 	 14%
19:00Thu 	 2c 	 13%
20:00Thu 	 1c 	 12%
21:00Thu 	 1c 	 12%
22:00Thu 	 1c 	 13%
23:00Thu 	 1c 	 15%
00:00Fri 	 1c 	 16%
01:00Fri 	 1c 	 16%
02:00Fri 	 1c 	 16%
03:00Fri 	 1c 	 15%
04:00Fri 	 1c 	 15%
05:00Fri 	 1c 	 16%

# /home/pi/Documents/bbc-weather-predictions/data/Feb10Wed/bbcweather_Wednesday10thFebruary_2021-02-10_2215.txt
# time 	 temp 	 rain
23:00Wed 	 3c 	 1%
00:00Thu 	 3c 	 1%
01:00Thu 	 4c 	 2%
02:00Thu 	 4c 	 2%
03:00Thu 	 4c 	 3%
04:00Thu 	 4c 	 2%
05:00Thu 	 4c 	 2%
06:00Thu 	 4c 	 3%
07:00Thu 	 4c 	 3%
08:00Thu 	 2c 	 3%
09:00Thu 	 2c 	 4%
10:00Thu 	 1c 	 4%
11:00Thu 	 0c 	 3%
12:00Thu 	 1c 	 3%
13:00Thu 	 1c 	 4%
14:00Thu 	 1c 	 5%
15:00Thu 	 1c 	 5%
16:00Thu 	 0c 	 9%
17:00Thu 	 1c 	 13%
18:00Thu 	 1c 	 14%
19:00Thu 	 2c 	 13%
20:00Thu 	 1c 	 12%
21:00Thu 	 1c 	 12%
22:00Thu 	 1c 	 13%
23:00Thu 	 1c 	 15%
00:00Fri 	 1c 	 16%
01:00Fri 	 1c 	 16%
02:00Fri 	 1c 	 16%
03:00Fri 	 1c 	 15%
04:00Fri 	 1c 	 15%
05:00Fri 	 1c 	 16%

# /home/pi/Documents/bbc-weather-predictions/data/Feb10Wed/bbcweather_Wednesday10thFebruary_2021-02-10_2230.txt
# time 	 temp 	 rain
23:00Wed 	 3c 	 1%
00:00Thu 	 3c 	 1%
01:00Thu 	 4c 	 2%
02:00Thu 	 4c 	 2%
03:00Thu 	 4c 	 3%
04:00Thu 	 4c 	 2%
05:00Thu 	 4c 	 2%
06:00Thu 	 4c 	 3%
07:00Thu 	 4c 	 3%
08:00Thu 	 2c 	 3%
09:00Thu 	 2c 	 4%
10:00Thu 	 1c 	 4%
11:00Thu 	 0c 	 3%
12:00Thu 	 1c 	 3%
13:00Thu 	 1c 	 4%
14:00Thu 	 1c 	 5%
15:00Thu 	 1c 	 5%
16:00Thu 	 0c 	 9%
17:00Thu 	 1c 	 13%
18:00Thu 	 1c 	 14%
19:00Thu 	 2c 	 13%
20:00Thu 	 1c 	 12%
21:00Thu 	 1c 	 12%
22:00Thu 	 1c 	 13%
23:00Thu 	 1c 	 15%
00:00Fri 	 1c 	 16%
01:00Fri 	 1c 	 16%
02:00Fri 	 1c 	 16%
03:00Fri 	 1c 	 15%
04:00Fri 	 1c 	 15%
05:00Fri 	 1c 	 16%

# /home/pi/Documents/bbc-weather-predictions/data/Feb10Wed/bbcweather_Wednesday10thFebruary_2021-02-10_2245.txt
# time 	 temp 	 rain
23:00Wed 	 3c 	 1%
00:00Thu 	 3c 	 1%
01:00Thu 	 4c 	 2%
02:00Thu 	 4c 	 2%
03:00Thu 	 4c 	 3%
04:00Thu 	 4c 	 2%
05:00Thu 	 4c 	 2%
06:00Thu 	 4c 	 3%
07:00Thu 	 4c 	 3%
08:00Thu 	 2c 	 3%
09:00Thu 	 2c 	 4%
10:00Thu 	 1c 	 4%
11:00Thu 	 0c 	 3%
12:00Thu 	 1c 	 3%
13:00Thu 	 1c 	 4%
14:00Thu 	 1c 	 5%
15:00Thu 	 1c 	 5%
16:00Thu 	 0c 	 9%
17:00Thu 	 1c 	 13%
18:00Thu 	 1c 	 14%
19:00Thu 	 2c 	 13%
20:00Thu 	 1c 	 12%
21:00Thu 	 1c 	 12%
22:00Thu 	 1c 	 13%
23:00Thu 	 1c 	 15%
00:00Fri 	 1c 	 16%
01:00Fri 	 1c 	 16%
02:00Fri 	 1c 	 16%
03:00Fri 	 1c 	 15%
04:00Fri 	 1c 	 15%
05:00Fri 	 1c 	 16%

# /home/pi/Documents/bbc-weather-predictions/data/Feb10Wed/bbcweather_Wednesday10thFebruary_2021-02-10_2300.txt
# time 	 temp 	 rain
23:00Wed 	 3c 	 1%
00:00Thu 	 3c 	 1%
01:00Thu 	 4c 	 2%
02:00Thu 	 4c 	 2%
03:00Thu 	 4c 	 3%
04:00Thu 	 4c 	 2%
05:00Thu 	 4c 	 2%
06:00Thu 	 4c 	 3%
07:00Thu 	 4c 	 3%
08:00Thu 	 2c 	 3%
09:00Thu 	 2c 	 4%
10:00Thu 	 1c 	 4%
11:00Thu 	 0c 	 3%
12:00Thu 	 1c 	 3%
13:00Thu 	 1c 	 4%
14:00Thu 	 1c 	 5%
15:00Thu 	 1c 	 5%
16:00Thu 	 0c 	 9%
17:00Thu 	 1c 	 13%
18:00Thu 	 1c 	 14%
19:00Thu 	 2c 	 13%
20:00Thu 	 1c 	 12%
21:00Thu 	 1c 	 12%
22:00Thu 	 1c 	 13%
23:00Thu 	 1c 	 15%
00:00Fri 	 1c 	 16%
01:00Fri 	 1c 	 16%
02:00Fri 	 1c 	 16%
03:00Fri 	 1c 	 15%
04:00Fri 	 1c 	 15%
05:00Fri 	 1c 	 16%

# /home/pi/Documents/bbc-weather-predictions/data/Feb10Wed/bbcweather_Wednesday10thFebruary_2021-02-10_2315.txt
# time 	 temp 	 rain
00:00Thu 	 3c 	 0%
01:00Thu 	 3c 	 1%
02:00Thu 	 3c 	 3%
03:00Thu 	 3c 	 3%
04:00Thu 	 4c 	 2%
05:00Thu 	 4c 	 2%
06:00Thu 	 4c 	 3%
07:00Thu 	 4c 	 3%
08:00Thu 	 2c 	 3%
09:00Thu 	 2c 	 4%
10:00Thu 	 1c 	 4%
11:00Thu 	 0c 	 3%
12:00Thu 	 1c 	 3%
13:00Thu 	 1c 	 4%
14:00Thu 	 1c 	 5%
15:00Thu 	 1c 	 5%
16:00Thu 	 0c 	 9%
17:00Thu 	 1c 	 13%
18:00Thu 	 1c 	 14%
19:00Thu 	 2c 	 12%
20:00Thu 	 1c 	 11%
21:00Thu 	 1c 	 10%
22:00Thu 	 1c 	 10%
23:00Thu 	 1c 	 10%
00:00Fri 	 1c 	 10%
01:00Fri 	 1c 	 11%
02:00Fri 	 1c 	 12%
03:00Fri 	 1c 	 14%
04:00Fri 	 1c 	 14%
05:00Fri 	 1c 	 15%

# /home/pi/Documents/bbc-weather-predictions/data/Feb10Wed/bbcweather_Wednesday10thFebruary_2021-02-10_2330.txt
# time 	 temp 	 rain
00:00Thu 	 3c 	 0%
01:00Thu 	 3c 	 1%
02:00Thu 	 3c 	 3%
03:00Thu 	 3c 	 3%
04:00Thu 	 4c 	 2%
05:00Thu 	 4c 	 2%
06:00Thu 	 4c 	 3%
07:00Thu 	 4c 	 3%
08:00Thu 	 2c 	 3%
09:00Thu 	 2c 	 4%
10:00Thu 	 1c 	 4%
11:00Thu 	 0c 	 3%
12:00Thu 	 1c 	 3%
13:00Thu 	 1c 	 4%
14:00Thu 	 1c 	 5%
15:00Thu 	 1c 	 5%
16:00Thu 	 0c 	 9%
17:00Thu 	 1c 	 13%
18:00Thu 	 1c 	 14%
19:00Thu 	 2c 	 12%
20:00Thu 	 1c 	 11%
21:00Thu 	 1c 	 10%
22:00Thu 	 1c 	 10%
23:00Thu 	 1c 	 10%
00:00Fri 	 1c 	 10%
01:00Fri 	 1c 	 11%
02:00Fri 	 1c 	 12%
03:00Fri 	 1c 	 14%
04:00Fri 	 1c 	 14%
05:00Fri 	 1c 	 15%

# /home/pi/Documents/bbc-weather-predictions/data/Feb10Wed/bbcweather_Wednesday10thFebruary_2021-02-10_2345.txt
# time 	 temp 	 rain
00:00Thu 	 3c 	 0%
01:00Thu 	 3c 	 1%
02:00Thu 	 3c 	 3%
03:00Thu 	 3c 	 3%
04:00Thu 	 4c 	 2%
05:00Thu 	 4c 	 2%
06:00Thu 	 4c 	 3%
07:00Thu 	 4c 	 3%
08:00Thu 	 2c 	 3%
09:00Thu 	 2c 	 4%
10:00Thu 	 1c 	 4%
11:00Thu 	 0c 	 3%
12:00Thu 	 1c 	 3%
13:00Thu 	 1c 	 4%
14:00Thu 	 1c 	 5%
15:00Thu 	 1c 	 5%
16:00Thu 	 0c 	 9%
17:00Thu 	 1c 	 13%
18:00Thu 	 1c 	 14%
19:00Thu 	 2c 	 12%
20:00Thu 	 1c 	 11%
21:00Thu 	 1c 	 10%
22:00Thu 	 1c 	 10%
23:00Thu 	 1c 	 10%
00:00Fri 	 1c 	 10%
01:00Fri 	 1c 	 11%
02:00Fri 	 1c 	 12%
03:00Fri 	 1c 	 14%
04:00Fri 	 1c 	 14%
05:00Fri 	 1c 	 15%
