00:00Mon 	 8c 	 0%

01:00Mon 	 9c 	 2%
01:00Mon 	 9c 	 2%
01:00Mon 	 9c 	 2%
01:00Mon 	 9c 	 2%
01:00Mon 	 8c 	 0%

02:00Mon 	 8c 	 4%
02:00Mon 	 8c 	 4%
02:00Mon 	 8c 	 4%
02:00Mon 	 8c 	 4%
02:00Mon 	 8c 	 75%
02:00Mon 	 8c 	 75%
02:00Mon 	 8c 	 75%
02:00Mon 	 8c 	 75%
02:00Mon 	 8c 	 75%

03:00Mon 	 8c 	 11%
03:00Mon 	 8c 	 11%
03:00Mon 	 8c 	 11%
03:00Mon 	 8c 	 11%
03:00Mon 	 7c 	 53%
03:00Mon 	 7c 	 53%
03:00Mon 	 7c 	 53%
03:00Mon 	 7c 	 53%
03:00Mon 	 7c 	 53%
03:00Mon 	 8c 	 3%
03:00Mon 	 8c 	 3%
03:00Mon 	 8c 	 3%
03:00Mon 	 7c 	 0%

04:00Mon 	 8c 	 8%
04:00Mon 	 8c 	 8%
04:00Mon 	 8c 	 8%
04:00Mon 	 8c 	 8%
04:00Mon 	 7c 	 8%
04:00Mon 	 7c 	 8%
04:00Mon 	 7c 	 8%
04:00Mon 	 7c 	 8%
04:00Mon 	 7c 	 8%
04:00Mon 	 7c 	 7%
04:00Mon 	 7c 	 7%
04:00Mon 	 7c 	 7%
04:00Mon 	 7c 	 10%
04:00Mon 	 7c 	 10%
04:00Mon 	 7c 	 10%
04:00Mon 	 7c 	 10%
04:00Mon 	 7c 	 10%

05:00Mon 	 8c 	 6%
05:00Mon 	 8c 	 6%
05:00Mon 	 8c 	 6%
05:00Mon 	 8c 	 6%
05:00Mon 	 7c 	 6%
05:00Mon 	 7c 	 6%
05:00Mon 	 7c 	 6%
05:00Mon 	 7c 	 6%
05:00Mon 	 7c 	 6%
05:00Mon 	 7c 	 6%
05:00Mon 	 7c 	 6%
05:00Mon 	 7c 	 6%
05:00Mon 	 7c 	 55%
05:00Mon 	 7c 	 55%
05:00Mon 	 7c 	 55%
05:00Mon 	 7c 	 55%
05:00Mon 	 7c 	 55%
05:00Mon 	 7c 	 2%
05:00Mon 	 7c 	 2%
05:00Mon 	 7c 	 2%
05:00Mon 	 7c 	 0%

06:00Mon 	 8c 	 0%
06:00Mon 	 8c 	 7%
06:00Mon 	 8c 	 7%
06:00Mon 	 8c 	 7%
06:00Mon 	 8c 	 7%
06:00Mon 	 8c 	 7%
06:00Mon 	 8c 	 7%
06:00Mon 	 8c 	 7%
06:00Mon 	 8c 	 7%
06:00Mon 	 8c 	 7%
06:00Mon 	 8c 	 7%
06:00Mon 	 8c 	 7%
06:00Mon 	 8c 	 7%
06:00Mon 	 7c 	 7%
06:00Mon 	 7c 	 7%
06:00Mon 	 7c 	 7%
06:00Mon 	 7c 	 7%
06:00Mon 	 7c 	 2%
06:00Mon 	 7c 	 2%
06:00Mon 	 7c 	 2%
06:00Mon 	 7c 	 2%
06:00Mon 	 7c 	 0%
06:00Mon 	 7c 	 0%
06:00Mon 	 7c 	 0%
06:00Mon 	 7c 	 0%

07:00Mon 	 8c 	 0%
07:00Mon 	 8c 	 0%
07:00Mon 	 8c 	 0%
07:00Mon 	 8c 	 0%
07:00Mon 	 8c 	 0%
07:00Mon 	 8c 	 10%
07:00Mon 	 8c 	 10%
07:00Mon 	 8c 	 10%
07:00Mon 	 8c 	 10%
07:00Mon 	 8c 	 10%
07:00Mon 	 8c 	 10%
07:00Mon 	 8c 	 10%
07:00Mon 	 8c 	 10%
07:00Mon 	 8c 	 10%
07:00Mon 	 8c 	 10%
07:00Mon 	 8c 	 10%
07:00Mon 	 8c 	 10%
07:00Mon 	 8c 	 10%
07:00Mon 	 8c 	 10%
07:00Mon 	 8c 	 10%
07:00Mon 	 8c 	 10%
07:00Mon 	 8c 	 10%
07:00Mon 	 8c 	 10%
07:00Mon 	 8c 	 10%
07:00Mon 	 8c 	 10%
07:00Mon 	 8c 	 3%
07:00Mon 	 8c 	 3%
07:00Mon 	 8c 	 3%
07:00Mon 	 8c 	 3%

08:00Mon 	 8c 	 2%
08:00Mon 	 8c 	 2%
08:00Mon 	 8c 	 2%
08:00Mon 	 8c 	 2%
08:00Mon 	 9c 	 0%
08:00Mon 	 9c 	 0%
08:00Mon 	 9c 	 0%
08:00Mon 	 9c 	 0%
08:00Mon 	 9c 	 0%
08:00Mon 	 9c 	 15%
08:00Mon 	 9c 	 15%
08:00Mon 	 9c 	 15%
08:00Mon 	 9c 	 15%
08:00Mon 	 9c 	 15%
08:00Mon 	 9c 	 15%
08:00Mon 	 9c 	 15%
08:00Mon 	 9c 	 15%
08:00Mon 	 9c 	 15%
08:00Mon 	 9c 	 15%
08:00Mon 	 9c 	 15%
08:00Mon 	 9c 	 15%
08:00Mon 	 9c 	 15%
08:00Mon 	 9c 	 15%
08:00Mon 	 9c 	 15%
08:00Mon 	 9c 	 15%
08:00Mon 	 8c 	 15%
08:00Mon 	 8c 	 15%
08:00Mon 	 8c 	 15%
08:00Mon 	 8c 	 15%
08:00Mon 	 8c 	 15%
08:00Mon 	 8c 	 15%
08:00Mon 	 8c 	 15%
08:00Mon 	 8c 	 15%

09:00Mon 	 9c 	 12%
09:00Mon 	 9c 	 12%
09:00Mon 	 9c 	 12%
09:00Mon 	 9c 	 12%
09:00Mon 	 9c 	 2%
09:00Mon 	 9c 	 2%
09:00Mon 	 9c 	 2%
09:00Mon 	 9c 	 2%
09:00Mon 	 9c 	 0%
09:00Mon 	 9c 	 0%
09:00Mon 	 9c 	 0%
09:00Mon 	 9c 	 0%
09:00Mon 	 9c 	 0%
09:00Mon 	 9c 	 17%
09:00Mon 	 9c 	 17%
09:00Mon 	 9c 	 17%
09:00Mon 	 9c 	 17%
09:00Mon 	 9c 	 17%
09:00Mon 	 9c 	 17%
09:00Mon 	 9c 	 17%
09:00Mon 	 9c 	 17%
09:00Mon 	 9c 	 17%
09:00Mon 	 9c 	 17%
09:00Mon 	 9c 	 17%
09:00Mon 	 9c 	 17%
09:00Mon 	 9c 	 17%
09:00Mon 	 9c 	 17%
09:00Mon 	 9c 	 17%
09:00Mon 	 9c 	 17%
09:00Mon 	 9c 	 17%
09:00Mon 	 9c 	 17%
09:00Mon 	 9c 	 17%
09:00Mon 	 9c 	 17%
09:00Mon 	 9c 	 17%
09:00Mon 	 9c 	 17%
09:00Mon 	 9c 	 17%
09:00Mon 	 9c 	 17%

10:00Mon 	 10c 	 14%
10:00Mon 	 10c 	 14%
10:00Mon 	 10c 	 14%
10:00Mon 	 10c 	 14%
10:00Mon 	 10c 	 9%
10:00Mon 	 10c 	 9%
10:00Mon 	 10c 	 9%
10:00Mon 	 10c 	 9%
10:00Mon 	 10c 	 5%
10:00Mon 	 10c 	 5%
10:00Mon 	 10c 	 5%
10:00Mon 	 10c 	 5%
10:00Mon 	 10c 	 1%
10:00Mon 	 10c 	 1%
10:00Mon 	 10c 	 1%
10:00Mon 	 10c 	 1%
10:00Mon 	 10c 	 1%
10:00Mon 	 10c 	 17%
10:00Mon 	 10c 	 17%
10:00Mon 	 10c 	 17%
10:00Mon 	 10c 	 17%
10:00Mon 	 10c 	 17%
10:00Mon 	 10c 	 17%
10:00Mon 	 10c 	 17%
10:00Mon 	 10c 	 17%
10:00Mon 	 10c 	 17%
10:00Mon 	 10c 	 17%
10:00Mon 	 10c 	 17%
10:00Mon 	 10c 	 17%
10:00Mon 	 10c 	 17%
10:00Mon 	 10c 	 17%
10:00Mon 	 10c 	 17%
10:00Mon 	 10c 	 17%
10:00Mon 	 10c 	 17%
10:00Mon 	 10c 	 17%
10:00Mon 	 10c 	 17%
10:00Mon 	 10c 	 17%
10:00Mon 	 10c 	 17%
10:00Mon 	 10c 	 17%
10:00Mon 	 10c 	 17%
10:00Mon 	 10c 	 17%

11:00Mon 	 11c 	 16%
11:00Mon 	 11c 	 16%
11:00Mon 	 11c 	 16%
11:00Mon 	 11c 	 16%
11:00Mon 	 11c 	 9%
11:00Mon 	 11c 	 9%
11:00Mon 	 11c 	 9%
11:00Mon 	 11c 	 9%
11:00Mon 	 11c 	 9%
11:00Mon 	 11c 	 9%
11:00Mon 	 11c 	 9%
11:00Mon 	 11c 	 9%
11:00Mon 	 10c 	 15%
11:00Mon 	 10c 	 15%
11:00Mon 	 10c 	 15%
11:00Mon 	 10c 	 15%
11:00Mon 	 10c 	 3%
11:00Mon 	 10c 	 3%
11:00Mon 	 10c 	 3%
11:00Mon 	 10c 	 3%
11:00Mon 	 10c 	 3%
11:00Mon 	 11c 	 18%
11:00Mon 	 11c 	 18%
11:00Mon 	 11c 	 18%
11:00Mon 	 11c 	 18%
11:00Mon 	 11c 	 18%
11:00Mon 	 11c 	 18%
11:00Mon 	 11c 	 18%
11:00Mon 	 11c 	 18%
11:00Mon 	 11c 	 18%
11:00Mon 	 11c 	 18%
11:00Mon 	 11c 	 18%
11:00Mon 	 11c 	 18%
11:00Mon 	 11c 	 18%
11:00Mon 	 11c 	 18%
11:00Mon 	 11c 	 18%
11:00Mon 	 11c 	 18%
11:00Mon 	 11c 	 18%
11:00Mon 	 11c 	 18%
11:00Mon 	 11c 	 18%
11:00Mon 	 11c 	 18%
11:00Mon 	 11c 	 18%
11:00Mon 	 11c 	 18%
11:00Mon 	 11c 	 18%
11:00Mon 	 11c 	 18%

12:00Mon 	 11c 	 18%
12:00Mon 	 11c 	 18%
12:00Mon 	 11c 	 18%
12:00Mon 	 11c 	 18%
12:00Mon 	 11c 	 9%
12:00Mon 	 11c 	 9%
12:00Mon 	 11c 	 9%
12:00Mon 	 11c 	 9%
12:00Mon 	 11c 	 9%
12:00Mon 	 11c 	 9%
12:00Mon 	 11c 	 9%
12:00Mon 	 11c 	 9%
12:00Mon 	 11c 	 9%
12:00Mon 	 11c 	 9%
12:00Mon 	 11c 	 9%
12:00Mon 	 11c 	 9%
12:00Mon 	 11c 	 7%
12:00Mon 	 11c 	 7%
12:00Mon 	 11c 	 7%
12:00Mon 	 11c 	 7%
12:00Mon 	 11c 	 7%
12:00Mon 	 11c 	 0%
12:00Mon 	 11c 	 0%
12:00Mon 	 11c 	 0%
12:00Mon 	 11c 	 0%
12:00Mon 	 11c 	 18%
12:00Mon 	 11c 	 18%
12:00Mon 	 11c 	 18%
12:00Mon 	 11c 	 18%
12:00Mon 	 11c 	 18%
12:00Mon 	 11c 	 18%
12:00Mon 	 11c 	 18%
12:00Mon 	 11c 	 18%
12:00Mon 	 11c 	 18%
12:00Mon 	 11c 	 18%
12:00Mon 	 11c 	 18%
12:00Mon 	 11c 	 18%
12:00Mon 	 11c 	 18%
12:00Mon 	 11c 	 18%
12:00Mon 	 11c 	 18%
12:00Mon 	 11c 	 18%
12:00Mon 	 11c 	 18%
12:00Mon 	 11c 	 18%
12:00Mon 	 11c 	 18%
12:00Mon 	 11c 	 18%
12:00Mon 	 11c 	 18%
12:00Mon 	 11c 	 18%
12:00Mon 	 11c 	 18%
12:00Mon 	 11c 	 18%

13:00Mon 	 12c 	 16%
13:00Mon 	 12c 	 16%
13:00Mon 	 12c 	 16%
13:00Mon 	 12c 	 16%
13:00Mon 	 12c 	 9%
13:00Mon 	 12c 	 9%
13:00Mon 	 12c 	 9%
13:00Mon 	 12c 	 9%
13:00Mon 	 12c 	 9%
13:00Mon 	 12c 	 9%
13:00Mon 	 12c 	 9%
13:00Mon 	 12c 	 9%
13:00Mon 	 12c 	 8%
13:00Mon 	 12c 	 8%
13:00Mon 	 12c 	 8%
13:00Mon 	 12c 	 8%
13:00Mon 	 12c 	 8%
13:00Mon 	 12c 	 8%
13:00Mon 	 12c 	 8%
13:00Mon 	 12c 	 8%
13:00Mon 	 12c 	 8%
13:00Mon 	 11c 	 2%
13:00Mon 	 11c 	 2%
13:00Mon 	 11c 	 2%
13:00Mon 	 11c 	 2%
13:00Mon 	 11c 	 0%
13:00Mon 	 11c 	 0%
13:00Mon 	 11c 	 0%
13:00Mon 	 11c 	 1%
13:00Mon 	 12c 	 16%
13:00Mon 	 12c 	 16%
13:00Mon 	 12c 	 16%
13:00Mon 	 12c 	 16%
13:00Mon 	 12c 	 16%
13:00Mon 	 12c 	 16%
13:00Mon 	 12c 	 16%
13:00Mon 	 12c 	 16%
13:00Mon 	 12c 	 16%
13:00Mon 	 12c 	 16%
13:00Mon 	 12c 	 16%
13:00Mon 	 12c 	 16%
13:00Mon 	 12c 	 16%
13:00Mon 	 12c 	 16%
13:00Mon 	 12c 	 16%
13:00Mon 	 12c 	 16%
13:00Mon 	 12c 	 16%
13:00Mon 	 12c 	 16%
13:00Mon 	 12c 	 16%
13:00Mon 	 12c 	 16%
13:00Mon 	 12c 	 16%
13:00Mon 	 12c 	 16%
13:00Mon 	 12c 	 16%
13:00Mon 	 12c 	 16%

14:00Mon 	 12c 	 16%
14:00Mon 	 12c 	 16%
14:00Mon 	 12c 	 16%
14:00Mon 	 12c 	 16%
14:00Mon 	 12c 	 8%
14:00Mon 	 12c 	 8%
14:00Mon 	 12c 	 8%
14:00Mon 	 12c 	 8%
14:00Mon 	 12c 	 8%
14:00Mon 	 12c 	 8%
14:00Mon 	 12c 	 8%
14:00Mon 	 12c 	 8%
14:00Mon 	 12c 	 8%
14:00Mon 	 12c 	 8%
14:00Mon 	 12c 	 8%
14:00Mon 	 12c 	 8%
14:00Mon 	 12c 	 8%
14:00Mon 	 12c 	 8%
14:00Mon 	 12c 	 8%
14:00Mon 	 12c 	 8%
14:00Mon 	 12c 	 8%
14:00Mon 	 12c 	 6%
14:00Mon 	 12c 	 6%
14:00Mon 	 12c 	 6%
14:00Mon 	 12c 	 6%
14:00Mon 	 12c 	 1%
14:00Mon 	 12c 	 1%
14:00Mon 	 12c 	 1%
14:00Mon 	 11c 	 0%
14:00Mon 	 11c 	 0%
14:00Mon 	 11c 	 0%
14:00Mon 	 11c 	 0%
14:00Mon 	 11c 	 0%
14:00Mon 	 12c 	 16%
14:00Mon 	 12c 	 16%
14:00Mon 	 12c 	 16%
14:00Mon 	 12c 	 16%
14:00Mon 	 12c 	 16%
14:00Mon 	 12c 	 16%
14:00Mon 	 12c 	 16%
14:00Mon 	 12c 	 16%
14:00Mon 	 12c 	 16%
14:00Mon 	 12c 	 16%
14:00Mon 	 12c 	 16%
14:00Mon 	 12c 	 16%
14:00Mon 	 12c 	 16%
14:00Mon 	 12c 	 16%
14:00Mon 	 12c 	 16%
14:00Mon 	 12c 	 16%
14:00Mon 	 12c 	 16%
14:00Mon 	 12c 	 16%
14:00Mon 	 12c 	 16%
14:00Mon 	 12c 	 16%
14:00Mon 	 12c 	 16%
14:00Mon 	 12c 	 16%
14:00Mon 	 12c 	 16%
14:00Mon 	 12c 	 16%

15:00Mon 	 12c 	 16%
15:00Mon 	 12c 	 16%
15:00Mon 	 12c 	 16%
15:00Mon 	 12c 	 16%
15:00Mon 	 12c 	 7%
15:00Mon 	 12c 	 7%
15:00Mon 	 12c 	 7%
15:00Mon 	 12c 	 7%
15:00Mon 	 12c 	 7%
15:00Mon 	 12c 	 7%
15:00Mon 	 12c 	 7%
15:00Mon 	 12c 	 7%
15:00Mon 	 12c 	 7%
15:00Mon 	 12c 	 7%
15:00Mon 	 12c 	 7%
15:00Mon 	 12c 	 7%
15:00Mon 	 12c 	 7%
15:00Mon 	 12c 	 7%
15:00Mon 	 12c 	 7%
15:00Mon 	 12c 	 7%
15:00Mon 	 12c 	 7%
15:00Mon 	 12c 	 7%
15:00Mon 	 12c 	 7%
15:00Mon 	 12c 	 7%
15:00Mon 	 12c 	 7%
15:00Mon 	 12c 	 6%
15:00Mon 	 12c 	 6%
15:00Mon 	 12c 	 6%
15:00Mon 	 12c 	 2%
15:00Mon 	 12c 	 2%
15:00Mon 	 12c 	 2%
15:00Mon 	 12c 	 2%
15:00Mon 	 12c 	 2%
15:00Mon 	 11c 	 0%
15:00Mon 	 11c 	 0%
15:00Mon 	 11c 	 0%
15:00Mon 	 11c 	 0%
15:00Mon 	 12c 	 16%
15:00Mon 	 12c 	 16%
15:00Mon 	 12c 	 16%
15:00Mon 	 12c 	 16%
15:00Mon 	 12c 	 16%
15:00Mon 	 12c 	 16%
15:00Mon 	 12c 	 16%
15:00Mon 	 12c 	 16%
15:00Mon 	 12c 	 16%
15:00Mon 	 12c 	 16%
15:00Mon 	 12c 	 16%
15:00Mon 	 12c 	 16%
15:00Mon 	 12c 	 16%
15:00Mon 	 12c 	 16%
15:00Mon 	 12c 	 16%
15:00Mon 	 12c 	 16%
15:00Mon 	 12c 	 16%
15:00Mon 	 12c 	 16%
15:00Mon 	 12c 	 16%
15:00Mon 	 12c 	 16%
15:00Mon 	 12c 	 16%
15:00Mon 	 12c 	 16%
15:00Mon 	 12c 	 16%
15:00Mon 	 12c 	 16%

16:00Mon 	 12c 	 12%
16:00Mon 	 12c 	 12%
16:00Mon 	 12c 	 12%
16:00Mon 	 12c 	 12%
16:00Mon 	 12c 	 8%
16:00Mon 	 12c 	 8%
16:00Mon 	 12c 	 8%
16:00Mon 	 12c 	 8%
16:00Mon 	 12c 	 8%
16:00Mon 	 12c 	 8%
16:00Mon 	 12c 	 8%
16:00Mon 	 12c 	 8%
16:00Mon 	 12c 	 8%
16:00Mon 	 12c 	 8%
16:00Mon 	 12c 	 8%
16:00Mon 	 12c 	 8%
16:00Mon 	 12c 	 8%
16:00Mon 	 12c 	 8%
16:00Mon 	 12c 	 8%
16:00Mon 	 12c 	 8%
16:00Mon 	 12c 	 8%
16:00Mon 	 12c 	 8%
16:00Mon 	 12c 	 8%
16:00Mon 	 12c 	 8%
16:00Mon 	 12c 	 8%
16:00Mon 	 12c 	 8%
16:00Mon 	 12c 	 8%
16:00Mon 	 12c 	 8%
16:00Mon 	 12c 	 8%
16:00Mon 	 12c 	 8%
16:00Mon 	 12c 	 8%
16:00Mon 	 12c 	 8%
16:00Mon 	 12c 	 8%
16:00Mon 	 12c 	 2%
16:00Mon 	 12c 	 2%
16:00Mon 	 12c 	 2%
16:00Mon 	 12c 	 2%
16:00Mon 	 12c 	 0%
16:00Mon 	 12c 	 0%
16:00Mon 	 12c 	 0%
16:00Mon 	 12c 	 1%
16:00Mon 	 12c 	 12%
16:00Mon 	 12c 	 12%
16:00Mon 	 12c 	 12%
16:00Mon 	 12c 	 12%
16:00Mon 	 12c 	 12%
16:00Mon 	 12c 	 12%
16:00Mon 	 12c 	 12%
16:00Mon 	 12c 	 12%
16:00Mon 	 12c 	 12%
16:00Mon 	 12c 	 12%
16:00Mon 	 12c 	 12%
16:00Mon 	 12c 	 12%
16:00Mon 	 12c 	 12%
16:00Mon 	 12c 	 12%
16:00Mon 	 12c 	 12%
16:00Mon 	 12c 	 12%
16:00Mon 	 12c 	 12%
16:00Mon 	 12c 	 12%
16:00Mon 	 12c 	 12%
16:00Mon 	 12c 	 12%
16:00Mon 	 12c 	 12%
16:00Mon 	 12c 	 12%
16:00Mon 	 12c 	 12%
16:00Mon 	 12c 	 12%

17:00Mon 	 11c 	 9%
17:00Mon 	 11c 	 9%
17:00Mon 	 11c 	 9%
17:00Mon 	 11c 	 9%
17:00Mon 	 11c 	 9%
17:00Mon 	 11c 	 9%
17:00Mon 	 11c 	 9%
17:00Mon 	 11c 	 9%
17:00Mon 	 11c 	 9%
17:00Mon 	 11c 	 9%
17:00Mon 	 11c 	 9%
17:00Mon 	 11c 	 9%
17:00Mon 	 11c 	 9%
17:00Mon 	 11c 	 9%
17:00Mon 	 11c 	 9%
17:00Mon 	 11c 	 9%
17:00Mon 	 11c 	 9%
17:00Mon 	 11c 	 9%
17:00Mon 	 11c 	 9%
17:00Mon 	 11c 	 9%
17:00Mon 	 11c 	 9%
17:00Mon 	 11c 	 9%
17:00Mon 	 11c 	 9%
17:00Mon 	 11c 	 9%
17:00Mon 	 11c 	 9%
17:00Mon 	 11c 	 9%
17:00Mon 	 11c 	 9%
17:00Mon 	 11c 	 9%
17:00Mon 	 11c 	 9%
17:00Mon 	 11c 	 9%
17:00Mon 	 11c 	 9%
17:00Mon 	 11c 	 9%
17:00Mon 	 11c 	 9%
17:00Mon 	 11c 	 9%
17:00Mon 	 11c 	 9%
17:00Mon 	 11c 	 9%
17:00Mon 	 11c 	 9%
17:00Mon 	 12c 	 2%
17:00Mon 	 12c 	 2%
17:00Mon 	 12c 	 2%
17:00Mon 	 11c 	 0%
17:00Mon 	 11c 	 0%
17:00Mon 	 11c 	 0%
17:00Mon 	 11c 	 0%
17:00Mon 	 11c 	 0%
17:00Mon 	 11c 	 9%
17:00Mon 	 11c 	 9%
17:00Mon 	 11c 	 9%
17:00Mon 	 11c 	 9%
17:00Mon 	 11c 	 9%
17:00Mon 	 11c 	 9%
17:00Mon 	 11c 	 9%
17:00Mon 	 11c 	 9%
17:00Mon 	 11c 	 9%
17:00Mon 	 11c 	 9%
17:00Mon 	 11c 	 9%
17:00Mon 	 11c 	 9%
17:00Mon 	 11c 	 9%
17:00Mon 	 11c 	 9%
17:00Mon 	 11c 	 9%
17:00Mon 	 11c 	 9%
17:00Mon 	 11c 	 9%
17:00Mon 	 11c 	 9%
17:00Mon 	 11c 	 9%
17:00Mon 	 11c 	 9%
17:00Mon 	 11c 	 9%
17:00Mon 	 11c 	 9%
17:00Mon 	 11c 	 9%
17:00Mon 	 11c 	 9%

18:00Mon 	 11c 	 8%
18:00Mon 	 11c 	 8%
18:00Mon 	 11c 	 8%
18:00Mon 	 11c 	 8%
18:00Mon 	 11c 	 9%
18:00Mon 	 11c 	 9%
18:00Mon 	 11c 	 9%
18:00Mon 	 11c 	 9%
18:00Mon 	 11c 	 9%
18:00Mon 	 11c 	 9%
18:00Mon 	 11c 	 9%
18:00Mon 	 11c 	 9%
18:00Mon 	 11c 	 9%
18:00Mon 	 11c 	 9%
18:00Mon 	 11c 	 9%
18:00Mon 	 11c 	 9%
18:00Mon 	 11c 	 9%
18:00Mon 	 11c 	 9%
18:00Mon 	 11c 	 9%
18:00Mon 	 11c 	 9%
18:00Mon 	 11c 	 9%
18:00Mon 	 11c 	 9%
18:00Mon 	 11c 	 9%
18:00Mon 	 11c 	 9%
18:00Mon 	 11c 	 9%
18:00Mon 	 11c 	 9%
18:00Mon 	 11c 	 9%
18:00Mon 	 11c 	 9%
18:00Mon 	 11c 	 9%
18:00Mon 	 11c 	 9%
18:00Mon 	 11c 	 9%
18:00Mon 	 11c 	 9%
18:00Mon 	 11c 	 9%
18:00Mon 	 11c 	 9%
18:00Mon 	 11c 	 9%
18:00Mon 	 11c 	 9%
18:00Mon 	 11c 	 9%
18:00Mon 	 11c 	 10%
18:00Mon 	 11c 	 10%
18:00Mon 	 11c 	 10%
18:00Mon 	 11c 	 2%
18:00Mon 	 11c 	 2%
18:00Mon 	 11c 	 2%
18:00Mon 	 11c 	 2%
18:00Mon 	 11c 	 2%
18:00Mon 	 11c 	 0%
18:00Mon 	 11c 	 0%
18:00Mon 	 11c 	 0%
18:00Mon 	 11c 	 0%
18:00Mon 	 11c 	 8%
18:00Mon 	 11c 	 8%
18:00Mon 	 11c 	 8%
18:00Mon 	 11c 	 8%
18:00Mon 	 11c 	 8%
18:00Mon 	 11c 	 8%
18:00Mon 	 11c 	 8%
18:00Mon 	 11c 	 8%
18:00Mon 	 11c 	 8%
18:00Mon 	 11c 	 8%
18:00Mon 	 11c 	 8%
18:00Mon 	 11c 	 8%
18:00Mon 	 11c 	 8%
18:00Mon 	 11c 	 8%
18:00Mon 	 11c 	 8%
18:00Mon 	 11c 	 8%
18:00Mon 	 11c 	 8%
18:00Mon 	 11c 	 8%
18:00Mon 	 11c 	 8%
18:00Mon 	 11c 	 8%
18:00Mon 	 11c 	 8%
18:00Mon 	 11c 	 8%
18:00Mon 	 11c 	 8%
18:00Mon 	 11c 	 8%

19:00Mon 	 10c 	 11%
19:00Mon 	 10c 	 11%
19:00Mon 	 10c 	 11%
19:00Mon 	 10c 	 11%
19:00Mon 	 10c 	 9%
19:00Mon 	 10c 	 9%
19:00Mon 	 10c 	 9%
19:00Mon 	 10c 	 9%
19:00Mon 	 10c 	 9%
19:00Mon 	 10c 	 9%
19:00Mon 	 10c 	 9%
19:00Mon 	 10c 	 9%
19:00Mon 	 10c 	 9%
19:00Mon 	 10c 	 9%
19:00Mon 	 10c 	 9%
19:00Mon 	 10c 	 9%
19:00Mon 	 10c 	 9%
19:00Mon 	 10c 	 9%
19:00Mon 	 10c 	 9%
19:00Mon 	 10c 	 9%
19:00Mon 	 10c 	 9%
19:00Mon 	 10c 	 9%
19:00Mon 	 10c 	 9%
19:00Mon 	 10c 	 9%
19:00Mon 	 10c 	 9%
19:00Mon 	 10c 	 9%
19:00Mon 	 10c 	 9%
19:00Mon 	 10c 	 9%
19:00Mon 	 10c 	 9%
19:00Mon 	 10c 	 9%
19:00Mon 	 10c 	 9%
19:00Mon 	 10c 	 9%
19:00Mon 	 10c 	 9%
19:00Mon 	 10c 	 10%
19:00Mon 	 10c 	 10%
19:00Mon 	 10c 	 10%
19:00Mon 	 10c 	 10%
19:00Mon 	 10c 	 11%
19:00Mon 	 10c 	 11%
19:00Mon 	 10c 	 11%
19:00Mon 	 10c 	 12%
19:00Mon 	 10c 	 12%
19:00Mon 	 10c 	 12%
19:00Mon 	 10c 	 12%
19:00Mon 	 10c 	 12%
19:00Mon 	 10c 	 3%
19:00Mon 	 10c 	 3%
19:00Mon 	 10c 	 3%
19:00Mon 	 10c 	 0%
19:00Mon 	 10c 	 0%
19:00Mon 	 10c 	 0%
19:00Mon 	 10c 	 0%
19:00Mon 	 10c 	 0%
19:00Mon 	 10c 	 11%
19:00Mon 	 10c 	 11%
19:00Mon 	 10c 	 11%
19:00Mon 	 10c 	 11%
19:00Mon 	 10c 	 11%
19:00Mon 	 10c 	 11%
19:00Mon 	 10c 	 11%
19:00Mon 	 10c 	 11%
19:00Mon 	 10c 	 11%
19:00Mon 	 10c 	 11%
19:00Mon 	 10c 	 11%
19:00Mon 	 10c 	 11%
19:00Mon 	 10c 	 11%
19:00Mon 	 10c 	 11%
19:00Mon 	 10c 	 11%
19:00Mon 	 10c 	 11%
19:00Mon 	 10c 	 11%
19:00Mon 	 10c 	 11%
19:00Mon 	 10c 	 11%
19:00Mon 	 10c 	 11%
19:00Mon 	 10c 	 11%
19:00Mon 	 10c 	 11%
19:00Mon 	 10c 	 11%
19:00Mon 	 10c 	 11%

20:00Mon 	 9c 	 14%
20:00Mon 	 9c 	 14%
20:00Mon 	 9c 	 14%
20:00Mon 	 9c 	 14%
20:00Mon 	 9c 	 11%
20:00Mon 	 9c 	 11%
20:00Mon 	 9c 	 11%
20:00Mon 	 9c 	 11%
20:00Mon 	 9c 	 11%
20:00Mon 	 9c 	 11%
20:00Mon 	 9c 	 11%
20:00Mon 	 9c 	 11%
20:00Mon 	 9c 	 11%
20:00Mon 	 9c 	 11%
20:00Mon 	 9c 	 11%
20:00Mon 	 9c 	 11%
20:00Mon 	 9c 	 11%
20:00Mon 	 9c 	 11%
20:00Mon 	 9c 	 11%
20:00Mon 	 9c 	 11%
20:00Mon 	 9c 	 11%
20:00Mon 	 9c 	 11%
20:00Mon 	 9c 	 11%
20:00Mon 	 9c 	 11%
20:00Mon 	 9c 	 11%
20:00Mon 	 9c 	 11%
20:00Mon 	 9c 	 11%
20:00Mon 	 9c 	 11%
20:00Mon 	 9c 	 11%
20:00Mon 	 9c 	 11%
20:00Mon 	 9c 	 11%
20:00Mon 	 9c 	 11%
20:00Mon 	 9c 	 11%
20:00Mon 	 9c 	 11%
20:00Mon 	 9c 	 11%
20:00Mon 	 9c 	 11%
20:00Mon 	 9c 	 11%
20:00Mon 	 9c 	 12%
20:00Mon 	 9c 	 12%
20:00Mon 	 9c 	 12%
20:00Mon 	 9c 	 13%
20:00Mon 	 9c 	 13%
20:00Mon 	 9c 	 13%
20:00Mon 	 9c 	 13%
20:00Mon 	 9c 	 13%
20:00Mon 	 9c 	 14%
20:00Mon 	 9c 	 14%
20:00Mon 	 9c 	 14%
20:00Mon 	 9c 	 3%
20:00Mon 	 9c 	 3%
20:00Mon 	 9c 	 3%
20:00Mon 	 9c 	 3%
20:00Mon 	 9c 	 3%
20:00Mon 	 9c 	 0%
20:00Mon 	 9c 	 0%
20:00Mon 	 9c 	 0%
20:00Mon 	 9c 	 0%
20:00Mon 	 9c 	 14%
20:00Mon 	 9c 	 14%
20:00Mon 	 9c 	 14%
20:00Mon 	 9c 	 14%
20:00Mon 	 9c 	 14%
20:00Mon 	 9c 	 14%
20:00Mon 	 9c 	 14%
20:00Mon 	 9c 	 14%
20:00Mon 	 9c 	 14%
20:00Mon 	 9c 	 14%
20:00Mon 	 9c 	 14%
20:00Mon 	 9c 	 14%
20:00Mon 	 9c 	 14%
20:00Mon 	 9c 	 14%
20:00Mon 	 9c 	 14%
20:00Mon 	 9c 	 14%
20:00Mon 	 9c 	 14%
20:00Mon 	 9c 	 14%
20:00Mon 	 9c 	 14%
20:00Mon 	 9c 	 14%
20:00Mon 	 9c 	 14%
20:00Mon 	 9c 	 14%
20:00Mon 	 9c 	 14%
20:00Mon 	 9c 	 14%

21:00Mon 	 9c 	 17%
21:00Mon 	 9c 	 17%
21:00Mon 	 9c 	 17%
21:00Mon 	 9c 	 17%
21:00Mon 	 9c 	 13%
21:00Mon 	 9c 	 13%
21:00Mon 	 9c 	 13%
21:00Mon 	 9c 	 13%
21:00Mon 	 9c 	 13%
21:00Mon 	 9c 	 13%
21:00Mon 	 9c 	 13%
21:00Mon 	 9c 	 13%
21:00Mon 	 9c 	 13%
21:00Mon 	 9c 	 13%
21:00Mon 	 9c 	 13%
21:00Mon 	 9c 	 13%
21:00Mon 	 9c 	 13%
21:00Mon 	 9c 	 13%
21:00Mon 	 9c 	 13%
21:00Mon 	 9c 	 13%
21:00Mon 	 9c 	 13%
21:00Mon 	 9c 	 13%
21:00Mon 	 9c 	 13%
21:00Mon 	 9c 	 13%
21:00Mon 	 9c 	 13%
21:00Mon 	 9c 	 13%
21:00Mon 	 9c 	 13%
21:00Mon 	 9c 	 13%
21:00Mon 	 9c 	 13%
21:00Mon 	 9c 	 13%
21:00Mon 	 9c 	 13%
21:00Mon 	 9c 	 13%
21:00Mon 	 9c 	 13%
21:00Mon 	 9c 	 13%
21:00Mon 	 9c 	 13%
21:00Mon 	 9c 	 13%
21:00Mon 	 9c 	 13%
21:00Mon 	 9c 	 13%
21:00Mon 	 9c 	 13%
21:00Mon 	 9c 	 13%
21:00Mon 	 9c 	 14%
21:00Mon 	 9c 	 14%
21:00Mon 	 9c 	 14%
21:00Mon 	 9c 	 14%
21:00Mon 	 9c 	 14%
21:00Mon 	 9c 	 15%
21:00Mon 	 9c 	 15%
21:00Mon 	 9c 	 15%
21:00Mon 	 8c 	 16%
21:00Mon 	 8c 	 16%
21:00Mon 	 8c 	 16%
21:00Mon 	 8c 	 16%
21:00Mon 	 8c 	 16%
21:00Mon 	 8c 	 4%
21:00Mon 	 8c 	 4%
21:00Mon 	 8c 	 4%
21:00Mon 	 8c 	 4%
21:00Mon 	 8c 	 1%
21:00Mon 	 8c 	 1%
21:00Mon 	 8c 	 1%
21:00Mon 	 8c 	 1%
21:00Mon 	 9c 	 17%
21:00Mon 	 9c 	 17%
21:00Mon 	 9c 	 17%
21:00Mon 	 9c 	 17%
21:00Mon 	 9c 	 17%
21:00Mon 	 9c 	 17%
21:00Mon 	 9c 	 17%
21:00Mon 	 9c 	 17%
21:00Mon 	 9c 	 17%
21:00Mon 	 9c 	 17%
21:00Mon 	 9c 	 17%
21:00Mon 	 9c 	 17%
21:00Mon 	 9c 	 17%
21:00Mon 	 9c 	 17%
21:00Mon 	 9c 	 17%
21:00Mon 	 9c 	 17%
21:00Mon 	 9c 	 17%
21:00Mon 	 9c 	 17%
21:00Mon 	 9c 	 17%
21:00Mon 	 9c 	 17%
21:00Mon 	 9c 	 17%
21:00Mon 	 9c 	 17%
21:00Mon 	 9c 	 17%
21:00Mon 	 9c 	 17%

22:00Mon 	 9c 	 20%
22:00Mon 	 9c 	 20%
22:00Mon 	 9c 	 20%
22:00Mon 	 9c 	 20%
22:00Mon 	 8c 	 14%
22:00Mon 	 8c 	 14%
22:00Mon 	 8c 	 14%
22:00Mon 	 8c 	 14%
22:00Mon 	 8c 	 14%
22:00Mon 	 8c 	 14%
22:00Mon 	 8c 	 14%
22:00Mon 	 8c 	 14%
22:00Mon 	 8c 	 14%
22:00Mon 	 8c 	 14%
22:00Mon 	 8c 	 14%
22:00Mon 	 8c 	 14%
22:00Mon 	 8c 	 14%
22:00Mon 	 8c 	 14%
22:00Mon 	 8c 	 14%
22:00Mon 	 8c 	 14%
22:00Mon 	 8c 	 14%
22:00Mon 	 8c 	 14%
22:00Mon 	 8c 	 14%
22:00Mon 	 8c 	 14%
22:00Mon 	 8c 	 14%
22:00Mon 	 8c 	 14%
22:00Mon 	 8c 	 14%
22:00Mon 	 8c 	 14%
22:00Mon 	 8c 	 14%
22:00Mon 	 8c 	 14%
22:00Mon 	 8c 	 14%
22:00Mon 	 8c 	 14%
22:00Mon 	 8c 	 14%
22:00Mon 	 8c 	 14%
22:00Mon 	 8c 	 14%
22:00Mon 	 8c 	 14%
22:00Mon 	 8c 	 14%
22:00Mon 	 8c 	 14%
22:00Mon 	 8c 	 14%
22:00Mon 	 8c 	 14%
22:00Mon 	 8c 	 14%
22:00Mon 	 8c 	 14%
22:00Mon 	 8c 	 14%
22:00Mon 	 8c 	 14%
22:00Mon 	 8c 	 14%
22:00Mon 	 8c 	 15%
22:00Mon 	 8c 	 15%
22:00Mon 	 8c 	 15%
22:00Mon 	 8c 	 17%
22:00Mon 	 8c 	 17%
22:00Mon 	 8c 	 17%
22:00Mon 	 8c 	 17%
22:00Mon 	 8c 	 17%
22:00Mon 	 8c 	 17%
22:00Mon 	 8c 	 17%
22:00Mon 	 8c 	 17%
22:00Mon 	 8c 	 17%
22:00Mon 	 8c 	 9%
22:00Mon 	 8c 	 9%
22:00Mon 	 8c 	 9%
22:00Mon 	 8c 	 9%
22:00Mon 	 8c 	 1%
22:00Mon 	 8c 	 1%
22:00Mon 	 8c 	 1%
22:00Mon 	 8c 	 1%
22:00Mon 	 9c 	 20%
22:00Mon 	 9c 	 20%
22:00Mon 	 9c 	 20%
22:00Mon 	 9c 	 20%
22:00Mon 	 9c 	 20%
22:00Mon 	 9c 	 20%
22:00Mon 	 9c 	 20%
22:00Mon 	 9c 	 20%
22:00Mon 	 9c 	 20%
22:00Mon 	 9c 	 20%
22:00Mon 	 9c 	 20%
22:00Mon 	 9c 	 20%
22:00Mon 	 9c 	 20%
22:00Mon 	 9c 	 20%
22:00Mon 	 9c 	 20%
22:00Mon 	 9c 	 20%
22:00Mon 	 9c 	 20%
22:00Mon 	 9c 	 20%
22:00Mon 	 9c 	 20%
22:00Mon 	 9c 	 20%
22:00Mon 	 9c 	 20%
22:00Mon 	 9c 	 20%
22:00Mon 	 9c 	 20%
22:00Mon 	 9c 	 20%

23:00Mon 	 8c 	 19%
23:00Mon 	 8c 	 19%
23:00Mon 	 8c 	 19%
23:00Mon 	 8c 	 19%
23:00Mon 	 8c 	 15%
23:00Mon 	 8c 	 15%
23:00Mon 	 8c 	 15%
23:00Mon 	 8c 	 15%
23:00Mon 	 8c 	 15%
23:00Mon 	 8c 	 15%
23:00Mon 	 8c 	 15%
23:00Mon 	 8c 	 15%
23:00Mon 	 8c 	 15%
23:00Mon 	 8c 	 15%
23:00Mon 	 8c 	 15%
23:00Mon 	 8c 	 15%
23:00Mon 	 8c 	 15%
23:00Mon 	 8c 	 15%
23:00Mon 	 8c 	 15%
23:00Mon 	 8c 	 15%
23:00Mon 	 8c 	 15%
23:00Mon 	 8c 	 15%
23:00Mon 	 8c 	 15%
23:00Mon 	 8c 	 15%
23:00Mon 	 8c 	 15%
23:00Mon 	 8c 	 15%
23:00Mon 	 8c 	 15%
23:00Mon 	 8c 	 15%
23:00Mon 	 8c 	 15%
23:00Mon 	 8c 	 15%
23:00Mon 	 8c 	 15%
23:00Mon 	 8c 	 15%
23:00Mon 	 8c 	 15%
23:00Mon 	 8c 	 15%
23:00Mon 	 8c 	 15%
23:00Mon 	 8c 	 15%
23:00Mon 	 8c 	 15%
23:00Mon 	 8c 	 15%
23:00Mon 	 8c 	 15%
23:00Mon 	 8c 	 15%
23:00Mon 	 8c 	 15%
23:00Mon 	 8c 	 15%
23:00Mon 	 8c 	 15%
23:00Mon 	 8c 	 15%
23:00Mon 	 8c 	 15%
23:00Mon 	 8c 	 15%
23:00Mon 	 8c 	 15%
23:00Mon 	 8c 	 15%
23:00Mon 	 8c 	 16%
23:00Mon 	 8c 	 16%
23:00Mon 	 8c 	 16%
23:00Mon 	 8c 	 16%
23:00Mon 	 8c 	 16%
23:00Mon 	 8c 	 17%
23:00Mon 	 8c 	 17%
23:00Mon 	 8c 	 17%
23:00Mon 	 8c 	 17%
23:00Mon 	 8c 	 17%
23:00Mon 	 8c 	 17%
23:00Mon 	 8c 	 17%
23:00Mon 	 8c 	 17%
23:00Mon 	 8c 	 5%
23:00Mon 	 8c 	 5%
23:00Mon 	 8c 	 5%
23:00Mon 	 8c 	 5%
23:00Mon 	 8c 	 1%
23:00Mon 	 8c 	 1%
23:00Mon 	 8c 	 1%
23:00Mon 	 8c 	 1%
23:00Mon 	 8c 	 19%
23:00Mon 	 8c 	 19%
23:00Mon 	 8c 	 19%
23:00Mon 	 8c 	 19%
23:00Mon 	 8c 	 19%
23:00Mon 	 8c 	 19%
23:00Mon 	 8c 	 19%
23:00Mon 	 8c 	 19%
23:00Mon 	 8c 	 19%
23:00Mon 	 8c 	 19%
23:00Mon 	 8c 	 19%
23:00Mon 	 8c 	 19%
23:00Mon 	 8c 	 19%
23:00Mon 	 8c 	 19%
23:00Mon 	 8c 	 19%
23:00Mon 	 8c 	 19%
23:00Mon 	 8c 	 19%
23:00Mon 	 8c 	 19%
23:00Mon 	 8c 	 19%
23:00Mon 	 8c 	 19%
23:00Mon 	 8c 	 19%
23:00Mon 	 8c 	 19%
23:00Mon 	 8c 	 19%
23:00Mon 	 8c 	 19%

