# /home/pi/Documents/bbc-weather-predictions/data/Nov09Sat/bbcweather_Friday8thNovember_2019-11-09_0000.txt
# /home/pi/Documents/bbc-weather-predictions/data/Nov09Sat/bbcweather_Friday8thNovember_2019-11-09_0015.txt
# /home/pi/Documents/bbc-weather-predictions/data/Nov09Sat/bbcweather_Friday8thNovember_2019-11-09_0030.txt
# /home/pi/Documents/bbc-weather-predictions/data/Nov09Sat/bbcweather_Friday8thNovember_2019-11-09_0045.txt
# /home/pi/Documents/bbc-weather-predictions/data/Nov09Sat/bbcweather_Friday8thNovember_2019-11-09_0100.txt
# /home/pi/Documents/bbc-weather-predictions/data/Nov09Sat/bbcweather_Friday8thNovember_2019-11-09_0115.txt
# /home/pi/Documents/bbc-weather-predictions/data/Nov09Sat/bbcweather_Friday8thNovember_2019-11-09_0130.txt
# /home/pi/Documents/bbc-weather-predictions/data/Nov09Sat/bbcweather_Friday8thNovember_2019-11-09_0145.txt
# /home/pi/Documents/bbc-weather-predictions/data/Nov09Sat/bbcweather_Friday8thNovember_2019-11-09_0200.txt
# /home/pi/Documents/bbc-weather-predictions/data/Nov09Sat/bbcweather_Friday8thNovember_2019-11-09_0215.txt
# /home/pi/Documents/bbc-weather-predictions/data/Nov09Sat/bbcweather_Friday8thNovember_2019-11-09_0230.txt
# /home/pi/Documents/bbc-weather-predictions/data/Nov09Sat/bbcweather_Friday8thNovember_2019-11-09_0245.txt
# /home/pi/Documents/bbc-weather-predictions/data/Nov09Sat/bbcweather_Friday8thNovember_2019-11-09_0300.txt
# /home/pi/Documents/bbc-weather-predictions/data/Nov09Sat/bbcweather_Friday8thNovember_2019-11-09_0315.txt
# /home/pi/Documents/bbc-weather-predictions/data/Nov09Sat/bbcweather_Friday8thNovember_2019-11-09_0330.txt
# /home/pi/Documents/bbc-weather-predictions/data/Nov09Sat/bbcweather_Friday8thNovember_2019-11-09_0345.txt
# /home/pi/Documents/bbc-weather-predictions/data/Nov09Sat/bbcweather_Friday8thNovember_2019-11-09_0400.txt
# /home/pi/Documents/bbc-weather-predictions/data/Nov09Sat/bbcweather_Friday8thNovember_2019-11-09_0415.txt
# /home/pi/Documents/bbc-weather-predictions/data/Nov09Sat/bbcweather_Friday8thNovember_2019-11-09_0430.txt
# /home/pi/Documents/bbc-weather-predictions/data/Nov09Sat/bbcweather_Friday8thNovember_2019-11-09_0445.txt
# /home/pi/Documents/bbc-weather-predictions/data/Nov09Sat/bbcweather_Friday8thNovember_2019-11-09_0500.txt
