00:00Mon 	 5c 	 21%
01:00Mon 	 5c 	 30%
02:00Mon 	 6c 	 44%
03:00Mon 	 6c 	 58%
04:00Mon 	 7c 	 70%
05:00Mon 	 7c 	 80%
00:00Mon 	 5c 	 21%
01:00Mon 	 5c 	 30%
02:00Mon 	 6c 	 44%
03:00Mon 	 6c 	 58%
04:00Mon 	 7c 	 70%
05:00Mon 	 7c 	 80%
00:00Mon 	 5c 	 21%
01:00Mon 	 5c 	 30%
02:00Mon 	 6c 	 44%
03:00Mon 	 6c 	 58%
04:00Mon 	 7c 	 70%
05:00Mon 	 7c 	 80%
00:00Mon 	 5c 	 21%
01:00Mon 	 5c 	 30%
02:00Mon 	 6c 	 44%
03:00Mon 	 6c 	 58%
04:00Mon 	 7c 	 70%
05:00Mon 	 7c 	 80%
00:00Mon 	 5c 	 21%
01:00Mon 	 5c 	 30%
02:00Mon 	 6c 	 44%
03:00Mon 	 6c 	 58%
04:00Mon 	 7c 	 70%
05:00Mon 	 7c 	 80%
00:00Mon 	 5c 	 21%
01:00Mon 	 5c 	 30%
02:00Mon 	 6c 	 44%
03:00Mon 	 6c 	 58%
04:00Mon 	 7c 	 70%
05:00Mon 	 7c 	 80%
00:00Mon 	 5c 	 21%
01:00Mon 	 5c 	 30%
02:00Mon 	 6c 	 44%
03:00Mon 	 6c 	 58%
04:00Mon 	 7c 	 70%
05:00Mon 	 7c 	 80%
00:00Mon 	 5c 	 21%
01:00Mon 	 5c 	 30%
02:00Mon 	 6c 	 44%
03:00Mon 	 6c 	 58%
04:00Mon 	 7c 	 70%
05:00Mon 	 7c 	 80%
00:00Mon 	 5c 	 21%
01:00Mon 	 5c 	 30%
02:00Mon 	 6c 	 44%
03:00Mon 	 6c 	 58%
04:00Mon 	 7c 	 70%
05:00Mon 	 7c 	 80%
00:00Mon 	 5c 	 21%
01:00Mon 	 5c 	 30%
02:00Mon 	 6c 	 44%
03:00Mon 	 6c 	 58%
04:00Mon 	 7c 	 70%
05:00Mon 	 7c 	 80%
00:00Mon 	 5c 	 21%
01:00Mon 	 5c 	 30%
02:00Mon 	 6c 	 44%
03:00Mon 	 6c 	 58%
04:00Mon 	 7c 	 70%
05:00Mon 	 7c 	 80%
00:00Mon 	 5c 	 21%
01:00Mon 	 5c 	 30%
02:00Mon 	 6c 	 44%
03:00Mon 	 6c 	 58%
04:00Mon 	 7c 	 70%
05:00Mon 	 7c 	 80%
00:00Mon 	 5c 	 21%
01:00Mon 	 5c 	 30%
02:00Mon 	 6c 	 44%
03:00Mon 	 6c 	 58%
04:00Mon 	 7c 	 70%
05:00Mon 	 7c 	 80%
00:00Mon 	 5c 	 21%
01:00Mon 	 5c 	 30%
02:00Mon 	 6c 	 44%
03:00Mon 	 6c 	 58%
04:00Mon 	 7c 	 70%
05:00Mon 	 7c 	 80%
00:00Mon 	 6c 	 16%
01:00Mon 	 6c 	 27%
02:00Mon 	 7c 	 45%
03:00Mon 	 7c 	 62%
04:00Mon 	 7c 	 71%
05:00Mon 	 7c 	 76%
00:00Mon 	 6c 	 16%
01:00Mon 	 6c 	 27%
02:00Mon 	 7c 	 45%
03:00Mon 	 7c 	 62%
04:00Mon 	 7c 	 71%
05:00Mon 	 7c 	 76%
00:00Mon 	 6c 	 16%
01:00Mon 	 6c 	 27%
02:00Mon 	 7c 	 45%
03:00Mon 	 7c 	 62%
04:00Mon 	 7c 	 71%
05:00Mon 	 7c 	 76%
00:00Mon 	 6c 	 16%
01:00Mon 	 6c 	 27%
02:00Mon 	 7c 	 45%
03:00Mon 	 7c 	 62%
04:00Mon 	 7c 	 71%
05:00Mon 	 7c 	 76%
00:00Mon 	 6c 	 16%
01:00Mon 	 6c 	 27%
02:00Mon 	 7c 	 45%
03:00Mon 	 7c 	 62%
04:00Mon 	 7c 	 71%
05:00Mon 	 7c 	 76%
00:00Mon 	 6c 	 16%
01:00Mon 	 6c 	 27%
02:00Mon 	 7c 	 45%
03:00Mon 	 7c 	 62%
04:00Mon 	 7c 	 71%
05:00Mon 	 7c 	 76%
00:00Mon 	 6c 	 16%
01:00Mon 	 6c 	 27%
02:00Mon 	 7c 	 45%
03:00Mon 	 7c 	 62%
04:00Mon 	 7c 	 71%
05:00Mon 	 7c 	 76%
00:00Mon 	 6c 	 16%
01:00Mon 	 6c 	 27%
02:00Mon 	 7c 	 45%
03:00Mon 	 7c 	 62%
04:00Mon 	 7c 	 71%
05:00Mon 	 7c 	 76%
00:00Mon 	 7c 	 23%
01:00Mon 	 7c 	 33%
02:00Mon 	 7c 	 49%
03:00Mon 	 7c 	 63%
04:00Mon 	 7c 	 69%
05:00Mon 	 7c 	 72%
00:00Mon 	 7c 	 23%
01:00Mon 	 7c 	 33%
02:00Mon 	 7c 	 49%
03:00Mon 	 7c 	 63%
04:00Mon 	 7c 	 69%
05:00Mon 	 7c 	 72%
00:00Mon 	 7c 	 23%
01:00Mon 	 7c 	 33%
02:00Mon 	 7c 	 49%
03:00Mon 	 7c 	 63%
04:00Mon 	 7c 	 69%
05:00Mon 	 7c 	 72%
00:00Mon 	 7c 	 23%
01:00Mon 	 7c 	 33%
02:00Mon 	 7c 	 49%
03:00Mon 	 7c 	 63%
04:00Mon 	 7c 	 69%
05:00Mon 	 7c 	 72%
00:00Mon 	 7c 	 23%
01:00Mon 	 7c 	 33%
02:00Mon 	 7c 	 49%
03:00Mon 	 7c 	 63%
04:00Mon 	 7c 	 69%
05:00Mon 	 7c 	 72%
00:00Mon 	 7c 	 23%
01:00Mon 	 7c 	 33%
02:00Mon 	 7c 	 49%
03:00Mon 	 7c 	 63%
04:00Mon 	 7c 	 69%
05:00Mon 	 7c 	 72%
00:00Mon 	 7c 	 23%
01:00Mon 	 7c 	 33%
02:00Mon 	 7c 	 49%
03:00Mon 	 7c 	 63%
04:00Mon 	 7c 	 69%
05:00Mon 	 7c 	 72%
00:00Mon 	 7c 	 23%
01:00Mon 	 7c 	 33%
02:00Mon 	 7c 	 49%
03:00Mon 	 7c 	 63%
04:00Mon 	 7c 	 69%
05:00Mon 	 7c 	 72%
00:00Mon 	 7c 	 23%
01:00Mon 	 7c 	 33%
02:00Mon 	 7c 	 49%
03:00Mon 	 7c 	 63%
04:00Mon 	 7c 	 69%
05:00Mon 	 7c 	 72%
00:00Mon 	 7c 	 23%
01:00Mon 	 7c 	 33%
02:00Mon 	 7c 	 49%
03:00Mon 	 7c 	 63%
04:00Mon 	 7c 	 69%
05:00Mon 	 7c 	 72%
00:00Mon 	 7c 	 23%
01:00Mon 	 7c 	 33%
02:00Mon 	 7c 	 49%
03:00Mon 	 7c 	 63%
04:00Mon 	 7c 	 69%
05:00Mon 	 7c 	 72%
00:00Mon 	 7c 	 23%
01:00Mon 	 7c 	 33%
02:00Mon 	 7c 	 49%
03:00Mon 	 7c 	 63%
04:00Mon 	 7c 	 69%
05:00Mon 	 7c 	 72%
00:00Mon 	 7c 	 23%
01:00Mon 	 7c 	 33%
02:00Mon 	 7c 	 49%
03:00Mon 	 7c 	 63%
04:00Mon 	 7c 	 69%
05:00Mon 	 7c 	 72%
00:00Mon 	 7c 	 23%
01:00Mon 	 7c 	 33%
02:00Mon 	 7c 	 49%
03:00Mon 	 7c 	 63%
04:00Mon 	 7c 	 69%
05:00Mon 	 7c 	 72%
00:00Mon 	 7c 	 23%
01:00Mon 	 7c 	 33%
02:00Mon 	 7c 	 49%
03:00Mon 	 7c 	 63%
04:00Mon 	 7c 	 69%
05:00Mon 	 7c 	 72%
00:00Mon 	 7c 	 23%
01:00Mon 	 7c 	 33%
02:00Mon 	 7c 	 49%
03:00Mon 	 7c 	 63%
04:00Mon 	 7c 	 69%
05:00Mon 	 7c 	 72%
00:00Mon 	 7c 	 23%
01:00Mon 	 7c 	 33%
02:00Mon 	 7c 	 49%
03:00Mon 	 7c 	 63%
04:00Mon 	 7c 	 69%
05:00Mon 	 7c 	 72%
00:00Mon 	 7c 	 23%
01:00Mon 	 7c 	 33%
02:00Mon 	 7c 	 49%
03:00Mon 	 7c 	 63%
04:00Mon 	 7c 	 69%
05:00Mon 	 7c 	 72%
00:00Mon 	 7c 	 23%
01:00Mon 	 7c 	 33%
02:00Mon 	 7c 	 49%
03:00Mon 	 7c 	 63%
04:00Mon 	 7c 	 69%
05:00Mon 	 7c 	 72%
00:00Mon 	 7c 	 23%
01:00Mon 	 7c 	 33%
02:00Mon 	 7c 	 49%
03:00Mon 	 7c 	 63%
04:00Mon 	 7c 	 69%
05:00Mon 	 7c 	 72%
00:00Mon 	 7c 	 23%
01:00Mon 	 7c 	 33%
02:00Mon 	 7c 	 49%
03:00Mon 	 7c 	 63%
04:00Mon 	 7c 	 69%
05:00Mon 	 7c 	 72%
00:00Mon 	 7c 	 23%
01:00Mon 	 7c 	 33%
02:00Mon 	 7c 	 49%
03:00Mon 	 7c 	 63%
04:00Mon 	 7c 	 69%
05:00Mon 	 7c 	 72%
00:00Mon 	 7c 	 23%
01:00Mon 	 7c 	 33%
02:00Mon 	 7c 	 49%
03:00Mon 	 7c 	 63%
04:00Mon 	 7c 	 69%
05:00Mon 	 7c 	 72%
00:00Mon 	 7c 	 23%
01:00Mon 	 7c 	 33%
02:00Mon 	 7c 	 49%
03:00Mon 	 7c 	 63%
04:00Mon 	 7c 	 69%
05:00Mon 	 7c 	 72%
00:00Mon 	 7c 	 23%
01:00Mon 	 7c 	 33%
02:00Mon 	 7c 	 49%
03:00Mon 	 7c 	 63%
04:00Mon 	 7c 	 69%
05:00Mon 	 7c 	 72%
00:00Mon 	 7c 	 23%
01:00Mon 	 7c 	 33%
02:00Mon 	 7c 	 49%
03:00Mon 	 7c 	 63%
04:00Mon 	 7c 	 69%
05:00Mon 	 7c 	 72%
00:00Mon 	 7c 	 23%
01:00Mon 	 7c 	 33%
02:00Mon 	 7c 	 49%
03:00Mon 	 7c 	 63%
04:00Mon 	 7c 	 69%
05:00Mon 	 7c 	 72%
00:00Mon 	 7c 	 23%
01:00Mon 	 7c 	 33%
02:00Mon 	 7c 	 49%
03:00Mon 	 7c 	 63%
04:00Mon 	 7c 	 69%
05:00Mon 	 7c 	 72%
00:00Mon 	 7c 	 23%
01:00Mon 	 7c 	 33%
02:00Mon 	 7c 	 49%
03:00Mon 	 7c 	 63%
04:00Mon 	 7c 	 69%
05:00Mon 	 7c 	 72%
00:00Mon 	 7c 	 23%
01:00Mon 	 7c 	 33%
02:00Mon 	 7c 	 49%
03:00Mon 	 7c 	 63%
04:00Mon 	 7c 	 69%
05:00Mon 	 7c 	 72%
00:00Mon 	 7c 	 23%
01:00Mon 	 7c 	 33%
02:00Mon 	 7c 	 49%
03:00Mon 	 7c 	 63%
04:00Mon 	 7c 	 69%
05:00Mon 	 7c 	 72%
00:00Mon 	 7c 	 23%
01:00Mon 	 7c 	 33%
02:00Mon 	 7c 	 49%
03:00Mon 	 7c 	 63%
04:00Mon 	 7c 	 69%
05:00Mon 	 7c 	 72%
00:00Mon 	 7c 	 23%
01:00Mon 	 7c 	 33%
02:00Mon 	 7c 	 49%
03:00Mon 	 7c 	 63%
04:00Mon 	 7c 	 69%
05:00Mon 	 7c 	 72%
00:00Mon 	 7c 	 23%
01:00Mon 	 7c 	 33%
02:00Mon 	 7c 	 49%
03:00Mon 	 7c 	 63%
04:00Mon 	 7c 	 69%
05:00Mon 	 7c 	 72%
00:00Mon 	 7c 	 23%
01:00Mon 	 7c 	 33%
02:00Mon 	 7c 	 49%
03:00Mon 	 7c 	 63%
04:00Mon 	 7c 	 69%
05:00Mon 	 7c 	 72%
00:00Mon 	 7c 	 23%
01:00Mon 	 7c 	 33%
02:00Mon 	 7c 	 49%
03:00Mon 	 7c 	 63%
04:00Mon 	 7c 	 69%
05:00Mon 	 7c 	 72%
00:00Mon 	 7c 	 23%
01:00Mon 	 7c 	 33%
02:00Mon 	 7c 	 49%
03:00Mon 	 7c 	 63%
04:00Mon 	 7c 	 69%
05:00Mon 	 7c 	 72%
00:00Mon 	 7c 	 23%
01:00Mon 	 7c 	 33%
02:00Mon 	 7c 	 49%
03:00Mon 	 7c 	 63%
04:00Mon 	 7c 	 69%
05:00Mon 	 7c 	 72%
00:00Mon 	 7c 	 23%
01:00Mon 	 7c 	 33%
02:00Mon 	 7c 	 49%
03:00Mon 	 7c 	 63%
04:00Mon 	 7c 	 69%
05:00Mon 	 7c 	 72%
00:00Mon 	 7c 	 23%
01:00Mon 	 7c 	 33%
02:00Mon 	 7c 	 49%
03:00Mon 	 7c 	 63%
04:00Mon 	 7c 	 69%
05:00Mon 	 7c 	 72%
00:00Mon 	 7c 	 23%
01:00Mon 	 7c 	 33%
02:00Mon 	 7c 	 55%
03:00Mon 	 7c 	 76%
04:00Mon 	 7c 	 75%
05:00Mon 	 7c 	 70%
00:00Mon 	 7c 	 23%
01:00Mon 	 7c 	 33%
02:00Mon 	 7c 	 55%
03:00Mon 	 7c 	 76%
04:00Mon 	 7c 	 75%
05:00Mon 	 7c 	 70%
00:00Mon 	 7c 	 23%
01:00Mon 	 7c 	 33%
02:00Mon 	 7c 	 55%
03:00Mon 	 7c 	 76%
04:00Mon 	 7c 	 75%
05:00Mon 	 7c 	 70%
00:00Mon 	 7c 	 23%
01:00Mon 	 7c 	 33%
02:00Mon 	 7c 	 55%
03:00Mon 	 7c 	 76%
04:00Mon 	 7c 	 75%
05:00Mon 	 7c 	 70%
00:00Mon 	 7c 	 23%
01:00Mon 	 7c 	 33%
02:00Mon 	 7c 	 55%
03:00Mon 	 7c 	 76%
04:00Mon 	 7c 	 75%
05:00Mon 	 7c 	 70%
00:00Mon 	 7c 	 23%
01:00Mon 	 7c 	 33%
02:00Mon 	 7c 	 55%
03:00Mon 	 7c 	 76%
04:00Mon 	 7c 	 75%
05:00Mon 	 7c 	 70%
00:00Mon 	 7c 	 23%
01:00Mon 	 7c 	 33%
02:00Mon 	 7c 	 55%
03:00Mon 	 7c 	 76%
04:00Mon 	 7c 	 75%
05:00Mon 	 7c 	 70%
00:00Mon 	 7c 	 23%
01:00Mon 	 7c 	 33%
02:00Mon 	 7c 	 55%
03:00Mon 	 7c 	 76%
04:00Mon 	 7c 	 75%
05:00Mon 	 7c 	 70%
00:00Mon 	 7c 	 34%
01:00Mon 	 7c 	 43%
02:00Mon 	 7c 	 62%
03:00Mon 	 7c 	 79%
04:00Mon 	 7c 	 79%
05:00Mon 	 7c 	 77%
00:00Mon 	 7c 	 34%
01:00Mon 	 7c 	 43%
02:00Mon 	 7c 	 62%
03:00Mon 	 7c 	 79%
04:00Mon 	 7c 	 79%
05:00Mon 	 7c 	 77%
00:00Mon 	 7c 	 34%
01:00Mon 	 7c 	 43%
02:00Mon 	 7c 	 62%
03:00Mon 	 7c 	 79%
04:00Mon 	 7c 	 79%
05:00Mon 	 7c 	 77%
00:00Mon 	 7c 	 34%
01:00Mon 	 7c 	 43%
02:00Mon 	 7c 	 62%
03:00Mon 	 7c 	 79%
04:00Mon 	 7c 	 79%
05:00Mon 	 7c 	 77%
00:00Mon 	 7c 	 34%
01:00Mon 	 7c 	 43%
02:00Mon 	 7c 	 62%
03:00Mon 	 7c 	 79%
04:00Mon 	 7c 	 79%
05:00Mon 	 7c 	 77%
