# /home/pi/Documents/bbc-weather-predictions/data/Apr21Tue/bbcweather_Monday20thApril_2020-04-21_0000.txt
# /home/pi/Documents/bbc-weather-predictions/data/Apr21Tue/bbcweather_Monday20thApril_2020-04-21_0015.txt
# /home/pi/Documents/bbc-weather-predictions/data/Apr21Tue/bbcweather_Monday20thApril_2020-04-21_0030.txt
# /home/pi/Documents/bbc-weather-predictions/data/Apr21Tue/bbcweather_Monday20thApril_2020-04-21_0045.txt
# /home/pi/Documents/bbc-weather-predictions/data/Apr21Tue/bbcweather_Monday20thApril_2020-04-21_0100.txt
# /home/pi/Documents/bbc-weather-predictions/data/Apr21Tue/bbcweather_Monday20thApril_2020-04-21_0115.txt
# /home/pi/Documents/bbc-weather-predictions/data/Apr21Tue/bbcweather_Monday20thApril_2020-04-21_0130.txt
# /home/pi/Documents/bbc-weather-predictions/data/Apr21Tue/bbcweather_Monday20thApril_2020-04-21_0145.txt
# /home/pi/Documents/bbc-weather-predictions/data/Apr21Tue/bbcweather_Monday20thApril_2020-04-21_0200.txt
# /home/pi/Documents/bbc-weather-predictions/data/Apr21Tue/bbcweather_Monday20thApril_2020-04-21_0215.txt
# /home/pi/Documents/bbc-weather-predictions/data/Apr21Tue/bbcweather_Monday20thApril_2020-04-21_0230.txt
# /home/pi/Documents/bbc-weather-predictions/data/Apr21Tue/bbcweather_Monday20thApril_2020-04-21_0245.txt
# /home/pi/Documents/bbc-weather-predictions/data/Apr21Tue/bbcweather_Monday20thApril_2020-04-21_0300.txt
# /home/pi/Documents/bbc-weather-predictions/data/Apr21Tue/bbcweather_Monday20thApril_2020-04-21_0315.txt
# /home/pi/Documents/bbc-weather-predictions/data/Apr21Tue/bbcweather_Monday20thApril_2020-04-21_0330.txt
# /home/pi/Documents/bbc-weather-predictions/data/Apr21Tue/bbcweather_Monday20thApril_2020-04-21_0345.txt
# /home/pi/Documents/bbc-weather-predictions/data/Apr21Tue/bbcweather_Monday20thApril_2020-04-21_0400.txt
# /home/pi/Documents/bbc-weather-predictions/data/Apr21Tue/bbcweather_Monday20thApril_2020-04-21_0415.txt
# /home/pi/Documents/bbc-weather-predictions/data/Apr21Tue/bbcweather_Monday20thApril_2020-04-21_0430.txt
# /home/pi/Documents/bbc-weather-predictions/data/Apr21Tue/bbcweather_Monday20thApril_2020-04-21_0445.txt
# /home/pi/Documents/bbc-weather-predictions/data/Apr21Tue/bbcweather_Monday20thApril_2020-04-21_0500.txt
