00:00Tue 	 8c 	 29%
01:00Tue 	 8c 	 30%
02:00Tue 	 7c 	 32%
03:00Tue 	 7c 	 34%
04:00Tue 	 7c 	 32%
05:00Tue 	 7c 	 27%
06:00Tue 	 7c 	 24%
07:00Tue 	 7c 	 23%
08:00Tue 	 8c 	 20%
09:00Tue 	 9c 	 18%
10:00Tue 	 9c 	 18%
11:00Tue 	 10c 	 18%
12:00Tue 	 11c 	 16%
13:00Tue 	 11c 	 11%
14:00Tue 	 11c 	 11%
15:00Tue 	 11c 	 13%
16:00Tue 	 11c 	 15%
17:00Tue 	 10c 	 15%
18:00Tue 	 9c 	 11%
19:00Tue 	 9c 	 10%
20:00Tue 	 8c 	 10%
21:00Tue 	 8c 	 8%
22:00Tue 	 7c 	 5%
23:00Tue 	 7c 	 5%


00:00Tue 	 8c 	 29%
01:00Tue 	 8c 	 30%
02:00Tue 	 7c 	 32%
03:00Tue 	 7c 	 34%
04:00Tue 	 7c 	 32%
05:00Tue 	 7c 	 27%
06:00Tue 	 7c 	 24%
07:00Tue 	 7c 	 23%
08:00Tue 	 8c 	 20%
09:00Tue 	 9c 	 18%
10:00Tue 	 9c 	 18%
11:00Tue 	 10c 	 18%
12:00Tue 	 11c 	 16%
13:00Tue 	 11c 	 11%
14:00Tue 	 11c 	 11%
15:00Tue 	 11c 	 13%
16:00Tue 	 11c 	 15%
17:00Tue 	 10c 	 15%
18:00Tue 	 9c 	 11%
19:00Tue 	 9c 	 10%
20:00Tue 	 8c 	 10%
21:00Tue 	 8c 	 8%
22:00Tue 	 7c 	 5%
23:00Tue 	 7c 	 5%


00:00Tue 	 8c 	 29%
01:00Tue 	 8c 	 30%
02:00Tue 	 7c 	 32%
03:00Tue 	 7c 	 34%
04:00Tue 	 7c 	 32%
05:00Tue 	 7c 	 27%
06:00Tue 	 7c 	 24%
07:00Tue 	 7c 	 23%
08:00Tue 	 8c 	 20%
09:00Tue 	 9c 	 18%
10:00Tue 	 9c 	 18%
11:00Tue 	 10c 	 18%
12:00Tue 	 11c 	 16%
13:00Tue 	 11c 	 11%
14:00Tue 	 11c 	 11%
15:00Tue 	 11c 	 13%
16:00Tue 	 11c 	 15%
17:00Tue 	 10c 	 15%
18:00Tue 	 9c 	 11%
19:00Tue 	 9c 	 10%
20:00Tue 	 8c 	 10%
21:00Tue 	 8c 	 8%
22:00Tue 	 7c 	 5%
23:00Tue 	 7c 	 5%


00:00Tue 	 8c 	 29%
01:00Tue 	 8c 	 30%
02:00Tue 	 7c 	 32%
03:00Tue 	 7c 	 34%
04:00Tue 	 7c 	 32%
05:00Tue 	 7c 	 27%
06:00Tue 	 7c 	 24%
07:00Tue 	 7c 	 23%
08:00Tue 	 8c 	 20%
09:00Tue 	 9c 	 18%
10:00Tue 	 9c 	 18%
11:00Tue 	 10c 	 18%
12:00Tue 	 11c 	 16%
13:00Tue 	 11c 	 11%
14:00Tue 	 11c 	 11%
15:00Tue 	 11c 	 13%
16:00Tue 	 11c 	 15%
17:00Tue 	 10c 	 15%
18:00Tue 	 9c 	 11%
19:00Tue 	 9c 	 10%
20:00Tue 	 8c 	 10%
21:00Tue 	 8c 	 8%
22:00Tue 	 7c 	 5%
23:00Tue 	 7c 	 5%


00:00Tue 	 8c 	 29%
01:00Tue 	 8c 	 30%
02:00Tue 	 7c 	 32%
03:00Tue 	 7c 	 34%
04:00Tue 	 7c 	 32%
05:00Tue 	 7c 	 27%
06:00Tue 	 7c 	 24%
07:00Tue 	 7c 	 23%
08:00Tue 	 8c 	 20%
09:00Tue 	 9c 	 18%
10:00Tue 	 9c 	 18%
11:00Tue 	 10c 	 18%
12:00Tue 	 11c 	 16%
13:00Tue 	 11c 	 11%
14:00Tue 	 11c 	 11%
15:00Tue 	 11c 	 13%
16:00Tue 	 11c 	 15%
17:00Tue 	 10c 	 15%
18:00Tue 	 9c 	 11%
19:00Tue 	 9c 	 10%
20:00Tue 	 8c 	 10%
21:00Tue 	 8c 	 8%
22:00Tue 	 7c 	 5%
23:00Tue 	 7c 	 5%


00:00Tue 	 8c 	 29%
01:00Tue 	 8c 	 30%
02:00Tue 	 7c 	 32%
03:00Tue 	 7c 	 34%
04:00Tue 	 7c 	 32%
05:00Tue 	 7c 	 27%
06:00Tue 	 7c 	 24%
07:00Tue 	 7c 	 23%
08:00Tue 	 8c 	 20%
09:00Tue 	 9c 	 18%
10:00Tue 	 9c 	 18%
11:00Tue 	 10c 	 18%
12:00Tue 	 11c 	 16%
13:00Tue 	 11c 	 11%
14:00Tue 	 11c 	 11%
15:00Tue 	 11c 	 13%
16:00Tue 	 11c 	 15%
17:00Tue 	 10c 	 15%
18:00Tue 	 9c 	 11%
19:00Tue 	 9c 	 10%
20:00Tue 	 8c 	 10%
21:00Tue 	 8c 	 8%
22:00Tue 	 7c 	 5%
23:00Tue 	 7c 	 5%


00:00Tue 	 8c 	 29%
01:00Tue 	 8c 	 30%
02:00Tue 	 7c 	 32%
03:00Tue 	 7c 	 34%
04:00Tue 	 7c 	 32%
05:00Tue 	 7c 	 27%
06:00Tue 	 7c 	 24%
07:00Tue 	 7c 	 23%
08:00Tue 	 8c 	 20%
09:00Tue 	 9c 	 18%
10:00Tue 	 9c 	 18%
11:00Tue 	 10c 	 18%
12:00Tue 	 11c 	 16%
13:00Tue 	 11c 	 11%
14:00Tue 	 11c 	 11%
15:00Tue 	 11c 	 13%
16:00Tue 	 11c 	 15%
17:00Tue 	 10c 	 15%
18:00Tue 	 9c 	 11%
19:00Tue 	 9c 	 10%
20:00Tue 	 8c 	 10%
21:00Tue 	 8c 	 8%
22:00Tue 	 7c 	 5%
23:00Tue 	 7c 	 5%


00:00Tue 	 8c 	 25%
01:00Tue 	 8c 	 24%
02:00Tue 	 8c 	 25%
03:00Tue 	 8c 	 25%
04:00Tue 	 8c 	 24%
05:00Tue 	 8c 	 24%
06:00Tue 	 8c 	 23%
07:00Tue 	 8c 	 22%
08:00Tue 	 8c 	 21%
09:00Tue 	 9c 	 20%
10:00Tue 	 9c 	 19%
11:00Tue 	 10c 	 18%
12:00Tue 	 10c 	 16%
13:00Tue 	 11c 	 15%
14:00Tue 	 11c 	 19%
15:00Tue 	 10c 	 22%
16:00Tue 	 10c 	 15%
17:00Tue 	 9c 	 7%
18:00Tue 	 9c 	 4%
19:00Tue 	 9c 	 4%
20:00Tue 	 8c 	 6%
21:00Tue 	 8c 	 6%
22:00Tue 	 7c 	 5%
23:00Tue 	 7c 	 5%


00:00Tue 	 8c 	 25%
01:00Tue 	 8c 	 24%
02:00Tue 	 8c 	 25%
03:00Tue 	 8c 	 25%
04:00Tue 	 8c 	 24%
05:00Tue 	 8c 	 24%
06:00Tue 	 8c 	 23%
07:00Tue 	 8c 	 22%
08:00Tue 	 8c 	 21%
09:00Tue 	 9c 	 20%
10:00Tue 	 9c 	 19%
11:00Tue 	 10c 	 18%
12:00Tue 	 10c 	 16%
13:00Tue 	 11c 	 15%
14:00Tue 	 11c 	 19%
15:00Tue 	 10c 	 22%
16:00Tue 	 10c 	 15%
17:00Tue 	 9c 	 7%
18:00Tue 	 9c 	 4%
19:00Tue 	 9c 	 4%
20:00Tue 	 8c 	 6%
21:00Tue 	 8c 	 6%
22:00Tue 	 7c 	 5%
23:00Tue 	 7c 	 5%


00:00Tue 	 8c 	 25%
01:00Tue 	 8c 	 24%
02:00Tue 	 8c 	 25%
03:00Tue 	 8c 	 25%
04:00Tue 	 8c 	 24%
05:00Tue 	 8c 	 24%
06:00Tue 	 8c 	 23%
07:00Tue 	 8c 	 22%
08:00Tue 	 8c 	 21%
09:00Tue 	 9c 	 20%
10:00Tue 	 9c 	 19%
11:00Tue 	 10c 	 18%
12:00Tue 	 10c 	 16%
13:00Tue 	 11c 	 15%
14:00Tue 	 11c 	 19%
15:00Tue 	 10c 	 22%
16:00Tue 	 10c 	 15%
17:00Tue 	 9c 	 7%
18:00Tue 	 9c 	 4%
19:00Tue 	 9c 	 4%
20:00Tue 	 8c 	 6%
21:00Tue 	 8c 	 6%
22:00Tue 	 7c 	 5%
23:00Tue 	 7c 	 5%


00:00Tue 	 8c 	 25%
01:00Tue 	 8c 	 24%
02:00Tue 	 8c 	 25%
03:00Tue 	 8c 	 25%
04:00Tue 	 8c 	 24%
05:00Tue 	 8c 	 24%
06:00Tue 	 8c 	 23%
07:00Tue 	 8c 	 22%
08:00Tue 	 8c 	 21%
09:00Tue 	 9c 	 20%
10:00Tue 	 9c 	 19%
11:00Tue 	 10c 	 18%
12:00Tue 	 10c 	 16%
13:00Tue 	 11c 	 15%
14:00Tue 	 11c 	 19%
15:00Tue 	 10c 	 22%
16:00Tue 	 10c 	 15%
17:00Tue 	 9c 	 7%
18:00Tue 	 9c 	 4%
19:00Tue 	 9c 	 4%
20:00Tue 	 8c 	 6%
21:00Tue 	 8c 	 6%
22:00Tue 	 7c 	 5%
23:00Tue 	 7c 	 5%


00:00Tue 	 8c 	 25%
01:00Tue 	 8c 	 24%
02:00Tue 	 8c 	 25%
03:00Tue 	 8c 	 25%
04:00Tue 	 8c 	 24%
05:00Tue 	 8c 	 24%
06:00Tue 	 8c 	 23%
07:00Tue 	 8c 	 22%
08:00Tue 	 8c 	 21%
09:00Tue 	 9c 	 20%
10:00Tue 	 9c 	 19%
11:00Tue 	 10c 	 18%
12:00Tue 	 10c 	 16%
13:00Tue 	 11c 	 15%
14:00Tue 	 11c 	 19%
15:00Tue 	 10c 	 22%
16:00Tue 	 10c 	 15%
17:00Tue 	 9c 	 7%
18:00Tue 	 9c 	 4%
19:00Tue 	 9c 	 4%
20:00Tue 	 8c 	 6%
21:00Tue 	 8c 	 6%
22:00Tue 	 7c 	 5%
23:00Tue 	 7c 	 5%


00:00Tue 	 8c 	 25%
01:00Tue 	 8c 	 24%
02:00Tue 	 8c 	 25%
03:00Tue 	 8c 	 25%
04:00Tue 	 8c 	 24%
05:00Tue 	 8c 	 24%
06:00Tue 	 8c 	 23%
07:00Tue 	 8c 	 22%
08:00Tue 	 8c 	 21%
09:00Tue 	 9c 	 20%
10:00Tue 	 9c 	 19%
11:00Tue 	 10c 	 18%
12:00Tue 	 10c 	 16%
13:00Tue 	 11c 	 15%
14:00Tue 	 11c 	 19%
15:00Tue 	 10c 	 22%
16:00Tue 	 10c 	 15%
17:00Tue 	 9c 	 7%
18:00Tue 	 9c 	 4%
19:00Tue 	 9c 	 4%
20:00Tue 	 8c 	 6%
21:00Tue 	 8c 	 6%
22:00Tue 	 7c 	 5%
23:00Tue 	 7c 	 5%


00:00Tue 	 8c 	 25%
01:00Tue 	 8c 	 24%
02:00Tue 	 8c 	 25%
03:00Tue 	 8c 	 25%
04:00Tue 	 8c 	 24%
05:00Tue 	 8c 	 24%
06:00Tue 	 8c 	 23%
07:00Tue 	 8c 	 22%
08:00Tue 	 8c 	 21%
09:00Tue 	 9c 	 20%
10:00Tue 	 9c 	 19%
11:00Tue 	 10c 	 18%
12:00Tue 	 10c 	 16%
13:00Tue 	 11c 	 15%
14:00Tue 	 11c 	 19%
15:00Tue 	 10c 	 22%
16:00Tue 	 10c 	 15%
17:00Tue 	 9c 	 7%
18:00Tue 	 9c 	 4%
19:00Tue 	 9c 	 4%
20:00Tue 	 8c 	 6%
21:00Tue 	 8c 	 6%
22:00Tue 	 7c 	 5%
23:00Tue 	 7c 	 5%


00:00Tue 	 8c 	 25%
01:00Tue 	 8c 	 24%
02:00Tue 	 8c 	 25%
03:00Tue 	 8c 	 25%
04:00Tue 	 8c 	 24%
05:00Tue 	 8c 	 24%
06:00Tue 	 8c 	 23%
07:00Tue 	 8c 	 22%
08:00Tue 	 8c 	 21%
09:00Tue 	 9c 	 20%
10:00Tue 	 9c 	 19%
11:00Tue 	 10c 	 18%
12:00Tue 	 10c 	 16%
13:00Tue 	 11c 	 15%
14:00Tue 	 11c 	 19%
15:00Tue 	 10c 	 22%
16:00Tue 	 10c 	 15%
17:00Tue 	 9c 	 7%
18:00Tue 	 9c 	 4%
19:00Tue 	 9c 	 4%
20:00Tue 	 8c 	 6%
21:00Tue 	 8c 	 6%
22:00Tue 	 7c 	 5%
23:00Tue 	 7c 	 5%


00:00Tue 	 8c 	 21%
01:00Tue 	 8c 	 21%
02:00Tue 	 8c 	 22%
03:00Tue 	 8c 	 24%
04:00Tue 	 8c 	 24%
05:00Tue 	 8c 	 23%
06:00Tue 	 8c 	 23%
07:00Tue 	 8c 	 23%
08:00Tue 	 9c 	 23%
09:00Tue 	 9c 	 23%
10:00Tue 	 9c 	 21%
11:00Tue 	 10c 	 18%
12:00Tue 	 10c 	 16%
13:00Tue 	 11c 	 14%
14:00Tue 	 11c 	 18%
15:00Tue 	 10c 	 22%
16:00Tue 	 10c 	 14%
17:00Tue 	 9c 	 6%
18:00Tue 	 9c 	 3%
19:00Tue 	 9c 	 2%
20:00Tue 	 8c 	 3%
21:00Tue 	 8c 	 4%
22:00Tue 	 7c 	 4%
23:00Tue 	 7c 	 5%


00:00Tue 	 8c 	 21%
01:00Tue 	 8c 	 21%
02:00Tue 	 8c 	 22%
03:00Tue 	 8c 	 24%
04:00Tue 	 8c 	 24%
05:00Tue 	 8c 	 23%
06:00Tue 	 8c 	 23%
07:00Tue 	 8c 	 23%
08:00Tue 	 9c 	 23%
09:00Tue 	 9c 	 23%
10:00Tue 	 9c 	 21%
11:00Tue 	 10c 	 18%
12:00Tue 	 10c 	 16%
13:00Tue 	 11c 	 14%
14:00Tue 	 11c 	 18%
15:00Tue 	 10c 	 22%
16:00Tue 	 10c 	 14%
17:00Tue 	 9c 	 6%
18:00Tue 	 9c 	 3%
19:00Tue 	 9c 	 2%
20:00Tue 	 8c 	 3%
21:00Tue 	 8c 	 4%
22:00Tue 	 7c 	 4%
23:00Tue 	 7c 	 5%


00:00Tue 	 8c 	 21%
01:00Tue 	 8c 	 21%
02:00Tue 	 8c 	 22%
03:00Tue 	 8c 	 24%
04:00Tue 	 8c 	 24%
05:00Tue 	 8c 	 23%
06:00Tue 	 8c 	 23%
07:00Tue 	 8c 	 23%
08:00Tue 	 9c 	 23%
09:00Tue 	 9c 	 23%
10:00Tue 	 9c 	 21%
11:00Tue 	 10c 	 18%
12:00Tue 	 10c 	 16%
13:00Tue 	 11c 	 14%
14:00Tue 	 11c 	 18%
15:00Tue 	 10c 	 22%
16:00Tue 	 10c 	 14%
17:00Tue 	 9c 	 6%
18:00Tue 	 9c 	 3%
19:00Tue 	 9c 	 2%
20:00Tue 	 8c 	 3%
21:00Tue 	 8c 	 4%
22:00Tue 	 7c 	 4%
23:00Tue 	 7c 	 5%


00:00Tue 	 8c 	 21%
01:00Tue 	 8c 	 21%
02:00Tue 	 8c 	 22%
03:00Tue 	 8c 	 24%
04:00Tue 	 8c 	 24%
05:00Tue 	 8c 	 23%
06:00Tue 	 8c 	 23%
07:00Tue 	 8c 	 23%
08:00Tue 	 9c 	 23%
09:00Tue 	 9c 	 23%
10:00Tue 	 9c 	 21%
11:00Tue 	 10c 	 18%
12:00Tue 	 10c 	 16%
13:00Tue 	 11c 	 14%
14:00Tue 	 11c 	 18%
15:00Tue 	 10c 	 22%
16:00Tue 	 10c 	 14%
17:00Tue 	 9c 	 6%
18:00Tue 	 9c 	 3%
19:00Tue 	 9c 	 2%
20:00Tue 	 8c 	 3%
21:00Tue 	 8c 	 4%
22:00Tue 	 7c 	 4%
23:00Tue 	 7c 	 5%


00:00Tue 	 8c 	 21%
01:00Tue 	 8c 	 21%
02:00Tue 	 8c 	 22%
03:00Tue 	 8c 	 24%
04:00Tue 	 8c 	 24%
05:00Tue 	 8c 	 23%
06:00Tue 	 8c 	 23%
07:00Tue 	 8c 	 23%
08:00Tue 	 9c 	 23%
09:00Tue 	 9c 	 23%
10:00Tue 	 9c 	 21%
11:00Tue 	 10c 	 18%
12:00Tue 	 10c 	 16%
13:00Tue 	 11c 	 14%
14:00Tue 	 11c 	 18%
15:00Tue 	 10c 	 22%
16:00Tue 	 10c 	 14%
17:00Tue 	 9c 	 6%
18:00Tue 	 9c 	 3%
19:00Tue 	 9c 	 2%
20:00Tue 	 8c 	 3%
21:00Tue 	 8c 	 4%
22:00Tue 	 7c 	 4%
23:00Tue 	 7c 	 5%


00:00Tue 	 8c 	 21%
01:00Tue 	 8c 	 21%
02:00Tue 	 8c 	 22%
03:00Tue 	 8c 	 24%
04:00Tue 	 8c 	 24%
05:00Tue 	 8c 	 23%
06:00Tue 	 8c 	 23%
07:00Tue 	 8c 	 23%
08:00Tue 	 9c 	 23%
09:00Tue 	 9c 	 23%
10:00Tue 	 9c 	 21%
11:00Tue 	 10c 	 18%
12:00Tue 	 10c 	 16%
13:00Tue 	 11c 	 14%
14:00Tue 	 11c 	 18%
15:00Tue 	 10c 	 22%
16:00Tue 	 10c 	 14%
17:00Tue 	 9c 	 6%
18:00Tue 	 9c 	 3%
19:00Tue 	 9c 	 2%
20:00Tue 	 8c 	 3%
21:00Tue 	 8c 	 4%
22:00Tue 	 7c 	 4%
23:00Tue 	 7c 	 5%


00:00Tue 	 8c 	 21%
01:00Tue 	 8c 	 21%
02:00Tue 	 8c 	 22%
03:00Tue 	 8c 	 24%
04:00Tue 	 8c 	 24%
05:00Tue 	 8c 	 23%
06:00Tue 	 8c 	 23%
07:00Tue 	 8c 	 23%
08:00Tue 	 9c 	 23%
09:00Tue 	 9c 	 23%
10:00Tue 	 9c 	 21%
11:00Tue 	 10c 	 18%
12:00Tue 	 10c 	 16%
13:00Tue 	 11c 	 14%
14:00Tue 	 11c 	 18%
15:00Tue 	 10c 	 22%
16:00Tue 	 10c 	 14%
17:00Tue 	 9c 	 6%
18:00Tue 	 9c 	 3%
19:00Tue 	 9c 	 2%
20:00Tue 	 8c 	 3%
21:00Tue 	 8c 	 4%
22:00Tue 	 7c 	 4%
23:00Tue 	 7c 	 5%


00:00Tue 	 8c 	 21%
01:00Tue 	 8c 	 21%
02:00Tue 	 8c 	 22%
03:00Tue 	 8c 	 24%
04:00Tue 	 8c 	 24%
05:00Tue 	 8c 	 23%
06:00Tue 	 8c 	 23%
07:00Tue 	 8c 	 23%
08:00Tue 	 9c 	 23%
09:00Tue 	 9c 	 23%
10:00Tue 	 9c 	 21%
11:00Tue 	 10c 	 18%
12:00Tue 	 10c 	 16%
13:00Tue 	 11c 	 14%
14:00Tue 	 11c 	 18%
15:00Tue 	 10c 	 22%
16:00Tue 	 10c 	 14%
17:00Tue 	 9c 	 6%
18:00Tue 	 9c 	 3%
19:00Tue 	 9c 	 2%
20:00Tue 	 8c 	 3%
21:00Tue 	 8c 	 4%
22:00Tue 	 7c 	 4%
23:00Tue 	 7c 	 5%


00:00Tue 	 8c 	 21%
01:00Tue 	 8c 	 21%
02:00Tue 	 8c 	 22%
03:00Tue 	 8c 	 24%
04:00Tue 	 8c 	 24%
05:00Tue 	 8c 	 23%
06:00Tue 	 8c 	 23%
07:00Tue 	 8c 	 23%
08:00Tue 	 9c 	 23%
09:00Tue 	 9c 	 23%
10:00Tue 	 9c 	 21%
11:00Tue 	 10c 	 18%
12:00Tue 	 10c 	 16%
13:00Tue 	 11c 	 14%
14:00Tue 	 11c 	 18%
15:00Tue 	 10c 	 22%
16:00Tue 	 10c 	 14%
17:00Tue 	 9c 	 6%
18:00Tue 	 9c 	 3%
19:00Tue 	 9c 	 3%
20:00Tue 	 8c 	 5%
21:00Tue 	 8c 	 7%
22:00Tue 	 7c 	 5%
23:00Tue 	 7c 	 3%


00:00Tue 	 8c 	 21%
01:00Tue 	 8c 	 21%
02:00Tue 	 8c 	 22%
03:00Tue 	 8c 	 24%
04:00Tue 	 8c 	 24%
05:00Tue 	 8c 	 23%
06:00Tue 	 8c 	 23%
07:00Tue 	 8c 	 23%
08:00Tue 	 9c 	 23%
09:00Tue 	 9c 	 23%
10:00Tue 	 9c 	 21%
11:00Tue 	 10c 	 18%
12:00Tue 	 10c 	 16%
13:00Tue 	 11c 	 14%
14:00Tue 	 11c 	 18%
15:00Tue 	 10c 	 22%
16:00Tue 	 10c 	 14%
17:00Tue 	 9c 	 6%
18:00Tue 	 9c 	 3%
19:00Tue 	 9c 	 3%
20:00Tue 	 8c 	 5%
21:00Tue 	 8c 	 7%
22:00Tue 	 7c 	 5%
23:00Tue 	 7c 	 3%


00:00Tue 	 8c 	 21%
01:00Tue 	 8c 	 21%
02:00Tue 	 8c 	 22%
03:00Tue 	 8c 	 24%
04:00Tue 	 8c 	 24%
05:00Tue 	 8c 	 23%
06:00Tue 	 8c 	 23%
07:00Tue 	 8c 	 23%
08:00Tue 	 9c 	 23%
09:00Tue 	 9c 	 23%
10:00Tue 	 9c 	 21%
11:00Tue 	 10c 	 18%
12:00Tue 	 10c 	 16%
13:00Tue 	 11c 	 14%
14:00Tue 	 11c 	 18%
15:00Tue 	 10c 	 22%
16:00Tue 	 10c 	 14%
17:00Tue 	 9c 	 6%
18:00Tue 	 9c 	 3%
19:00Tue 	 9c 	 3%
20:00Tue 	 8c 	 5%
21:00Tue 	 8c 	 7%
22:00Tue 	 7c 	 5%
23:00Tue 	 7c 	 3%


00:00Tue 	 8c 	 21%
01:00Tue 	 8c 	 21%
02:00Tue 	 8c 	 22%
03:00Tue 	 8c 	 24%
04:00Tue 	 8c 	 24%
05:00Tue 	 8c 	 23%
06:00Tue 	 8c 	 23%
07:00Tue 	 8c 	 23%
08:00Tue 	 9c 	 23%
09:00Tue 	 9c 	 23%
10:00Tue 	 9c 	 21%
11:00Tue 	 10c 	 18%
12:00Tue 	 10c 	 16%
13:00Tue 	 11c 	 14%
14:00Tue 	 11c 	 18%
15:00Tue 	 10c 	 22%
16:00Tue 	 10c 	 14%
17:00Tue 	 9c 	 6%
18:00Tue 	 9c 	 3%
19:00Tue 	 9c 	 3%
20:00Tue 	 8c 	 5%
21:00Tue 	 8c 	 7%
22:00Tue 	 7c 	 5%
23:00Tue 	 7c 	 3%


00:00Tue 	 8c 	 21%
01:00Tue 	 8c 	 21%
02:00Tue 	 8c 	 22%
03:00Tue 	 8c 	 24%
04:00Tue 	 8c 	 24%
05:00Tue 	 8c 	 23%
06:00Tue 	 8c 	 23%
07:00Tue 	 8c 	 23%
08:00Tue 	 9c 	 23%
09:00Tue 	 9c 	 23%
10:00Tue 	 9c 	 21%
11:00Tue 	 10c 	 18%
12:00Tue 	 10c 	 16%
13:00Tue 	 11c 	 14%
14:00Tue 	 11c 	 18%
15:00Tue 	 10c 	 22%
16:00Tue 	 10c 	 14%
17:00Tue 	 9c 	 6%
18:00Tue 	 9c 	 3%
19:00Tue 	 9c 	 3%
20:00Tue 	 8c 	 5%
21:00Tue 	 8c 	 7%
22:00Tue 	 7c 	 5%
23:00Tue 	 7c 	 3%


00:00Tue 	 8c 	 21%
01:00Tue 	 8c 	 21%
02:00Tue 	 8c 	 22%
03:00Tue 	 8c 	 24%
04:00Tue 	 8c 	 24%
05:00Tue 	 8c 	 23%
06:00Tue 	 8c 	 23%
07:00Tue 	 8c 	 23%
08:00Tue 	 9c 	 23%
09:00Tue 	 9c 	 23%
10:00Tue 	 9c 	 21%
11:00Tue 	 10c 	 18%
12:00Tue 	 10c 	 16%
13:00Tue 	 11c 	 14%
14:00Tue 	 11c 	 18%
15:00Tue 	 10c 	 22%
16:00Tue 	 10c 	 14%
17:00Tue 	 9c 	 6%
18:00Tue 	 9c 	 3%
19:00Tue 	 9c 	 3%
20:00Tue 	 8c 	 5%
21:00Tue 	 8c 	 7%
22:00Tue 	 7c 	 5%
23:00Tue 	 7c 	 3%


00:00Tue 	 8c 	 21%
01:00Tue 	 8c 	 21%
02:00Tue 	 8c 	 22%
03:00Tue 	 8c 	 24%
04:00Tue 	 8c 	 24%
05:00Tue 	 8c 	 23%
06:00Tue 	 8c 	 23%
07:00Tue 	 8c 	 23%
08:00Tue 	 9c 	 23%
09:00Tue 	 9c 	 23%
10:00Tue 	 9c 	 21%
11:00Tue 	 10c 	 18%
12:00Tue 	 10c 	 16%
13:00Tue 	 11c 	 14%
14:00Tue 	 11c 	 18%
15:00Tue 	 10c 	 22%
16:00Tue 	 10c 	 14%
17:00Tue 	 9c 	 6%
18:00Tue 	 9c 	 3%
19:00Tue 	 9c 	 3%
20:00Tue 	 8c 	 5%
21:00Tue 	 8c 	 7%
22:00Tue 	 7c 	 5%
23:00Tue 	 7c 	 3%


00:00Tue 	 8c 	 21%
01:00Tue 	 8c 	 21%
02:00Tue 	 8c 	 22%
03:00Tue 	 8c 	 24%
04:00Tue 	 8c 	 24%
05:00Tue 	 8c 	 23%
06:00Tue 	 8c 	 23%
07:00Tue 	 8c 	 23%
08:00Tue 	 9c 	 23%
09:00Tue 	 9c 	 23%
10:00Tue 	 9c 	 21%
11:00Tue 	 10c 	 18%
12:00Tue 	 10c 	 16%
13:00Tue 	 11c 	 14%
14:00Tue 	 11c 	 18%
15:00Tue 	 10c 	 22%
16:00Tue 	 10c 	 14%
17:00Tue 	 9c 	 6%
18:00Tue 	 9c 	 3%
19:00Tue 	 9c 	 3%
20:00Tue 	 8c 	 5%
21:00Tue 	 8c 	 7%
22:00Tue 	 7c 	 5%
23:00Tue 	 7c 	 3%


00:00Tue 	 8c 	 21%
01:00Tue 	 8c 	 21%
02:00Tue 	 8c 	 22%
03:00Tue 	 8c 	 24%
04:00Tue 	 8c 	 24%
05:00Tue 	 8c 	 23%
06:00Tue 	 8c 	 23%
07:00Tue 	 8c 	 23%
08:00Tue 	 9c 	 23%
09:00Tue 	 9c 	 23%
10:00Tue 	 9c 	 21%
11:00Tue 	 10c 	 18%
12:00Tue 	 10c 	 16%
13:00Tue 	 11c 	 14%
14:00Tue 	 11c 	 18%
15:00Tue 	 10c 	 22%
16:00Tue 	 10c 	 14%
17:00Tue 	 9c 	 6%
18:00Tue 	 9c 	 3%
19:00Tue 	 9c 	 3%
20:00Tue 	 8c 	 5%
21:00Tue 	 8c 	 7%
22:00Tue 	 7c 	 5%
23:00Tue 	 7c 	 3%


00:00Tue 	 8c 	 21%
01:00Tue 	 8c 	 21%
02:00Tue 	 8c 	 22%
03:00Tue 	 8c 	 24%
04:00Tue 	 8c 	 24%
05:00Tue 	 8c 	 23%
06:00Tue 	 8c 	 23%
07:00Tue 	 8c 	 23%
08:00Tue 	 9c 	 23%
09:00Tue 	 9c 	 23%
10:00Tue 	 9c 	 21%
11:00Tue 	 10c 	 18%
12:00Tue 	 10c 	 16%
13:00Tue 	 11c 	 14%
14:00Tue 	 11c 	 18%
15:00Tue 	 10c 	 22%
16:00Tue 	 10c 	 14%
17:00Tue 	 9c 	 6%
18:00Tue 	 9c 	 3%
19:00Tue 	 9c 	 3%
20:00Tue 	 8c 	 5%
21:00Tue 	 8c 	 7%
22:00Tue 	 7c 	 5%
23:00Tue 	 7c 	 3%


00:00Tue 	 8c 	 21%
01:00Tue 	 8c 	 21%
02:00Tue 	 8c 	 22%
03:00Tue 	 8c 	 24%
04:00Tue 	 8c 	 24%
05:00Tue 	 8c 	 23%
06:00Tue 	 8c 	 23%
07:00Tue 	 8c 	 23%
08:00Tue 	 9c 	 23%
09:00Tue 	 9c 	 23%
10:00Tue 	 9c 	 21%
11:00Tue 	 10c 	 18%
12:00Tue 	 10c 	 16%
13:00Tue 	 11c 	 14%
14:00Tue 	 11c 	 18%
15:00Tue 	 10c 	 22%
16:00Tue 	 10c 	 14%
17:00Tue 	 9c 	 6%
18:00Tue 	 9c 	 3%
19:00Tue 	 9c 	 3%
20:00Tue 	 8c 	 5%
21:00Tue 	 8c 	 7%
22:00Tue 	 7c 	 5%
23:00Tue 	 7c 	 3%


00:00Tue 	 8c 	 21%
01:00Tue 	 8c 	 21%
02:00Tue 	 8c 	 22%
03:00Tue 	 8c 	 24%
04:00Tue 	 8c 	 24%
05:00Tue 	 8c 	 23%
06:00Tue 	 8c 	 23%
07:00Tue 	 8c 	 23%
08:00Tue 	 9c 	 23%
09:00Tue 	 9c 	 23%
10:00Tue 	 9c 	 21%
11:00Tue 	 10c 	 18%
12:00Tue 	 10c 	 16%
13:00Tue 	 11c 	 14%
14:00Tue 	 11c 	 18%
15:00Tue 	 10c 	 22%
16:00Tue 	 10c 	 14%
17:00Tue 	 9c 	 6%
18:00Tue 	 9c 	 3%
19:00Tue 	 9c 	 3%
20:00Tue 	 8c 	 5%
21:00Tue 	 8c 	 7%
22:00Tue 	 7c 	 5%
23:00Tue 	 7c 	 3%


00:00Tue 	 8c 	 21%
01:00Tue 	 8c 	 21%
02:00Tue 	 8c 	 22%
03:00Tue 	 8c 	 24%
04:00Tue 	 8c 	 24%
05:00Tue 	 8c 	 23%
06:00Tue 	 8c 	 23%
07:00Tue 	 8c 	 23%
08:00Tue 	 9c 	 23%
09:00Tue 	 9c 	 23%
10:00Tue 	 9c 	 21%
11:00Tue 	 10c 	 18%
12:00Tue 	 10c 	 16%
13:00Tue 	 11c 	 14%
14:00Tue 	 11c 	 18%
15:00Tue 	 10c 	 22%
16:00Tue 	 10c 	 14%
17:00Tue 	 9c 	 6%
18:00Tue 	 9c 	 3%
19:00Tue 	 9c 	 3%
20:00Tue 	 8c 	 5%
21:00Tue 	 8c 	 7%
22:00Tue 	 7c 	 5%
23:00Tue 	 7c 	 3%


00:00Tue 	 8c 	 21%
01:00Tue 	 8c 	 21%
02:00Tue 	 8c 	 22%
03:00Tue 	 8c 	 24%
04:00Tue 	 8c 	 24%
05:00Tue 	 8c 	 23%
06:00Tue 	 8c 	 23%
07:00Tue 	 8c 	 23%
08:00Tue 	 9c 	 23%
09:00Tue 	 9c 	 23%
10:00Tue 	 9c 	 21%
11:00Tue 	 10c 	 18%
12:00Tue 	 10c 	 16%
13:00Tue 	 11c 	 14%
14:00Tue 	 11c 	 18%
15:00Tue 	 10c 	 22%
16:00Tue 	 10c 	 14%
17:00Tue 	 9c 	 6%
18:00Tue 	 9c 	 3%
19:00Tue 	 9c 	 3%
20:00Tue 	 8c 	 5%
21:00Tue 	 8c 	 7%
22:00Tue 	 7c 	 5%
23:00Tue 	 7c 	 3%


00:00Tue 	 8c 	 21%
01:00Tue 	 8c 	 21%
02:00Tue 	 8c 	 22%
03:00Tue 	 8c 	 24%
04:00Tue 	 8c 	 24%
05:00Tue 	 8c 	 23%
06:00Tue 	 8c 	 23%
07:00Tue 	 8c 	 23%
08:00Tue 	 9c 	 23%
09:00Tue 	 9c 	 23%
10:00Tue 	 9c 	 21%
11:00Tue 	 10c 	 18%
12:00Tue 	 10c 	 16%
13:00Tue 	 11c 	 14%
14:00Tue 	 11c 	 18%
15:00Tue 	 10c 	 22%
16:00Tue 	 10c 	 14%
17:00Tue 	 9c 	 6%
18:00Tue 	 9c 	 3%
19:00Tue 	 9c 	 3%
20:00Tue 	 8c 	 5%
21:00Tue 	 8c 	 7%
22:00Tue 	 7c 	 5%
23:00Tue 	 7c 	 3%


00:00Tue 	 8c 	 21%
01:00Tue 	 8c 	 21%
02:00Tue 	 8c 	 22%
03:00Tue 	 8c 	 24%
04:00Tue 	 8c 	 24%
05:00Tue 	 8c 	 23%
06:00Tue 	 8c 	 23%
07:00Tue 	 8c 	 23%
08:00Tue 	 9c 	 23%
09:00Tue 	 9c 	 23%
10:00Tue 	 9c 	 21%
11:00Tue 	 10c 	 18%
12:00Tue 	 10c 	 16%
13:00Tue 	 11c 	 14%
14:00Tue 	 11c 	 18%
15:00Tue 	 10c 	 22%
16:00Tue 	 10c 	 14%
17:00Tue 	 9c 	 6%
18:00Tue 	 9c 	 3%
19:00Tue 	 9c 	 3%
20:00Tue 	 8c 	 5%
21:00Tue 	 8c 	 7%
22:00Tue 	 7c 	 5%
23:00Tue 	 7c 	 3%


00:00Tue 	 8c 	 21%
01:00Tue 	 8c 	 21%
02:00Tue 	 8c 	 22%
03:00Tue 	 8c 	 24%
04:00Tue 	 8c 	 24%
05:00Tue 	 8c 	 23%
06:00Tue 	 8c 	 23%
07:00Tue 	 8c 	 23%
08:00Tue 	 9c 	 23%
09:00Tue 	 9c 	 23%
10:00Tue 	 9c 	 21%
11:00Tue 	 10c 	 18%
12:00Tue 	 10c 	 16%
13:00Tue 	 11c 	 14%
14:00Tue 	 11c 	 18%
15:00Tue 	 10c 	 22%
16:00Tue 	 10c 	 14%
17:00Tue 	 9c 	 6%
18:00Tue 	 9c 	 3%
19:00Tue 	 9c 	 3%
20:00Tue 	 8c 	 5%
21:00Tue 	 8c 	 7%
22:00Tue 	 7c 	 5%
23:00Tue 	 7c 	 3%


00:00Tue 	 8c 	 21%
01:00Tue 	 8c 	 21%
02:00Tue 	 8c 	 22%
03:00Tue 	 8c 	 24%
04:00Tue 	 8c 	 24%
05:00Tue 	 8c 	 23%
06:00Tue 	 8c 	 23%
07:00Tue 	 8c 	 23%
08:00Tue 	 9c 	 23%
09:00Tue 	 9c 	 23%
10:00Tue 	 9c 	 21%
11:00Tue 	 10c 	 18%
12:00Tue 	 10c 	 16%
13:00Tue 	 11c 	 14%
14:00Tue 	 11c 	 18%
15:00Tue 	 10c 	 22%
16:00Tue 	 10c 	 14%
17:00Tue 	 9c 	 6%
18:00Tue 	 9c 	 3%
19:00Tue 	 9c 	 3%
20:00Tue 	 8c 	 5%
21:00Tue 	 8c 	 7%
22:00Tue 	 7c 	 5%
23:00Tue 	 7c 	 3%


00:00Tue 	 8c 	 21%
01:00Tue 	 8c 	 21%
02:00Tue 	 8c 	 22%
03:00Tue 	 8c 	 24%
04:00Tue 	 8c 	 24%
05:00Tue 	 8c 	 23%
06:00Tue 	 8c 	 23%
07:00Tue 	 8c 	 23%
08:00Tue 	 9c 	 23%
09:00Tue 	 9c 	 23%
10:00Tue 	 9c 	 21%
11:00Tue 	 10c 	 18%
12:00Tue 	 10c 	 16%
13:00Tue 	 11c 	 14%
14:00Tue 	 11c 	 18%
15:00Tue 	 10c 	 22%
16:00Tue 	 10c 	 14%
17:00Tue 	 9c 	 6%
18:00Tue 	 9c 	 3%
19:00Tue 	 9c 	 3%
20:00Tue 	 8c 	 5%
21:00Tue 	 8c 	 7%
22:00Tue 	 7c 	 5%
23:00Tue 	 7c 	 3%


00:00Tue 	 8c 	 21%
01:00Tue 	 8c 	 21%
02:00Tue 	 8c 	 22%
03:00Tue 	 8c 	 24%
04:00Tue 	 8c 	 24%
05:00Tue 	 8c 	 23%
06:00Tue 	 8c 	 23%
07:00Tue 	 8c 	 23%
08:00Tue 	 9c 	 23%
09:00Tue 	 9c 	 23%
10:00Tue 	 9c 	 21%
11:00Tue 	 10c 	 18%
12:00Tue 	 10c 	 16%
13:00Tue 	 11c 	 14%
14:00Tue 	 11c 	 18%
15:00Tue 	 10c 	 22%
16:00Tue 	 10c 	 14%
17:00Tue 	 9c 	 6%
18:00Tue 	 9c 	 3%
19:00Tue 	 9c 	 3%
20:00Tue 	 8c 	 5%
21:00Tue 	 8c 	 7%
22:00Tue 	 7c 	 5%
23:00Tue 	 7c 	 3%


00:00Tue 	 8c 	 21%
01:00Tue 	 8c 	 21%
02:00Tue 	 8c 	 22%
03:00Tue 	 8c 	 24%
04:00Tue 	 8c 	 24%
05:00Tue 	 8c 	 23%
06:00Tue 	 8c 	 23%
07:00Tue 	 8c 	 23%
08:00Tue 	 9c 	 23%
09:00Tue 	 9c 	 23%
10:00Tue 	 9c 	 21%
11:00Tue 	 10c 	 18%
12:00Tue 	 10c 	 16%
13:00Tue 	 11c 	 14%
14:00Tue 	 11c 	 18%
15:00Tue 	 10c 	 22%
16:00Tue 	 10c 	 14%
17:00Tue 	 9c 	 6%
18:00Tue 	 9c 	 3%
19:00Tue 	 9c 	 3%
20:00Tue 	 8c 	 5%
21:00Tue 	 8c 	 7%
22:00Tue 	 7c 	 5%
23:00Tue 	 7c 	 3%


00:00Tue 	 8c 	 21%
01:00Tue 	 8c 	 21%
02:00Tue 	 8c 	 22%
03:00Tue 	 8c 	 24%
04:00Tue 	 8c 	 24%
05:00Tue 	 8c 	 23%
06:00Tue 	 8c 	 23%
07:00Tue 	 8c 	 23%
08:00Tue 	 9c 	 23%
09:00Tue 	 9c 	 23%
10:00Tue 	 9c 	 21%
11:00Tue 	 10c 	 18%
12:00Tue 	 10c 	 16%
13:00Tue 	 11c 	 14%
14:00Tue 	 11c 	 18%
15:00Tue 	 10c 	 22%
16:00Tue 	 10c 	 14%
17:00Tue 	 9c 	 6%
18:00Tue 	 9c 	 3%
19:00Tue 	 9c 	 3%
20:00Tue 	 8c 	 5%
21:00Tue 	 8c 	 7%
22:00Tue 	 7c 	 5%
23:00Tue 	 7c 	 3%


00:00Tue 	 8c 	 21%
01:00Tue 	 8c 	 21%
02:00Tue 	 8c 	 22%
03:00Tue 	 8c 	 24%
04:00Tue 	 8c 	 24%
05:00Tue 	 8c 	 23%
06:00Tue 	 8c 	 23%
07:00Tue 	 8c 	 23%
08:00Tue 	 9c 	 23%
09:00Tue 	 9c 	 23%
10:00Tue 	 9c 	 21%
11:00Tue 	 10c 	 18%
12:00Tue 	 10c 	 16%
13:00Tue 	 11c 	 14%
14:00Tue 	 11c 	 18%
15:00Tue 	 10c 	 22%
16:00Tue 	 10c 	 14%
17:00Tue 	 9c 	 6%
18:00Tue 	 9c 	 3%
19:00Tue 	 9c 	 3%
20:00Tue 	 8c 	 5%
21:00Tue 	 8c 	 7%
22:00Tue 	 7c 	 5%
23:00Tue 	 7c 	 3%


00:00Tue 	 8c 	 21%
01:00Tue 	 8c 	 21%
02:00Tue 	 8c 	 22%
03:00Tue 	 8c 	 24%
04:00Tue 	 8c 	 24%
05:00Tue 	 8c 	 23%
06:00Tue 	 8c 	 23%
07:00Tue 	 8c 	 23%
08:00Tue 	 9c 	 23%
09:00Tue 	 9c 	 23%
10:00Tue 	 9c 	 21%
11:00Tue 	 10c 	 18%
12:00Tue 	 10c 	 16%
13:00Tue 	 11c 	 14%
14:00Tue 	 11c 	 18%
15:00Tue 	 10c 	 22%
16:00Tue 	 10c 	 14%
17:00Tue 	 9c 	 6%
18:00Tue 	 9c 	 3%
19:00Tue 	 9c 	 3%
20:00Tue 	 8c 	 5%
21:00Tue 	 8c 	 7%
22:00Tue 	 7c 	 5%
23:00Tue 	 7c 	 3%


00:00Tue 	 8c 	 21%
01:00Tue 	 8c 	 21%
02:00Tue 	 8c 	 22%
03:00Tue 	 8c 	 24%
04:00Tue 	 8c 	 24%
05:00Tue 	 8c 	 23%
06:00Tue 	 8c 	 23%
07:00Tue 	 8c 	 23%
08:00Tue 	 9c 	 23%
09:00Tue 	 9c 	 23%
10:00Tue 	 9c 	 21%
11:00Tue 	 10c 	 18%
12:00Tue 	 10c 	 16%
13:00Tue 	 11c 	 14%
14:00Tue 	 11c 	 18%
15:00Tue 	 10c 	 22%
16:00Tue 	 10c 	 14%
17:00Tue 	 9c 	 6%
18:00Tue 	 9c 	 3%
19:00Tue 	 9c 	 3%
20:00Tue 	 8c 	 5%
21:00Tue 	 8c 	 7%
22:00Tue 	 7c 	 5%
23:00Tue 	 7c 	 3%


00:00Tue 	 8c 	 21%
01:00Tue 	 8c 	 21%
02:00Tue 	 8c 	 22%
03:00Tue 	 8c 	 24%
04:00Tue 	 8c 	 24%
05:00Tue 	 8c 	 23%
06:00Tue 	 8c 	 23%
07:00Tue 	 8c 	 23%
08:00Tue 	 9c 	 23%
09:00Tue 	 9c 	 23%
10:00Tue 	 9c 	 21%
11:00Tue 	 10c 	 18%
12:00Tue 	 10c 	 16%
13:00Tue 	 11c 	 14%
14:00Tue 	 11c 	 18%
15:00Tue 	 10c 	 22%
16:00Tue 	 10c 	 14%
17:00Tue 	 9c 	 6%
18:00Tue 	 9c 	 3%
19:00Tue 	 9c 	 3%
20:00Tue 	 8c 	 5%
21:00Tue 	 8c 	 7%
22:00Tue 	 7c 	 5%
23:00Tue 	 7c 	 3%


00:00Tue 	 8c 	 21%
01:00Tue 	 8c 	 21%
02:00Tue 	 8c 	 22%
03:00Tue 	 8c 	 24%
04:00Tue 	 8c 	 24%
05:00Tue 	 8c 	 23%
06:00Tue 	 8c 	 23%
07:00Tue 	 8c 	 23%
08:00Tue 	 9c 	 23%
09:00Tue 	 9c 	 23%
10:00Tue 	 9c 	 21%
11:00Tue 	 10c 	 18%
12:00Tue 	 10c 	 16%
13:00Tue 	 11c 	 14%
14:00Tue 	 11c 	 18%
15:00Tue 	 10c 	 22%
16:00Tue 	 10c 	 14%
17:00Tue 	 9c 	 6%
18:00Tue 	 9c 	 3%
19:00Tue 	 9c 	 3%
20:00Tue 	 8c 	 5%
21:00Tue 	 8c 	 7%
22:00Tue 	 7c 	 5%
23:00Tue 	 7c 	 3%


00:00Tue 	 8c 	 21%
01:00Tue 	 8c 	 21%
02:00Tue 	 8c 	 22%
03:00Tue 	 8c 	 24%
04:00Tue 	 8c 	 24%
05:00Tue 	 8c 	 23%
06:00Tue 	 8c 	 23%
07:00Tue 	 8c 	 23%
08:00Tue 	 9c 	 23%
09:00Tue 	 9c 	 23%
10:00Tue 	 9c 	 21%
11:00Tue 	 10c 	 18%
12:00Tue 	 10c 	 16%
13:00Tue 	 11c 	 14%
14:00Tue 	 11c 	 18%
15:00Tue 	 10c 	 22%
16:00Tue 	 10c 	 14%
17:00Tue 	 9c 	 6%
18:00Tue 	 9c 	 3%
19:00Tue 	 9c 	 3%
20:00Tue 	 8c 	 5%
21:00Tue 	 8c 	 7%
22:00Tue 	 7c 	 5%
23:00Tue 	 7c 	 3%


00:00Tue 	 8c 	 21%
01:00Tue 	 8c 	 21%
02:00Tue 	 8c 	 22%
03:00Tue 	 8c 	 24%
04:00Tue 	 8c 	 24%
05:00Tue 	 8c 	 23%
06:00Tue 	 8c 	 23%
07:00Tue 	 8c 	 23%
08:00Tue 	 9c 	 23%
09:00Tue 	 9c 	 23%
10:00Tue 	 9c 	 21%
11:00Tue 	 10c 	 18%
12:00Tue 	 10c 	 16%
13:00Tue 	 11c 	 14%
14:00Tue 	 11c 	 18%
15:00Tue 	 10c 	 22%
16:00Tue 	 10c 	 14%
17:00Tue 	 9c 	 6%
18:00Tue 	 9c 	 3%
19:00Tue 	 9c 	 3%
20:00Tue 	 8c 	 5%
21:00Tue 	 8c 	 7%
22:00Tue 	 7c 	 5%
23:00Tue 	 7c 	 3%


00:00Tue 	 8c 	 21%
01:00Tue 	 8c 	 21%
02:00Tue 	 8c 	 22%
03:00Tue 	 8c 	 24%
04:00Tue 	 8c 	 24%
05:00Tue 	 8c 	 23%
06:00Tue 	 8c 	 23%
07:00Tue 	 8c 	 23%
08:00Tue 	 9c 	 23%
09:00Tue 	 9c 	 23%
10:00Tue 	 9c 	 21%
11:00Tue 	 10c 	 18%
12:00Tue 	 10c 	 16%
13:00Tue 	 11c 	 14%
14:00Tue 	 11c 	 18%
15:00Tue 	 10c 	 22%
16:00Tue 	 10c 	 14%
17:00Tue 	 9c 	 6%
18:00Tue 	 9c 	 3%
19:00Tue 	 9c 	 3%
20:00Tue 	 8c 	 5%
21:00Tue 	 8c 	 7%
22:00Tue 	 7c 	 5%
23:00Tue 	 7c 	 3%


00:00Tue 	 8c 	 21%
01:00Tue 	 8c 	 21%
02:00Tue 	 8c 	 22%
03:00Tue 	 8c 	 24%
04:00Tue 	 8c 	 24%
05:00Tue 	 8c 	 23%
06:00Tue 	 8c 	 23%
07:00Tue 	 8c 	 23%
08:00Tue 	 9c 	 23%
09:00Tue 	 9c 	 23%
10:00Tue 	 9c 	 21%
11:00Tue 	 10c 	 18%
12:00Tue 	 10c 	 16%
13:00Tue 	 11c 	 14%
14:00Tue 	 11c 	 18%
15:00Tue 	 10c 	 22%
16:00Tue 	 10c 	 14%
17:00Tue 	 9c 	 6%
18:00Tue 	 9c 	 3%
19:00Tue 	 9c 	 3%
20:00Tue 	 8c 	 5%
21:00Tue 	 8c 	 7%
22:00Tue 	 7c 	 5%
23:00Tue 	 7c 	 3%


00:00Tue 	 8c 	 21%
01:00Tue 	 8c 	 21%
02:00Tue 	 8c 	 22%
03:00Tue 	 8c 	 24%
04:00Tue 	 8c 	 24%
05:00Tue 	 8c 	 23%
06:00Tue 	 8c 	 23%
07:00Tue 	 8c 	 23%
08:00Tue 	 9c 	 23%
09:00Tue 	 9c 	 23%
10:00Tue 	 9c 	 21%
11:00Tue 	 10c 	 18%
12:00Tue 	 10c 	 16%
13:00Tue 	 11c 	 14%
14:00Tue 	 11c 	 18%
15:00Tue 	 10c 	 22%
16:00Tue 	 10c 	 14%
17:00Tue 	 9c 	 6%
18:00Tue 	 9c 	 3%
19:00Tue 	 9c 	 3%
20:00Tue 	 8c 	 5%
21:00Tue 	 8c 	 7%
22:00Tue 	 7c 	 5%
23:00Tue 	 7c 	 3%


00:00Tue 	 8c 	 21%
01:00Tue 	 8c 	 21%
02:00Tue 	 8c 	 22%
03:00Tue 	 8c 	 24%
04:00Tue 	 8c 	 24%
05:00Tue 	 8c 	 23%
06:00Tue 	 8c 	 23%
07:00Tue 	 8c 	 23%
08:00Tue 	 9c 	 23%
09:00Tue 	 9c 	 23%
10:00Tue 	 9c 	 21%
11:00Tue 	 10c 	 18%
12:00Tue 	 10c 	 16%
13:00Tue 	 11c 	 14%
14:00Tue 	 11c 	 18%
15:00Tue 	 10c 	 22%
16:00Tue 	 10c 	 14%
17:00Tue 	 9c 	 6%
18:00Tue 	 9c 	 3%
19:00Tue 	 9c 	 3%
20:00Tue 	 8c 	 5%
21:00Tue 	 8c 	 7%
22:00Tue 	 7c 	 5%
23:00Tue 	 7c 	 3%


00:00Tue 	 8c 	 21%
01:00Tue 	 8c 	 21%
02:00Tue 	 8c 	 22%
03:00Tue 	 8c 	 24%
04:00Tue 	 8c 	 24%
05:00Tue 	 8c 	 23%
06:00Tue 	 8c 	 23%
07:00Tue 	 8c 	 23%
08:00Tue 	 9c 	 23%
09:00Tue 	 9c 	 23%
10:00Tue 	 9c 	 21%
11:00Tue 	 10c 	 18%
12:00Tue 	 10c 	 16%
13:00Tue 	 11c 	 14%
14:00Tue 	 11c 	 18%
15:00Tue 	 10c 	 22%
16:00Tue 	 10c 	 14%
17:00Tue 	 9c 	 6%
18:00Tue 	 9c 	 3%
19:00Tue 	 9c 	 3%
20:00Tue 	 8c 	 5%
21:00Tue 	 8c 	 7%
22:00Tue 	 7c 	 5%
23:00Tue 	 7c 	 3%


00:00Tue 	 8c 	 21%
01:00Tue 	 8c 	 21%
02:00Tue 	 8c 	 22%
03:00Tue 	 8c 	 24%
04:00Tue 	 8c 	 24%
05:00Tue 	 8c 	 23%
06:00Tue 	 8c 	 23%
07:00Tue 	 8c 	 23%
08:00Tue 	 9c 	 23%
09:00Tue 	 9c 	 23%
10:00Tue 	 9c 	 21%
11:00Tue 	 10c 	 18%
12:00Tue 	 10c 	 16%
13:00Tue 	 11c 	 14%
14:00Tue 	 11c 	 18%
15:00Tue 	 10c 	 22%
16:00Tue 	 10c 	 14%
17:00Tue 	 9c 	 6%
18:00Tue 	 9c 	 3%
19:00Tue 	 9c 	 3%
20:00Tue 	 8c 	 5%
21:00Tue 	 8c 	 7%
22:00Tue 	 7c 	 5%
23:00Tue 	 7c 	 3%


00:00Tue 	 8c 	 21%
01:00Tue 	 8c 	 21%
02:00Tue 	 8c 	 22%
03:00Tue 	 8c 	 24%
04:00Tue 	 8c 	 24%
05:00Tue 	 8c 	 23%
06:00Tue 	 8c 	 23%
07:00Tue 	 8c 	 23%
08:00Tue 	 9c 	 23%
09:00Tue 	 9c 	 23%
10:00Tue 	 9c 	 21%
11:00Tue 	 10c 	 18%
12:00Tue 	 10c 	 16%
13:00Tue 	 11c 	 14%
14:00Tue 	 11c 	 18%
15:00Tue 	 10c 	 22%
16:00Tue 	 10c 	 14%
17:00Tue 	 9c 	 6%
18:00Tue 	 9c 	 3%
19:00Tue 	 9c 	 3%
20:00Tue 	 8c 	 5%
21:00Tue 	 8c 	 7%
22:00Tue 	 7c 	 5%
23:00Tue 	 7c 	 3%


00:00Tue 	 8c 	 21%
01:00Tue 	 8c 	 21%
02:00Tue 	 8c 	 22%
03:00Tue 	 8c 	 24%
04:00Tue 	 8c 	 24%
05:00Tue 	 8c 	 23%
06:00Tue 	 8c 	 23%
07:00Tue 	 8c 	 23%
08:00Tue 	 9c 	 23%
09:00Tue 	 9c 	 23%
10:00Tue 	 9c 	 21%
11:00Tue 	 10c 	 18%
12:00Tue 	 10c 	 16%
13:00Tue 	 11c 	 14%
14:00Tue 	 11c 	 18%
15:00Tue 	 10c 	 22%
16:00Tue 	 10c 	 14%
17:00Tue 	 9c 	 6%
18:00Tue 	 9c 	 3%
19:00Tue 	 9c 	 3%
20:00Tue 	 8c 	 5%
21:00Tue 	 8c 	 7%
22:00Tue 	 7c 	 5%
23:00Tue 	 7c 	 3%


00:00Tue 	 8c 	 21%
01:00Tue 	 8c 	 21%
02:00Tue 	 8c 	 22%
03:00Tue 	 8c 	 24%
04:00Tue 	 8c 	 24%
05:00Tue 	 8c 	 23%
06:00Tue 	 8c 	 23%
07:00Tue 	 8c 	 23%
08:00Tue 	 9c 	 23%
09:00Tue 	 9c 	 23%
10:00Tue 	 9c 	 21%
11:00Tue 	 10c 	 18%
12:00Tue 	 10c 	 16%
13:00Tue 	 11c 	 14%
14:00Tue 	 11c 	 18%
15:00Tue 	 10c 	 22%
16:00Tue 	 10c 	 14%
17:00Tue 	 9c 	 6%
18:00Tue 	 9c 	 3%
19:00Tue 	 9c 	 3%
20:00Tue 	 8c 	 5%
21:00Tue 	 8c 	 7%
22:00Tue 	 7c 	 5%
23:00Tue 	 7c 	 3%


00:00Tue 	 8c 	 21%
01:00Tue 	 8c 	 21%
02:00Tue 	 8c 	 22%
03:00Tue 	 8c 	 24%
04:00Tue 	 8c 	 24%
05:00Tue 	 8c 	 23%
06:00Tue 	 8c 	 23%
07:00Tue 	 8c 	 23%
08:00Tue 	 9c 	 23%
09:00Tue 	 9c 	 23%
10:00Tue 	 9c 	 21%
11:00Tue 	 10c 	 18%
12:00Tue 	 10c 	 16%
13:00Tue 	 11c 	 14%
14:00Tue 	 11c 	 18%
15:00Tue 	 10c 	 22%
16:00Tue 	 10c 	 14%
17:00Tue 	 9c 	 6%
18:00Tue 	 9c 	 3%
19:00Tue 	 9c 	 3%
20:00Tue 	 8c 	 5%
21:00Tue 	 8c 	 7%
22:00Tue 	 7c 	 5%
23:00Tue 	 7c 	 3%


00:00Tue 	 8c 	 21%
01:00Tue 	 8c 	 21%
02:00Tue 	 8c 	 22%
03:00Tue 	 8c 	 24%
04:00Tue 	 8c 	 24%
05:00Tue 	 8c 	 23%
06:00Tue 	 8c 	 23%
07:00Tue 	 8c 	 23%
08:00Tue 	 9c 	 23%
09:00Tue 	 9c 	 23%
10:00Tue 	 9c 	 21%
11:00Tue 	 10c 	 18%
12:00Tue 	 10c 	 16%
13:00Tue 	 11c 	 14%
14:00Tue 	 11c 	 18%
15:00Tue 	 10c 	 22%
16:00Tue 	 10c 	 14%
17:00Tue 	 9c 	 6%
18:00Tue 	 9c 	 3%
19:00Tue 	 9c 	 3%
20:00Tue 	 8c 	 5%
21:00Tue 	 8c 	 7%
22:00Tue 	 7c 	 5%
23:00Tue 	 7c 	 3%


00:00Tue 	 8c 	 21%
01:00Tue 	 8c 	 21%
02:00Tue 	 8c 	 22%
03:00Tue 	 8c 	 24%
04:00Tue 	 8c 	 24%
05:00Tue 	 8c 	 23%
06:00Tue 	 8c 	 23%
07:00Tue 	 8c 	 23%
08:00Tue 	 9c 	 23%
09:00Tue 	 9c 	 23%
10:00Tue 	 9c 	 21%
11:00Tue 	 10c 	 18%
12:00Tue 	 10c 	 16%
13:00Tue 	 11c 	 14%
14:00Tue 	 11c 	 18%
15:00Tue 	 10c 	 22%
16:00Tue 	 10c 	 14%
17:00Tue 	 9c 	 6%
18:00Tue 	 9c 	 3%
19:00Tue 	 9c 	 5%
20:00Tue 	 9c 	 11%
21:00Tue 	 8c 	 14%
22:00Tue 	 8c 	 12%
23:00Tue 	 7c 	 8%


00:00Tue 	 8c 	 21%
01:00Tue 	 8c 	 21%
02:00Tue 	 8c 	 22%
03:00Tue 	 8c 	 24%
04:00Tue 	 8c 	 24%
05:00Tue 	 8c 	 23%
06:00Tue 	 8c 	 23%
07:00Tue 	 8c 	 23%
08:00Tue 	 9c 	 23%
09:00Tue 	 9c 	 23%
10:00Tue 	 9c 	 21%
11:00Tue 	 10c 	 18%
12:00Tue 	 10c 	 16%
13:00Tue 	 11c 	 14%
14:00Tue 	 11c 	 18%
15:00Tue 	 10c 	 22%
16:00Tue 	 10c 	 14%
17:00Tue 	 9c 	 6%
18:00Tue 	 9c 	 3%
19:00Tue 	 9c 	 5%
20:00Tue 	 9c 	 11%
21:00Tue 	 8c 	 14%
22:00Tue 	 8c 	 12%
23:00Tue 	 7c 	 8%


00:00Tue 	 8c 	 21%
01:00Tue 	 8c 	 21%
02:00Tue 	 8c 	 22%
03:00Tue 	 8c 	 24%
04:00Tue 	 8c 	 24%
05:00Tue 	 8c 	 23%
06:00Tue 	 8c 	 23%
07:00Tue 	 8c 	 23%
08:00Tue 	 9c 	 23%
09:00Tue 	 9c 	 23%
10:00Tue 	 9c 	 21%
11:00Tue 	 10c 	 18%
12:00Tue 	 10c 	 16%
13:00Tue 	 11c 	 14%
14:00Tue 	 11c 	 18%
15:00Tue 	 10c 	 22%
16:00Tue 	 10c 	 14%
17:00Tue 	 9c 	 6%
18:00Tue 	 9c 	 3%
19:00Tue 	 9c 	 5%
20:00Tue 	 9c 	 11%
21:00Tue 	 8c 	 14%
22:00Tue 	 8c 	 12%
23:00Tue 	 7c 	 8%


00:00Tue 	 8c 	 21%
01:00Tue 	 8c 	 21%
02:00Tue 	 8c 	 22%
03:00Tue 	 8c 	 24%
04:00Tue 	 8c 	 24%
05:00Tue 	 8c 	 23%
06:00Tue 	 8c 	 23%
07:00Tue 	 8c 	 23%
08:00Tue 	 9c 	 23%
09:00Tue 	 9c 	 23%
10:00Tue 	 9c 	 21%
11:00Tue 	 10c 	 18%
12:00Tue 	 10c 	 16%
13:00Tue 	 11c 	 14%
14:00Tue 	 11c 	 18%
15:00Tue 	 10c 	 22%
16:00Tue 	 10c 	 14%
17:00Tue 	 9c 	 6%
18:00Tue 	 9c 	 3%
19:00Tue 	 9c 	 5%
20:00Tue 	 9c 	 11%
21:00Tue 	 8c 	 14%
22:00Tue 	 8c 	 12%
23:00Tue 	 7c 	 8%


00:00Tue 	 8c 	 21%
01:00Tue 	 8c 	 21%
02:00Tue 	 8c 	 22%
03:00Tue 	 8c 	 24%
04:00Tue 	 8c 	 24%
05:00Tue 	 8c 	 23%
06:00Tue 	 8c 	 23%
07:00Tue 	 8c 	 23%
08:00Tue 	 9c 	 23%
09:00Tue 	 9c 	 23%
10:00Tue 	 9c 	 21%
11:00Tue 	 10c 	 18%
12:00Tue 	 10c 	 16%
13:00Tue 	 11c 	 14%
14:00Tue 	 11c 	 18%
15:00Tue 	 10c 	 22%
16:00Tue 	 10c 	 14%
17:00Tue 	 9c 	 6%
18:00Tue 	 9c 	 3%
19:00Tue 	 9c 	 5%
20:00Tue 	 9c 	 11%
21:00Tue 	 8c 	 14%
22:00Tue 	 8c 	 12%
23:00Tue 	 7c 	 8%


00:00Tue 	 8c 	 47%
01:00Tue 	 8c 	 21%
02:00Tue 	 8c 	 22%
03:00Tue 	 8c 	 24%
04:00Tue 	 8c 	 24%
05:00Tue 	 8c 	 23%
06:00Tue 	 8c 	 23%
07:00Tue 	 8c 	 23%
08:00Tue 	 9c 	 23%
09:00Tue 	 9c 	 23%
10:00Tue 	 9c 	 21%
11:00Tue 	 10c 	 18%
12:00Tue 	 10c 	 16%
13:00Tue 	 11c 	 14%
14:00Tue 	 11c 	 18%
15:00Tue 	 10c 	 22%
16:00Tue 	 10c 	 14%
17:00Tue 	 9c 	 6%
18:00Tue 	 9c 	 3%
19:00Tue 	 9c 	 5%
20:00Tue 	 9c 	 11%
21:00Tue 	 8c 	 14%
22:00Tue 	 8c 	 12%
23:00Tue 	 7c 	 8%


00:00Tue 	 8c 	 47%
01:00Tue 	 8c 	 21%
02:00Tue 	 8c 	 22%
03:00Tue 	 8c 	 24%
04:00Tue 	 8c 	 24%
05:00Tue 	 8c 	 23%
06:00Tue 	 8c 	 23%
07:00Tue 	 8c 	 23%
08:00Tue 	 9c 	 23%
09:00Tue 	 9c 	 23%
10:00Tue 	 9c 	 21%
11:00Tue 	 10c 	 18%
12:00Tue 	 10c 	 16%
13:00Tue 	 11c 	 14%
14:00Tue 	 11c 	 18%
15:00Tue 	 10c 	 22%
16:00Tue 	 10c 	 14%
17:00Tue 	 9c 	 6%
18:00Tue 	 9c 	 3%
19:00Tue 	 9c 	 5%
20:00Tue 	 9c 	 11%
21:00Tue 	 8c 	 14%
22:00Tue 	 8c 	 12%
23:00Tue 	 7c 	 8%


00:00Tue 	 8c 	 47%
01:00Tue 	 8c 	 21%
02:00Tue 	 8c 	 22%
03:00Tue 	 8c 	 24%
04:00Tue 	 8c 	 24%
05:00Tue 	 8c 	 23%
06:00Tue 	 8c 	 23%
07:00Tue 	 8c 	 23%
08:00Tue 	 9c 	 23%
09:00Tue 	 9c 	 23%
10:00Tue 	 9c 	 21%
11:00Tue 	 10c 	 18%
12:00Tue 	 10c 	 16%
13:00Tue 	 11c 	 14%
14:00Tue 	 11c 	 18%
15:00Tue 	 10c 	 22%
16:00Tue 	 10c 	 14%
17:00Tue 	 9c 	 6%
18:00Tue 	 9c 	 3%
19:00Tue 	 9c 	 5%
20:00Tue 	 9c 	 11%
21:00Tue 	 8c 	 14%
22:00Tue 	 8c 	 12%
23:00Tue 	 7c 	 8%


00:00Tue 	 8c 	 47%
01:00Tue 	 8c 	 21%
02:00Tue 	 8c 	 22%
03:00Tue 	 8c 	 24%
04:00Tue 	 8c 	 24%
05:00Tue 	 8c 	 23%
06:00Tue 	 8c 	 23%
07:00Tue 	 8c 	 23%
08:00Tue 	 9c 	 23%
09:00Tue 	 9c 	 23%
10:00Tue 	 9c 	 21%
11:00Tue 	 10c 	 18%
12:00Tue 	 10c 	 16%
13:00Tue 	 11c 	 14%
14:00Tue 	 11c 	 18%
15:00Tue 	 10c 	 22%
16:00Tue 	 10c 	 14%
17:00Tue 	 9c 	 6%
18:00Tue 	 9c 	 3%
19:00Tue 	 9c 	 5%
20:00Tue 	 9c 	 11%
21:00Tue 	 8c 	 14%
22:00Tue 	 8c 	 12%
23:00Tue 	 7c 	 8%


00:00Tue 	 8c 	 1%
01:00Tue 	 8c 	 7%
02:00Tue 	 8c 	 25%
03:00Tue 	 8c 	 23%
04:00Tue 	 8c 	 23%
05:00Tue 	 8c 	 23%
06:00Tue 	 8c 	 23%
07:00Tue 	 8c 	 23%
08:00Tue 	 9c 	 23%
09:00Tue 	 9c 	 23%
10:00Tue 	 9c 	 21%
11:00Tue 	 10c 	 18%
12:00Tue 	 10c 	 16%
13:00Tue 	 11c 	 14%
14:00Tue 	 11c 	 18%
15:00Tue 	 10c 	 22%
16:00Tue 	 10c 	 14%
17:00Tue 	 9c 	 6%
18:00Tue 	 9c 	 3%
19:00Tue 	 9c 	 7%
20:00Tue 	 9c 	 14%
21:00Tue 	 8c 	 18%
22:00Tue 	 8c 	 16%
23:00Tue 	 7c 	 13%


00:00Tue 	 8c 	 1%
01:00Tue 	 8c 	 7%
02:00Tue 	 8c 	 25%
03:00Tue 	 8c 	 23%
04:00Tue 	 8c 	 23%
05:00Tue 	 8c 	 23%
06:00Tue 	 8c 	 23%
07:00Tue 	 8c 	 23%
08:00Tue 	 9c 	 23%
09:00Tue 	 9c 	 23%
10:00Tue 	 9c 	 21%
11:00Tue 	 10c 	 18%
12:00Tue 	 10c 	 16%
13:00Tue 	 11c 	 14%
14:00Tue 	 11c 	 18%
15:00Tue 	 10c 	 22%
16:00Tue 	 10c 	 14%
17:00Tue 	 9c 	 6%
18:00Tue 	 9c 	 3%
19:00Tue 	 9c 	 7%
20:00Tue 	 9c 	 14%
21:00Tue 	 8c 	 18%
22:00Tue 	 8c 	 16%
23:00Tue 	 7c 	 13%


00:00Tue 	 8c 	 1%
01:00Tue 	 8c 	 7%
02:00Tue 	 8c 	 25%
03:00Tue 	 8c 	 23%
04:00Tue 	 8c 	 23%
05:00Tue 	 8c 	 23%
06:00Tue 	 8c 	 23%
07:00Tue 	 8c 	 23%
08:00Tue 	 9c 	 23%
09:00Tue 	 9c 	 23%
10:00Tue 	 9c 	 21%
11:00Tue 	 10c 	 18%
12:00Tue 	 10c 	 16%
13:00Tue 	 11c 	 14%
14:00Tue 	 11c 	 18%
15:00Tue 	 10c 	 22%
16:00Tue 	 10c 	 14%
17:00Tue 	 9c 	 6%
18:00Tue 	 9c 	 3%
19:00Tue 	 9c 	 7%
20:00Tue 	 9c 	 14%
21:00Tue 	 8c 	 18%
22:00Tue 	 8c 	 16%
23:00Tue 	 7c 	 13%


00:00Tue 	 8c 	 29%
01:00Tue 	 8c 	 30%
02:00Tue 	 7c 	 32%
03:00Tue 	 7c 	 34%
04:00Tue 	 7c 	 32%
05:00Tue 	 7c 	 27%
00:00Tue 	 8c 	 29%
01:00Tue 	 8c 	 30%
02:00Tue 	 7c 	 32%
03:00Tue 	 7c 	 34%
04:00Tue 	 7c 	 32%
05:00Tue 	 7c 	 27%
00:00Tue 	 8c 	 29%
01:00Tue 	 8c 	 30%
02:00Tue 	 7c 	 32%
03:00Tue 	 7c 	 34%
04:00Tue 	 7c 	 32%
05:00Tue 	 7c 	 27%
00:00Tue 	 8c 	 29%
01:00Tue 	 8c 	 30%
02:00Tue 	 7c 	 32%
03:00Tue 	 7c 	 34%
04:00Tue 	 7c 	 32%
05:00Tue 	 7c 	 27%
00:00Tue 	 8c 	 29%
01:00Tue 	 8c 	 30%
02:00Tue 	 7c 	 32%
03:00Tue 	 7c 	 34%
04:00Tue 	 7c 	 32%
05:00Tue 	 7c 	 27%
00:00Tue 	 8c 	 29%
01:00Tue 	 8c 	 30%
02:00Tue 	 7c 	 32%
03:00Tue 	 7c 	 34%
04:00Tue 	 7c 	 32%
05:00Tue 	 7c 	 27%
00:00Tue 	 8c 	 29%
01:00Tue 	 8c 	 30%
02:00Tue 	 7c 	 32%
03:00Tue 	 7c 	 34%
04:00Tue 	 7c 	 32%
05:00Tue 	 7c 	 27%
00:00Tue 	 8c 	 29%
01:00Tue 	 8c 	 30%
02:00Tue 	 7c 	 32%
03:00Tue 	 7c 	 34%
04:00Tue 	 7c 	 32%
05:00Tue 	 7c 	 27%
00:00Tue 	 8c 	 29%
01:00Tue 	 8c 	 30%
02:00Tue 	 7c 	 32%
03:00Tue 	 7c 	 34%
04:00Tue 	 7c 	 32%
05:00Tue 	 7c 	 27%
00:00Tue 	 8c 	 29%
01:00Tue 	 8c 	 30%
02:00Tue 	 7c 	 32%
03:00Tue 	 7c 	 34%
04:00Tue 	 7c 	 32%
05:00Tue 	 7c 	 27%
00:00Tue 	 8c 	 29%
01:00Tue 	 8c 	 30%
02:00Tue 	 7c 	 32%
03:00Tue 	 7c 	 34%
04:00Tue 	 7c 	 32%
05:00Tue 	 7c 	 27%
00:00Tue 	 8c 	 29%
01:00Tue 	 8c 	 30%
02:00Tue 	 7c 	 32%
03:00Tue 	 7c 	 34%
04:00Tue 	 7c 	 32%
05:00Tue 	 7c 	 27%
00:00Tue 	 8c 	 29%
01:00Tue 	 8c 	 30%
02:00Tue 	 7c 	 32%
03:00Tue 	 7c 	 34%
04:00Tue 	 7c 	 32%
05:00Tue 	 7c 	 27%
00:00Tue 	 8c 	 29%
01:00Tue 	 8c 	 30%
02:00Tue 	 7c 	 32%
03:00Tue 	 7c 	 34%
04:00Tue 	 7c 	 32%
05:00Tue 	 7c 	 27%
00:00Tue 	 8c 	 29%
01:00Tue 	 8c 	 30%
02:00Tue 	 7c 	 32%
03:00Tue 	 7c 	 34%
04:00Tue 	 7c 	 32%
05:00Tue 	 7c 	 27%
00:00Tue 	 8c 	 29%
01:00Tue 	 8c 	 30%
02:00Tue 	 7c 	 32%
03:00Tue 	 7c 	 34%
04:00Tue 	 7c 	 32%
05:00Tue 	 7c 	 27%
00:00Tue 	 8c 	 29%
01:00Tue 	 8c 	 30%
02:00Tue 	 7c 	 32%
03:00Tue 	 7c 	 34%
04:00Tue 	 7c 	 32%
05:00Tue 	 7c 	 27%
00:00Tue 	 8c 	 29%
01:00Tue 	 8c 	 30%
02:00Tue 	 7c 	 32%
03:00Tue 	 7c 	 34%
04:00Tue 	 7c 	 32%
05:00Tue 	 7c 	 27%
00:00Tue 	 8c 	 29%
01:00Tue 	 8c 	 30%
02:00Tue 	 7c 	 32%
03:00Tue 	 7c 	 34%
04:00Tue 	 7c 	 32%
05:00Tue 	 7c 	 27%
00:00Tue 	 8c 	 29%
01:00Tue 	 8c 	 30%
02:00Tue 	 7c 	 32%
03:00Tue 	 7c 	 34%
04:00Tue 	 7c 	 32%
05:00Tue 	 7c 	 27%
00:00Tue 	 8c 	 29%
01:00Tue 	 8c 	 30%
02:00Tue 	 7c 	 32%
03:00Tue 	 7c 	 34%
04:00Tue 	 7c 	 32%
05:00Tue 	 7c 	 27%
