# /home/pi/Documents/bbc-weather-predictions/data/Aug23Fri/bbcweather_Thursday22ndAugust_2019-08-23_0000.txt
# /home/pi/Documents/bbc-weather-predictions/data/Aug23Fri/bbcweather_Thursday22ndAugust_2019-08-23_0015.txt
# /home/pi/Documents/bbc-weather-predictions/data/Aug23Fri/bbcweather_Thursday22ndAugust_2019-08-23_0030.txt
# /home/pi/Documents/bbc-weather-predictions/data/Aug23Fri/bbcweather_Thursday22ndAugust_2019-08-23_0045.txt
# /home/pi/Documents/bbc-weather-predictions/data/Aug23Fri/bbcweather_Thursday22ndAugust_2019-08-23_0100.txt
# /home/pi/Documents/bbc-weather-predictions/data/Aug23Fri/bbcweather_Thursday22ndAugust_2019-08-23_0115.txt
# /home/pi/Documents/bbc-weather-predictions/data/Aug23Fri/bbcweather_Thursday22ndAugust_2019-08-23_0130.txt
# /home/pi/Documents/bbc-weather-predictions/data/Aug23Fri/bbcweather_Thursday22ndAugust_2019-08-23_0145.txt
# /home/pi/Documents/bbc-weather-predictions/data/Aug23Fri/bbcweather_Thursday22ndAugust_2019-08-23_0200.txt
# /home/pi/Documents/bbc-weather-predictions/data/Aug23Fri/bbcweather_Thursday22ndAugust_2019-08-23_0215.txt
# /home/pi/Documents/bbc-weather-predictions/data/Aug23Fri/bbcweather_Thursday22ndAugust_2019-08-23_0230.txt
# /home/pi/Documents/bbc-weather-predictions/data/Aug23Fri/bbcweather_Thursday22ndAugust_2019-08-23_0245.txt
# /home/pi/Documents/bbc-weather-predictions/data/Aug23Fri/bbcweather_Thursday22ndAugust_2019-08-23_0300.txt
# /home/pi/Documents/bbc-weather-predictions/data/Aug23Fri/bbcweather_Thursday22ndAugust_2019-08-23_0315.txt
# /home/pi/Documents/bbc-weather-predictions/data/Aug23Fri/bbcweather_Thursday22ndAugust_2019-08-23_0330.txt
# /home/pi/Documents/bbc-weather-predictions/data/Aug23Fri/bbcweather_Thursday22ndAugust_2019-08-23_0345.txt
# /home/pi/Documents/bbc-weather-predictions/data/Aug23Fri/bbcweather_Thursday22ndAugust_2019-08-23_0400.txt
# /home/pi/Documents/bbc-weather-predictions/data/Aug23Fri/bbcweather_Thursday22ndAugust_2019-08-23_0500.txt
# /home/pi/Documents/bbc-weather-predictions/data/Aug23Fri/bbcweather_Thursday22ndAugust_2019-08-23_0515.txt
