
# /home/pi/Documents/bbc-weather-predictions/data/Dec21Mon/bbcweather_Monday21stDecember_2020-12-21_0615.txt
# time 	 temp 	 rain
07:00Mon 	 10c 	 91%
08:00Mon 	 11c 	 73%
09:00Mon 	 11c 	 82%
10:00Mon 	 12c 	 75%
11:00Mon 	 12c 	 68%
12:00Mon 	 13c 	 64%
13:00Mon 	 13c 	 56%
14:00Mon 	 13c 	 49%
15:00Mon 	 12c 	 41%
16:00Mon 	 12c 	 38%
17:00Mon 	 12c 	 40%
18:00Mon 	 11c 	 40%
19:00Mon 	 11c 	 43%
20:00Mon 	 11c 	 42%
21:00Mon 	 11c 	 42%
22:00Mon 	 11c 	 51%
23:00Mon 	 10c 	 63%
00:00Tue 	 10c 	 70%
01:00Tue 	 10c 	 70%
02:00Tue 	 10c 	 70%
03:00Tue 	 10c 	 68%
04:00Tue 	 10c 	 61%
05:00Tue 	 10c 	 54%
06:00Tue 	 10c 	 49%
07:00Tue 	 9c 	 47%
08:00Tue 	 9c 	 44%
09:00Tue 	 10c 	 39%
10:00Tue 	 10c 	 36%
11:00Tue 	 11c 	 34%
12:00Tue 	 11c 	 31%
13:00Tue 	 11c 	 30%
14:00Tue 	 11c 	 30%
15:00Tue 	 11c 	 29%
16:00Tue 	 11c 	 30%
17:00Tue 	 11c 	 34%
18:00Tue 	 10c 	 40%
19:00Tue 	 10c 	 46%
20:00Tue 	 10c 	 50%
21:00Tue 	 10c 	 55%
22:00Tue 	 10c 	 62%
23:00Tue 	 10c 	 68%
00:00Wed 	 10c 	 73%
01:00Wed 	 10c 	 75%
02:00Wed 	 10c 	 77%
03:00Wed 	 10c 	 78%
04:00Wed 	 10c 	 77%
05:00Wed 	 10c 	 76%

# /home/pi/Documents/bbc-weather-predictions/data/Dec21Mon/bbcweather_Monday21stDecember_2020-12-21_0630.txt
# time 	 temp 	 rain
07:00Mon 	 10c 	 91%
08:00Mon 	 11c 	 73%
09:00Mon 	 11c 	 82%
10:00Mon 	 12c 	 75%
11:00Mon 	 12c 	 68%
12:00Mon 	 13c 	 64%
13:00Mon 	 13c 	 56%
14:00Mon 	 13c 	 49%
15:00Mon 	 12c 	 41%
16:00Mon 	 12c 	 38%
17:00Mon 	 12c 	 40%
18:00Mon 	 11c 	 40%
19:00Mon 	 11c 	 43%
20:00Mon 	 11c 	 42%
21:00Mon 	 11c 	 42%
22:00Mon 	 11c 	 51%
23:00Mon 	 10c 	 63%
00:00Tue 	 10c 	 70%
01:00Tue 	 10c 	 70%
02:00Tue 	 10c 	 70%
03:00Tue 	 10c 	 68%
04:00Tue 	 10c 	 61%
05:00Tue 	 10c 	 54%
06:00Tue 	 10c 	 49%
07:00Tue 	 9c 	 47%
08:00Tue 	 9c 	 44%
09:00Tue 	 10c 	 39%
10:00Tue 	 10c 	 36%
11:00Tue 	 11c 	 34%
12:00Tue 	 11c 	 31%
13:00Tue 	 11c 	 30%
14:00Tue 	 11c 	 30%
15:00Tue 	 11c 	 29%
16:00Tue 	 11c 	 30%
17:00Tue 	 11c 	 34%
18:00Tue 	 10c 	 40%
19:00Tue 	 10c 	 46%
20:00Tue 	 10c 	 50%
21:00Tue 	 10c 	 55%
22:00Tue 	 10c 	 62%
23:00Tue 	 10c 	 68%
00:00Wed 	 10c 	 73%
01:00Wed 	 10c 	 75%
02:00Wed 	 10c 	 77%
03:00Wed 	 10c 	 78%
04:00Wed 	 10c 	 77%
05:00Wed 	 10c 	 76%

# /home/pi/Documents/bbc-weather-predictions/data/Dec21Mon/bbcweather_Monday21stDecember_2020-12-21_0645.txt
# time 	 temp 	 rain
07:00Mon 	 10c 	 91%
08:00Mon 	 11c 	 73%
09:00Mon 	 11c 	 82%
10:00Mon 	 12c 	 75%
11:00Mon 	 12c 	 68%
12:00Mon 	 13c 	 64%
13:00Mon 	 13c 	 56%
14:00Mon 	 13c 	 49%
15:00Mon 	 12c 	 41%
16:00Mon 	 12c 	 38%
17:00Mon 	 12c 	 40%
18:00Mon 	 11c 	 40%
19:00Mon 	 11c 	 43%
20:00Mon 	 11c 	 42%
21:00Mon 	 11c 	 42%
22:00Mon 	 11c 	 51%
23:00Mon 	 10c 	 63%
00:00Tue 	 10c 	 70%
01:00Tue 	 10c 	 70%
02:00Tue 	 10c 	 70%
03:00Tue 	 10c 	 68%
04:00Tue 	 10c 	 61%
05:00Tue 	 10c 	 54%
06:00Tue 	 10c 	 49%
07:00Tue 	 9c 	 47%
08:00Tue 	 9c 	 44%
09:00Tue 	 10c 	 39%
10:00Tue 	 10c 	 36%
11:00Tue 	 11c 	 34%
12:00Tue 	 11c 	 31%
13:00Tue 	 11c 	 30%
14:00Tue 	 11c 	 30%
15:00Tue 	 11c 	 29%
16:00Tue 	 11c 	 30%
17:00Tue 	 11c 	 34%
18:00Tue 	 10c 	 40%
19:00Tue 	 10c 	 46%
20:00Tue 	 10c 	 50%
21:00Tue 	 10c 	 55%
22:00Tue 	 10c 	 62%
23:00Tue 	 10c 	 68%
00:00Wed 	 10c 	 73%
01:00Wed 	 10c 	 75%
02:00Wed 	 10c 	 77%
03:00Wed 	 10c 	 78%
04:00Wed 	 10c 	 77%
05:00Wed 	 10c 	 76%

# /home/pi/Documents/bbc-weather-predictions/data/Dec21Mon/bbcweather_Monday21stDecember_2020-12-21_0700.txt
# time 	 temp 	 rain
07:00Mon 	 10c 	 100%
08:00Mon 	 11c 	 95%
09:00Mon 	 11c 	 94%
10:00Mon 	 12c 	 78%
11:00Mon 	 12c 	 85%
12:00Mon 	 12c 	 84%
13:00Mon 	 13c 	 82%
14:00Mon 	 13c 	 79%
15:00Mon 	 13c 	 77%
16:00Mon 	 13c 	 78%
17:00Mon 	 13c 	 82%
18:00Mon 	 13c 	 86%
19:00Mon 	 13c 	 88%
20:00Mon 	 13c 	 87%
21:00Mon 	 13c 	 88%
22:00Mon 	 12c 	 89%
23:00Mon 	 12c 	 88%
00:00Tue 	 11c 	 83%
01:00Tue 	 11c 	 73%
02:00Tue 	 11c 	 57%
03:00Tue 	 11c 	 46%
04:00Tue 	 10c 	 50%
05:00Tue 	 10c 	 52%
06:00Tue 	 9c 	 51%
07:00Tue 	 9c 	 52%
08:00Tue 	 10c 	 55%
09:00Tue 	 10c 	 58%
10:00Tue 	 10c 	 56%
11:00Tue 	 10c 	 54%
12:00Tue 	 11c 	 53%
13:00Tue 	 11c 	 52%
14:00Tue 	 11c 	 45%
15:00Tue 	 11c 	 37%
16:00Tue 	 11c 	 40%
17:00Tue 	 10c 	 43%
18:00Tue 	 10c 	 44%
19:00Tue 	 10c 	 48%
20:00Tue 	 10c 	 50%
21:00Tue 	 10c 	 54%
22:00Tue 	 10c 	 61%
23:00Tue 	 10c 	 68%
00:00Wed 	 10c 	 73%
01:00Wed 	 10c 	 75%
02:00Wed 	 10c 	 77%
03:00Wed 	 10c 	 78%
04:00Wed 	 10c 	 77%
05:00Wed 	 10c 	 76%

# /home/pi/Documents/bbc-weather-predictions/data/Dec21Mon/bbcweather_Monday21stDecember_2020-12-21_0715.txt
# time 	 temp 	 rain
08:00Mon 	 11c 	 95%
09:00Mon 	 11c 	 94%
10:00Mon 	 12c 	 78%
11:00Mon 	 12c 	 85%
12:00Mon 	 12c 	 84%
13:00Mon 	 13c 	 82%
14:00Mon 	 13c 	 79%
15:00Mon 	 13c 	 77%
16:00Mon 	 13c 	 78%
17:00Mon 	 13c 	 82%
18:00Mon 	 13c 	 86%
19:00Mon 	 13c 	 88%
20:00Mon 	 13c 	 87%
21:00Mon 	 13c 	 88%
22:00Mon 	 12c 	 89%
23:00Mon 	 12c 	 88%
00:00Tue 	 11c 	 83%
01:00Tue 	 11c 	 73%
02:00Tue 	 11c 	 57%
03:00Tue 	 11c 	 46%
04:00Tue 	 10c 	 50%
05:00Tue 	 10c 	 52%
06:00Tue 	 9c 	 51%
07:00Tue 	 9c 	 52%
08:00Tue 	 10c 	 55%
09:00Tue 	 10c 	 58%
10:00Tue 	 10c 	 56%
11:00Tue 	 10c 	 54%
12:00Tue 	 11c 	 53%
13:00Tue 	 11c 	 52%
14:00Tue 	 11c 	 45%
15:00Tue 	 11c 	 37%
16:00Tue 	 11c 	 40%
17:00Tue 	 10c 	 43%
18:00Tue 	 10c 	 44%
19:00Tue 	 10c 	 48%
20:00Tue 	 10c 	 50%
21:00Tue 	 10c 	 54%
22:00Tue 	 10c 	 61%
23:00Tue 	 10c 	 68%
00:00Wed 	 10c 	 73%
01:00Wed 	 10c 	 75%
02:00Wed 	 10c 	 77%
03:00Wed 	 10c 	 78%
04:00Wed 	 10c 	 77%
05:00Wed 	 10c 	 76%

# /home/pi/Documents/bbc-weather-predictions/data/Dec21Mon/bbcweather_Monday21stDecember_2020-12-21_0730.txt
# time 	 temp 	 rain
08:00Mon 	 11c 	 95%
09:00Mon 	 11c 	 94%
10:00Mon 	 12c 	 78%
11:00Mon 	 12c 	 85%
12:00Mon 	 12c 	 84%
13:00Mon 	 13c 	 82%
14:00Mon 	 13c 	 79%
15:00Mon 	 13c 	 77%
16:00Mon 	 13c 	 78%
17:00Mon 	 13c 	 82%
18:00Mon 	 13c 	 86%
19:00Mon 	 13c 	 88%
20:00Mon 	 13c 	 87%
21:00Mon 	 13c 	 88%
22:00Mon 	 12c 	 89%
23:00Mon 	 12c 	 88%
00:00Tue 	 11c 	 83%
01:00Tue 	 11c 	 73%
02:00Tue 	 11c 	 57%
03:00Tue 	 11c 	 46%
04:00Tue 	 10c 	 50%
05:00Tue 	 10c 	 52%
06:00Tue 	 9c 	 51%
07:00Tue 	 9c 	 52%
08:00Tue 	 10c 	 55%
09:00Tue 	 10c 	 58%
10:00Tue 	 10c 	 56%
11:00Tue 	 10c 	 54%
12:00Tue 	 11c 	 53%
13:00Tue 	 11c 	 52%
14:00Tue 	 11c 	 45%
15:00Tue 	 11c 	 37%
16:00Tue 	 11c 	 40%
17:00Tue 	 10c 	 43%
18:00Tue 	 10c 	 44%
19:00Tue 	 10c 	 48%
20:00Tue 	 10c 	 50%
21:00Tue 	 10c 	 54%
22:00Tue 	 10c 	 61%
23:00Tue 	 10c 	 68%
00:00Wed 	 10c 	 73%
01:00Wed 	 10c 	 75%
02:00Wed 	 10c 	 77%
03:00Wed 	 10c 	 78%
04:00Wed 	 10c 	 77%
05:00Wed 	 10c 	 76%

# /home/pi/Documents/bbc-weather-predictions/data/Dec21Mon/bbcweather_Monday21stDecember_2020-12-21_0745.txt
# time 	 temp 	 rain
08:00Mon 	 11c 	 95%
09:00Mon 	 11c 	 94%
10:00Mon 	 12c 	 78%
11:00Mon 	 12c 	 85%
12:00Mon 	 12c 	 84%
13:00Mon 	 13c 	 82%
14:00Mon 	 13c 	 79%
15:00Mon 	 13c 	 77%
16:00Mon 	 13c 	 78%
17:00Mon 	 13c 	 82%
18:00Mon 	 13c 	 86%
19:00Mon 	 13c 	 88%
20:00Mon 	 13c 	 87%
21:00Mon 	 13c 	 88%
22:00Mon 	 12c 	 89%
23:00Mon 	 12c 	 88%
00:00Tue 	 11c 	 83%
01:00Tue 	 11c 	 73%
02:00Tue 	 11c 	 57%
03:00Tue 	 11c 	 46%
04:00Tue 	 10c 	 50%
05:00Tue 	 10c 	 52%
06:00Tue 	 9c 	 51%
07:00Tue 	 9c 	 52%
08:00Tue 	 10c 	 55%
09:00Tue 	 10c 	 58%
10:00Tue 	 10c 	 56%
11:00Tue 	 10c 	 54%
12:00Tue 	 11c 	 53%
13:00Tue 	 11c 	 52%
14:00Tue 	 11c 	 45%
15:00Tue 	 11c 	 37%
16:00Tue 	 11c 	 40%
17:00Tue 	 10c 	 43%
18:00Tue 	 10c 	 44%
19:00Tue 	 10c 	 48%
20:00Tue 	 10c 	 50%
21:00Tue 	 10c 	 54%
22:00Tue 	 10c 	 61%
23:00Tue 	 10c 	 68%
00:00Wed 	 10c 	 73%
01:00Wed 	 10c 	 75%
02:00Wed 	 10c 	 77%
03:00Wed 	 10c 	 78%
04:00Wed 	 10c 	 77%
05:00Wed 	 10c 	 76%

# /home/pi/Documents/bbc-weather-predictions/data/Dec21Mon/bbcweather_Monday21stDecember_2020-12-21_0800.txt
# time 	 temp 	 rain
08:00Mon 	 11c 	 95%
09:00Mon 	 11c 	 94%
10:00Mon 	 12c 	 78%
11:00Mon 	 12c 	 85%
12:00Mon 	 12c 	 84%
13:00Mon 	 13c 	 82%
14:00Mon 	 13c 	 79%
15:00Mon 	 13c 	 77%
16:00Mon 	 13c 	 78%
17:00Mon 	 13c 	 82%
18:00Mon 	 13c 	 86%
19:00Mon 	 13c 	 88%
20:00Mon 	 13c 	 87%
21:00Mon 	 13c 	 88%
22:00Mon 	 12c 	 89%
23:00Mon 	 12c 	 88%
00:00Tue 	 11c 	 83%
01:00Tue 	 11c 	 73%
02:00Tue 	 11c 	 57%
03:00Tue 	 11c 	 46%
04:00Tue 	 10c 	 50%
05:00Tue 	 10c 	 52%
06:00Tue 	 9c 	 51%
07:00Tue 	 9c 	 52%
08:00Tue 	 10c 	 55%
09:00Tue 	 10c 	 58%
10:00Tue 	 10c 	 56%
11:00Tue 	 10c 	 54%
12:00Tue 	 11c 	 53%
13:00Tue 	 11c 	 52%
14:00Tue 	 11c 	 45%
15:00Tue 	 11c 	 37%
16:00Tue 	 11c 	 40%
17:00Tue 	 10c 	 43%
18:00Tue 	 10c 	 44%
19:00Tue 	 10c 	 48%
20:00Tue 	 10c 	 50%
21:00Tue 	 10c 	 54%
22:00Tue 	 10c 	 61%
23:00Tue 	 10c 	 68%
00:00Wed 	 10c 	 73%
01:00Wed 	 10c 	 75%
02:00Wed 	 10c 	 77%
03:00Wed 	 10c 	 78%
04:00Wed 	 10c 	 77%
05:00Wed 	 10c 	 76%

# /home/pi/Documents/bbc-weather-predictions/data/Dec21Mon/bbcweather_Monday21stDecember_2020-12-21_0815.txt
# time 	 temp 	 rain
09:00Mon 	 11c 	 96%
10:00Mon 	 12c 	 89%
11:00Mon 	 12c 	 85%
12:00Mon 	 12c 	 84%
13:00Mon 	 13c 	 82%
14:00Mon 	 13c 	 79%
15:00Mon 	 13c 	 77%
16:00Mon 	 13c 	 78%
17:00Mon 	 13c 	 82%
18:00Mon 	 13c 	 86%
19:00Mon 	 13c 	 88%
20:00Mon 	 13c 	 87%
21:00Mon 	 13c 	 88%
22:00Mon 	 12c 	 89%
23:00Mon 	 12c 	 88%
00:00Tue 	 11c 	 83%
01:00Tue 	 11c 	 73%
02:00Tue 	 11c 	 57%
03:00Tue 	 11c 	 46%
04:00Tue 	 10c 	 50%
05:00Tue 	 10c 	 52%
06:00Tue 	 9c 	 51%
07:00Tue 	 9c 	 52%
08:00Tue 	 10c 	 55%
09:00Tue 	 10c 	 58%
10:00Tue 	 10c 	 56%
11:00Tue 	 10c 	 54%
12:00Tue 	 11c 	 53%
13:00Tue 	 11c 	 52%
14:00Tue 	 11c 	 45%
15:00Tue 	 11c 	 37%
16:00Tue 	 11c 	 40%
17:00Tue 	 10c 	 43%
18:00Tue 	 10c 	 44%
19:00Tue 	 10c 	 48%
20:00Tue 	 10c 	 50%
21:00Tue 	 10c 	 54%
22:00Tue 	 10c 	 61%
23:00Tue 	 10c 	 68%
00:00Wed 	 10c 	 73%
01:00Wed 	 10c 	 75%
02:00Wed 	 10c 	 77%
03:00Wed 	 10c 	 78%
04:00Wed 	 10c 	 77%
05:00Wed 	 10c 	 76%

# /home/pi/Documents/bbc-weather-predictions/data/Dec21Mon/bbcweather_Monday21stDecember_2020-12-21_0830.txt
# time 	 temp 	 rain
09:00Mon 	 11c 	 96%
10:00Mon 	 12c 	 89%
11:00Mon 	 12c 	 85%
12:00Mon 	 12c 	 84%
13:00Mon 	 13c 	 82%
14:00Mon 	 13c 	 79%
15:00Mon 	 13c 	 77%
16:00Mon 	 13c 	 78%
17:00Mon 	 13c 	 82%
18:00Mon 	 13c 	 86%
19:00Mon 	 13c 	 88%
20:00Mon 	 13c 	 87%
21:00Mon 	 13c 	 88%
22:00Mon 	 12c 	 89%
23:00Mon 	 12c 	 88%
00:00Tue 	 11c 	 83%
01:00Tue 	 11c 	 73%
02:00Tue 	 11c 	 57%
03:00Tue 	 11c 	 46%
04:00Tue 	 10c 	 50%
05:00Tue 	 10c 	 52%
06:00Tue 	 9c 	 51%
07:00Tue 	 9c 	 52%
08:00Tue 	 10c 	 55%
09:00Tue 	 10c 	 58%
10:00Tue 	 10c 	 56%
11:00Tue 	 10c 	 54%
12:00Tue 	 11c 	 53%
13:00Tue 	 11c 	 52%
14:00Tue 	 11c 	 45%
15:00Tue 	 11c 	 37%
16:00Tue 	 11c 	 40%
17:00Tue 	 10c 	 43%
18:00Tue 	 10c 	 44%
19:00Tue 	 10c 	 48%
20:00Tue 	 10c 	 50%
21:00Tue 	 10c 	 54%
22:00Tue 	 10c 	 61%
23:00Tue 	 10c 	 68%
00:00Wed 	 10c 	 73%
01:00Wed 	 10c 	 75%
02:00Wed 	 10c 	 77%
03:00Wed 	 10c 	 78%
04:00Wed 	 10c 	 77%
05:00Wed 	 10c 	 76%

# /home/pi/Documents/bbc-weather-predictions/data/Dec21Mon/bbcweather_Monday21stDecember_2020-12-21_0845.txt
# time 	 temp 	 rain
09:00Mon 	 11c 	 96%
10:00Mon 	 12c 	 89%
11:00Mon 	 12c 	 85%
12:00Mon 	 12c 	 84%
13:00Mon 	 13c 	 82%
14:00Mon 	 13c 	 79%
15:00Mon 	 13c 	 77%
16:00Mon 	 13c 	 78%
17:00Mon 	 13c 	 82%
18:00Mon 	 13c 	 86%
19:00Mon 	 13c 	 88%
20:00Mon 	 13c 	 87%
21:00Mon 	 13c 	 88%
22:00Mon 	 12c 	 89%
23:00Mon 	 12c 	 88%
00:00Tue 	 11c 	 83%
01:00Tue 	 11c 	 73%
02:00Tue 	 11c 	 57%
03:00Tue 	 11c 	 46%
04:00Tue 	 10c 	 50%
05:00Tue 	 10c 	 52%
06:00Tue 	 9c 	 51%
07:00Tue 	 9c 	 52%
08:00Tue 	 10c 	 55%
09:00Tue 	 10c 	 58%
10:00Tue 	 10c 	 56%
11:00Tue 	 10c 	 54%
12:00Tue 	 11c 	 53%
13:00Tue 	 11c 	 52%
14:00Tue 	 11c 	 45%
15:00Tue 	 11c 	 37%
16:00Tue 	 11c 	 40%
17:00Tue 	 10c 	 43%
18:00Tue 	 10c 	 44%
19:00Tue 	 10c 	 48%
20:00Tue 	 10c 	 50%
21:00Tue 	 10c 	 54%
22:00Tue 	 10c 	 61%
23:00Tue 	 10c 	 68%
00:00Wed 	 10c 	 73%
01:00Wed 	 10c 	 75%
02:00Wed 	 10c 	 77%
03:00Wed 	 10c 	 78%
04:00Wed 	 10c 	 77%
05:00Wed 	 10c 	 76%

# /home/pi/Documents/bbc-weather-predictions/data/Dec21Mon/bbcweather_Monday21stDecember_2020-12-21_0900.txt
# time 	 temp 	 rain
09:00Mon 	 11c 	 96%
10:00Mon 	 12c 	 89%
11:00Mon 	 12c 	 85%
12:00Mon 	 12c 	 84%
13:00Mon 	 13c 	 82%
14:00Mon 	 13c 	 79%
15:00Mon 	 13c 	 77%
16:00Mon 	 13c 	 78%
17:00Mon 	 13c 	 82%
18:00Mon 	 13c 	 86%
19:00Mon 	 13c 	 88%
20:00Mon 	 13c 	 87%
21:00Mon 	 13c 	 88%
22:00Mon 	 12c 	 89%
23:00Mon 	 12c 	 88%
00:00Tue 	 11c 	 83%
01:00Tue 	 11c 	 73%
02:00Tue 	 11c 	 57%
03:00Tue 	 11c 	 46%
04:00Tue 	 10c 	 50%
05:00Tue 	 10c 	 52%
06:00Tue 	 9c 	 51%
07:00Tue 	 9c 	 52%
08:00Tue 	 10c 	 55%
09:00Tue 	 10c 	 58%
10:00Tue 	 10c 	 56%
11:00Tue 	 10c 	 54%
12:00Tue 	 11c 	 53%
13:00Tue 	 11c 	 52%
14:00Tue 	 11c 	 45%
15:00Tue 	 11c 	 37%
16:00Tue 	 11c 	 40%
17:00Tue 	 10c 	 43%
18:00Tue 	 10c 	 44%
19:00Tue 	 10c 	 48%
20:00Tue 	 10c 	 50%
21:00Tue 	 10c 	 54%
22:00Tue 	 10c 	 61%
23:00Tue 	 10c 	 68%
00:00Wed 	 10c 	 73%
01:00Wed 	 10c 	 75%
02:00Wed 	 10c 	 77%
03:00Wed 	 10c 	 78%
04:00Wed 	 10c 	 77%
05:00Wed 	 10c 	 76%

# /home/pi/Documents/bbc-weather-predictions/data/Dec21Mon/bbcweather_Monday21stDecember_2020-12-21_0915.txt
# time 	 temp 	 rain
10:00Mon 	 12c 	 3%
11:00Mon 	 12c 	 21%
12:00Mon 	 12c 	 84%
13:00Mon 	 13c 	 82%
14:00Mon 	 13c 	 79%
15:00Mon 	 13c 	 77%
16:00Mon 	 13c 	 78%
17:00Mon 	 13c 	 82%
18:00Mon 	 13c 	 86%
19:00Mon 	 13c 	 88%
20:00Mon 	 13c 	 87%
21:00Mon 	 13c 	 88%
22:00Mon 	 12c 	 89%
23:00Mon 	 12c 	 88%
00:00Tue 	 11c 	 83%
01:00Tue 	 11c 	 73%
02:00Tue 	 11c 	 57%
03:00Tue 	 11c 	 46%
04:00Tue 	 10c 	 50%
05:00Tue 	 10c 	 52%
06:00Tue 	 9c 	 51%
07:00Tue 	 9c 	 52%
08:00Tue 	 10c 	 55%
09:00Tue 	 10c 	 58%
10:00Tue 	 10c 	 56%
11:00Tue 	 10c 	 54%
12:00Tue 	 11c 	 53%
13:00Tue 	 11c 	 51%
14:00Tue 	 11c 	 44%
15:00Tue 	 11c 	 37%
16:00Tue 	 11c 	 39%
17:00Tue 	 11c 	 43%
18:00Tue 	 10c 	 45%
19:00Tue 	 11c 	 50%
20:00Tue 	 11c 	 54%
21:00Tue 	 11c 	 56%
22:00Tue 	 10c 	 60%
23:00Tue 	 10c 	 64%
00:00Wed 	 10c 	 67%
01:00Wed 	 10c 	 70%
02:00Wed 	 10c 	 65%
03:00Wed 	 10c 	 59%
04:00Wed 	 10c 	 62%
05:00Wed 	 10c 	 62%

# /home/pi/Documents/bbc-weather-predictions/data/Dec21Mon/bbcweather_Monday21stDecember_2020-12-21_0930.txt
# time 	 temp 	 rain
10:00Mon 	 12c 	 3%
11:00Mon 	 12c 	 21%
12:00Mon 	 12c 	 84%
13:00Mon 	 13c 	 82%
14:00Mon 	 13c 	 79%
15:00Mon 	 13c 	 77%
16:00Mon 	 13c 	 78%
17:00Mon 	 13c 	 82%
18:00Mon 	 13c 	 86%
19:00Mon 	 13c 	 88%
20:00Mon 	 13c 	 87%
21:00Mon 	 13c 	 88%
22:00Mon 	 12c 	 89%
23:00Mon 	 12c 	 88%
00:00Tue 	 11c 	 83%
01:00Tue 	 11c 	 73%
02:00Tue 	 11c 	 57%
03:00Tue 	 11c 	 46%
04:00Tue 	 10c 	 50%
05:00Tue 	 10c 	 52%
06:00Tue 	 9c 	 51%
07:00Tue 	 9c 	 52%
08:00Tue 	 10c 	 55%
09:00Tue 	 10c 	 58%
10:00Tue 	 10c 	 56%
11:00Tue 	 10c 	 54%
12:00Tue 	 11c 	 53%
13:00Tue 	 11c 	 51%
14:00Tue 	 11c 	 44%
15:00Tue 	 11c 	 37%
16:00Tue 	 11c 	 39%
17:00Tue 	 11c 	 43%
18:00Tue 	 10c 	 45%
19:00Tue 	 11c 	 50%
20:00Tue 	 11c 	 54%
21:00Tue 	 11c 	 56%
22:00Tue 	 10c 	 60%
23:00Tue 	 10c 	 64%
00:00Wed 	 10c 	 67%
01:00Wed 	 10c 	 70%
02:00Wed 	 10c 	 65%
03:00Wed 	 10c 	 59%
04:00Wed 	 10c 	 62%
05:00Wed 	 10c 	 62%

# /home/pi/Documents/bbc-weather-predictions/data/Dec21Mon/bbcweather_Monday21stDecember_2020-12-21_0945.txt
# time 	 temp 	 rain
10:00Mon 	 12c 	 3%
11:00Mon 	 12c 	 21%
12:00Mon 	 12c 	 84%
13:00Mon 	 13c 	 82%
14:00Mon 	 13c 	 79%
15:00Mon 	 13c 	 77%
16:00Mon 	 13c 	 78%
17:00Mon 	 13c 	 82%
18:00Mon 	 13c 	 86%
19:00Mon 	 13c 	 88%
20:00Mon 	 13c 	 87%
21:00Mon 	 13c 	 88%
22:00Mon 	 12c 	 89%
23:00Mon 	 12c 	 88%
00:00Tue 	 11c 	 83%
01:00Tue 	 11c 	 73%
02:00Tue 	 11c 	 57%
03:00Tue 	 11c 	 46%
04:00Tue 	 10c 	 50%
05:00Tue 	 10c 	 52%
06:00Tue 	 9c 	 51%
07:00Tue 	 9c 	 52%
08:00Tue 	 10c 	 55%
09:00Tue 	 10c 	 58%
10:00Tue 	 10c 	 56%
11:00Tue 	 10c 	 54%
12:00Tue 	 11c 	 53%
13:00Tue 	 11c 	 51%
14:00Tue 	 11c 	 44%
15:00Tue 	 11c 	 37%
16:00Tue 	 11c 	 39%
17:00Tue 	 11c 	 43%
18:00Tue 	 10c 	 45%
19:00Tue 	 11c 	 50%
20:00Tue 	 11c 	 54%
21:00Tue 	 11c 	 56%
22:00Tue 	 10c 	 60%
23:00Tue 	 10c 	 64%
00:00Wed 	 10c 	 67%
01:00Wed 	 10c 	 70%
02:00Wed 	 10c 	 65%
03:00Wed 	 10c 	 59%
04:00Wed 	 10c 	 62%
05:00Wed 	 10c 	 62%

# /home/pi/Documents/bbc-weather-predictions/data/Dec21Mon/bbcweather_Monday21stDecember_2020-12-21_1000.txt
# time 	 temp 	 rain
10:00Mon 	 12c 	 3%
11:00Mon 	 12c 	 21%
12:00Mon 	 12c 	 84%
13:00Mon 	 13c 	 82%
14:00Mon 	 13c 	 79%
15:00Mon 	 13c 	 77%
16:00Mon 	 13c 	 78%
17:00Mon 	 13c 	 82%
18:00Mon 	 13c 	 86%
19:00Mon 	 13c 	 88%
20:00Mon 	 13c 	 87%
21:00Mon 	 13c 	 88%
22:00Mon 	 12c 	 89%
23:00Mon 	 12c 	 88%
00:00Tue 	 11c 	 83%
01:00Tue 	 11c 	 73%
02:00Tue 	 11c 	 57%
03:00Tue 	 11c 	 46%
04:00Tue 	 10c 	 50%
05:00Tue 	 10c 	 52%
06:00Tue 	 9c 	 51%
07:00Tue 	 9c 	 52%
08:00Tue 	 10c 	 55%
09:00Tue 	 10c 	 58%
10:00Tue 	 10c 	 56%
11:00Tue 	 10c 	 54%
12:00Tue 	 11c 	 53%
13:00Tue 	 11c 	 51%
14:00Tue 	 11c 	 44%
15:00Tue 	 11c 	 37%
16:00Tue 	 11c 	 39%
17:00Tue 	 11c 	 43%
18:00Tue 	 10c 	 45%
19:00Tue 	 11c 	 50%
20:00Tue 	 11c 	 54%
21:00Tue 	 11c 	 56%
22:00Tue 	 10c 	 60%
23:00Tue 	 10c 	 64%
00:00Wed 	 10c 	 67%
01:00Wed 	 10c 	 70%
02:00Wed 	 10c 	 65%
03:00Wed 	 10c 	 59%
04:00Wed 	 10c 	 62%
05:00Wed 	 10c 	 62%

# /home/pi/Documents/bbc-weather-predictions/data/Dec21Mon/bbcweather_Monday21stDecember_2020-12-21_1015.txt
# time 	 temp 	 rain
11:00Mon 	 12c 	 4%
12:00Mon 	 12c 	 42%
13:00Mon 	 13c 	 82%
14:00Mon 	 13c 	 79%
15:00Mon 	 13c 	 77%
16:00Mon 	 13c 	 78%
17:00Mon 	 13c 	 82%
18:00Mon 	 13c 	 86%
19:00Mon 	 13c 	 88%
20:00Mon 	 13c 	 87%
21:00Mon 	 13c 	 88%
22:00Mon 	 12c 	 89%
23:00Mon 	 12c 	 88%
00:00Tue 	 11c 	 83%
01:00Tue 	 11c 	 73%
02:00Tue 	 11c 	 57%
03:00Tue 	 11c 	 46%
04:00Tue 	 10c 	 50%
05:00Tue 	 10c 	 52%
06:00Tue 	 9c 	 51%
07:00Tue 	 9c 	 52%
08:00Tue 	 10c 	 55%
09:00Tue 	 10c 	 58%
10:00Tue 	 10c 	 56%
11:00Tue 	 10c 	 54%
12:00Tue 	 11c 	 53%
13:00Tue 	 11c 	 51%
14:00Tue 	 11c 	 44%
15:00Tue 	 11c 	 37%
16:00Tue 	 11c 	 39%
17:00Tue 	 11c 	 43%
18:00Tue 	 10c 	 45%
19:00Tue 	 11c 	 50%
20:00Tue 	 11c 	 54%
21:00Tue 	 11c 	 56%
22:00Tue 	 10c 	 60%
23:00Tue 	 10c 	 64%
00:00Wed 	 10c 	 67%
01:00Wed 	 10c 	 70%
02:00Wed 	 10c 	 65%
03:00Wed 	 10c 	 59%
04:00Wed 	 10c 	 62%
05:00Wed 	 10c 	 62%

# /home/pi/Documents/bbc-weather-predictions/data/Dec21Mon/bbcweather_Monday21stDecember_2020-12-21_1030.txt
# time 	 temp 	 rain
11:00Mon 	 12c 	 4%
12:00Mon 	 12c 	 42%
13:00Mon 	 13c 	 82%
14:00Mon 	 13c 	 79%
15:00Mon 	 13c 	 77%
16:00Mon 	 13c 	 78%
17:00Mon 	 13c 	 82%
18:00Mon 	 13c 	 86%
19:00Mon 	 13c 	 88%
20:00Mon 	 13c 	 87%
21:00Mon 	 13c 	 88%
22:00Mon 	 12c 	 89%
23:00Mon 	 12c 	 88%
00:00Tue 	 11c 	 83%
01:00Tue 	 11c 	 73%
02:00Tue 	 11c 	 57%
03:00Tue 	 11c 	 46%
04:00Tue 	 10c 	 50%
05:00Tue 	 10c 	 52%
06:00Tue 	 9c 	 51%
07:00Tue 	 9c 	 52%
08:00Tue 	 10c 	 55%
09:00Tue 	 10c 	 58%
10:00Tue 	 10c 	 56%
11:00Tue 	 10c 	 54%
12:00Tue 	 11c 	 53%
13:00Tue 	 11c 	 51%
14:00Tue 	 11c 	 44%
15:00Tue 	 11c 	 37%
16:00Tue 	 11c 	 39%
17:00Tue 	 11c 	 43%
18:00Tue 	 10c 	 45%
19:00Tue 	 11c 	 50%
20:00Tue 	 11c 	 54%
21:00Tue 	 11c 	 56%
22:00Tue 	 10c 	 60%
23:00Tue 	 10c 	 64%
00:00Wed 	 10c 	 67%
01:00Wed 	 10c 	 70%
02:00Wed 	 10c 	 65%
03:00Wed 	 10c 	 59%
04:00Wed 	 10c 	 62%
05:00Wed 	 10c 	 62%

# /home/pi/Documents/bbc-weather-predictions/data/Dec21Mon/bbcweather_Monday21stDecember_2020-12-21_1045.txt
# time 	 temp 	 rain
11:00Mon 	 12c 	 4%
12:00Mon 	 12c 	 42%
13:00Mon 	 13c 	 82%
14:00Mon 	 13c 	 79%
15:00Mon 	 13c 	 77%
16:00Mon 	 13c 	 78%
17:00Mon 	 13c 	 82%
18:00Mon 	 13c 	 86%
19:00Mon 	 13c 	 88%
20:00Mon 	 13c 	 87%
21:00Mon 	 13c 	 88%
22:00Mon 	 12c 	 89%
23:00Mon 	 12c 	 88%
00:00Tue 	 11c 	 83%
01:00Tue 	 11c 	 73%
02:00Tue 	 11c 	 57%
03:00Tue 	 11c 	 46%
04:00Tue 	 10c 	 50%
05:00Tue 	 10c 	 52%
06:00Tue 	 9c 	 51%
07:00Tue 	 9c 	 52%
08:00Tue 	 10c 	 55%
09:00Tue 	 10c 	 58%
10:00Tue 	 10c 	 56%
11:00Tue 	 10c 	 54%
12:00Tue 	 11c 	 53%
13:00Tue 	 11c 	 51%
14:00Tue 	 11c 	 44%
15:00Tue 	 11c 	 37%
16:00Tue 	 11c 	 39%
17:00Tue 	 11c 	 43%
18:00Tue 	 10c 	 45%
19:00Tue 	 11c 	 50%
20:00Tue 	 11c 	 54%
21:00Tue 	 11c 	 56%
22:00Tue 	 10c 	 60%
23:00Tue 	 10c 	 64%
00:00Wed 	 10c 	 67%
01:00Wed 	 10c 	 70%
02:00Wed 	 10c 	 65%
03:00Wed 	 10c 	 59%
04:00Wed 	 10c 	 62%
05:00Wed 	 10c 	 62%

# /home/pi/Documents/bbc-weather-predictions/data/Dec21Mon/bbcweather_Monday21stDecember_2020-12-21_1100.txt
# time 	 temp 	 rain
11:00Mon 	 12c 	 4%
12:00Mon 	 12c 	 42%
13:00Mon 	 13c 	 82%
14:00Mon 	 13c 	 79%
15:00Mon 	 13c 	 77%
16:00Mon 	 13c 	 78%
17:00Mon 	 13c 	 82%
18:00Mon 	 13c 	 86%
19:00Mon 	 13c 	 88%
20:00Mon 	 13c 	 87%
21:00Mon 	 13c 	 88%
22:00Mon 	 12c 	 89%
23:00Mon 	 12c 	 88%
00:00Tue 	 11c 	 83%
01:00Tue 	 11c 	 73%
02:00Tue 	 11c 	 57%
03:00Tue 	 11c 	 46%
04:00Tue 	 10c 	 50%
05:00Tue 	 10c 	 52%
06:00Tue 	 9c 	 51%
07:00Tue 	 9c 	 52%
08:00Tue 	 10c 	 55%
09:00Tue 	 10c 	 58%
10:00Tue 	 10c 	 56%
11:00Tue 	 10c 	 54%
12:00Tue 	 11c 	 53%
13:00Tue 	 11c 	 51%
14:00Tue 	 11c 	 44%
15:00Tue 	 11c 	 37%
16:00Tue 	 11c 	 39%
17:00Tue 	 11c 	 43%
18:00Tue 	 10c 	 45%
19:00Tue 	 11c 	 50%
20:00Tue 	 11c 	 54%
21:00Tue 	 11c 	 56%
22:00Tue 	 10c 	 60%
23:00Tue 	 10c 	 64%
00:00Wed 	 10c 	 67%
01:00Wed 	 10c 	 70%
02:00Wed 	 10c 	 65%
03:00Wed 	 10c 	 59%
04:00Wed 	 10c 	 62%
05:00Wed 	 10c 	 62%

# /home/pi/Documents/bbc-weather-predictions/data/Dec21Mon/bbcweather_Monday21stDecember_2020-12-21_1115.txt
# time 	 temp 	 rain
12:00Mon 	 13c 	 7%
13:00Mon 	 13c 	 21%
14:00Mon 	 13c 	 80%
15:00Mon 	 13c 	 77%
16:00Mon 	 13c 	 79%
17:00Mon 	 13c 	 82%
18:00Mon 	 13c 	 86%
19:00Mon 	 13c 	 88%
20:00Mon 	 13c 	 87%
21:00Mon 	 13c 	 88%
22:00Mon 	 12c 	 89%
23:00Mon 	 12c 	 88%
00:00Tue 	 11c 	 83%
01:00Tue 	 11c 	 73%
02:00Tue 	 11c 	 57%
03:00Tue 	 11c 	 46%
04:00Tue 	 10c 	 50%
05:00Tue 	 10c 	 52%
06:00Tue 	 9c 	 51%
07:00Tue 	 9c 	 52%
08:00Tue 	 10c 	 55%
09:00Tue 	 10c 	 58%
10:00Tue 	 10c 	 56%
11:00Tue 	 10c 	 54%
12:00Tue 	 11c 	 53%
13:00Tue 	 11c 	 51%
14:00Tue 	 11c 	 44%
15:00Tue 	 11c 	 37%
16:00Tue 	 11c 	 39%
17:00Tue 	 11c 	 43%
18:00Tue 	 10c 	 45%
19:00Tue 	 11c 	 53%
20:00Tue 	 11c 	 57%
21:00Tue 	 11c 	 59%
22:00Tue 	 10c 	 62%
23:00Tue 	 10c 	 65%
00:00Wed 	 10c 	 66%
01:00Wed 	 10c 	 68%
02:00Wed 	 10c 	 63%
03:00Wed 	 10c 	 58%
04:00Wed 	 10c 	 60%
05:00Wed 	 10c 	 60%

# /home/pi/Documents/bbc-weather-predictions/data/Dec21Mon/bbcweather_Monday21stDecember_2020-12-21_1130.txt
# time 	 temp 	 rain
12:00Mon 	 13c 	 7%
13:00Mon 	 13c 	 21%
14:00Mon 	 13c 	 80%
15:00Mon 	 13c 	 77%
16:00Mon 	 13c 	 79%
17:00Mon 	 13c 	 82%
18:00Mon 	 13c 	 86%
19:00Mon 	 13c 	 88%
20:00Mon 	 13c 	 87%
21:00Mon 	 13c 	 88%
22:00Mon 	 12c 	 89%
23:00Mon 	 12c 	 88%
00:00Tue 	 11c 	 83%
01:00Tue 	 11c 	 73%
02:00Tue 	 11c 	 57%
03:00Tue 	 11c 	 46%
04:00Tue 	 10c 	 50%
05:00Tue 	 10c 	 52%
06:00Tue 	 9c 	 51%
07:00Tue 	 9c 	 52%
08:00Tue 	 10c 	 55%
09:00Tue 	 10c 	 58%
10:00Tue 	 10c 	 56%
11:00Tue 	 10c 	 54%
12:00Tue 	 11c 	 53%
13:00Tue 	 11c 	 51%
14:00Tue 	 11c 	 44%
15:00Tue 	 11c 	 37%
16:00Tue 	 11c 	 39%
17:00Tue 	 11c 	 43%
18:00Tue 	 10c 	 45%
19:00Tue 	 11c 	 53%
20:00Tue 	 11c 	 57%
21:00Tue 	 11c 	 59%
22:00Tue 	 10c 	 62%
23:00Tue 	 10c 	 65%
00:00Wed 	 10c 	 66%
01:00Wed 	 10c 	 68%
02:00Wed 	 10c 	 63%
03:00Wed 	 10c 	 58%
04:00Wed 	 10c 	 60%
05:00Wed 	 10c 	 60%

# /home/pi/Documents/bbc-weather-predictions/data/Dec21Mon/bbcweather_Monday21stDecember_2020-12-21_1145.txt
# time 	 temp 	 rain
12:00Mon 	 13c 	 7%
13:00Mon 	 13c 	 21%
14:00Mon 	 13c 	 80%
15:00Mon 	 13c 	 77%
16:00Mon 	 13c 	 79%
17:00Mon 	 13c 	 82%
18:00Mon 	 13c 	 86%
19:00Mon 	 13c 	 88%
20:00Mon 	 13c 	 87%
21:00Mon 	 13c 	 88%
22:00Mon 	 12c 	 89%
23:00Mon 	 12c 	 88%
00:00Tue 	 11c 	 83%
01:00Tue 	 11c 	 73%
02:00Tue 	 11c 	 57%
03:00Tue 	 11c 	 46%
04:00Tue 	 10c 	 50%
05:00Tue 	 10c 	 52%
06:00Tue 	 9c 	 51%
07:00Tue 	 9c 	 52%
08:00Tue 	 10c 	 55%
09:00Tue 	 10c 	 58%
10:00Tue 	 10c 	 56%
11:00Tue 	 10c 	 54%
12:00Tue 	 11c 	 53%
13:00Tue 	 11c 	 51%
14:00Tue 	 11c 	 44%
15:00Tue 	 11c 	 37%
16:00Tue 	 11c 	 39%
17:00Tue 	 11c 	 43%
18:00Tue 	 10c 	 45%
19:00Tue 	 11c 	 53%
20:00Tue 	 11c 	 57%
21:00Tue 	 11c 	 59%
22:00Tue 	 10c 	 62%
23:00Tue 	 10c 	 65%
00:00Wed 	 10c 	 66%
01:00Wed 	 10c 	 68%
02:00Wed 	 10c 	 63%
03:00Wed 	 10c 	 58%
04:00Wed 	 10c 	 60%
05:00Wed 	 10c 	 60%

# /home/pi/Documents/bbc-weather-predictions/data/Dec21Mon/bbcweather_Monday21stDecember_2020-12-21_1200.txt
# time 	 temp 	 rain
12:00Mon 	 13c 	 7%
13:00Mon 	 13c 	 21%
14:00Mon 	 13c 	 80%
15:00Mon 	 13c 	 77%
16:00Mon 	 13c 	 79%
17:00Mon 	 13c 	 82%
18:00Mon 	 13c 	 86%
19:00Mon 	 13c 	 88%
20:00Mon 	 13c 	 87%
21:00Mon 	 13c 	 88%
22:00Mon 	 12c 	 89%
23:00Mon 	 12c 	 88%
00:00Tue 	 11c 	 83%
01:00Tue 	 11c 	 73%
02:00Tue 	 11c 	 57%
03:00Tue 	 11c 	 46%
04:00Tue 	 10c 	 50%
05:00Tue 	 10c 	 52%
06:00Tue 	 9c 	 51%
07:00Tue 	 9c 	 52%
08:00Tue 	 10c 	 55%
09:00Tue 	 10c 	 58%
10:00Tue 	 10c 	 56%
11:00Tue 	 10c 	 54%
12:00Tue 	 11c 	 53%
13:00Tue 	 11c 	 51%
14:00Tue 	 11c 	 44%
15:00Tue 	 11c 	 37%
16:00Tue 	 11c 	 39%
17:00Tue 	 11c 	 43%
18:00Tue 	 10c 	 45%
19:00Tue 	 11c 	 53%
20:00Tue 	 11c 	 57%
21:00Tue 	 11c 	 59%
22:00Tue 	 10c 	 62%
23:00Tue 	 10c 	 65%
00:00Wed 	 10c 	 66%
01:00Wed 	 10c 	 68%
02:00Wed 	 10c 	 63%
03:00Wed 	 10c 	 58%
04:00Wed 	 10c 	 60%
05:00Wed 	 10c 	 60%

# /home/pi/Documents/bbc-weather-predictions/data/Dec21Mon/bbcweather_Monday21stDecember_2020-12-21_1215.txt
# time 	 temp 	 rain
13:00Mon 	 13c 	 3%
14:00Mon 	 13c 	 36%
15:00Mon 	 13c 	 76%
16:00Mon 	 13c 	 78%
17:00Mon 	 13c 	 82%
18:00Mon 	 13c 	 86%
19:00Mon 	 13c 	 88%
20:00Mon 	 13c 	 87%
21:00Mon 	 13c 	 88%
22:00Mon 	 12c 	 89%
23:00Mon 	 12c 	 88%
00:00Tue 	 11c 	 83%
01:00Tue 	 11c 	 73%
02:00Tue 	 11c 	 57%
03:00Tue 	 11c 	 46%
04:00Tue 	 10c 	 50%
05:00Tue 	 10c 	 52%
06:00Tue 	 9c 	 51%
07:00Tue 	 9c 	 52%
08:00Tue 	 10c 	 55%
09:00Tue 	 10c 	 58%
10:00Tue 	 10c 	 56%
11:00Tue 	 10c 	 54%
12:00Tue 	 11c 	 53%
13:00Tue 	 11c 	 51%
14:00Tue 	 11c 	 44%
15:00Tue 	 11c 	 37%
16:00Tue 	 11c 	 39%
17:00Tue 	 11c 	 43%
18:00Tue 	 10c 	 45%
19:00Tue 	 11c 	 53%
20:00Tue 	 11c 	 57%
21:00Tue 	 11c 	 59%
22:00Tue 	 10c 	 62%
23:00Tue 	 10c 	 65%
00:00Wed 	 10c 	 66%
01:00Wed 	 10c 	 68%
02:00Wed 	 10c 	 63%
03:00Wed 	 10c 	 58%
04:00Wed 	 10c 	 60%
05:00Wed 	 10c 	 60%

# /home/pi/Documents/bbc-weather-predictions/data/Dec21Mon/bbcweather_Monday21stDecember_2020-12-21_1230.txt
# time 	 temp 	 rain
13:00Mon 	 13c 	 3%
14:00Mon 	 13c 	 36%
15:00Mon 	 13c 	 76%
16:00Mon 	 13c 	 78%
17:00Mon 	 13c 	 82%
18:00Mon 	 13c 	 86%
19:00Mon 	 13c 	 88%
20:00Mon 	 13c 	 87%
21:00Mon 	 13c 	 88%
22:00Mon 	 12c 	 89%
23:00Mon 	 12c 	 88%
00:00Tue 	 11c 	 83%
01:00Tue 	 11c 	 73%
02:00Tue 	 11c 	 57%
03:00Tue 	 11c 	 46%
04:00Tue 	 10c 	 50%
05:00Tue 	 10c 	 52%
06:00Tue 	 9c 	 51%
07:00Tue 	 9c 	 52%
08:00Tue 	 10c 	 55%
09:00Tue 	 10c 	 58%
10:00Tue 	 10c 	 56%
11:00Tue 	 10c 	 54%
12:00Tue 	 11c 	 53%
13:00Tue 	 11c 	 51%
14:00Tue 	 11c 	 44%
15:00Tue 	 11c 	 37%
16:00Tue 	 11c 	 39%
17:00Tue 	 11c 	 43%
18:00Tue 	 10c 	 45%
19:00Tue 	 11c 	 53%
20:00Tue 	 11c 	 57%
21:00Tue 	 11c 	 59%
22:00Tue 	 10c 	 62%
23:00Tue 	 10c 	 65%
00:00Wed 	 10c 	 66%
01:00Wed 	 10c 	 68%
02:00Wed 	 10c 	 63%
03:00Wed 	 10c 	 58%
04:00Wed 	 10c 	 60%
05:00Wed 	 10c 	 60%

# /home/pi/Documents/bbc-weather-predictions/data/Dec21Mon/bbcweather_Monday21stDecember_2020-12-21_1245.txt
# time 	 temp 	 rain
13:00Mon 	 13c 	 3%
14:00Mon 	 13c 	 36%
15:00Mon 	 13c 	 76%
16:00Mon 	 13c 	 78%
17:00Mon 	 13c 	 82%
18:00Mon 	 13c 	 86%
19:00Mon 	 13c 	 88%
20:00Mon 	 13c 	 87%
21:00Mon 	 13c 	 88%
22:00Mon 	 12c 	 89%
23:00Mon 	 12c 	 88%
00:00Tue 	 11c 	 83%
01:00Tue 	 11c 	 73%
02:00Tue 	 11c 	 57%
03:00Tue 	 11c 	 46%
04:00Tue 	 10c 	 50%
05:00Tue 	 10c 	 52%
06:00Tue 	 9c 	 51%
07:00Tue 	 9c 	 52%
08:00Tue 	 10c 	 55%
09:00Tue 	 10c 	 58%
10:00Tue 	 10c 	 56%
11:00Tue 	 10c 	 54%
12:00Tue 	 11c 	 53%
13:00Tue 	 11c 	 51%
14:00Tue 	 11c 	 44%
15:00Tue 	 11c 	 37%
16:00Tue 	 11c 	 39%
17:00Tue 	 11c 	 43%
18:00Tue 	 10c 	 45%
19:00Tue 	 11c 	 53%
20:00Tue 	 11c 	 57%
21:00Tue 	 11c 	 59%
22:00Tue 	 10c 	 62%
23:00Tue 	 10c 	 65%
00:00Wed 	 10c 	 66%
01:00Wed 	 10c 	 68%
02:00Wed 	 10c 	 63%
03:00Wed 	 10c 	 58%
04:00Wed 	 10c 	 60%
05:00Wed 	 10c 	 60%

# /home/pi/Documents/bbc-weather-predictions/data/Dec21Mon/bbcweather_Monday21stDecember_2020-12-21_1300.txt
# time 	 temp 	 rain
13:00Mon 	 13c 	 3%
14:00Mon 	 13c 	 36%
15:00Mon 	 13c 	 76%
16:00Mon 	 13c 	 78%
17:00Mon 	 13c 	 82%
18:00Mon 	 13c 	 86%
19:00Mon 	 13c 	 88%
20:00Mon 	 13c 	 87%
21:00Mon 	 13c 	 88%
22:00Mon 	 12c 	 89%
23:00Mon 	 12c 	 88%
00:00Tue 	 11c 	 83%
01:00Tue 	 11c 	 73%
02:00Tue 	 11c 	 57%
03:00Tue 	 11c 	 46%
04:00Tue 	 10c 	 50%
05:00Tue 	 10c 	 52%
06:00Tue 	 9c 	 51%
07:00Tue 	 9c 	 52%
08:00Tue 	 10c 	 55%
09:00Tue 	 10c 	 58%
10:00Tue 	 10c 	 56%
11:00Tue 	 10c 	 54%
12:00Tue 	 11c 	 53%
13:00Tue 	 11c 	 51%
14:00Tue 	 11c 	 44%
15:00Tue 	 11c 	 37%
16:00Tue 	 11c 	 39%
17:00Tue 	 11c 	 43%
18:00Tue 	 10c 	 45%
19:00Tue 	 11c 	 53%
20:00Tue 	 11c 	 57%
21:00Tue 	 11c 	 59%
22:00Tue 	 10c 	 62%
23:00Tue 	 10c 	 65%
00:00Wed 	 10c 	 66%
01:00Wed 	 10c 	 68%
02:00Wed 	 10c 	 63%
03:00Wed 	 10c 	 58%
04:00Wed 	 10c 	 60%
05:00Wed 	 10c 	 60%

# /home/pi/Documents/bbc-weather-predictions/data/Dec21Mon/bbcweather_Monday21stDecember_2020-12-21_1315.txt
# time 	 temp 	 rain
14:00Mon 	 13c 	 75%
15:00Mon 	 13c 	 78%
16:00Mon 	 13c 	 70%
17:00Mon 	 13c 	 77%
18:00Mon 	 13c 	 85%
19:00Mon 	 13c 	 88%
20:00Mon 	 13c 	 87%
21:00Mon 	 13c 	 88%
22:00Mon 	 12c 	 89%
23:00Mon 	 12c 	 88%
00:00Tue 	 11c 	 83%
01:00Tue 	 11c 	 73%
02:00Tue 	 11c 	 57%
03:00Tue 	 11c 	 46%
04:00Tue 	 10c 	 50%
05:00Tue 	 10c 	 52%
06:00Tue 	 9c 	 51%
07:00Tue 	 9c 	 52%
08:00Tue 	 10c 	 55%
09:00Tue 	 10c 	 58%
10:00Tue 	 10c 	 56%
11:00Tue 	 10c 	 54%
12:00Tue 	 11c 	 53%
13:00Tue 	 11c 	 51%
14:00Tue 	 11c 	 44%
15:00Tue 	 11c 	 37%
16:00Tue 	 11c 	 39%
17:00Tue 	 11c 	 43%
18:00Tue 	 10c 	 45%
19:00Tue 	 11c 	 53%
20:00Tue 	 11c 	 57%
21:00Tue 	 11c 	 59%
22:00Tue 	 10c 	 62%
23:00Tue 	 10c 	 65%
00:00Wed 	 10c 	 66%
01:00Wed 	 10c 	 68%
02:00Wed 	 10c 	 63%
03:00Wed 	 10c 	 58%
04:00Wed 	 10c 	 60%
05:00Wed 	 10c 	 60%

# /home/pi/Documents/bbc-weather-predictions/data/Dec21Mon/bbcweather_Monday21stDecember_2020-12-21_1330.txt
# time 	 temp 	 rain
14:00Mon 	 13c 	 75%
15:00Mon 	 13c 	 78%
16:00Mon 	 13c 	 70%
17:00Mon 	 13c 	 77%
18:00Mon 	 13c 	 85%
19:00Mon 	 13c 	 88%
20:00Mon 	 13c 	 87%
21:00Mon 	 13c 	 88%
22:00Mon 	 12c 	 89%
23:00Mon 	 12c 	 88%
00:00Tue 	 11c 	 83%
01:00Tue 	 11c 	 73%
02:00Tue 	 11c 	 57%
03:00Tue 	 11c 	 46%
04:00Tue 	 10c 	 50%
05:00Tue 	 10c 	 52%
06:00Tue 	 9c 	 51%
07:00Tue 	 9c 	 52%
08:00Tue 	 10c 	 55%
09:00Tue 	 10c 	 58%
10:00Tue 	 10c 	 56%
11:00Tue 	 10c 	 54%
12:00Tue 	 11c 	 53%
13:00Tue 	 11c 	 51%
14:00Tue 	 11c 	 44%
15:00Tue 	 11c 	 37%
16:00Tue 	 11c 	 39%
17:00Tue 	 11c 	 43%
18:00Tue 	 10c 	 45%
19:00Tue 	 11c 	 53%
20:00Tue 	 11c 	 57%
21:00Tue 	 11c 	 59%
22:00Tue 	 10c 	 62%
23:00Tue 	 10c 	 65%
00:00Wed 	 10c 	 66%
01:00Wed 	 10c 	 68%
02:00Wed 	 10c 	 63%
03:00Wed 	 10c 	 58%
04:00Wed 	 10c 	 60%
05:00Wed 	 10c 	 60%

# /home/pi/Documents/bbc-weather-predictions/data/Dec21Mon/bbcweather_Monday21stDecember_2020-12-21_1345.txt
# time 	 temp 	 rain
14:00Mon 	 13c 	 75%
15:00Mon 	 13c 	 78%
16:00Mon 	 13c 	 70%
17:00Mon 	 13c 	 77%
18:00Mon 	 13c 	 85%
19:00Mon 	 13c 	 88%
20:00Mon 	 13c 	 87%
21:00Mon 	 13c 	 88%
22:00Mon 	 12c 	 89%
23:00Mon 	 12c 	 88%
00:00Tue 	 11c 	 83%
01:00Tue 	 11c 	 73%
02:00Tue 	 11c 	 57%
03:00Tue 	 11c 	 46%
04:00Tue 	 10c 	 50%
05:00Tue 	 10c 	 52%
06:00Tue 	 9c 	 51%
07:00Tue 	 9c 	 52%
08:00Tue 	 10c 	 55%
09:00Tue 	 10c 	 58%
10:00Tue 	 10c 	 56%
11:00Tue 	 10c 	 54%
12:00Tue 	 11c 	 53%
13:00Tue 	 11c 	 51%
14:00Tue 	 11c 	 44%
15:00Tue 	 11c 	 37%
16:00Tue 	 11c 	 39%
17:00Tue 	 11c 	 43%
18:00Tue 	 10c 	 45%
19:00Tue 	 11c 	 53%
20:00Tue 	 11c 	 57%
21:00Tue 	 11c 	 59%
22:00Tue 	 10c 	 62%
23:00Tue 	 10c 	 65%
00:00Wed 	 10c 	 66%
01:00Wed 	 10c 	 68%
02:00Wed 	 10c 	 63%
03:00Wed 	 10c 	 58%
04:00Wed 	 10c 	 60%
05:00Wed 	 10c 	 60%

# /home/pi/Documents/bbc-weather-predictions/data/Dec21Mon/bbcweather_Monday21stDecember_2020-12-21_1400.txt
# time 	 temp 	 rain
14:00Mon 	 13c 	 75%
15:00Mon 	 13c 	 78%
16:00Mon 	 13c 	 70%
17:00Mon 	 13c 	 77%
18:00Mon 	 13c 	 85%
19:00Mon 	 13c 	 88%
20:00Mon 	 13c 	 87%
21:00Mon 	 13c 	 88%
22:00Mon 	 12c 	 89%
23:00Mon 	 12c 	 88%
00:00Tue 	 11c 	 83%
01:00Tue 	 11c 	 73%
02:00Tue 	 11c 	 57%
03:00Tue 	 11c 	 46%
04:00Tue 	 10c 	 50%
05:00Tue 	 10c 	 52%
06:00Tue 	 9c 	 51%
07:00Tue 	 9c 	 52%
08:00Tue 	 10c 	 55%
09:00Tue 	 10c 	 58%
10:00Tue 	 10c 	 56%
11:00Tue 	 10c 	 54%
12:00Tue 	 11c 	 53%
13:00Tue 	 11c 	 51%
14:00Tue 	 11c 	 44%
15:00Tue 	 11c 	 37%
16:00Tue 	 11c 	 39%
17:00Tue 	 11c 	 43%
18:00Tue 	 10c 	 45%
19:00Tue 	 11c 	 53%
20:00Tue 	 11c 	 57%
21:00Tue 	 11c 	 59%
22:00Tue 	 10c 	 62%
23:00Tue 	 10c 	 65%
00:00Wed 	 10c 	 66%
01:00Wed 	 10c 	 68%
02:00Wed 	 10c 	 63%
03:00Wed 	 10c 	 58%
04:00Wed 	 10c 	 60%
05:00Wed 	 10c 	 60%

# /home/pi/Documents/bbc-weather-predictions/data/Dec21Mon/bbcweather_Monday21stDecember_2020-12-21_1415.txt
# time 	 temp 	 rain
15:00Mon 	 13c 	 98%
16:00Mon 	 13c 	 89%
17:00Mon 	 13c 	 67%
18:00Mon 	 13c 	 81%
19:00Mon 	 13c 	 87%
20:00Mon 	 13c 	 87%
21:00Mon 	 13c 	 88%
22:00Mon 	 12c 	 89%
23:00Mon 	 12c 	 88%
00:00Tue 	 11c 	 83%
01:00Tue 	 11c 	 73%
02:00Tue 	 11c 	 57%
03:00Tue 	 11c 	 46%
04:00Tue 	 10c 	 50%
05:00Tue 	 10c 	 52%
06:00Tue 	 9c 	 51%
07:00Tue 	 9c 	 52%
08:00Tue 	 10c 	 55%
09:00Tue 	 10c 	 58%
10:00Tue 	 10c 	 56%
11:00Tue 	 10c 	 54%
12:00Tue 	 11c 	 53%
13:00Tue 	 11c 	 51%
14:00Tue 	 11c 	 44%
15:00Tue 	 11c 	 37%
16:00Tue 	 11c 	 39%
17:00Tue 	 11c 	 43%
18:00Tue 	 10c 	 45%
19:00Tue 	 11c 	 53%
20:00Tue 	 11c 	 57%
21:00Tue 	 11c 	 59%
22:00Tue 	 10c 	 62%
23:00Tue 	 10c 	 65%
00:00Wed 	 10c 	 66%
01:00Wed 	 10c 	 68%
02:00Wed 	 10c 	 63%
03:00Wed 	 10c 	 58%
04:00Wed 	 10c 	 60%
05:00Wed 	 10c 	 60%

# /home/pi/Documents/bbc-weather-predictions/data/Dec21Mon/bbcweather_Monday21stDecember_2020-12-21_1430.txt
# time 	 temp 	 rain
15:00Mon 	 13c 	 98%
16:00Mon 	 13c 	 89%
17:00Mon 	 13c 	 67%
18:00Mon 	 13c 	 81%
19:00Mon 	 13c 	 87%
20:00Mon 	 13c 	 87%
21:00Mon 	 13c 	 88%
22:00Mon 	 12c 	 89%
23:00Mon 	 12c 	 88%
00:00Tue 	 11c 	 83%
01:00Tue 	 11c 	 73%
02:00Tue 	 11c 	 57%
03:00Tue 	 11c 	 46%
04:00Tue 	 10c 	 50%
05:00Tue 	 10c 	 52%
06:00Tue 	 9c 	 51%
07:00Tue 	 9c 	 52%
08:00Tue 	 10c 	 55%
09:00Tue 	 10c 	 58%
10:00Tue 	 10c 	 56%
11:00Tue 	 10c 	 54%
12:00Tue 	 11c 	 53%
13:00Tue 	 11c 	 51%
14:00Tue 	 11c 	 44%
15:00Tue 	 11c 	 37%
16:00Tue 	 11c 	 39%
17:00Tue 	 11c 	 43%
18:00Tue 	 10c 	 45%
19:00Tue 	 11c 	 53%
20:00Tue 	 11c 	 57%
21:00Tue 	 11c 	 59%
22:00Tue 	 10c 	 62%
23:00Tue 	 10c 	 65%
00:00Wed 	 10c 	 66%
01:00Wed 	 10c 	 68%
02:00Wed 	 10c 	 63%
03:00Wed 	 10c 	 58%
04:00Wed 	 10c 	 60%
05:00Wed 	 10c 	 60%

# /home/pi/Documents/bbc-weather-predictions/data/Dec21Mon/bbcweather_Monday21stDecember_2020-12-21_1445.txt
# time 	 temp 	 rain
15:00Mon 	 13c 	 98%
16:00Mon 	 13c 	 89%
17:00Mon 	 13c 	 67%
18:00Mon 	 13c 	 81%
19:00Mon 	 13c 	 87%
20:00Mon 	 13c 	 87%
21:00Mon 	 13c 	 88%
22:00Mon 	 12c 	 89%
23:00Mon 	 12c 	 88%
00:00Tue 	 11c 	 83%
01:00Tue 	 11c 	 73%
02:00Tue 	 11c 	 57%
03:00Tue 	 11c 	 46%
04:00Tue 	 10c 	 50%
05:00Tue 	 10c 	 52%
06:00Tue 	 9c 	 51%
07:00Tue 	 9c 	 52%
08:00Tue 	 10c 	 55%
09:00Tue 	 10c 	 58%
10:00Tue 	 10c 	 56%
11:00Tue 	 10c 	 54%
12:00Tue 	 11c 	 53%
13:00Tue 	 11c 	 51%
14:00Tue 	 11c 	 44%
15:00Tue 	 11c 	 37%
16:00Tue 	 11c 	 39%
17:00Tue 	 11c 	 43%
18:00Tue 	 10c 	 45%
19:00Tue 	 11c 	 53%
20:00Tue 	 11c 	 57%
21:00Tue 	 11c 	 59%
22:00Tue 	 10c 	 62%
23:00Tue 	 10c 	 65%
00:00Wed 	 10c 	 66%
01:00Wed 	 10c 	 68%
02:00Wed 	 10c 	 63%
03:00Wed 	 10c 	 58%
04:00Wed 	 10c 	 60%
05:00Wed 	 10c 	 60%

# /home/pi/Documents/bbc-weather-predictions/data/Dec21Mon/bbcweather_Monday21stDecember_2020-12-21_1500.txt
# time 	 temp 	 rain
15:00Mon 	 13c 	 98%
16:00Mon 	 13c 	 89%
17:00Mon 	 13c 	 67%
18:00Mon 	 13c 	 81%
19:00Mon 	 13c 	 87%
20:00Mon 	 13c 	 87%
21:00Mon 	 13c 	 88%
22:00Mon 	 12c 	 89%
23:00Mon 	 12c 	 88%
00:00Tue 	 11c 	 83%
01:00Tue 	 11c 	 73%
02:00Tue 	 11c 	 57%
03:00Tue 	 11c 	 46%
04:00Tue 	 10c 	 50%
05:00Tue 	 10c 	 52%
06:00Tue 	 9c 	 51%
07:00Tue 	 9c 	 52%
08:00Tue 	 10c 	 55%
09:00Tue 	 10c 	 58%
10:00Tue 	 10c 	 56%
11:00Tue 	 10c 	 54%
12:00Tue 	 11c 	 53%
13:00Tue 	 11c 	 51%
14:00Tue 	 11c 	 44%
15:00Tue 	 11c 	 37%
16:00Tue 	 11c 	 39%
17:00Tue 	 11c 	 43%
18:00Tue 	 10c 	 45%
19:00Tue 	 11c 	 53%
20:00Tue 	 11c 	 57%
21:00Tue 	 11c 	 59%
22:00Tue 	 10c 	 62%
23:00Tue 	 10c 	 65%
00:00Wed 	 10c 	 66%
01:00Wed 	 10c 	 68%
02:00Wed 	 10c 	 63%
03:00Wed 	 10c 	 58%
04:00Wed 	 10c 	 60%
05:00Wed 	 10c 	 60%

# /home/pi/Documents/bbc-weather-predictions/data/Dec21Mon/bbcweather_Monday21stDecember_2020-12-21_1515.txt
# time 	 temp 	 rain
16:00Mon 	 13c 	 98%
17:00Mon 	 13c 	 91%
18:00Mon 	 13c 	 78%
19:00Mon 	 13c 	 86%
20:00Mon 	 13c 	 87%
21:00Mon 	 13c 	 88%
22:00Mon 	 12c 	 89%
23:00Mon 	 12c 	 88%
00:00Tue 	 11c 	 83%
01:00Tue 	 11c 	 73%
02:00Tue 	 11c 	 57%
03:00Tue 	 11c 	 46%
04:00Tue 	 10c 	 50%
05:00Tue 	 10c 	 52%
06:00Tue 	 9c 	 51%
07:00Tue 	 9c 	 52%
08:00Tue 	 10c 	 55%
09:00Tue 	 10c 	 58%
10:00Tue 	 10c 	 56%
11:00Tue 	 10c 	 54%
12:00Tue 	 11c 	 53%
13:00Tue 	 11c 	 51%
14:00Tue 	 11c 	 44%
15:00Tue 	 11c 	 37%
16:00Tue 	 11c 	 39%
17:00Tue 	 11c 	 43%
18:00Tue 	 10c 	 45%
19:00Tue 	 11c 	 53%
20:00Tue 	 11c 	 57%
21:00Tue 	 11c 	 59%
22:00Tue 	 10c 	 62%
23:00Tue 	 10c 	 65%
00:00Wed 	 10c 	 66%
01:00Wed 	 10c 	 68%
02:00Wed 	 10c 	 63%
03:00Wed 	 10c 	 58%
04:00Wed 	 10c 	 60%
05:00Wed 	 10c 	 60%

# /home/pi/Documents/bbc-weather-predictions/data/Dec21Mon/bbcweather_Monday21stDecember_2020-12-21_1530.txt
# time 	 temp 	 rain
16:00Mon 	 13c 	 98%
17:00Mon 	 13c 	 91%
18:00Mon 	 13c 	 78%
19:00Mon 	 13c 	 86%
20:00Mon 	 13c 	 87%
21:00Mon 	 13c 	 88%
22:00Mon 	 12c 	 89%
23:00Mon 	 12c 	 88%
00:00Tue 	 11c 	 83%
01:00Tue 	 11c 	 73%
02:00Tue 	 11c 	 57%
03:00Tue 	 11c 	 46%
04:00Tue 	 10c 	 50%
05:00Tue 	 10c 	 52%
06:00Tue 	 9c 	 51%
07:00Tue 	 9c 	 52%
08:00Tue 	 10c 	 55%
09:00Tue 	 10c 	 58%
10:00Tue 	 10c 	 56%
11:00Tue 	 10c 	 54%
12:00Tue 	 11c 	 53%
13:00Tue 	 11c 	 51%
14:00Tue 	 11c 	 44%
15:00Tue 	 11c 	 37%
16:00Tue 	 11c 	 39%
17:00Tue 	 11c 	 43%
18:00Tue 	 10c 	 45%
19:00Tue 	 11c 	 53%
20:00Tue 	 11c 	 57%
21:00Tue 	 11c 	 59%
22:00Tue 	 10c 	 62%
23:00Tue 	 10c 	 65%
00:00Wed 	 10c 	 66%
01:00Wed 	 10c 	 68%
02:00Wed 	 10c 	 63%
03:00Wed 	 10c 	 58%
04:00Wed 	 10c 	 60%
05:00Wed 	 10c 	 60%

# /home/pi/Documents/bbc-weather-predictions/data/Dec21Mon/bbcweather_Monday21stDecember_2020-12-21_1545.txt
# time 	 temp 	 rain
16:00Mon 	 13c 	 98%
17:00Mon 	 13c 	 91%
18:00Mon 	 13c 	 78%
19:00Mon 	 13c 	 86%
20:00Mon 	 13c 	 87%
21:00Mon 	 13c 	 88%
22:00Mon 	 12c 	 89%
23:00Mon 	 12c 	 88%
00:00Tue 	 11c 	 83%
01:00Tue 	 11c 	 73%
02:00Tue 	 11c 	 57%
03:00Tue 	 11c 	 46%
04:00Tue 	 10c 	 50%
05:00Tue 	 10c 	 52%
06:00Tue 	 9c 	 51%
07:00Tue 	 9c 	 52%
08:00Tue 	 10c 	 55%
09:00Tue 	 10c 	 58%
10:00Tue 	 10c 	 56%
11:00Tue 	 10c 	 54%
12:00Tue 	 11c 	 53%
13:00Tue 	 11c 	 51%
14:00Tue 	 11c 	 44%
15:00Tue 	 11c 	 37%
16:00Tue 	 11c 	 39%
17:00Tue 	 11c 	 43%
18:00Tue 	 10c 	 45%
19:00Tue 	 11c 	 53%
20:00Tue 	 11c 	 57%
21:00Tue 	 11c 	 59%
22:00Tue 	 10c 	 62%
23:00Tue 	 10c 	 65%
00:00Wed 	 10c 	 66%
01:00Wed 	 10c 	 68%
02:00Wed 	 10c 	 63%
03:00Wed 	 10c 	 58%
04:00Wed 	 10c 	 60%
05:00Wed 	 10c 	 60%

# /home/pi/Documents/bbc-weather-predictions/data/Dec21Mon/bbcweather_Monday21stDecember_2020-12-21_1600.txt
# time 	 temp 	 rain
16:00Mon 	 13c 	 98%
17:00Mon 	 13c 	 91%
18:00Mon 	 13c 	 78%
19:00Mon 	 13c 	 86%
20:00Mon 	 13c 	 87%
21:00Mon 	 13c 	 88%
22:00Mon 	 12c 	 89%
23:00Mon 	 12c 	 88%
00:00Tue 	 11c 	 83%
01:00Tue 	 11c 	 73%
02:00Tue 	 11c 	 57%
03:00Tue 	 11c 	 46%
04:00Tue 	 10c 	 50%
05:00Tue 	 10c 	 52%
06:00Tue 	 9c 	 51%
07:00Tue 	 9c 	 52%
08:00Tue 	 10c 	 55%
09:00Tue 	 10c 	 58%
10:00Tue 	 10c 	 56%
11:00Tue 	 10c 	 54%
12:00Tue 	 11c 	 53%
13:00Tue 	 11c 	 51%
14:00Tue 	 11c 	 44%
15:00Tue 	 11c 	 37%
16:00Tue 	 11c 	 39%
17:00Tue 	 11c 	 43%
18:00Tue 	 10c 	 45%
19:00Tue 	 11c 	 53%
20:00Tue 	 11c 	 57%
21:00Tue 	 11c 	 59%
22:00Tue 	 10c 	 62%
23:00Tue 	 10c 	 65%
00:00Wed 	 10c 	 66%
01:00Wed 	 10c 	 68%
02:00Wed 	 10c 	 63%
03:00Wed 	 10c 	 58%
04:00Wed 	 10c 	 60%
05:00Wed 	 10c 	 60%

# /home/pi/Documents/bbc-weather-predictions/data/Dec21Mon/bbcweather_Monday21stDecember_2020-12-21_1615.txt
# time 	 temp 	 rain
17:00Mon 	 13c 	 100%
18:00Mon 	 13c 	 95%
19:00Mon 	 13c 	 86%
20:00Mon 	 13c 	 87%
21:00Mon 	 13c 	 88%
22:00Mon 	 12c 	 89%
23:00Mon 	 12c 	 88%
00:00Tue 	 11c 	 83%
01:00Tue 	 11c 	 73%
02:00Tue 	 11c 	 57%
03:00Tue 	 11c 	 46%
04:00Tue 	 10c 	 50%
05:00Tue 	 10c 	 52%
06:00Tue 	 9c 	 51%
07:00Tue 	 9c 	 52%
08:00Tue 	 10c 	 55%
09:00Tue 	 10c 	 58%
10:00Tue 	 10c 	 56%
11:00Tue 	 10c 	 54%
12:00Tue 	 11c 	 53%
13:00Tue 	 11c 	 51%
14:00Tue 	 11c 	 44%
15:00Tue 	 11c 	 37%
16:00Tue 	 11c 	 39%
17:00Tue 	 11c 	 43%
18:00Tue 	 10c 	 45%
19:00Tue 	 11c 	 53%
20:00Tue 	 11c 	 57%
21:00Tue 	 11c 	 59%
22:00Tue 	 10c 	 62%
23:00Tue 	 10c 	 65%
00:00Wed 	 10c 	 66%
01:00Wed 	 10c 	 68%
02:00Wed 	 10c 	 63%
03:00Wed 	 10c 	 58%
04:00Wed 	 10c 	 60%
05:00Wed 	 10c 	 60%

# /home/pi/Documents/bbc-weather-predictions/data/Dec21Mon/bbcweather_Monday21stDecember_2020-12-21_1630.txt
# time 	 temp 	 rain
17:00Mon 	 13c 	 100%
18:00Mon 	 13c 	 95%
19:00Mon 	 13c 	 86%
20:00Mon 	 13c 	 87%
21:00Mon 	 13c 	 88%
22:00Mon 	 12c 	 89%
23:00Mon 	 12c 	 88%
00:00Tue 	 11c 	 83%
01:00Tue 	 11c 	 73%
02:00Tue 	 11c 	 57%
03:00Tue 	 11c 	 46%
04:00Tue 	 10c 	 50%
05:00Tue 	 10c 	 52%
06:00Tue 	 9c 	 51%
07:00Tue 	 9c 	 52%
08:00Tue 	 10c 	 55%
09:00Tue 	 10c 	 58%
10:00Tue 	 10c 	 56%
11:00Tue 	 10c 	 54%
12:00Tue 	 11c 	 53%
13:00Tue 	 11c 	 51%
14:00Tue 	 11c 	 44%
15:00Tue 	 11c 	 37%
16:00Tue 	 11c 	 39%
17:00Tue 	 11c 	 43%
18:00Tue 	 10c 	 45%
19:00Tue 	 11c 	 53%
20:00Tue 	 11c 	 57%
21:00Tue 	 11c 	 59%
22:00Tue 	 10c 	 62%
23:00Tue 	 10c 	 65%
00:00Wed 	 10c 	 66%
01:00Wed 	 10c 	 68%
02:00Wed 	 10c 	 63%
03:00Wed 	 10c 	 58%
04:00Wed 	 10c 	 60%
05:00Wed 	 10c 	 60%

# /home/pi/Documents/bbc-weather-predictions/data/Dec21Mon/bbcweather_Monday21stDecember_2020-12-21_1645.txt
# time 	 temp 	 rain
17:00Mon 	 13c 	 100%
18:00Mon 	 13c 	 95%
19:00Mon 	 13c 	 86%
20:00Mon 	 13c 	 87%
21:00Mon 	 13c 	 88%
22:00Mon 	 12c 	 89%
23:00Mon 	 12c 	 88%
00:00Tue 	 11c 	 83%
01:00Tue 	 11c 	 73%
02:00Tue 	 11c 	 57%
03:00Tue 	 11c 	 46%
04:00Tue 	 10c 	 50%
05:00Tue 	 10c 	 52%
06:00Tue 	 9c 	 51%
07:00Tue 	 9c 	 52%
08:00Tue 	 10c 	 55%
09:00Tue 	 10c 	 58%
10:00Tue 	 10c 	 56%
11:00Tue 	 10c 	 54%
12:00Tue 	 11c 	 53%
13:00Tue 	 11c 	 51%
14:00Tue 	 11c 	 44%
15:00Tue 	 11c 	 37%
16:00Tue 	 11c 	 39%
17:00Tue 	 11c 	 43%
18:00Tue 	 10c 	 45%
19:00Tue 	 11c 	 53%
20:00Tue 	 11c 	 57%
21:00Tue 	 11c 	 59%
22:00Tue 	 10c 	 62%
23:00Tue 	 10c 	 65%
00:00Wed 	 10c 	 66%
01:00Wed 	 10c 	 68%
02:00Wed 	 10c 	 63%
03:00Wed 	 10c 	 58%
04:00Wed 	 10c 	 60%
05:00Wed 	 10c 	 60%

# /home/pi/Documents/bbc-weather-predictions/data/Dec21Mon/bbcweather_Monday21stDecember_2020-12-21_1700.txt
# time 	 temp 	 rain
17:00Mon 	 13c 	 100%
18:00Mon 	 13c 	 95%
19:00Mon 	 13c 	 86%
20:00Mon 	 13c 	 87%
21:00Mon 	 13c 	 88%
22:00Mon 	 12c 	 89%
23:00Mon 	 12c 	 88%
00:00Tue 	 11c 	 83%
01:00Tue 	 11c 	 73%
02:00Tue 	 11c 	 57%
03:00Tue 	 11c 	 46%
04:00Tue 	 10c 	 50%
05:00Tue 	 10c 	 52%
06:00Tue 	 9c 	 51%
07:00Tue 	 9c 	 52%
08:00Tue 	 10c 	 55%
09:00Tue 	 10c 	 58%
10:00Tue 	 10c 	 56%
11:00Tue 	 10c 	 54%
12:00Tue 	 11c 	 53%
13:00Tue 	 11c 	 51%
14:00Tue 	 11c 	 44%
15:00Tue 	 11c 	 37%
16:00Tue 	 11c 	 39%
17:00Tue 	 11c 	 43%
18:00Tue 	 10c 	 45%
19:00Tue 	 11c 	 53%
20:00Tue 	 11c 	 57%
21:00Tue 	 11c 	 59%
22:00Tue 	 10c 	 62%
23:00Tue 	 10c 	 65%
00:00Wed 	 10c 	 66%
01:00Wed 	 10c 	 68%
02:00Wed 	 10c 	 63%
03:00Wed 	 10c 	 58%
04:00Wed 	 10c 	 60%
05:00Wed 	 10c 	 60%

# /home/pi/Documents/bbc-weather-predictions/data/Dec21Mon/bbcweather_Monday21stDecember_2020-12-21_1715.txt
# time 	 temp 	 rain
18:00Mon 	 13c 	 100%
19:00Mon 	 13c 	 93%
20:00Mon 	 13c 	 87%
21:00Mon 	 13c 	 88%
22:00Mon 	 12c 	 89%
23:00Mon 	 12c 	 88%
00:00Tue 	 11c 	 83%
01:00Tue 	 11c 	 73%
02:00Tue 	 11c 	 57%
03:00Tue 	 11c 	 46%
04:00Tue 	 10c 	 50%
05:00Tue 	 10c 	 52%
06:00Tue 	 9c 	 51%
07:00Tue 	 9c 	 52%
08:00Tue 	 10c 	 55%
09:00Tue 	 10c 	 58%
10:00Tue 	 10c 	 56%
11:00Tue 	 10c 	 54%
12:00Tue 	 11c 	 53%
13:00Tue 	 11c 	 51%
14:00Tue 	 11c 	 44%
15:00Tue 	 11c 	 37%
16:00Tue 	 11c 	 39%
17:00Tue 	 11c 	 43%
18:00Tue 	 10c 	 45%
19:00Tue 	 11c 	 53%
20:00Tue 	 11c 	 57%
21:00Tue 	 11c 	 59%
22:00Tue 	 10c 	 62%
23:00Tue 	 10c 	 65%
00:00Wed 	 10c 	 66%
01:00Wed 	 10c 	 68%
02:00Wed 	 10c 	 63%
03:00Wed 	 10c 	 58%
04:00Wed 	 10c 	 60%
05:00Wed 	 10c 	 60%

# /home/pi/Documents/bbc-weather-predictions/data/Dec21Mon/bbcweather_Monday21stDecember_2020-12-21_1730.txt
# time 	 temp 	 rain
18:00Mon 	 13c 	 100%
19:00Mon 	 13c 	 93%
20:00Mon 	 13c 	 87%
21:00Mon 	 13c 	 88%
22:00Mon 	 12c 	 89%
23:00Mon 	 12c 	 88%
00:00Tue 	 11c 	 83%
01:00Tue 	 11c 	 73%
02:00Tue 	 11c 	 57%
03:00Tue 	 11c 	 46%
04:00Tue 	 10c 	 50%
05:00Tue 	 10c 	 52%
06:00Tue 	 9c 	 51%
07:00Tue 	 9c 	 52%
08:00Tue 	 10c 	 55%
09:00Tue 	 10c 	 58%
10:00Tue 	 10c 	 56%
11:00Tue 	 10c 	 54%
12:00Tue 	 11c 	 53%
13:00Tue 	 11c 	 51%
14:00Tue 	 11c 	 44%
15:00Tue 	 11c 	 37%
16:00Tue 	 11c 	 39%
17:00Tue 	 11c 	 43%
18:00Tue 	 10c 	 45%
19:00Tue 	 11c 	 53%
20:00Tue 	 11c 	 57%
21:00Tue 	 11c 	 59%
22:00Tue 	 10c 	 62%
23:00Tue 	 10c 	 65%
00:00Wed 	 10c 	 66%
01:00Wed 	 10c 	 68%
02:00Wed 	 10c 	 63%
03:00Wed 	 10c 	 58%
04:00Wed 	 10c 	 60%
05:00Wed 	 10c 	 60%

# /home/pi/Documents/bbc-weather-predictions/data/Dec21Mon/bbcweather_Monday21stDecember_2020-12-21_1745.txt
# time 	 temp 	 rain
18:00Mon 	 13c 	 100%
19:00Mon 	 13c 	 93%
20:00Mon 	 13c 	 87%
21:00Mon 	 13c 	 88%
22:00Mon 	 12c 	 89%
23:00Mon 	 12c 	 88%
00:00Tue 	 11c 	 83%
01:00Tue 	 11c 	 73%
02:00Tue 	 11c 	 57%
03:00Tue 	 11c 	 46%
04:00Tue 	 10c 	 50%
05:00Tue 	 10c 	 52%
06:00Tue 	 9c 	 51%
07:00Tue 	 9c 	 52%
08:00Tue 	 10c 	 55%
09:00Tue 	 10c 	 58%
10:00Tue 	 10c 	 56%
11:00Tue 	 10c 	 54%
12:00Tue 	 11c 	 53%
13:00Tue 	 11c 	 51%
14:00Tue 	 11c 	 44%
15:00Tue 	 11c 	 37%
16:00Tue 	 11c 	 39%
17:00Tue 	 11c 	 43%
18:00Tue 	 10c 	 45%
19:00Tue 	 11c 	 53%
20:00Tue 	 11c 	 57%
21:00Tue 	 11c 	 59%
22:00Tue 	 10c 	 62%
23:00Tue 	 10c 	 65%
00:00Wed 	 10c 	 66%
01:00Wed 	 10c 	 68%
02:00Wed 	 10c 	 63%
03:00Wed 	 10c 	 58%
04:00Wed 	 10c 	 60%
05:00Wed 	 10c 	 60%

# /home/pi/Documents/bbc-weather-predictions/data/Dec21Mon/bbcweather_Monday21stDecember_2020-12-21_1800.txt
# time 	 temp 	 rain
18:00Mon 	 13c 	 100%
19:00Mon 	 13c 	 93%
20:00Mon 	 13c 	 87%
21:00Mon 	 13c 	 88%
22:00Mon 	 12c 	 89%
23:00Mon 	 12c 	 88%
00:00Tue 	 11c 	 83%
01:00Tue 	 11c 	 73%
02:00Tue 	 11c 	 57%
03:00Tue 	 11c 	 46%
04:00Tue 	 10c 	 50%
05:00Tue 	 10c 	 52%
06:00Tue 	 9c 	 51%
07:00Tue 	 9c 	 52%
08:00Tue 	 10c 	 55%
09:00Tue 	 10c 	 58%
10:00Tue 	 10c 	 56%
11:00Tue 	 10c 	 54%
12:00Tue 	 11c 	 53%
13:00Tue 	 11c 	 51%
14:00Tue 	 11c 	 44%
15:00Tue 	 11c 	 37%
16:00Tue 	 11c 	 39%
17:00Tue 	 11c 	 43%
18:00Tue 	 10c 	 45%
19:00Tue 	 11c 	 53%
20:00Tue 	 11c 	 57%
21:00Tue 	 11c 	 59%
22:00Tue 	 10c 	 62%
23:00Tue 	 10c 	 65%
00:00Wed 	 10c 	 66%
01:00Wed 	 10c 	 68%
02:00Wed 	 10c 	 63%
03:00Wed 	 10c 	 58%
04:00Wed 	 10c 	 60%
05:00Wed 	 10c 	 60%

# /home/pi/Documents/bbc-weather-predictions/data/Dec21Mon/bbcweather_Monday21stDecember_2020-12-21_1815.txt
# time 	 temp 	 rain
19:00Mon 	 13c 	 72%
20:00Mon 	 13c 	 90%
21:00Mon 	 13c 	 88%
22:00Mon 	 12c 	 89%
23:00Mon 	 12c 	 88%
00:00Tue 	 11c 	 83%
01:00Tue 	 11c 	 73%
02:00Tue 	 11c 	 57%
03:00Tue 	 11c 	 46%
04:00Tue 	 10c 	 50%
05:00Tue 	 10c 	 52%
06:00Tue 	 9c 	 51%
07:00Tue 	 9c 	 52%
08:00Tue 	 10c 	 55%
09:00Tue 	 10c 	 58%
10:00Tue 	 10c 	 56%
11:00Tue 	 10c 	 54%
12:00Tue 	 11c 	 53%
13:00Tue 	 11c 	 51%
14:00Tue 	 11c 	 44%
15:00Tue 	 11c 	 37%
16:00Tue 	 11c 	 39%
17:00Tue 	 11c 	 43%
18:00Tue 	 10c 	 45%
19:00Tue 	 11c 	 53%
20:00Tue 	 11c 	 57%
21:00Tue 	 11c 	 59%
22:00Tue 	 10c 	 62%
23:00Tue 	 10c 	 65%
00:00Wed 	 10c 	 66%
01:00Wed 	 10c 	 68%
02:00Wed 	 10c 	 63%
03:00Wed 	 10c 	 58%
04:00Wed 	 10c 	 60%
05:00Wed 	 10c 	 60%

# /home/pi/Documents/bbc-weather-predictions/data/Dec21Mon/bbcweather_Monday21stDecember_2020-12-21_1830.txt
# time 	 temp 	 rain
19:00Mon 	 13c 	 72%
20:00Mon 	 13c 	 90%
21:00Mon 	 13c 	 88%
22:00Mon 	 12c 	 89%
23:00Mon 	 12c 	 88%
00:00Tue 	 11c 	 83%
01:00Tue 	 11c 	 73%
02:00Tue 	 11c 	 57%
03:00Tue 	 11c 	 46%
04:00Tue 	 10c 	 50%
05:00Tue 	 10c 	 52%
06:00Tue 	 9c 	 51%
07:00Tue 	 9c 	 52%
08:00Tue 	 10c 	 55%
09:00Tue 	 10c 	 58%
10:00Tue 	 10c 	 56%
11:00Tue 	 10c 	 54%
12:00Tue 	 11c 	 53%
13:00Tue 	 11c 	 51%
14:00Tue 	 11c 	 44%
15:00Tue 	 11c 	 37%
16:00Tue 	 11c 	 39%
17:00Tue 	 11c 	 43%
18:00Tue 	 10c 	 45%
19:00Tue 	 11c 	 53%
20:00Tue 	 11c 	 57%
21:00Tue 	 11c 	 59%
22:00Tue 	 10c 	 62%
23:00Tue 	 10c 	 65%
00:00Wed 	 10c 	 66%
01:00Wed 	 10c 	 68%
02:00Wed 	 10c 	 63%
03:00Wed 	 10c 	 58%
04:00Wed 	 10c 	 60%
05:00Wed 	 10c 	 60%

# /home/pi/Documents/bbc-weather-predictions/data/Dec21Mon/bbcweather_Monday21stDecember_2020-12-21_1845.txt
# time 	 temp 	 rain
19:00Mon 	 13c 	 72%
20:00Mon 	 13c 	 90%
21:00Mon 	 13c 	 88%
22:00Mon 	 12c 	 89%
23:00Mon 	 12c 	 88%
00:00Tue 	 11c 	 83%
01:00Tue 	 11c 	 73%
02:00Tue 	 11c 	 57%
03:00Tue 	 11c 	 46%
04:00Tue 	 10c 	 50%
05:00Tue 	 10c 	 52%
06:00Tue 	 9c 	 51%
07:00Tue 	 9c 	 52%
08:00Tue 	 10c 	 55%
09:00Tue 	 10c 	 58%
10:00Tue 	 10c 	 56%
11:00Tue 	 10c 	 54%
12:00Tue 	 11c 	 53%
13:00Tue 	 11c 	 51%
14:00Tue 	 11c 	 44%
15:00Tue 	 11c 	 37%
16:00Tue 	 11c 	 39%
17:00Tue 	 11c 	 43%
18:00Tue 	 10c 	 45%
19:00Tue 	 11c 	 53%
20:00Tue 	 11c 	 57%
21:00Tue 	 11c 	 59%
22:00Tue 	 10c 	 62%
23:00Tue 	 10c 	 65%
00:00Wed 	 10c 	 66%
01:00Wed 	 10c 	 68%
02:00Wed 	 10c 	 63%
03:00Wed 	 10c 	 58%
04:00Wed 	 10c 	 60%
05:00Wed 	 10c 	 60%

# /home/pi/Documents/bbc-weather-predictions/data/Dec21Mon/bbcweather_Monday21stDecember_2020-12-21_1900.txt
# time 	 temp 	 rain
19:00Mon 	 13c 	 72%
20:00Mon 	 13c 	 90%
21:00Mon 	 13c 	 88%
22:00Mon 	 12c 	 89%
23:00Mon 	 12c 	 88%
00:00Tue 	 11c 	 83%
01:00Tue 	 11c 	 73%
02:00Tue 	 11c 	 57%
03:00Tue 	 11c 	 46%
04:00Tue 	 10c 	 50%
05:00Tue 	 10c 	 52%
06:00Tue 	 9c 	 51%
07:00Tue 	 9c 	 52%
08:00Tue 	 10c 	 55%
09:00Tue 	 10c 	 58%
10:00Tue 	 10c 	 56%
11:00Tue 	 10c 	 54%
12:00Tue 	 11c 	 53%
13:00Tue 	 11c 	 51%
14:00Tue 	 11c 	 44%
15:00Tue 	 11c 	 37%
16:00Tue 	 11c 	 39%
17:00Tue 	 11c 	 43%
18:00Tue 	 10c 	 45%
19:00Tue 	 11c 	 53%
20:00Tue 	 11c 	 57%
21:00Tue 	 11c 	 59%
22:00Tue 	 10c 	 62%
23:00Tue 	 10c 	 65%
00:00Wed 	 10c 	 66%
01:00Wed 	 10c 	 68%
02:00Wed 	 10c 	 63%
03:00Wed 	 10c 	 58%
04:00Wed 	 10c 	 60%
05:00Wed 	 10c 	 60%

# /home/pi/Documents/bbc-weather-predictions/data/Dec21Mon/bbcweather_Monday21stDecember_2020-12-21_1915.txt
# time 	 temp 	 rain
20:00Mon 	 13c 	 100%
21:00Mon 	 13c 	 97%
22:00Mon 	 13c 	 89%
23:00Mon 	 12c 	 88%
00:00Tue 	 11c 	 83%
01:00Tue 	 11c 	 73%
02:00Tue 	 11c 	 57%
03:00Tue 	 11c 	 46%
04:00Tue 	 10c 	 50%
05:00Tue 	 10c 	 52%
06:00Tue 	 9c 	 51%
07:00Tue 	 9c 	 52%
08:00Tue 	 10c 	 55%
09:00Tue 	 10c 	 58%
10:00Tue 	 10c 	 56%
11:00Tue 	 10c 	 54%
12:00Tue 	 11c 	 53%
13:00Tue 	 11c 	 51%
14:00Tue 	 11c 	 44%
15:00Tue 	 11c 	 37%
16:00Tue 	 11c 	 39%
17:00Tue 	 11c 	 43%
18:00Tue 	 10c 	 45%
19:00Tue 	 11c 	 53%
20:00Tue 	 11c 	 57%
21:00Tue 	 11c 	 59%
22:00Tue 	 10c 	 62%
23:00Tue 	 10c 	 65%
00:00Wed 	 10c 	 66%
01:00Wed 	 10c 	 68%
02:00Wed 	 10c 	 63%
03:00Wed 	 10c 	 58%
04:00Wed 	 10c 	 60%
05:00Wed 	 10c 	 60%

# /home/pi/Documents/bbc-weather-predictions/data/Dec21Mon/bbcweather_Monday21stDecember_2020-12-21_1930.txt
# time 	 temp 	 rain
20:00Mon 	 13c 	 100%
21:00Mon 	 13c 	 97%
22:00Mon 	 13c 	 89%
23:00Mon 	 12c 	 88%
00:00Tue 	 11c 	 83%
01:00Tue 	 11c 	 73%
02:00Tue 	 11c 	 57%
03:00Tue 	 11c 	 46%
04:00Tue 	 10c 	 50%
05:00Tue 	 10c 	 52%
06:00Tue 	 9c 	 51%
07:00Tue 	 9c 	 52%
08:00Tue 	 10c 	 55%
09:00Tue 	 10c 	 58%
10:00Tue 	 10c 	 56%
11:00Tue 	 10c 	 54%
12:00Tue 	 11c 	 53%
13:00Tue 	 11c 	 51%
14:00Tue 	 11c 	 44%
15:00Tue 	 11c 	 37%
16:00Tue 	 11c 	 39%
17:00Tue 	 11c 	 43%
18:00Tue 	 10c 	 45%
19:00Tue 	 11c 	 53%
20:00Tue 	 11c 	 57%
21:00Tue 	 11c 	 59%
22:00Tue 	 10c 	 62%
23:00Tue 	 10c 	 65%
00:00Wed 	 10c 	 66%
01:00Wed 	 10c 	 68%
02:00Wed 	 10c 	 63%
03:00Wed 	 10c 	 58%
04:00Wed 	 10c 	 60%
05:00Wed 	 10c 	 60%

# /home/pi/Documents/bbc-weather-predictions/data/Dec21Mon/bbcweather_Monday21stDecember_2020-12-21_1945.txt
# time 	 temp 	 rain
20:00Mon 	 13c 	 100%
21:00Mon 	 13c 	 97%
22:00Mon 	 13c 	 89%
23:00Mon 	 12c 	 88%
00:00Tue 	 11c 	 83%
01:00Tue 	 11c 	 73%
02:00Tue 	 11c 	 57%
03:00Tue 	 11c 	 46%
04:00Tue 	 10c 	 50%
05:00Tue 	 10c 	 52%
06:00Tue 	 9c 	 51%
07:00Tue 	 9c 	 52%
08:00Tue 	 10c 	 55%
09:00Tue 	 10c 	 58%
10:00Tue 	 10c 	 56%
11:00Tue 	 10c 	 54%
12:00Tue 	 11c 	 53%
13:00Tue 	 11c 	 51%
14:00Tue 	 11c 	 44%
15:00Tue 	 11c 	 37%
16:00Tue 	 11c 	 39%
17:00Tue 	 11c 	 43%
18:00Tue 	 10c 	 45%
19:00Tue 	 11c 	 53%
20:00Tue 	 11c 	 57%
21:00Tue 	 11c 	 59%
22:00Tue 	 10c 	 62%
23:00Tue 	 10c 	 65%
00:00Wed 	 10c 	 66%
01:00Wed 	 10c 	 68%
02:00Wed 	 10c 	 63%
03:00Wed 	 10c 	 58%
04:00Wed 	 10c 	 60%
05:00Wed 	 10c 	 60%

# /home/pi/Documents/bbc-weather-predictions/data/Dec21Mon/bbcweather_Monday21stDecember_2020-12-21_2000.txt
# time 	 temp 	 rain
21:00Mon 	 13c 	 97%
22:00Mon 	 13c 	 89%
23:00Mon 	 12c 	 88%
00:00Tue 	 11c 	 83%
01:00Tue 	 11c 	 73%
02:00Tue 	 11c 	 57%
03:00Tue 	 11c 	 46%
04:00Tue 	 10c 	 50%
05:00Tue 	 10c 	 52%
06:00Tue 	 9c 	 51%
07:00Tue 	 9c 	 52%
08:00Tue 	 10c 	 55%
09:00Tue 	 10c 	 58%
10:00Tue 	 10c 	 56%
11:00Tue 	 10c 	 54%
12:00Tue 	 11c 	 53%
13:00Tue 	 11c 	 51%
14:00Tue 	 11c 	 44%
15:00Tue 	 11c 	 37%
16:00Tue 	 11c 	 39%
17:00Tue 	 11c 	 43%
18:00Tue 	 10c 	 45%
19:00Tue 	 11c 	 53%
20:00Tue 	 11c 	 57%
21:00Tue 	 11c 	 59%
22:00Tue 	 10c 	 62%
23:00Tue 	 10c 	 65%
00:00Wed 	 10c 	 66%
01:00Wed 	 10c 	 68%
02:00Wed 	 10c 	 63%
03:00Wed 	 10c 	 58%
04:00Wed 	 10c 	 60%
05:00Wed 	 10c 	 60%

# /home/pi/Documents/bbc-weather-predictions/data/Dec21Mon/bbcweather_Monday21stDecember_2020-12-21_2015.txt
# time 	 temp 	 rain
21:00Mon 	 13c 	 99%
22:00Mon 	 13c 	 87%
23:00Mon 	 12c 	 88%
00:00Tue 	 11c 	 83%
01:00Tue 	 11c 	 73%
02:00Tue 	 11c 	 57%
03:00Tue 	 11c 	 46%
04:00Tue 	 10c 	 50%
05:00Tue 	 10c 	 52%
06:00Tue 	 9c 	 51%
07:00Tue 	 9c 	 52%
08:00Tue 	 10c 	 55%
09:00Tue 	 10c 	 58%
10:00Tue 	 10c 	 56%
11:00Tue 	 10c 	 54%
12:00Tue 	 11c 	 53%
13:00Tue 	 11c 	 51%
14:00Tue 	 11c 	 44%
15:00Tue 	 11c 	 37%
16:00Tue 	 11c 	 39%
17:00Tue 	 11c 	 43%
18:00Tue 	 10c 	 45%
19:00Tue 	 11c 	 53%
20:00Tue 	 11c 	 57%
21:00Tue 	 11c 	 59%
22:00Tue 	 10c 	 62%
23:00Tue 	 10c 	 65%
00:00Wed 	 10c 	 66%
01:00Wed 	 10c 	 68%
02:00Wed 	 10c 	 63%
03:00Wed 	 10c 	 58%
04:00Wed 	 10c 	 60%
05:00Wed 	 10c 	 60%

# /home/pi/Documents/bbc-weather-predictions/data/Dec21Mon/bbcweather_Monday21stDecember_2020-12-21_2030.txt
# time 	 temp 	 rain
21:00Mon 	 13c 	 99%
22:00Mon 	 13c 	 87%
23:00Mon 	 12c 	 88%
00:00Tue 	 11c 	 83%
01:00Tue 	 11c 	 73%
02:00Tue 	 11c 	 57%
03:00Tue 	 11c 	 46%
04:00Tue 	 10c 	 50%
05:00Tue 	 10c 	 52%
06:00Tue 	 9c 	 51%
07:00Tue 	 9c 	 52%
08:00Tue 	 10c 	 55%
09:00Tue 	 10c 	 58%
10:00Tue 	 10c 	 56%
11:00Tue 	 10c 	 54%
12:00Tue 	 11c 	 53%
13:00Tue 	 11c 	 51%
14:00Tue 	 11c 	 44%
15:00Tue 	 11c 	 37%
16:00Tue 	 11c 	 39%
17:00Tue 	 11c 	 43%
18:00Tue 	 10c 	 45%
19:00Tue 	 11c 	 53%
20:00Tue 	 11c 	 57%
21:00Tue 	 11c 	 59%
22:00Tue 	 10c 	 62%
23:00Tue 	 10c 	 65%
00:00Wed 	 10c 	 66%
01:00Wed 	 10c 	 68%
02:00Wed 	 10c 	 63%
03:00Wed 	 10c 	 58%
04:00Wed 	 10c 	 60%
05:00Wed 	 10c 	 60%

# /home/pi/Documents/bbc-weather-predictions/data/Dec21Mon/bbcweather_Monday21stDecember_2020-12-21_2045.txt
# time 	 temp 	 rain
21:00Mon 	 13c 	 99%
22:00Mon 	 13c 	 87%
23:00Mon 	 12c 	 88%
00:00Tue 	 11c 	 83%
01:00Tue 	 11c 	 73%
02:00Tue 	 11c 	 57%
03:00Tue 	 11c 	 46%
04:00Tue 	 10c 	 50%
05:00Tue 	 10c 	 52%
06:00Tue 	 9c 	 51%
07:00Tue 	 9c 	 52%
08:00Tue 	 10c 	 55%
09:00Tue 	 10c 	 58%
10:00Tue 	 10c 	 56%
11:00Tue 	 10c 	 54%
12:00Tue 	 11c 	 53%
13:00Tue 	 11c 	 51%
14:00Tue 	 11c 	 44%
15:00Tue 	 11c 	 37%
16:00Tue 	 11c 	 39%
17:00Tue 	 11c 	 43%
18:00Tue 	 10c 	 45%
19:00Tue 	 11c 	 53%
20:00Tue 	 11c 	 57%
21:00Tue 	 11c 	 59%
22:00Tue 	 10c 	 62%
23:00Tue 	 10c 	 65%
00:00Wed 	 10c 	 66%
01:00Wed 	 10c 	 68%
02:00Wed 	 10c 	 63%
03:00Wed 	 10c 	 58%
04:00Wed 	 10c 	 60%
05:00Wed 	 10c 	 60%

# /home/pi/Documents/bbc-weather-predictions/data/Dec21Mon/bbcweather_Monday21stDecember_2020-12-21_2100.txt
# time 	 temp 	 rain
21:00Mon 	 13c 	 99%
22:00Mon 	 13c 	 87%
23:00Mon 	 12c 	 88%
00:00Tue 	 11c 	 83%
01:00Tue 	 11c 	 73%
02:00Tue 	 11c 	 57%
03:00Tue 	 11c 	 46%
04:00Tue 	 10c 	 50%
05:00Tue 	 10c 	 52%
06:00Tue 	 9c 	 51%
07:00Tue 	 9c 	 52%
08:00Tue 	 10c 	 55%
09:00Tue 	 10c 	 58%
10:00Tue 	 10c 	 56%
11:00Tue 	 10c 	 54%
12:00Tue 	 11c 	 53%
13:00Tue 	 11c 	 51%
14:00Tue 	 11c 	 44%
15:00Tue 	 11c 	 37%
16:00Tue 	 11c 	 39%
17:00Tue 	 11c 	 43%
18:00Tue 	 10c 	 45%
19:00Tue 	 11c 	 53%
20:00Tue 	 11c 	 57%
21:00Tue 	 11c 	 59%
22:00Tue 	 10c 	 62%
23:00Tue 	 10c 	 65%
00:00Wed 	 10c 	 66%
01:00Wed 	 10c 	 68%
02:00Wed 	 10c 	 63%
03:00Wed 	 10c 	 58%
04:00Wed 	 10c 	 60%
05:00Wed 	 10c 	 60%

# /home/pi/Documents/bbc-weather-predictions/data/Dec21Mon/bbcweather_Monday21stDecember_2020-12-21_2115.txt
# time 	 temp 	 rain
22:00Mon 	 13c 	 64%
23:00Mon 	 13c 	 23%
00:00Tue 	 12c 	 83%
01:00Tue 	 11c 	 73%
02:00Tue 	 11c 	 57%
03:00Tue 	 11c 	 46%
04:00Tue 	 10c 	 50%
05:00Tue 	 10c 	 52%
06:00Tue 	 9c 	 51%
07:00Tue 	 9c 	 52%
08:00Tue 	 10c 	 55%
09:00Tue 	 10c 	 58%
10:00Tue 	 10c 	 56%
11:00Tue 	 10c 	 54%
12:00Tue 	 11c 	 53%
13:00Tue 	 11c 	 51%
14:00Tue 	 11c 	 44%
15:00Tue 	 11c 	 37%
16:00Tue 	 11c 	 39%
17:00Tue 	 11c 	 43%
18:00Tue 	 10c 	 45%
19:00Tue 	 10c 	 55%
20:00Tue 	 10c 	 63%
21:00Tue 	 10c 	 67%
22:00Tue 	 10c 	 65%
23:00Tue 	 10c 	 55%
00:00Wed 	 10c 	 44%
01:00Wed 	 11c 	 42%
02:00Wed 	 11c 	 38%
03:00Wed 	 11c 	 33%
04:00Wed 	 10c 	 38%
05:00Wed 	 10c 	 44%

# /home/pi/Documents/bbc-weather-predictions/data/Dec21Mon/bbcweather_Monday21stDecember_2020-12-21_2130.txt
# time 	 temp 	 rain
22:00Mon 	 13c 	 64%
23:00Mon 	 13c 	 23%
00:00Tue 	 12c 	 83%
01:00Tue 	 11c 	 73%
02:00Tue 	 11c 	 57%
03:00Tue 	 11c 	 46%
04:00Tue 	 10c 	 50%
05:00Tue 	 10c 	 52%
06:00Tue 	 9c 	 51%
07:00Tue 	 9c 	 52%
08:00Tue 	 10c 	 55%
09:00Tue 	 10c 	 58%
10:00Tue 	 10c 	 56%
11:00Tue 	 10c 	 54%
12:00Tue 	 11c 	 53%
13:00Tue 	 11c 	 51%
14:00Tue 	 11c 	 44%
15:00Tue 	 11c 	 37%
16:00Tue 	 11c 	 39%
17:00Tue 	 11c 	 43%
18:00Tue 	 10c 	 45%
19:00Tue 	 10c 	 55%
20:00Tue 	 10c 	 63%
21:00Tue 	 10c 	 67%
22:00Tue 	 10c 	 65%
23:00Tue 	 10c 	 55%
00:00Wed 	 10c 	 44%
01:00Wed 	 11c 	 42%
02:00Wed 	 11c 	 38%
03:00Wed 	 11c 	 33%
04:00Wed 	 10c 	 38%
05:00Wed 	 10c 	 44%

# /home/pi/Documents/bbc-weather-predictions/data/Dec21Mon/bbcweather_Monday21stDecember_2020-12-21_2145.txt
# time 	 temp 	 rain
22:00Mon 	 13c 	 64%
23:00Mon 	 13c 	 23%
00:00Tue 	 12c 	 83%
01:00Tue 	 11c 	 73%
02:00Tue 	 11c 	 57%
03:00Tue 	 11c 	 46%
04:00Tue 	 10c 	 50%
05:00Tue 	 10c 	 52%
06:00Tue 	 9c 	 51%
07:00Tue 	 9c 	 52%
08:00Tue 	 10c 	 55%
09:00Tue 	 10c 	 58%
10:00Tue 	 10c 	 56%
11:00Tue 	 10c 	 54%
12:00Tue 	 11c 	 53%
13:00Tue 	 11c 	 51%
14:00Tue 	 11c 	 44%
15:00Tue 	 11c 	 37%
16:00Tue 	 11c 	 39%
17:00Tue 	 11c 	 43%
18:00Tue 	 10c 	 45%
19:00Tue 	 10c 	 55%
20:00Tue 	 10c 	 63%
21:00Tue 	 10c 	 67%
22:00Tue 	 10c 	 65%
23:00Tue 	 10c 	 55%
00:00Wed 	 10c 	 44%
01:00Wed 	 11c 	 42%
02:00Wed 	 11c 	 38%
03:00Wed 	 11c 	 33%
04:00Wed 	 10c 	 38%
05:00Wed 	 10c 	 44%

# /home/pi/Documents/bbc-weather-predictions/data/Dec21Mon/bbcweather_Monday21stDecember_2020-12-21_2200.txt
# time 	 temp 	 rain
22:00Mon 	 13c 	 64%
23:00Mon 	 13c 	 23%
00:00Tue 	 12c 	 83%
01:00Tue 	 11c 	 73%
02:00Tue 	 11c 	 57%
03:00Tue 	 11c 	 46%
04:00Tue 	 10c 	 50%
05:00Tue 	 10c 	 52%
06:00Tue 	 9c 	 51%
07:00Tue 	 9c 	 52%
08:00Tue 	 10c 	 55%
09:00Tue 	 10c 	 58%
10:00Tue 	 10c 	 56%
11:00Tue 	 10c 	 54%
12:00Tue 	 11c 	 53%
13:00Tue 	 11c 	 51%
14:00Tue 	 11c 	 44%
15:00Tue 	 11c 	 37%
16:00Tue 	 11c 	 39%
17:00Tue 	 11c 	 43%
18:00Tue 	 10c 	 45%
19:00Tue 	 10c 	 55%
20:00Tue 	 10c 	 63%
21:00Tue 	 10c 	 67%
22:00Tue 	 10c 	 65%
23:00Tue 	 10c 	 55%
00:00Wed 	 10c 	 44%
01:00Wed 	 11c 	 42%
02:00Wed 	 11c 	 38%
03:00Wed 	 11c 	 33%
04:00Wed 	 10c 	 38%
05:00Wed 	 10c 	 44%

# /home/pi/Documents/bbc-weather-predictions/data/Dec21Mon/bbcweather_Monday21stDecember_2020-12-21_2215.txt
# time 	 temp 	 rain
23:00Mon 	 12c 	 86%
00:00Tue 	 12c 	 21%
01:00Tue 	 12c 	 73%
02:00Tue 	 11c 	 57%
03:00Tue 	 11c 	 46%
04:00Tue 	 10c 	 50%
05:00Tue 	 10c 	 52%
06:00Tue 	 9c 	 51%
07:00Tue 	 9c 	 52%
08:00Tue 	 10c 	 55%
09:00Tue 	 10c 	 58%
10:00Tue 	 10c 	 56%
11:00Tue 	 10c 	 54%
12:00Tue 	 11c 	 53%
13:00Tue 	 11c 	 51%
14:00Tue 	 11c 	 44%
15:00Tue 	 11c 	 37%
16:00Tue 	 11c 	 39%
17:00Tue 	 11c 	 43%
18:00Tue 	 10c 	 45%
19:00Tue 	 10c 	 57%
20:00Tue 	 10c 	 66%
21:00Tue 	 10c 	 71%
22:00Tue 	 10c 	 69%
23:00Tue 	 11c 	 61%
00:00Wed 	 11c 	 55%
01:00Wed 	 11c 	 51%
02:00Wed 	 11c 	 43%
03:00Wed 	 11c 	 34%
04:00Wed 	 11c 	 35%
05:00Wed 	 10c 	 37%

# /home/pi/Documents/bbc-weather-predictions/data/Dec21Mon/bbcweather_Monday21stDecember_2020-12-21_2230.txt
# time 	 temp 	 rain
23:00Mon 	 12c 	 86%
00:00Tue 	 12c 	 21%
01:00Tue 	 12c 	 73%
02:00Tue 	 11c 	 57%
03:00Tue 	 11c 	 46%
04:00Tue 	 10c 	 50%
05:00Tue 	 10c 	 52%
06:00Tue 	 9c 	 51%
07:00Tue 	 9c 	 52%
08:00Tue 	 10c 	 55%
09:00Tue 	 10c 	 58%
10:00Tue 	 10c 	 56%
11:00Tue 	 10c 	 54%
12:00Tue 	 11c 	 53%
13:00Tue 	 11c 	 51%
14:00Tue 	 11c 	 44%
15:00Tue 	 11c 	 37%
16:00Tue 	 11c 	 39%
17:00Tue 	 11c 	 43%
18:00Tue 	 10c 	 45%
19:00Tue 	 10c 	 57%
20:00Tue 	 10c 	 66%
21:00Tue 	 10c 	 71%
22:00Tue 	 10c 	 69%
23:00Tue 	 11c 	 61%
00:00Wed 	 11c 	 55%
01:00Wed 	 11c 	 51%
02:00Wed 	 11c 	 43%
03:00Wed 	 11c 	 34%
04:00Wed 	 11c 	 35%
05:00Wed 	 10c 	 37%

# /home/pi/Documents/bbc-weather-predictions/data/Dec21Mon/bbcweather_Monday21stDecember_2020-12-21_2245.txt
# time 	 temp 	 rain
23:00Mon 	 12c 	 86%
00:00Tue 	 12c 	 21%
01:00Tue 	 12c 	 73%
02:00Tue 	 11c 	 57%
03:00Tue 	 11c 	 46%
04:00Tue 	 10c 	 50%
05:00Tue 	 10c 	 52%
06:00Tue 	 9c 	 51%
07:00Tue 	 9c 	 52%
08:00Tue 	 10c 	 55%
09:00Tue 	 10c 	 58%
10:00Tue 	 10c 	 56%
11:00Tue 	 10c 	 54%
12:00Tue 	 11c 	 53%
13:00Tue 	 11c 	 51%
14:00Tue 	 11c 	 44%
15:00Tue 	 11c 	 37%
16:00Tue 	 11c 	 39%
17:00Tue 	 11c 	 43%
18:00Tue 	 10c 	 45%
19:00Tue 	 10c 	 57%
20:00Tue 	 10c 	 66%
21:00Tue 	 10c 	 71%
22:00Tue 	 10c 	 69%
23:00Tue 	 11c 	 61%
00:00Wed 	 11c 	 55%
01:00Wed 	 11c 	 51%
02:00Wed 	 11c 	 43%
03:00Wed 	 11c 	 34%
04:00Wed 	 11c 	 35%
05:00Wed 	 10c 	 37%

# /home/pi/Documents/bbc-weather-predictions/data/Dec21Mon/bbcweather_Monday21stDecember_2020-12-21_2300.txt
# time 	 temp 	 rain
23:00Mon 	 12c 	 86%
00:00Tue 	 12c 	 21%
01:00Tue 	 12c 	 73%
02:00Tue 	 11c 	 57%
03:00Tue 	 11c 	 46%
04:00Tue 	 10c 	 50%
05:00Tue 	 10c 	 52%
06:00Tue 	 9c 	 51%
07:00Tue 	 9c 	 52%
08:00Tue 	 10c 	 55%
09:00Tue 	 10c 	 58%
10:00Tue 	 10c 	 56%
11:00Tue 	 10c 	 54%
12:00Tue 	 11c 	 53%
13:00Tue 	 11c 	 51%
14:00Tue 	 11c 	 44%
15:00Tue 	 11c 	 37%
16:00Tue 	 11c 	 39%
17:00Tue 	 11c 	 43%
18:00Tue 	 10c 	 45%
19:00Tue 	 10c 	 57%
20:00Tue 	 10c 	 66%
21:00Tue 	 10c 	 71%
22:00Tue 	 10c 	 69%
23:00Tue 	 11c 	 61%
00:00Wed 	 11c 	 55%
01:00Wed 	 11c 	 51%
02:00Wed 	 11c 	 43%
03:00Wed 	 11c 	 34%
04:00Wed 	 11c 	 35%
05:00Wed 	 10c 	 37%

# /home/pi/Documents/bbc-weather-predictions/data/Dec21Mon/bbcweather_Monday21stDecember_2020-12-21_2315.txt
# time 	 temp 	 rain
00:00Tue 	 12c 	 21%
01:00Tue 	 12c 	 73%
02:00Tue 	 11c 	 57%
03:00Tue 	 11c 	 46%
04:00Tue 	 10c 	 50%
05:00Tue 	 10c 	 52%
06:00Tue 	 9c 	 51%
07:00Tue 	 9c 	 52%
08:00Tue 	 10c 	 55%
09:00Tue 	 10c 	 58%
10:00Tue 	 10c 	 56%
11:00Tue 	 10c 	 54%
12:00Tue 	 11c 	 53%
13:00Tue 	 11c 	 51%
14:00Tue 	 11c 	 44%
15:00Tue 	 11c 	 37%
16:00Tue 	 11c 	 39%
17:00Tue 	 11c 	 43%
18:00Tue 	 10c 	 45%
19:00Tue 	 10c 	 57%
20:00Tue 	 10c 	 66%
21:00Tue 	 10c 	 71%
22:00Tue 	 10c 	 69%
23:00Tue 	 11c 	 61%
00:00Wed 	 11c 	 55%
01:00Wed 	 11c 	 51%
02:00Wed 	 11c 	 43%
03:00Wed 	 11c 	 34%
04:00Wed 	 11c 	 35%
05:00Wed 	 10c 	 37%

# /home/pi/Documents/bbc-weather-predictions/data/Dec21Mon/bbcweather_Monday21stDecember_2020-12-21_2330.txt
# time 	 temp 	 rain
00:00Tue 	 12c 	 77%
01:00Tue 	 12c 	 70%
02:00Tue 	 11c 	 57%
03:00Tue 	 10c 	 46%
04:00Tue 	 10c 	 50%
05:00Tue 	 10c 	 52%
06:00Tue 	 9c 	 51%
07:00Tue 	 9c 	 52%
08:00Tue 	 10c 	 55%
09:00Tue 	 10c 	 58%
10:00Tue 	 10c 	 56%
11:00Tue 	 10c 	 54%
12:00Tue 	 10c 	 25%
13:00Tue 	 10c 	 31%
14:00Tue 	 10c 	 40%
15:00Tue 	 9c 	 48%
16:00Tue 	 9c 	 55%
17:00Tue 	 9c 	 58%
18:00Tue 	 10c 	 62%
19:00Tue 	 10c 	 69%
20:00Tue 	 10c 	 74%
21:00Tue 	 10c 	 75%
22:00Tue 	 10c 	 69%
23:00Tue 	 11c 	 61%
00:00Wed 	 11c 	 55%
01:00Wed 	 11c 	 51%
02:00Wed 	 11c 	 43%
03:00Wed 	 11c 	 34%
04:00Wed 	 11c 	 35%
05:00Wed 	 10c 	 37%

# /home/pi/Documents/bbc-weather-predictions/data/Dec21Mon/bbcweather_Monday21stDecember_2020-12-21_2345.txt
# time 	 temp 	 rain
00:00Tue 	 12c 	 77%
01:00Tue 	 12c 	 70%
02:00Tue 	 11c 	 57%
03:00Tue 	 10c 	 46%
04:00Tue 	 10c 	 50%
05:00Tue 	 10c 	 52%
06:00Tue 	 9c 	 51%
07:00Tue 	 9c 	 52%
08:00Tue 	 10c 	 55%
09:00Tue 	 10c 	 58%
10:00Tue 	 10c 	 56%
11:00Tue 	 10c 	 54%
12:00Tue 	 10c 	 25%
13:00Tue 	 10c 	 31%
14:00Tue 	 10c 	 40%
15:00Tue 	 9c 	 48%
16:00Tue 	 9c 	 55%
17:00Tue 	 9c 	 58%
18:00Tue 	 10c 	 62%
19:00Tue 	 10c 	 69%
20:00Tue 	 10c 	 74%
21:00Tue 	 10c 	 75%
22:00Tue 	 10c 	 69%
23:00Tue 	 11c 	 61%
00:00Wed 	 11c 	 55%
01:00Wed 	 11c 	 51%
02:00Wed 	 11c 	 43%
03:00Wed 	 11c 	 34%
04:00Wed 	 11c 	 35%
05:00Wed 	 10c 	 37%

# /home/pi/Documents/bbc-weather-predictions/data/Dec21Mon/bbcweather_Sunday20thDecember_2020-12-21_0000.txt
# time 	 temp 	 rain
00:00Mon 	 7c 	 94%
01:00Mon 	 7c 	 99%
02:00Mon 	 8c 	 89%
03:00Mon 	 9c 	 79%
04:00Mon 	 9c 	 90%
05:00Mon 	 9c 	 95%
06:00Mon 	 10c 	 97%
07:00Mon 	 11c 	 93%
08:00Mon 	 11c 	 85%
09:00Mon 	 11c 	 74%
10:00Mon 	 12c 	 67%
11:00Mon 	 12c 	 64%
12:00Mon 	 12c 	 55%
13:00Mon 	 12c 	 46%
14:00Mon 	 12c 	 38%
15:00Mon 	 12c 	 29%
16:00Mon 	 12c 	 26%
17:00Mon 	 11c 	 28%
18:00Mon 	 10c 	 28%
19:00Mon 	 10c 	 36%
20:00Mon 	 11c 	 39%
21:00Mon 	 10c 	 42%
22:00Mon 	 10c 	 51%
23:00Mon 	 10c 	 63%
00:00Tue 	 10c 	 70%
01:00Tue 	 10c 	 70%
02:00Tue 	 10c 	 70%
03:00Tue 	 10c 	 68%
04:00Tue 	 10c 	 61%
05:00Tue 	 10c 	 54%

# /home/pi/Documents/bbc-weather-predictions/data/Dec21Mon/bbcweather_Sunday20thDecember_2020-12-21_0015.txt
# time 	 temp 	 rain
01:00Mon 	 7c 	 99%
02:00Mon 	 8c 	 89%
03:00Mon 	 9c 	 79%
04:00Mon 	 9c 	 90%
05:00Mon 	 9c 	 95%
06:00Mon 	 10c 	 97%
07:00Mon 	 11c 	 93%
08:00Mon 	 11c 	 85%
09:00Mon 	 11c 	 74%
10:00Mon 	 12c 	 67%
11:00Mon 	 12c 	 64%
12:00Mon 	 12c 	 55%
13:00Mon 	 12c 	 46%
14:00Mon 	 12c 	 38%
15:00Mon 	 12c 	 29%
16:00Mon 	 12c 	 26%
17:00Mon 	 11c 	 28%
18:00Mon 	 10c 	 28%
19:00Mon 	 10c 	 36%
20:00Mon 	 11c 	 39%
21:00Mon 	 10c 	 42%
22:00Mon 	 10c 	 51%
23:00Mon 	 10c 	 63%
00:00Tue 	 10c 	 70%
01:00Tue 	 10c 	 70%
02:00Tue 	 10c 	 70%
03:00Tue 	 10c 	 68%
04:00Tue 	 10c 	 61%
05:00Tue 	 10c 	 54%

# /home/pi/Documents/bbc-weather-predictions/data/Dec21Mon/bbcweather_Sunday20thDecember_2020-12-21_0030.txt
# time 	 temp 	 rain
01:00Mon 	 7c 	 99%
02:00Mon 	 8c 	 89%
03:00Mon 	 9c 	 79%
04:00Mon 	 9c 	 90%
05:00Mon 	 9c 	 95%
06:00Mon 	 10c 	 97%
07:00Mon 	 11c 	 93%
08:00Mon 	 11c 	 85%
09:00Mon 	 11c 	 74%
10:00Mon 	 12c 	 67%
11:00Mon 	 12c 	 64%
12:00Mon 	 12c 	 55%
13:00Mon 	 12c 	 46%
14:00Mon 	 12c 	 38%
15:00Mon 	 12c 	 29%
16:00Mon 	 12c 	 26%
17:00Mon 	 11c 	 28%
18:00Mon 	 10c 	 28%
19:00Mon 	 10c 	 36%
20:00Mon 	 11c 	 39%
21:00Mon 	 10c 	 42%
22:00Mon 	 10c 	 51%
23:00Mon 	 10c 	 63%
00:00Tue 	 10c 	 70%
01:00Tue 	 10c 	 70%
02:00Tue 	 10c 	 70%
03:00Tue 	 10c 	 68%
04:00Tue 	 10c 	 61%
05:00Tue 	 10c 	 54%

# /home/pi/Documents/bbc-weather-predictions/data/Dec21Mon/bbcweather_Sunday20thDecember_2020-12-21_0045.txt
# time 	 temp 	 rain
01:00Mon 	 7c 	 99%
02:00Mon 	 8c 	 89%
03:00Mon 	 9c 	 79%
04:00Mon 	 9c 	 90%
05:00Mon 	 9c 	 95%
06:00Mon 	 10c 	 97%
07:00Mon 	 11c 	 93%
08:00Mon 	 11c 	 85%
09:00Mon 	 11c 	 74%
10:00Mon 	 12c 	 67%
11:00Mon 	 12c 	 64%
12:00Mon 	 12c 	 55%
13:00Mon 	 12c 	 46%
14:00Mon 	 12c 	 38%
15:00Mon 	 12c 	 29%
16:00Mon 	 12c 	 26%
17:00Mon 	 11c 	 28%
18:00Mon 	 10c 	 28%
19:00Mon 	 10c 	 36%
20:00Mon 	 11c 	 39%
21:00Mon 	 10c 	 42%
22:00Mon 	 10c 	 51%
23:00Mon 	 10c 	 63%
00:00Tue 	 10c 	 70%
01:00Tue 	 10c 	 70%
02:00Tue 	 10c 	 70%
03:00Tue 	 10c 	 68%
04:00Tue 	 10c 	 61%
05:00Tue 	 10c 	 54%

# /home/pi/Documents/bbc-weather-predictions/data/Dec21Mon/bbcweather_Sunday20thDecember_2020-12-21_0100.txt
# time 	 temp 	 rain
01:00Mon 	 7c 	 99%
02:00Mon 	 8c 	 89%
03:00Mon 	 9c 	 79%
04:00Mon 	 9c 	 90%
05:00Mon 	 9c 	 95%
06:00Mon 	 10c 	 97%
07:00Mon 	 11c 	 93%
08:00Mon 	 11c 	 85%
09:00Mon 	 11c 	 74%
10:00Mon 	 12c 	 67%
11:00Mon 	 12c 	 64%
12:00Mon 	 12c 	 55%
13:00Mon 	 12c 	 46%
14:00Mon 	 12c 	 38%
15:00Mon 	 12c 	 29%
16:00Mon 	 12c 	 26%
17:00Mon 	 11c 	 28%
18:00Mon 	 10c 	 28%
19:00Mon 	 10c 	 36%
20:00Mon 	 11c 	 39%
21:00Mon 	 10c 	 42%
22:00Mon 	 10c 	 51%
23:00Mon 	 10c 	 63%
00:00Tue 	 10c 	 70%
01:00Tue 	 10c 	 70%
02:00Tue 	 10c 	 70%
03:00Tue 	 10c 	 68%
04:00Tue 	 10c 	 61%
05:00Tue 	 10c 	 54%

# /home/pi/Documents/bbc-weather-predictions/data/Dec21Mon/bbcweather_Sunday20thDecember_2020-12-21_0115.txt
# time 	 temp 	 rain
02:00Mon 	 8c 	 100%
03:00Mon 	 8c 	 95%
04:00Mon 	 9c 	 90%
05:00Mon 	 9c 	 95%
06:00Mon 	 10c 	 97%
07:00Mon 	 11c 	 93%
08:00Mon 	 11c 	 85%
09:00Mon 	 11c 	 74%
10:00Mon 	 12c 	 67%
11:00Mon 	 12c 	 64%
12:00Mon 	 13c 	 64%
13:00Mon 	 13c 	 56%
14:00Mon 	 13c 	 49%
15:00Mon 	 12c 	 41%
16:00Mon 	 12c 	 38%
17:00Mon 	 12c 	 40%
18:00Mon 	 11c 	 40%
19:00Mon 	 11c 	 43%
20:00Mon 	 11c 	 42%
21:00Mon 	 11c 	 42%
22:00Mon 	 11c 	 51%
23:00Mon 	 10c 	 63%
00:00Tue 	 10c 	 70%
01:00Tue 	 10c 	 70%
02:00Tue 	 10c 	 70%
03:00Tue 	 10c 	 68%
04:00Tue 	 10c 	 61%
05:00Tue 	 10c 	 54%

# /home/pi/Documents/bbc-weather-predictions/data/Dec21Mon/bbcweather_Sunday20thDecember_2020-12-21_0130.txt
# time 	 temp 	 rain
02:00Mon 	 8c 	 100%
03:00Mon 	 8c 	 95%
04:00Mon 	 9c 	 90%
05:00Mon 	 9c 	 95%
06:00Mon 	 10c 	 97%
07:00Mon 	 11c 	 93%
08:00Mon 	 11c 	 85%
09:00Mon 	 11c 	 74%
10:00Mon 	 12c 	 67%
11:00Mon 	 12c 	 64%
12:00Mon 	 13c 	 64%
13:00Mon 	 13c 	 56%
14:00Mon 	 13c 	 49%
15:00Mon 	 12c 	 41%
16:00Mon 	 12c 	 38%
17:00Mon 	 12c 	 40%
18:00Mon 	 11c 	 40%
19:00Mon 	 11c 	 43%
20:00Mon 	 11c 	 42%
21:00Mon 	 11c 	 42%
22:00Mon 	 11c 	 51%
23:00Mon 	 10c 	 63%
00:00Tue 	 10c 	 70%
01:00Tue 	 10c 	 70%
02:00Tue 	 10c 	 70%
03:00Tue 	 10c 	 68%
04:00Tue 	 10c 	 61%
05:00Tue 	 10c 	 54%

# /home/pi/Documents/bbc-weather-predictions/data/Dec21Mon/bbcweather_Sunday20thDecember_2020-12-21_0145.txt
# time 	 temp 	 rain
02:00Mon 	 8c 	 100%
03:00Mon 	 8c 	 95%
04:00Mon 	 9c 	 90%
05:00Mon 	 9c 	 95%
06:00Mon 	 10c 	 97%
07:00Mon 	 11c 	 93%
08:00Mon 	 11c 	 85%
09:00Mon 	 11c 	 74%
10:00Mon 	 12c 	 67%
11:00Mon 	 12c 	 64%
12:00Mon 	 13c 	 64%
13:00Mon 	 13c 	 56%
14:00Mon 	 13c 	 49%
15:00Mon 	 12c 	 41%
16:00Mon 	 12c 	 38%
17:00Mon 	 12c 	 40%
18:00Mon 	 11c 	 40%
19:00Mon 	 11c 	 43%
20:00Mon 	 11c 	 42%
21:00Mon 	 11c 	 42%
22:00Mon 	 11c 	 51%
23:00Mon 	 10c 	 63%
00:00Tue 	 10c 	 70%
01:00Tue 	 10c 	 70%
02:00Tue 	 10c 	 70%
03:00Tue 	 10c 	 68%
04:00Tue 	 10c 	 61%
05:00Tue 	 10c 	 54%

# /home/pi/Documents/bbc-weather-predictions/data/Dec21Mon/bbcweather_Sunday20thDecember_2020-12-21_0200.txt
# time 	 temp 	 rain
02:00Mon 	 8c 	 100%
03:00Mon 	 8c 	 100%
04:00Mon 	 9c 	 97%
05:00Mon 	 9c 	 95%
06:00Mon 	 10c 	 97%
07:00Mon 	 11c 	 93%
08:00Mon 	 11c 	 85%
09:00Mon 	 11c 	 74%
10:00Mon 	 12c 	 67%
11:00Mon 	 12c 	 64%
12:00Mon 	 13c 	 64%
13:00Mon 	 13c 	 56%
14:00Mon 	 13c 	 49%
15:00Mon 	 12c 	 41%
16:00Mon 	 12c 	 38%
17:00Mon 	 12c 	 40%
18:00Mon 	 11c 	 40%
19:00Mon 	 11c 	 43%
20:00Mon 	 11c 	 42%
21:00Mon 	 11c 	 42%
22:00Mon 	 11c 	 51%
23:00Mon 	 10c 	 63%
00:00Tue 	 10c 	 70%
01:00Tue 	 10c 	 70%
02:00Tue 	 10c 	 70%
03:00Tue 	 10c 	 68%
04:00Tue 	 10c 	 61%
05:00Tue 	 10c 	 54%

# /home/pi/Documents/bbc-weather-predictions/data/Dec21Mon/bbcweather_Sunday20thDecember_2020-12-21_0215.txt
# time 	 temp 	 rain
03:00Mon 	 8c 	 100%
04:00Mon 	 9c 	 97%
05:00Mon 	 9c 	 95%
06:00Mon 	 10c 	 97%
07:00Mon 	 11c 	 93%
08:00Mon 	 11c 	 85%
09:00Mon 	 11c 	 74%
10:00Mon 	 12c 	 67%
11:00Mon 	 12c 	 64%
12:00Mon 	 13c 	 64%
13:00Mon 	 13c 	 56%
14:00Mon 	 13c 	 49%
15:00Mon 	 12c 	 41%
16:00Mon 	 12c 	 38%
17:00Mon 	 12c 	 40%
18:00Mon 	 11c 	 40%
19:00Mon 	 11c 	 43%
20:00Mon 	 11c 	 42%
21:00Mon 	 11c 	 42%
22:00Mon 	 11c 	 51%
23:00Mon 	 10c 	 63%
00:00Tue 	 10c 	 70%
01:00Tue 	 10c 	 70%
02:00Tue 	 10c 	 70%
03:00Tue 	 10c 	 68%
04:00Tue 	 10c 	 61%
05:00Tue 	 10c 	 54%

# /home/pi/Documents/bbc-weather-predictions/data/Dec21Mon/bbcweather_Sunday20thDecember_2020-12-21_0230.txt
# time 	 temp 	 rain
03:00Mon 	 8c 	 100%
04:00Mon 	 9c 	 97%
05:00Mon 	 9c 	 95%
06:00Mon 	 10c 	 97%
07:00Mon 	 11c 	 93%
08:00Mon 	 11c 	 85%
09:00Mon 	 11c 	 74%
10:00Mon 	 12c 	 67%
11:00Mon 	 12c 	 64%
12:00Mon 	 13c 	 64%
13:00Mon 	 13c 	 56%
14:00Mon 	 13c 	 49%
15:00Mon 	 12c 	 41%
16:00Mon 	 12c 	 38%
17:00Mon 	 12c 	 40%
18:00Mon 	 11c 	 40%
19:00Mon 	 11c 	 43%
20:00Mon 	 11c 	 42%
21:00Mon 	 11c 	 42%
22:00Mon 	 11c 	 51%
23:00Mon 	 10c 	 63%
00:00Tue 	 10c 	 70%
01:00Tue 	 10c 	 70%
02:00Tue 	 10c 	 70%
03:00Tue 	 10c 	 68%
04:00Tue 	 10c 	 61%
05:00Tue 	 10c 	 54%

# /home/pi/Documents/bbc-weather-predictions/data/Dec21Mon/bbcweather_Sunday20thDecember_2020-12-21_0245.txt
# time 	 temp 	 rain
03:00Mon 	 8c 	 100%
04:00Mon 	 9c 	 97%
05:00Mon 	 9c 	 95%
06:00Mon 	 10c 	 97%
07:00Mon 	 11c 	 93%
08:00Mon 	 11c 	 85%
09:00Mon 	 11c 	 74%
10:00Mon 	 12c 	 67%
11:00Mon 	 12c 	 64%
12:00Mon 	 13c 	 64%
13:00Mon 	 13c 	 56%
14:00Mon 	 13c 	 49%
15:00Mon 	 12c 	 41%
16:00Mon 	 12c 	 38%
17:00Mon 	 12c 	 40%
18:00Mon 	 11c 	 40%
19:00Mon 	 11c 	 43%
20:00Mon 	 11c 	 42%
21:00Mon 	 11c 	 42%
22:00Mon 	 11c 	 51%
23:00Mon 	 10c 	 63%
00:00Tue 	 10c 	 70%
01:00Tue 	 10c 	 70%
02:00Tue 	 10c 	 70%
03:00Tue 	 10c 	 68%
04:00Tue 	 10c 	 61%
05:00Tue 	 10c 	 54%

# /home/pi/Documents/bbc-weather-predictions/data/Dec21Mon/bbcweather_Sunday20thDecember_2020-12-21_0300.txt
# time 	 temp 	 rain
03:00Mon 	 8c 	 100%
04:00Mon 	 9c 	 97%
05:00Mon 	 9c 	 95%
06:00Mon 	 10c 	 97%
07:00Mon 	 11c 	 93%
08:00Mon 	 11c 	 85%
09:00Mon 	 11c 	 74%
10:00Mon 	 12c 	 67%
11:00Mon 	 12c 	 64%
12:00Mon 	 13c 	 64%
13:00Mon 	 13c 	 56%
14:00Mon 	 13c 	 49%
15:00Mon 	 12c 	 41%
16:00Mon 	 12c 	 38%
17:00Mon 	 12c 	 40%
18:00Mon 	 11c 	 40%
19:00Mon 	 11c 	 43%
20:00Mon 	 11c 	 42%
21:00Mon 	 11c 	 42%
22:00Mon 	 11c 	 51%
23:00Mon 	 10c 	 63%
00:00Tue 	 10c 	 70%
01:00Tue 	 10c 	 70%
02:00Tue 	 10c 	 70%
03:00Tue 	 10c 	 68%
04:00Tue 	 10c 	 61%
05:00Tue 	 10c 	 54%

# /home/pi/Documents/bbc-weather-predictions/data/Dec21Mon/bbcweather_Sunday20thDecember_2020-12-21_0315.txt
# time 	 temp 	 rain
04:00Mon 	 9c 	 100%
05:00Mon 	 9c 	 99%
06:00Mon 	 10c 	 97%
07:00Mon 	 10c 	 93%
08:00Mon 	 11c 	 85%
09:00Mon 	 11c 	 74%
10:00Mon 	 12c 	 67%
11:00Mon 	 12c 	 64%
12:00Mon 	 13c 	 64%
13:00Mon 	 13c 	 56%
14:00Mon 	 13c 	 49%
15:00Mon 	 12c 	 41%
16:00Mon 	 12c 	 38%
17:00Mon 	 12c 	 40%
18:00Mon 	 11c 	 40%
19:00Mon 	 11c 	 43%
20:00Mon 	 11c 	 42%
21:00Mon 	 11c 	 42%
22:00Mon 	 11c 	 51%
23:00Mon 	 10c 	 63%
00:00Tue 	 10c 	 70%
01:00Tue 	 10c 	 70%
02:00Tue 	 10c 	 70%
03:00Tue 	 10c 	 68%
04:00Tue 	 10c 	 61%
05:00Tue 	 10c 	 54%

# /home/pi/Documents/bbc-weather-predictions/data/Dec21Mon/bbcweather_Sunday20thDecember_2020-12-21_0330.txt
# time 	 temp 	 rain
04:00Mon 	 9c 	 100%
05:00Mon 	 9c 	 99%
06:00Mon 	 10c 	 97%
07:00Mon 	 10c 	 93%
08:00Mon 	 11c 	 85%
09:00Mon 	 11c 	 74%
10:00Mon 	 12c 	 67%
11:00Mon 	 12c 	 64%
12:00Mon 	 13c 	 64%
13:00Mon 	 13c 	 56%
14:00Mon 	 13c 	 49%
15:00Mon 	 12c 	 41%
16:00Mon 	 12c 	 38%
17:00Mon 	 12c 	 40%
18:00Mon 	 11c 	 40%
19:00Mon 	 11c 	 43%
20:00Mon 	 11c 	 42%
21:00Mon 	 11c 	 42%
22:00Mon 	 11c 	 51%
23:00Mon 	 10c 	 63%
00:00Tue 	 10c 	 70%
01:00Tue 	 10c 	 70%
02:00Tue 	 10c 	 70%
03:00Tue 	 10c 	 68%
04:00Tue 	 10c 	 61%
05:00Tue 	 10c 	 54%

# /home/pi/Documents/bbc-weather-predictions/data/Dec21Mon/bbcweather_Sunday20thDecember_2020-12-21_0345.txt
# time 	 temp 	 rain
04:00Mon 	 9c 	 100%
05:00Mon 	 9c 	 99%
06:00Mon 	 10c 	 97%
07:00Mon 	 10c 	 93%
08:00Mon 	 11c 	 85%
09:00Mon 	 11c 	 74%
10:00Mon 	 12c 	 67%
11:00Mon 	 12c 	 64%
12:00Mon 	 13c 	 64%
13:00Mon 	 13c 	 56%
14:00Mon 	 13c 	 49%
15:00Mon 	 12c 	 41%
16:00Mon 	 12c 	 38%
17:00Mon 	 12c 	 40%
18:00Mon 	 11c 	 40%
19:00Mon 	 11c 	 43%
20:00Mon 	 11c 	 42%
21:00Mon 	 11c 	 42%
22:00Mon 	 11c 	 51%
23:00Mon 	 10c 	 63%
00:00Tue 	 10c 	 70%
01:00Tue 	 10c 	 70%
02:00Tue 	 10c 	 70%
03:00Tue 	 10c 	 68%
04:00Tue 	 10c 	 61%
05:00Tue 	 10c 	 54%

# /home/pi/Documents/bbc-weather-predictions/data/Dec21Mon/bbcweather_Sunday20thDecember_2020-12-21_0400.txt
# time 	 temp 	 rain
04:00Mon 	 9c 	 100%
05:00Mon 	 9c 	 100%
06:00Mon 	 10c 	 99%
07:00Mon 	 10c 	 93%
08:00Mon 	 11c 	 85%
09:00Mon 	 11c 	 74%
10:00Mon 	 12c 	 67%
11:00Mon 	 12c 	 64%
12:00Mon 	 13c 	 64%
13:00Mon 	 13c 	 56%
14:00Mon 	 13c 	 49%
15:00Mon 	 12c 	 41%
16:00Mon 	 12c 	 38%
17:00Mon 	 12c 	 40%
18:00Mon 	 11c 	 40%
19:00Mon 	 11c 	 43%
20:00Mon 	 11c 	 42%
21:00Mon 	 11c 	 42%
22:00Mon 	 11c 	 51%
23:00Mon 	 10c 	 63%
00:00Tue 	 10c 	 70%
01:00Tue 	 10c 	 70%
02:00Tue 	 10c 	 70%
03:00Tue 	 10c 	 68%
04:00Tue 	 10c 	 61%
05:00Tue 	 10c 	 54%

# /home/pi/Documents/bbc-weather-predictions/data/Dec21Mon/bbcweather_Sunday20thDecember_2020-12-21_0415.txt
# time 	 temp 	 rain
05:00Mon 	 9c 	 100%
06:00Mon 	 10c 	 99%
07:00Mon 	 10c 	 93%
08:00Mon 	 11c 	 85%
09:00Mon 	 11c 	 74%
10:00Mon 	 12c 	 67%
11:00Mon 	 12c 	 64%
12:00Mon 	 13c 	 64%
13:00Mon 	 13c 	 56%
14:00Mon 	 13c 	 49%
15:00Mon 	 12c 	 41%
16:00Mon 	 12c 	 38%
17:00Mon 	 12c 	 40%
18:00Mon 	 11c 	 40%
19:00Mon 	 11c 	 43%
20:00Mon 	 11c 	 42%
21:00Mon 	 11c 	 42%
22:00Mon 	 11c 	 51%
23:00Mon 	 10c 	 63%
00:00Tue 	 10c 	 70%
01:00Tue 	 10c 	 70%
02:00Tue 	 10c 	 70%
03:00Tue 	 10c 	 68%
04:00Tue 	 10c 	 61%
05:00Tue 	 10c 	 54%

# /home/pi/Documents/bbc-weather-predictions/data/Dec21Mon/bbcweather_Sunday20thDecember_2020-12-21_0430.txt
# time 	 temp 	 rain
05:00Mon 	 9c 	 100%
06:00Mon 	 10c 	 99%
07:00Mon 	 10c 	 93%
08:00Mon 	 11c 	 85%
09:00Mon 	 11c 	 74%
10:00Mon 	 12c 	 67%
11:00Mon 	 12c 	 64%
12:00Mon 	 13c 	 64%
13:00Mon 	 13c 	 56%
14:00Mon 	 13c 	 49%
15:00Mon 	 12c 	 41%
16:00Mon 	 12c 	 38%
17:00Mon 	 12c 	 40%
18:00Mon 	 11c 	 40%
19:00Mon 	 11c 	 43%
20:00Mon 	 11c 	 42%
21:00Mon 	 11c 	 42%
22:00Mon 	 11c 	 51%
23:00Mon 	 10c 	 63%
00:00Tue 	 10c 	 70%
01:00Tue 	 10c 	 70%
02:00Tue 	 10c 	 70%
03:00Tue 	 10c 	 68%
04:00Tue 	 10c 	 61%
05:00Tue 	 10c 	 54%

# /home/pi/Documents/bbc-weather-predictions/data/Dec21Mon/bbcweather_Sunday20thDecember_2020-12-21_0445.txt
# time 	 temp 	 rain
05:00Mon 	 9c 	 100%
06:00Mon 	 10c 	 99%
07:00Mon 	 10c 	 93%
08:00Mon 	 11c 	 85%
09:00Mon 	 11c 	 74%
10:00Mon 	 12c 	 67%
11:00Mon 	 12c 	 64%
12:00Mon 	 13c 	 64%
13:00Mon 	 13c 	 56%
14:00Mon 	 13c 	 49%
15:00Mon 	 12c 	 41%
16:00Mon 	 12c 	 38%
17:00Mon 	 12c 	 40%
18:00Mon 	 11c 	 40%
19:00Mon 	 11c 	 43%
20:00Mon 	 11c 	 42%
21:00Mon 	 11c 	 42%
22:00Mon 	 11c 	 51%
23:00Mon 	 10c 	 63%
00:00Tue 	 10c 	 70%
01:00Tue 	 10c 	 70%
02:00Tue 	 10c 	 70%
03:00Tue 	 10c 	 68%
04:00Tue 	 10c 	 61%
05:00Tue 	 10c 	 54%

# /home/pi/Documents/bbc-weather-predictions/data/Dec21Mon/bbcweather_Sunday20thDecember_2020-12-21_0500.txt
# time 	 temp 	 rain
05:00Mon 	 9c 	 100%
06:00Mon 	 10c 	 99%
07:00Mon 	 10c 	 93%
08:00Mon 	 11c 	 85%
09:00Mon 	 11c 	 74%
10:00Mon 	 12c 	 67%
11:00Mon 	 12c 	 64%
12:00Mon 	 13c 	 64%
13:00Mon 	 13c 	 56%
14:00Mon 	 13c 	 49%
15:00Mon 	 12c 	 41%
16:00Mon 	 12c 	 38%
17:00Mon 	 12c 	 40%
18:00Mon 	 11c 	 40%
19:00Mon 	 11c 	 43%
20:00Mon 	 11c 	 42%
21:00Mon 	 11c 	 42%
22:00Mon 	 11c 	 51%
23:00Mon 	 10c 	 63%
00:00Tue 	 10c 	 70%
01:00Tue 	 10c 	 70%
02:00Tue 	 10c 	 70%
03:00Tue 	 10c 	 68%
04:00Tue 	 10c 	 61%
05:00Tue 	 10c 	 54%

# /home/pi/Documents/bbc-weather-predictions/data/Dec21Mon/bbcweather_Sunday20thDecember_2020-12-21_0515.txt
# time 	 temp 	 rain
06:00Mon 	 10c 	 100%
07:00Mon 	 10c 	 98%
08:00Mon 	 11c 	 85%
09:00Mon 	 11c 	 74%
10:00Mon 	 12c 	 67%
11:00Mon 	 12c 	 64%
12:00Mon 	 13c 	 64%
13:00Mon 	 13c 	 56%
14:00Mon 	 13c 	 49%
15:00Mon 	 12c 	 41%
16:00Mon 	 12c 	 38%
17:00Mon 	 12c 	 40%
18:00Mon 	 11c 	 40%
19:00Mon 	 11c 	 43%
20:00Mon 	 11c 	 42%
21:00Mon 	 11c 	 42%
22:00Mon 	 11c 	 51%
23:00Mon 	 10c 	 63%
00:00Tue 	 10c 	 70%
01:00Tue 	 10c 	 70%
02:00Tue 	 10c 	 70%
03:00Tue 	 10c 	 68%
04:00Tue 	 10c 	 61%
05:00Tue 	 10c 	 54%
06:00Tue 	 10c 	 100%
07:00Tue 	 10c 	 98%
08:00Tue 	 11c 	 85%
09:00Tue 	 11c 	 74%
10:00Tue 	 12c 	 67%
11:00Tue 	 12c 	 64%
12:00Tue 	 13c 	 64%
13:00Tue 	 13c 	 56%
14:00Tue 	 13c 	 49%
15:00Tue 	 12c 	 41%
16:00Tue 	 12c 	 38%
17:00Tue 	 12c 	 40%
18:00Tue 	 11c 	 40%
19:00Tue 	 11c 	 43%
20:00Tue 	 11c 	 42%
21:00Tue 	 11c 	 42%
22:00Tue 	 11c 	 51%
23:00Tue 	 10c 	 63%
00:00Tue 	 10c 	 70%
01:00Tue 	 10c 	 70%
02:00Tue 	 10c 	 70%
03:00Tue 	 10c 	 68%
04:00Tue 	 10c 	 61%
05:00Tue 	 10c 	 54%

# /home/pi/Documents/bbc-weather-predictions/data/Dec21Mon/bbcweather_Sunday20thDecember_2020-12-21_0530.txt
# time 	 temp 	 rain
06:00Mon 	 10c 	 100%
07:00Mon 	 10c 	 98%
08:00Mon 	 11c 	 85%
09:00Mon 	 11c 	 74%
10:00Mon 	 12c 	 67%
11:00Mon 	 12c 	 64%
12:00Mon 	 13c 	 64%
13:00Mon 	 13c 	 56%
14:00Mon 	 13c 	 49%
15:00Mon 	 12c 	 41%
16:00Mon 	 12c 	 38%
17:00Mon 	 12c 	 40%
18:00Mon 	 11c 	 40%
19:00Mon 	 11c 	 43%
20:00Mon 	 11c 	 42%
21:00Mon 	 11c 	 42%
22:00Mon 	 11c 	 51%
23:00Mon 	 10c 	 63%
00:00Tue 	 10c 	 70%
01:00Tue 	 10c 	 70%
02:00Tue 	 10c 	 70%
03:00Tue 	 10c 	 68%
04:00Tue 	 10c 	 61%
05:00Tue 	 10c 	 54%
06:00Tue 	 10c 	 100%
07:00Tue 	 10c 	 98%
08:00Tue 	 11c 	 85%
09:00Tue 	 11c 	 74%
10:00Tue 	 12c 	 67%
11:00Tue 	 12c 	 64%
12:00Tue 	 13c 	 64%
13:00Tue 	 13c 	 56%
14:00Tue 	 13c 	 49%
15:00Tue 	 12c 	 41%
16:00Tue 	 12c 	 38%
17:00Tue 	 12c 	 40%
18:00Tue 	 11c 	 40%
19:00Tue 	 11c 	 43%
20:00Tue 	 11c 	 42%
21:00Tue 	 11c 	 42%
22:00Tue 	 11c 	 51%
23:00Tue 	 10c 	 63%
00:00Tue 	 10c 	 70%
01:00Tue 	 10c 	 70%
02:00Tue 	 10c 	 70%
03:00Tue 	 10c 	 68%
04:00Tue 	 10c 	 61%
05:00Tue 	 10c 	 54%

# /home/pi/Documents/bbc-weather-predictions/data/Dec21Mon/bbcweather_Sunday20thDecember_2020-12-21_0545.txt
# time 	 temp 	 rain
06:00Mon 	 10c 	 100%
07:00Mon 	 10c 	 98%
08:00Mon 	 11c 	 85%
09:00Mon 	 11c 	 74%
10:00Mon 	 12c 	 67%
11:00Mon 	 12c 	 64%
12:00Mon 	 13c 	 64%
13:00Mon 	 13c 	 56%
14:00Mon 	 13c 	 49%
15:00Mon 	 12c 	 41%
16:00Mon 	 12c 	 38%
17:00Mon 	 12c 	 40%
18:00Mon 	 11c 	 40%
19:00Mon 	 11c 	 43%
20:00Mon 	 11c 	 42%
21:00Mon 	 11c 	 42%
22:00Mon 	 11c 	 51%
23:00Mon 	 10c 	 63%
00:00Tue 	 10c 	 70%
01:00Tue 	 10c 	 70%
02:00Tue 	 10c 	 70%
03:00Tue 	 10c 	 68%
04:00Tue 	 10c 	 61%
05:00Tue 	 10c 	 54%
06:00Tue 	 10c 	 100%
07:00Tue 	 10c 	 98%
08:00Tue 	 11c 	 85%
09:00Tue 	 11c 	 74%
10:00Tue 	 12c 	 67%
11:00Tue 	 12c 	 64%
12:00Tue 	 13c 	 64%
13:00Tue 	 13c 	 56%
14:00Tue 	 13c 	 49%
15:00Tue 	 12c 	 41%
16:00Tue 	 12c 	 38%
17:00Tue 	 12c 	 40%
18:00Tue 	 11c 	 40%
19:00Tue 	 11c 	 43%
20:00Tue 	 11c 	 42%
21:00Tue 	 11c 	 42%
22:00Tue 	 11c 	 51%
23:00Tue 	 10c 	 63%
00:00Tue 	 10c 	 70%
01:00Tue 	 10c 	 70%
02:00Tue 	 10c 	 70%
03:00Tue 	 10c 	 68%
04:00Tue 	 10c 	 61%
05:00Tue 	 10c 	 54%

# /home/pi/Documents/bbc-weather-predictions/data/Dec21Mon/bbcweather_Sunday20thDecember_2020-12-21_0600.txt
# time 	 temp 	 rain
06:00Mon 	 10c 	 100%
07:00Mon 	 10c 	 98%
08:00Mon 	 11c 	 85%
09:00Mon 	 11c 	 74%
10:00Mon 	 12c 	 67%
11:00Mon 	 12c 	 64%
12:00Mon 	 13c 	 64%
13:00Mon 	 13c 	 56%
14:00Mon 	 13c 	 49%
15:00Mon 	 12c 	 41%
16:00Mon 	 12c 	 38%
17:00Mon 	 12c 	 40%
18:00Mon 	 11c 	 40%
19:00Mon 	 11c 	 43%
20:00Mon 	 11c 	 42%
21:00Mon 	 11c 	 42%
22:00Mon 	 11c 	 51%
23:00Mon 	 10c 	 63%
00:00Tue 	 10c 	 70%
01:00Tue 	 10c 	 70%
02:00Tue 	 10c 	 70%
03:00Tue 	 10c 	 68%
04:00Tue 	 10c 	 61%
05:00Tue 	 10c 	 54%
06:00Tue 	 10c 	 100%
07:00Tue 	 10c 	 98%
08:00Tue 	 11c 	 85%
09:00Tue 	 11c 	 74%
10:00Tue 	 12c 	 67%
11:00Tue 	 12c 	 64%
12:00Tue 	 13c 	 64%
13:00Tue 	 13c 	 56%
14:00Tue 	 13c 	 49%
15:00Tue 	 12c 	 41%
16:00Tue 	 12c 	 38%
17:00Tue 	 12c 	 40%
18:00Tue 	 11c 	 40%
19:00Tue 	 11c 	 43%
20:00Tue 	 11c 	 42%
21:00Tue 	 11c 	 42%
22:00Tue 	 11c 	 51%
23:00Tue 	 10c 	 63%
00:00Tue 	 10c 	 70%
01:00Tue 	 10c 	 70%
02:00Tue 	 10c 	 70%
03:00Tue 	 10c 	 68%
04:00Tue 	 10c 	 61%
05:00Tue 	 10c 	 54%
