# /home/pi/Documents/bbc-weather-predictions/data/Feb01Mon/bbcweather_Monday1stFebruary_2021-02-01_0530.txt
06:00Mon 	 2c 	 0%
07:00Mon 	 2c 	 6%
08:00Mon 	 2c 	 22%
09:00Mon 	 2c 	 22%
10:00Mon 	 3c 	 20%
11:00Mon 	 4c 	 18%
12:00Mon 	 4c 	 17%
13:00Mon 	 5c 	 15%
14:00Mon 	 5c 	 13%
15:00Mon 	 5c 	 12%
16:00Mon 	 5c 	 13%
17:00Mon 	 5c 	 16%
18:00Mon 	 5c 	 18%
19:00Mon 	 5c 	 20%
20:00Mon 	 4c 	 22%
21:00Mon 	 4c 	 29%
22:00Mon 	 4c 	 42%
23:00Mon 	 5c 	 58%


# /home/pi/Documents/bbc-weather-predictions/data/Feb01Mon/bbcweather_Monday1stFebruary_2021-02-01_0545.txt
06:00Mon 	 2c 	 0%
07:00Mon 	 2c 	 6%
08:00Mon 	 2c 	 22%
09:00Mon 	 2c 	 22%
10:00Mon 	 3c 	 20%
11:00Mon 	 4c 	 18%
12:00Mon 	 4c 	 17%
13:00Mon 	 5c 	 15%
14:00Mon 	 5c 	 13%
15:00Mon 	 5c 	 12%
16:00Mon 	 5c 	 13%
17:00Mon 	 5c 	 16%
18:00Mon 	 5c 	 18%
19:00Mon 	 5c 	 20%
20:00Mon 	 4c 	 22%
21:00Mon 	 4c 	 29%
22:00Mon 	 4c 	 42%
23:00Mon 	 5c 	 58%


# /home/pi/Documents/bbc-weather-predictions/data/Feb01Mon/bbcweather_Monday1stFebruary_2021-02-01_0600.txt
06:00Mon 	 2c 	 0%
07:00Mon 	 2c 	 6%
08:00Mon 	 2c 	 22%
09:00Mon 	 2c 	 22%
10:00Mon 	 3c 	 20%
11:00Mon 	 4c 	 18%
12:00Mon 	 4c 	 17%
13:00Mon 	 5c 	 15%
14:00Mon 	 5c 	 13%
15:00Mon 	 5c 	 12%
16:00Mon 	 5c 	 13%
17:00Mon 	 5c 	 16%
18:00Mon 	 5c 	 18%
19:00Mon 	 5c 	 20%
20:00Mon 	 4c 	 22%
21:00Mon 	 4c 	 29%
22:00Mon 	 4c 	 42%
23:00Mon 	 5c 	 58%


# /home/pi/Documents/bbc-weather-predictions/data/Feb01Mon/bbcweather_Monday1stFebruary_2021-02-01_0615.txt
07:00Mon 	 2c 	 6%
08:00Mon 	 2c 	 22%
09:00Mon 	 2c 	 22%
10:00Mon 	 3c 	 20%
11:00Mon 	 4c 	 18%
12:00Mon 	 4c 	 17%
13:00Mon 	 5c 	 15%
14:00Mon 	 5c 	 13%
15:00Mon 	 5c 	 12%
16:00Mon 	 5c 	 13%
17:00Mon 	 5c 	 16%
18:00Mon 	 5c 	 18%
19:00Mon 	 5c 	 20%
20:00Mon 	 4c 	 22%
21:00Mon 	 4c 	 29%
22:00Mon 	 4c 	 42%
23:00Mon 	 5c 	 58%


# /home/pi/Documents/bbc-weather-predictions/data/Feb01Mon/bbcweather_Monday1stFebruary_2021-02-01_0630.txt
07:00Mon 	 2c 	 6%
08:00Mon 	 2c 	 22%
09:00Mon 	 2c 	 22%
10:00Mon 	 3c 	 20%
11:00Mon 	 4c 	 18%
12:00Mon 	 4c 	 17%
13:00Mon 	 5c 	 15%
14:00Mon 	 5c 	 13%
15:00Mon 	 5c 	 12%
16:00Mon 	 5c 	 13%
17:00Mon 	 5c 	 16%
18:00Mon 	 5c 	 18%
19:00Mon 	 5c 	 20%
20:00Mon 	 4c 	 22%
21:00Mon 	 4c 	 29%
22:00Mon 	 4c 	 42%
23:00Mon 	 5c 	 58%


# /home/pi/Documents/bbc-weather-predictions/data/Feb01Mon/bbcweather_Monday1stFebruary_2021-02-01_0645.txt
07:00Mon 	 2c 	 0%
08:00Mon 	 2c 	 5%
09:00Mon 	 2c 	 22%
10:00Mon 	 3c 	 20%
11:00Mon 	 4c 	 18%
12:00Mon 	 4c 	 17%
13:00Mon 	 5c 	 15%
14:00Mon 	 5c 	 13%
15:00Mon 	 5c 	 12%
16:00Mon 	 5c 	 13%
17:00Mon 	 5c 	 16%
18:00Mon 	 5c 	 18%
19:00Mon 	 5c 	 20%
20:00Mon 	 4c 	 22%
21:00Mon 	 4c 	 29%
22:00Mon 	 4c 	 42%
23:00Mon 	 5c 	 58%


# /home/pi/Documents/bbc-weather-predictions/data/Feb01Mon/bbcweather_Monday1stFebruary_2021-02-01_0700.txt
07:00Mon 	 2c 	 0%
08:00Mon 	 2c 	 5%
09:00Mon 	 2c 	 22%
10:00Mon 	 3c 	 20%
11:00Mon 	 4c 	 18%
12:00Mon 	 4c 	 17%
13:00Mon 	 5c 	 15%
14:00Mon 	 5c 	 13%
15:00Mon 	 5c 	 12%
16:00Mon 	 5c 	 13%
17:00Mon 	 5c 	 16%
18:00Mon 	 5c 	 18%
19:00Mon 	 5c 	 20%
20:00Mon 	 4c 	 22%
21:00Mon 	 4c 	 29%
22:00Mon 	 4c 	 42%
23:00Mon 	 5c 	 58%


# /home/pi/Documents/bbc-weather-predictions/data/Feb01Mon/bbcweather_Monday1stFebruary_2021-02-01_0715.txt
08:00Mon 	 2c 	 5%
09:00Mon 	 2c 	 22%
10:00Mon 	 3c 	 20%
11:00Mon 	 4c 	 18%
12:00Mon 	 4c 	 17%
13:00Mon 	 5c 	 15%
14:00Mon 	 5c 	 13%
15:00Mon 	 5c 	 12%
16:00Mon 	 5c 	 13%
17:00Mon 	 5c 	 16%
18:00Mon 	 5c 	 18%
19:00Mon 	 5c 	 20%
20:00Mon 	 4c 	 22%
21:00Mon 	 4c 	 29%
22:00Mon 	 4c 	 42%
23:00Mon 	 5c 	 58%


# /home/pi/Documents/bbc-weather-predictions/data/Feb01Mon/bbcweather_Monday1stFebruary_2021-02-01_0730.txt
08:00Mon 	 2c 	 5%
09:00Mon 	 2c 	 22%
10:00Mon 	 3c 	 20%
11:00Mon 	 4c 	 18%
12:00Mon 	 4c 	 17%
13:00Mon 	 5c 	 15%
14:00Mon 	 5c 	 13%
15:00Mon 	 5c 	 12%
16:00Mon 	 5c 	 13%
17:00Mon 	 5c 	 16%
18:00Mon 	 5c 	 18%
19:00Mon 	 5c 	 20%
20:00Mon 	 4c 	 22%
21:00Mon 	 4c 	 29%
22:00Mon 	 4c 	 42%
23:00Mon 	 5c 	 58%


# /home/pi/Documents/bbc-weather-predictions/data/Feb01Mon/bbcweather_Monday1stFebruary_2021-02-01_0745.txt
08:00Mon 	 2c 	 0%
09:00Mon 	 2c 	 0%
10:00Mon 	 2c 	 5%
11:00Mon 	 3c 	 10%
12:00Mon 	 4c 	 10%
13:00Mon 	 4c 	 12%
14:00Mon 	 4c 	 14%
15:00Mon 	 5c 	 16%
16:00Mon 	 5c 	 15%
17:00Mon 	 4c 	 13%
18:00Mon 	 4c 	 13%
19:00Mon 	 4c 	 13%
20:00Mon 	 4c 	 15%
21:00Mon 	 4c 	 20%
22:00Mon 	 4c 	 33%
23:00Mon 	 5c 	 49%


# /home/pi/Documents/bbc-weather-predictions/data/Feb01Mon/bbcweather_Monday1stFebruary_2021-02-01_0800.txt
08:00Mon 	 2c 	 0%
09:00Mon 	 2c 	 0%
10:00Mon 	 2c 	 5%
11:00Mon 	 3c 	 10%
12:00Mon 	 4c 	 10%
13:00Mon 	 4c 	 12%
14:00Mon 	 4c 	 14%
15:00Mon 	 5c 	 16%
16:00Mon 	 5c 	 15%
17:00Mon 	 4c 	 13%
18:00Mon 	 4c 	 13%
19:00Mon 	 4c 	 13%
20:00Mon 	 4c 	 15%
21:00Mon 	 4c 	 20%
22:00Mon 	 4c 	 33%
23:00Mon 	 5c 	 49%


# /home/pi/Documents/bbc-weather-predictions/data/Feb01Mon/bbcweather_Monday1stFebruary_2021-02-01_0815.txt
09:00Mon 	 2c 	 0%
10:00Mon 	 2c 	 5%
11:00Mon 	 3c 	 10%
12:00Mon 	 4c 	 10%
13:00Mon 	 4c 	 12%
14:00Mon 	 4c 	 14%
15:00Mon 	 5c 	 16%
16:00Mon 	 5c 	 15%
17:00Mon 	 4c 	 13%
18:00Mon 	 4c 	 13%
19:00Mon 	 4c 	 13%
20:00Mon 	 4c 	 15%
21:00Mon 	 4c 	 20%
22:00Mon 	 4c 	 33%
23:00Mon 	 5c 	 49%


# /home/pi/Documents/bbc-weather-predictions/data/Feb01Mon/bbcweather_Monday1stFebruary_2021-02-01_0830.txt
09:00Mon 	 2c 	 0%
10:00Mon 	 2c 	 5%
11:00Mon 	 3c 	 10%
12:00Mon 	 4c 	 10%
13:00Mon 	 4c 	 12%
14:00Mon 	 4c 	 14%
15:00Mon 	 5c 	 16%
16:00Mon 	 5c 	 15%
17:00Mon 	 4c 	 13%
18:00Mon 	 4c 	 13%
19:00Mon 	 4c 	 13%
20:00Mon 	 4c 	 15%
21:00Mon 	 4c 	 20%
22:00Mon 	 4c 	 33%
23:00Mon 	 5c 	 49%


# /home/pi/Documents/bbc-weather-predictions/data/Feb01Mon/bbcweather_Monday1stFebruary_2021-02-01_0845.txt
09:00Mon 	 2c 	 0%
10:00Mon 	 2c 	 5%
11:00Mon 	 3c 	 10%
12:00Mon 	 4c 	 10%
13:00Mon 	 4c 	 12%
14:00Mon 	 4c 	 14%
15:00Mon 	 5c 	 16%
16:00Mon 	 5c 	 15%
17:00Mon 	 4c 	 13%
18:00Mon 	 4c 	 13%
19:00Mon 	 4c 	 13%
20:00Mon 	 4c 	 15%
21:00Mon 	 4c 	 20%
22:00Mon 	 4c 	 33%
23:00Mon 	 5c 	 49%


# /home/pi/Documents/bbc-weather-predictions/data/Feb01Mon/bbcweather_Monday1stFebruary_2021-02-01_0900.txt
09:00Mon 	 2c 	 0%
10:00Mon 	 2c 	 5%
11:00Mon 	 3c 	 10%
12:00Mon 	 4c 	 10%
13:00Mon 	 4c 	 12%
14:00Mon 	 4c 	 14%
15:00Mon 	 5c 	 16%
16:00Mon 	 5c 	 15%
17:00Mon 	 4c 	 13%
18:00Mon 	 4c 	 13%
19:00Mon 	 4c 	 13%
20:00Mon 	 4c 	 15%
21:00Mon 	 4c 	 20%
22:00Mon 	 4c 	 33%
23:00Mon 	 5c 	 49%


# /home/pi/Documents/bbc-weather-predictions/data/Feb01Mon/bbcweather_Monday1stFebruary_2021-02-01_0915.txt
10:00Mon 	 2c 	 5%
11:00Mon 	 3c 	 10%
12:00Mon 	 4c 	 10%
13:00Mon 	 4c 	 12%
14:00Mon 	 4c 	 14%
15:00Mon 	 5c 	 16%
16:00Mon 	 5c 	 15%
17:00Mon 	 4c 	 13%
18:00Mon 	 4c 	 13%
19:00Mon 	 4c 	 13%
20:00Mon 	 4c 	 15%
21:00Mon 	 4c 	 20%
22:00Mon 	 4c 	 33%
23:00Mon 	 5c 	 49%


# /home/pi/Documents/bbc-weather-predictions/data/Feb01Mon/bbcweather_Monday1stFebruary_2021-02-01_0930.txt
10:00Mon 	 2c 	 5%
11:00Mon 	 3c 	 10%
12:00Mon 	 4c 	 10%
13:00Mon 	 4c 	 12%
14:00Mon 	 4c 	 14%
15:00Mon 	 5c 	 16%
16:00Mon 	 5c 	 15%
17:00Mon 	 4c 	 13%
18:00Mon 	 4c 	 13%
19:00Mon 	 4c 	 13%
20:00Mon 	 4c 	 15%
21:00Mon 	 4c 	 20%
22:00Mon 	 4c 	 33%
23:00Mon 	 5c 	 49%


# /home/pi/Documents/bbc-weather-predictions/data/Feb01Mon/bbcweather_Monday1stFebruary_2021-02-01_0945.txt
10:00Mon 	 3c 	 0%
11:00Mon 	 3c 	 0%
12:00Mon 	 4c 	 5%
13:00Mon 	 4c 	 11%
14:00Mon 	 4c 	 14%
15:00Mon 	 5c 	 16%
16:00Mon 	 5c 	 15%
17:00Mon 	 4c 	 13%
18:00Mon 	 4c 	 13%
19:00Mon 	 4c 	 13%
20:00Mon 	 4c 	 15%
21:00Mon 	 4c 	 20%
22:00Mon 	 4c 	 33%
23:00Mon 	 5c 	 49%


# /home/pi/Documents/bbc-weather-predictions/data/Feb01Mon/bbcweather_Monday1stFebruary_2021-02-01_1000.txt
10:00Mon 	 3c 	 0%
11:00Mon 	 3c 	 0%
12:00Mon 	 4c 	 5%
13:00Mon 	 4c 	 11%
14:00Mon 	 4c 	 14%
15:00Mon 	 5c 	 16%
16:00Mon 	 5c 	 15%
17:00Mon 	 4c 	 13%
18:00Mon 	 4c 	 13%
19:00Mon 	 4c 	 13%
20:00Mon 	 4c 	 15%
21:00Mon 	 4c 	 20%
22:00Mon 	 4c 	 33%
23:00Mon 	 5c 	 49%


# /home/pi/Documents/bbc-weather-predictions/data/Feb01Mon/bbcweather_Monday1stFebruary_2021-02-01_1015.txt
11:00Mon 	 3c 	 0%
12:00Mon 	 4c 	 5%
13:00Mon 	 4c 	 11%
14:00Mon 	 4c 	 14%
15:00Mon 	 5c 	 16%
16:00Mon 	 5c 	 15%
17:00Mon 	 4c 	 13%
18:00Mon 	 4c 	 13%
19:00Mon 	 4c 	 13%
20:00Mon 	 4c 	 15%
21:00Mon 	 4c 	 20%
22:00Mon 	 4c 	 33%
23:00Mon 	 5c 	 49%


# /home/pi/Documents/bbc-weather-predictions/data/Feb01Mon/bbcweather_Monday1stFebruary_2021-02-01_1030.txt
11:00Mon 	 3c 	 0%
12:00Mon 	 4c 	 5%
13:00Mon 	 4c 	 11%
14:00Mon 	 4c 	 14%
15:00Mon 	 5c 	 16%
16:00Mon 	 5c 	 15%
17:00Mon 	 4c 	 13%
18:00Mon 	 4c 	 13%
19:00Mon 	 4c 	 13%
20:00Mon 	 4c 	 15%
21:00Mon 	 4c 	 20%
22:00Mon 	 4c 	 33%
23:00Mon 	 5c 	 49%


# /home/pi/Documents/bbc-weather-predictions/data/Feb01Mon/bbcweather_Monday1stFebruary_2021-02-01_1045.txt
11:00Mon 	 3c 	 2%
12:00Mon 	 3c 	 5%
13:00Mon 	 4c 	 11%
14:00Mon 	 4c 	 14%
15:00Mon 	 5c 	 16%
16:00Mon 	 5c 	 15%
17:00Mon 	 4c 	 13%
18:00Mon 	 4c 	 13%
19:00Mon 	 4c 	 13%
20:00Mon 	 4c 	 15%
21:00Mon 	 4c 	 20%
22:00Mon 	 4c 	 33%
23:00Mon 	 5c 	 49%


# /home/pi/Documents/bbc-weather-predictions/data/Feb01Mon/bbcweather_Monday1stFebruary_2021-02-01_1100.txt
11:00Mon 	 3c 	 2%
12:00Mon 	 3c 	 5%
13:00Mon 	 4c 	 11%
14:00Mon 	 4c 	 14%
15:00Mon 	 5c 	 16%
16:00Mon 	 5c 	 15%
17:00Mon 	 4c 	 13%
18:00Mon 	 4c 	 13%
19:00Mon 	 4c 	 13%
20:00Mon 	 4c 	 15%
21:00Mon 	 4c 	 20%
22:00Mon 	 4c 	 33%
23:00Mon 	 5c 	 49%


# /home/pi/Documents/bbc-weather-predictions/data/Feb01Mon/bbcweather_Monday1stFebruary_2021-02-01_1115.txt
12:00Mon 	 3c 	 5%
13:00Mon 	 4c 	 11%
14:00Mon 	 4c 	 14%
15:00Mon 	 5c 	 16%
16:00Mon 	 5c 	 15%
17:00Mon 	 4c 	 13%
18:00Mon 	 4c 	 13%
19:00Mon 	 4c 	 13%
20:00Mon 	 4c 	 15%
21:00Mon 	 4c 	 20%
22:00Mon 	 4c 	 33%
23:00Mon 	 5c 	 49%


# /home/pi/Documents/bbc-weather-predictions/data/Feb01Mon/bbcweather_Monday1stFebruary_2021-02-01_1130.txt
12:00Mon 	 3c 	 5%
13:00Mon 	 4c 	 11%
14:00Mon 	 4c 	 14%
15:00Mon 	 5c 	 16%
16:00Mon 	 5c 	 15%
17:00Mon 	 4c 	 13%
18:00Mon 	 4c 	 13%
19:00Mon 	 4c 	 13%
20:00Mon 	 4c 	 15%
21:00Mon 	 4c 	 20%
22:00Mon 	 4c 	 33%
23:00Mon 	 5c 	 49%


# /home/pi/Documents/bbc-weather-predictions/data/Feb01Mon/bbcweather_Monday1stFebruary_2021-02-01_1145.txt
12:00Mon 	 4c 	 0%
13:00Mon 	 4c 	 2%
14:00Mon 	 4c 	 13%
15:00Mon 	 5c 	 16%
16:00Mon 	 5c 	 15%
17:00Mon 	 4c 	 13%
18:00Mon 	 4c 	 13%
19:00Mon 	 4c 	 13%
20:00Mon 	 4c 	 15%
21:00Mon 	 4c 	 20%
22:00Mon 	 4c 	 33%
23:00Mon 	 5c 	 49%


# /home/pi/Documents/bbc-weather-predictions/data/Feb01Mon/bbcweather_Monday1stFebruary_2021-02-01_1200.txt
12:00Mon 	 4c 	 0%
13:00Mon 	 4c 	 2%
14:00Mon 	 4c 	 13%
15:00Mon 	 5c 	 16%
16:00Mon 	 5c 	 15%
17:00Mon 	 4c 	 13%
18:00Mon 	 4c 	 13%
19:00Mon 	 4c 	 13%
20:00Mon 	 4c 	 15%
21:00Mon 	 4c 	 20%
22:00Mon 	 4c 	 33%
23:00Mon 	 5c 	 49%


# /home/pi/Documents/bbc-weather-predictions/data/Feb01Mon/bbcweather_Monday1stFebruary_2021-02-01_1215.txt
13:00Mon 	 4c 	 2%
14:00Mon 	 4c 	 13%
15:00Mon 	 5c 	 16%
16:00Mon 	 5c 	 15%
17:00Mon 	 4c 	 13%
18:00Mon 	 4c 	 13%
19:00Mon 	 4c 	 13%
20:00Mon 	 4c 	 15%
21:00Mon 	 4c 	 20%
22:00Mon 	 4c 	 33%
23:00Mon 	 5c 	 49%


# /home/pi/Documents/bbc-weather-predictions/data/Feb01Mon/bbcweather_Monday1stFebruary_2021-02-01_1230.txt
13:00Mon 	 4c 	 2%
14:00Mon 	 4c 	 13%
15:00Mon 	 5c 	 16%
16:00Mon 	 5c 	 15%
17:00Mon 	 4c 	 13%
18:00Mon 	 4c 	 13%
19:00Mon 	 4c 	 13%
20:00Mon 	 4c 	 15%
21:00Mon 	 4c 	 20%
22:00Mon 	 4c 	 33%
23:00Mon 	 5c 	 49%


# /home/pi/Documents/bbc-weather-predictions/data/Feb01Mon/bbcweather_Monday1stFebruary_2021-02-01_1245.txt
13:00Mon 	 4c 	 0%
14:00Mon 	 4c 	 7%
15:00Mon 	 5c 	 16%
16:00Mon 	 5c 	 17%
17:00Mon 	 4c 	 14%
18:00Mon 	 4c 	 13%
19:00Mon 	 4c 	 13%
20:00Mon 	 4c 	 15%
21:00Mon 	 4c 	 20%
22:00Mon 	 4c 	 33%
23:00Mon 	 5c 	 49%


# /home/pi/Documents/bbc-weather-predictions/data/Feb01Mon/bbcweather_Monday1stFebruary_2021-02-01_1300.txt
13:00Mon 	 4c 	 0%
14:00Mon 	 4c 	 7%
15:00Mon 	 5c 	 16%
16:00Mon 	 5c 	 17%
17:00Mon 	 4c 	 14%
18:00Mon 	 4c 	 13%
19:00Mon 	 4c 	 13%
20:00Mon 	 4c 	 15%
21:00Mon 	 4c 	 20%
22:00Mon 	 4c 	 33%
23:00Mon 	 5c 	 49%


# /home/pi/Documents/bbc-weather-predictions/data/Feb01Mon/bbcweather_Monday1stFebruary_2021-02-01_1315.txt
14:00Mon 	 4c 	 7%
15:00Mon 	 5c 	 16%
16:00Mon 	 5c 	 17%
17:00Mon 	 4c 	 14%
18:00Mon 	 4c 	 13%
19:00Mon 	 4c 	 13%
20:00Mon 	 4c 	 15%
21:00Mon 	 4c 	 20%
22:00Mon 	 4c 	 33%
23:00Mon 	 5c 	 49%


# /home/pi/Documents/bbc-weather-predictions/data/Feb01Mon/bbcweather_Monday1stFebruary_2021-02-01_1330.txt
14:00Mon 	 4c 	 7%
15:00Mon 	 5c 	 16%
16:00Mon 	 5c 	 17%
17:00Mon 	 4c 	 14%
18:00Mon 	 4c 	 13%
19:00Mon 	 4c 	 13%
20:00Mon 	 4c 	 15%
21:00Mon 	 4c 	 20%
22:00Mon 	 4c 	 33%
23:00Mon 	 5c 	 49%


# /home/pi/Documents/bbc-weather-predictions/data/Feb01Mon/bbcweather_Monday1stFebruary_2021-02-01_1345.txt
14:00Mon 	 3c 	 0%
15:00Mon 	 4c 	 1%
16:00Mon 	 4c 	 8%
17:00Mon 	 4c 	 16%
18:00Mon 	 4c 	 13%
19:00Mon 	 4c 	 13%
20:00Mon 	 4c 	 15%
21:00Mon 	 4c 	 20%
22:00Mon 	 4c 	 33%
23:00Mon 	 5c 	 49%


# /home/pi/Documents/bbc-weather-predictions/data/Feb01Mon/bbcweather_Monday1stFebruary_2021-02-01_1400.txt
14:00Mon 	 3c 	 0%
15:00Mon 	 4c 	 1%
16:00Mon 	 4c 	 8%
17:00Mon 	 4c 	 16%
18:00Mon 	 4c 	 13%
19:00Mon 	 4c 	 13%
20:00Mon 	 4c 	 15%
21:00Mon 	 4c 	 20%
22:00Mon 	 4c 	 33%
23:00Mon 	 5c 	 49%


# /home/pi/Documents/bbc-weather-predictions/data/Feb01Mon/bbcweather_Monday1stFebruary_2021-02-01_1415.txt
15:00Mon 	 4c 	 1%
16:00Mon 	 4c 	 8%
17:00Mon 	 4c 	 16%
18:00Mon 	 4c 	 13%
19:00Mon 	 4c 	 13%
20:00Mon 	 4c 	 15%
21:00Mon 	 4c 	 20%
22:00Mon 	 4c 	 33%
23:00Mon 	 5c 	 49%


# /home/pi/Documents/bbc-weather-predictions/data/Feb01Mon/bbcweather_Monday1stFebruary_2021-02-01_1430.txt
15:00Mon 	 4c 	 1%
16:00Mon 	 4c 	 8%
17:00Mon 	 4c 	 16%
18:00Mon 	 4c 	 13%
19:00Mon 	 4c 	 13%
20:00Mon 	 4c 	 15%
21:00Mon 	 4c 	 20%
22:00Mon 	 4c 	 33%
23:00Mon 	 5c 	 49%


# /home/pi/Documents/bbc-weather-predictions/data/Feb01Mon/bbcweather_Monday1stFebruary_2021-02-01_1445.txt
15:00Mon 	 4c 	 0%
16:00Mon 	 4c 	 11%
17:00Mon 	 4c 	 49%
18:00Mon 	 4c 	 13%
19:00Mon 	 4c 	 13%
20:00Mon 	 4c 	 15%
21:00Mon 	 4c 	 20%
22:00Mon 	 4c 	 33%
23:00Mon 	 5c 	 49%


# /home/pi/Documents/bbc-weather-predictions/data/Feb01Mon/bbcweather_Monday1stFebruary_2021-02-01_1500.txt
15:00Mon 	 4c 	 0%
16:00Mon 	 4c 	 11%
17:00Mon 	 4c 	 49%
18:00Mon 	 4c 	 13%
19:00Mon 	 4c 	 13%
20:00Mon 	 4c 	 15%
21:00Mon 	 4c 	 20%
22:00Mon 	 4c 	 33%
23:00Mon 	 5c 	 49%


# /home/pi/Documents/bbc-weather-predictions/data/Feb01Mon/bbcweather_Monday1stFebruary_2021-02-01_1515.txt
16:00Mon 	 4c 	 11%
17:00Mon 	 4c 	 49%
18:00Mon 	 4c 	 13%
19:00Mon 	 4c 	 13%
20:00Mon 	 4c 	 15%
21:00Mon 	 4c 	 20%
22:00Mon 	 4c 	 33%
23:00Mon 	 5c 	 49%


# /home/pi/Documents/bbc-weather-predictions/data/Feb01Mon/bbcweather_Monday1stFebruary_2021-02-01_1530.txt
16:00Mon 	 4c 	 11%
17:00Mon 	 4c 	 49%
18:00Mon 	 4c 	 13%
19:00Mon 	 4c 	 13%
20:00Mon 	 4c 	 15%
21:00Mon 	 4c 	 20%
22:00Mon 	 4c 	 33%
23:00Mon 	 5c 	 49%


# /home/pi/Documents/bbc-weather-predictions/data/Feb01Mon/bbcweather_Monday1stFebruary_2021-02-01_1545.txt
16:00Mon 	 4c 	 0%
17:00Mon 	 4c 	 54%
18:00Mon 	 4c 	 57%
19:00Mon 	 4c 	 13%
20:00Mon 	 4c 	 15%
21:00Mon 	 4c 	 20%
22:00Mon 	 4c 	 33%
23:00Mon 	 5c 	 49%


# /home/pi/Documents/bbc-weather-predictions/data/Feb01Mon/bbcweather_Monday1stFebruary_2021-02-01_1600.txt
16:00Mon 	 4c 	 0%
17:00Mon 	 4c 	 54%
18:00Mon 	 4c 	 57%
19:00Mon 	 4c 	 13%
20:00Mon 	 4c 	 15%
21:00Mon 	 4c 	 20%
22:00Mon 	 4c 	 33%
23:00Mon 	 5c 	 49%


# /home/pi/Documents/bbc-weather-predictions/data/Feb01Mon/bbcweather_Monday1stFebruary_2021-02-01_1615.txt
17:00Mon 	 4c 	 54%
18:00Mon 	 4c 	 57%
19:00Mon 	 4c 	 13%
20:00Mon 	 4c 	 15%
21:00Mon 	 4c 	 20%
22:00Mon 	 4c 	 33%
23:00Mon 	 5c 	 49%


# /home/pi/Documents/bbc-weather-predictions/data/Feb01Mon/bbcweather_Monday1stFebruary_2021-02-01_1630.txt
17:00Mon 	 4c 	 54%
18:00Mon 	 4c 	 57%
19:00Mon 	 4c 	 13%
20:00Mon 	 4c 	 15%
21:00Mon 	 4c 	 20%
22:00Mon 	 4c 	 33%
23:00Mon 	 5c 	 49%


# /home/pi/Documents/bbc-weather-predictions/data/Feb01Mon/bbcweather_Monday1stFebruary_2021-02-01_1645.txt
17:00Mon 	 3c 	 10%
18:00Mon 	 4c 	 33%
19:00Mon 	 4c 	 21%
20:00Mon 	 4c 	 15%
21:00Mon 	 4c 	 20%
22:00Mon 	 4c 	 33%
23:00Mon 	 5c 	 49%


# /home/pi/Documents/bbc-weather-predictions/data/Feb01Mon/bbcweather_Monday1stFebruary_2021-02-01_1700.txt
17:00Mon 	 3c 	 10%
18:00Mon 	 4c 	 33%
19:00Mon 	 4c 	 21%
20:00Mon 	 4c 	 15%
21:00Mon 	 4c 	 20%
22:00Mon 	 4c 	 33%
23:00Mon 	 5c 	 49%


# /home/pi/Documents/bbc-weather-predictions/data/Feb01Mon/bbcweather_Monday1stFebruary_2021-02-01_1715.txt
18:00Mon 	 4c 	 33%
19:00Mon 	 4c 	 21%
20:00Mon 	 4c 	 15%
21:00Mon 	 4c 	 20%
22:00Mon 	 4c 	 33%
23:00Mon 	 5c 	 49%


# /home/pi/Documents/bbc-weather-predictions/data/Feb01Mon/bbcweather_Monday1stFebruary_2021-02-01_1730.txt
18:00Mon 	 4c 	 33%
19:00Mon 	 4c 	 21%
20:00Mon 	 4c 	 15%
21:00Mon 	 4c 	 20%
22:00Mon 	 4c 	 33%
23:00Mon 	 5c 	 49%


# /home/pi/Documents/bbc-weather-predictions/data/Feb01Mon/bbcweather_Monday1stFebruary_2021-02-01_1745.txt
18:00Mon 	 4c 	 33%
19:00Mon 	 4c 	 21%
20:00Mon 	 4c 	 15%
21:00Mon 	 4c 	 20%
22:00Mon 	 4c 	 33%
23:00Mon 	 5c 	 49%


# /home/pi/Documents/bbc-weather-predictions/data/Feb01Mon/bbcweather_Monday1stFebruary_2021-02-01_1800.txt
18:00Mon 	 3c 	 53%
19:00Mon 	 4c 	 5%
20:00Mon 	 4c 	 7%
21:00Mon 	 4c 	 20%
22:00Mon 	 4c 	 33%
23:00Mon 	 5c 	 49%


# /home/pi/Documents/bbc-weather-predictions/data/Feb01Mon/bbcweather_Monday1stFebruary_2021-02-01_1815.txt
19:00Mon 	 4c 	 5%
20:00Mon 	 4c 	 7%
21:00Mon 	 4c 	 20%
22:00Mon 	 4c 	 33%
23:00Mon 	 5c 	 49%


# /home/pi/Documents/bbc-weather-predictions/data/Feb01Mon/bbcweather_Monday1stFebruary_2021-02-01_1830.txt
19:00Mon 	 4c 	 5%
20:00Mon 	 4c 	 7%
21:00Mon 	 4c 	 20%
22:00Mon 	 4c 	 33%
23:00Mon 	 5c 	 49%


# /home/pi/Documents/bbc-weather-predictions/data/Feb01Mon/bbcweather_Monday1stFebruary_2021-02-01_1845.txt
19:00Mon 	 3c 	 1%
20:00Mon 	 3c 	 10%
21:00Mon 	 4c 	 12%
22:00Mon 	 4c 	 33%
23:00Mon 	 5c 	 49%


# /home/pi/Documents/bbc-weather-predictions/data/Feb01Mon/bbcweather_Monday1stFebruary_2021-02-01_1900.txt
19:00Mon 	 3c 	 1%
20:00Mon 	 3c 	 10%
21:00Mon 	 4c 	 12%
22:00Mon 	 4c 	 33%
23:00Mon 	 5c 	 49%


# /home/pi/Documents/bbc-weather-predictions/data/Feb01Mon/bbcweather_Monday1stFebruary_2021-02-01_1915.txt
20:00Mon 	 3c 	 10%
21:00Mon 	 4c 	 12%
22:00Mon 	 4c 	 33%
23:00Mon 	 5c 	 49%


# /home/pi/Documents/bbc-weather-predictions/data/Feb01Mon/bbcweather_Monday1stFebruary_2021-02-01_1930.txt
20:00Mon 	 3c 	 10%
21:00Mon 	 4c 	 12%
22:00Mon 	 4c 	 33%
23:00Mon 	 5c 	 49%


# /home/pi/Documents/bbc-weather-predictions/data/Feb01Mon/bbcweather_Monday1stFebruary_2021-02-01_1945.txt
20:00Mon 	 3c 	 41%
21:00Mon 	 4c 	 11%
22:00Mon 	 4c 	 18%
23:00Mon 	 5c 	 49%


# /home/pi/Documents/bbc-weather-predictions/data/Feb01Mon/bbcweather_Monday1stFebruary_2021-02-01_2000.txt
20:00Mon 	 3c 	 41%
21:00Mon 	 4c 	 11%
22:00Mon 	 4c 	 18%
23:00Mon 	 5c 	 49%


# /home/pi/Documents/bbc-weather-predictions/data/Feb01Mon/bbcweather_Monday1stFebruary_2021-02-01_2015.txt
21:00Mon 	 4c 	 11%
22:00Mon 	 4c 	 18%
23:00Mon 	 5c 	 49%


# /home/pi/Documents/bbc-weather-predictions/data/Feb01Mon/bbcweather_Monday1stFebruary_2021-02-01_2030.txt
21:00Mon 	 4c 	 11%
22:00Mon 	 4c 	 18%
23:00Mon 	 5c 	 49%


# /home/pi/Documents/bbc-weather-predictions/data/Feb01Mon/bbcweather_Monday1stFebruary_2021-02-01_2045.txt
21:00Mon 	 4c 	 77%
22:00Mon 	 4c 	 14%
23:00Mon 	 5c 	 74%


# /home/pi/Documents/bbc-weather-predictions/data/Feb01Mon/bbcweather_Monday1stFebruary_2021-02-01_2100.txt
21:00Mon 	 4c 	 77%
22:00Mon 	 4c 	 14%
23:00Mon 	 5c 	 74%


# /home/pi/Documents/bbc-weather-predictions/data/Feb01Mon/bbcweather_Monday1stFebruary_2021-02-01_2115.txt
22:00Mon 	 4c 	 14%
23:00Mon 	 5c 	 74%


# /home/pi/Documents/bbc-weather-predictions/data/Feb01Mon/bbcweather_Monday1stFebruary_2021-02-01_2130.txt
22:00Mon 	 4c 	 14%
23:00Mon 	 5c 	 74%


# /home/pi/Documents/bbc-weather-predictions/data/Feb01Mon/bbcweather_Monday1stFebruary_2021-02-01_2145.txt
22:00Mon 	 4c 	 14%
23:00Mon 	 5c 	 74%


# /home/pi/Documents/bbc-weather-predictions/data/Feb01Mon/bbcweather_Monday1stFebruary_2021-02-01_2200.txt
22:00Mon 	 4c 	 93%
23:00Mon 	 5c 	 97%


# /home/pi/Documents/bbc-weather-predictions/data/Feb01Mon/bbcweather_Monday1stFebruary_2021-02-01_2215.txt
23:00Mon 	 5c 	 97%


# /home/pi/Documents/bbc-weather-predictions/data/Feb01Mon/bbcweather_Monday1stFebruary_2021-02-01_2230.txt
23:00Mon 	 5c 	 97%


# /home/pi/Documents/bbc-weather-predictions/data/Feb01Mon/bbcweather_Monday1stFebruary_2021-02-01_2245.txt
23:00Mon 	 5c 	 97%


# /home/pi/Documents/bbc-weather-predictions/data/Feb01Mon/bbcweather_Monday1stFebruary_2021-02-01_2300.txt
23:00Mon 	 5c 	 100%


# /home/pi/Documents/bbc-weather-predictions/data/Feb01Mon/bbcweather_Monday1stFebruary_2021-02-01_2315.txt
# /home/pi/Documents/bbc-weather-predictions/data/Feb01Mon/bbcweather_Monday1stFebruary_2021-02-01_2330.txt
# /home/pi/Documents/bbc-weather-predictions/data/Feb01Mon/bbcweather_Monday1stFebruary_2021-02-01_2345.txt
# /home/pi/Documents/bbc-weather-predictions/data/Feb01Mon/bbcweather_Sunday31stJanuary_2021-02-01_0000.txt
00:00Mon 	 2c 	 1%
01:00Mon 	 2c 	 5%
02:00Mon 	 2c 	 22%
03:00Mon 	 2c 	 23%
04:00Mon 	 2c 	 23%
05:00Mon 	 3c 	 23%
06:00Mon 	 2c 	 23%
07:00Mon 	 2c 	 22%
08:00Mon 	 2c 	 22%
09:00Mon 	 3c 	 22%
10:00Mon 	 3c 	 20%
11:00Mon 	 4c 	 18%
12:00Mon 	 4c 	 17%
13:00Mon 	 5c 	 15%
14:00Mon 	 5c 	 13%
15:00Mon 	 5c 	 12%
16:00Mon 	 5c 	 13%
17:00Mon 	 5c 	 16%
18:00Mon 	 5c 	 18%
19:00Mon 	 5c 	 20%
20:00Mon 	 4c 	 22%
21:00Mon 	 4c 	 29%
22:00Mon 	 4c 	 42%
23:00Mon 	 5c 	 58%


# /home/pi/Documents/bbc-weather-predictions/data/Feb01Mon/bbcweather_Sunday31stJanuary_2021-02-01_0015.txt
01:00Mon 	 2c 	 5%
02:00Mon 	 2c 	 22%
03:00Mon 	 2c 	 23%
04:00Mon 	 2c 	 23%
05:00Mon 	 3c 	 23%
06:00Mon 	 2c 	 23%
07:00Mon 	 2c 	 22%
08:00Mon 	 2c 	 22%
09:00Mon 	 3c 	 22%
10:00Mon 	 3c 	 20%
11:00Mon 	 4c 	 18%
12:00Mon 	 4c 	 17%
13:00Mon 	 5c 	 15%
14:00Mon 	 5c 	 13%
15:00Mon 	 5c 	 12%
16:00Mon 	 5c 	 13%
17:00Mon 	 5c 	 16%
18:00Mon 	 5c 	 18%
19:00Mon 	 5c 	 20%
20:00Mon 	 4c 	 22%
21:00Mon 	 4c 	 29%
22:00Mon 	 4c 	 42%
23:00Mon 	 5c 	 58%


# /home/pi/Documents/bbc-weather-predictions/data/Feb01Mon/bbcweather_Sunday31stJanuary_2021-02-01_0030.txt
01:00Mon 	 2c 	 5%
02:00Mon 	 2c 	 22%
03:00Mon 	 2c 	 23%
04:00Mon 	 2c 	 23%
05:00Mon 	 3c 	 23%
06:00Mon 	 2c 	 23%
07:00Mon 	 2c 	 22%
08:00Mon 	 2c 	 22%
09:00Mon 	 3c 	 22%
10:00Mon 	 3c 	 20%
11:00Mon 	 4c 	 18%
12:00Mon 	 4c 	 17%
13:00Mon 	 5c 	 15%
14:00Mon 	 5c 	 13%
15:00Mon 	 5c 	 12%
16:00Mon 	 5c 	 13%
17:00Mon 	 5c 	 16%
18:00Mon 	 5c 	 18%
19:00Mon 	 5c 	 20%
20:00Mon 	 4c 	 22%
21:00Mon 	 4c 	 29%
22:00Mon 	 4c 	 42%
23:00Mon 	 5c 	 58%


# /home/pi/Documents/bbc-weather-predictions/data/Feb01Mon/bbcweather_Sunday31stJanuary_2021-02-01_0045.txt
01:00Mon 	 2c 	 0%
02:00Mon 	 2c 	 5%
03:00Mon 	 2c 	 23%
04:00Mon 	 2c 	 23%
05:00Mon 	 2c 	 23%
06:00Mon 	 2c 	 23%
07:00Mon 	 2c 	 22%
08:00Mon 	 2c 	 22%
09:00Mon 	 3c 	 22%
10:00Mon 	 3c 	 20%
11:00Mon 	 4c 	 18%
12:00Mon 	 4c 	 17%
13:00Mon 	 5c 	 15%
14:00Mon 	 5c 	 13%
15:00Mon 	 5c 	 12%
16:00Mon 	 5c 	 13%
17:00Mon 	 5c 	 16%
18:00Mon 	 5c 	 18%
19:00Mon 	 5c 	 20%
20:00Mon 	 4c 	 22%
21:00Mon 	 4c 	 29%
22:00Mon 	 4c 	 42%
23:00Mon 	 5c 	 58%


# /home/pi/Documents/bbc-weather-predictions/data/Feb01Mon/bbcweather_Sunday31stJanuary_2021-02-01_0100.txt
01:00Mon 	 2c 	 0%
02:00Mon 	 2c 	 5%
03:00Mon 	 2c 	 23%
04:00Mon 	 2c 	 23%
05:00Mon 	 2c 	 23%
06:00Mon 	 2c 	 23%
07:00Mon 	 2c 	 22%
08:00Mon 	 2c 	 22%
09:00Mon 	 3c 	 22%
10:00Mon 	 3c 	 20%
11:00Mon 	 4c 	 18%
12:00Mon 	 4c 	 17%
13:00Mon 	 5c 	 15%
14:00Mon 	 5c 	 13%
15:00Mon 	 5c 	 12%
16:00Mon 	 5c 	 13%
17:00Mon 	 5c 	 16%
18:00Mon 	 5c 	 18%
19:00Mon 	 5c 	 20%
20:00Mon 	 4c 	 22%
21:00Mon 	 4c 	 29%
22:00Mon 	 4c 	 42%
23:00Mon 	 5c 	 58%


# /home/pi/Documents/bbc-weather-predictions/data/Feb01Mon/bbcweather_Sunday31stJanuary_2021-02-01_0115.txt
02:00Mon 	 2c 	 5%
03:00Mon 	 2c 	 23%
04:00Mon 	 2c 	 23%
05:00Mon 	 2c 	 23%
06:00Mon 	 2c 	 23%
07:00Mon 	 2c 	 22%
08:00Mon 	 2c 	 22%
09:00Mon 	 3c 	 22%
10:00Mon 	 3c 	 20%
11:00Mon 	 4c 	 18%
12:00Mon 	 4c 	 17%
13:00Mon 	 5c 	 15%
14:00Mon 	 5c 	 13%
15:00Mon 	 5c 	 12%
16:00Mon 	 5c 	 13%
17:00Mon 	 5c 	 16%
18:00Mon 	 5c 	 18%
19:00Mon 	 5c 	 20%
20:00Mon 	 4c 	 22%
21:00Mon 	 4c 	 29%
22:00Mon 	 4c 	 42%
23:00Mon 	 5c 	 58%


# /home/pi/Documents/bbc-weather-predictions/data/Feb01Mon/bbcweather_Sunday31stJanuary_2021-02-01_0130.txt
02:00Mon 	 2c 	 5%
03:00Mon 	 2c 	 23%
04:00Mon 	 2c 	 23%
05:00Mon 	 2c 	 23%
06:00Mon 	 2c 	 23%
07:00Mon 	 2c 	 22%
08:00Mon 	 2c 	 22%
09:00Mon 	 3c 	 22%
10:00Mon 	 3c 	 20%
11:00Mon 	 4c 	 18%
12:00Mon 	 4c 	 17%
13:00Mon 	 5c 	 15%
14:00Mon 	 5c 	 13%
15:00Mon 	 5c 	 12%
16:00Mon 	 5c 	 13%
17:00Mon 	 5c 	 16%
18:00Mon 	 5c 	 18%
19:00Mon 	 5c 	 20%
20:00Mon 	 4c 	 22%
21:00Mon 	 4c 	 29%
22:00Mon 	 4c 	 42%
23:00Mon 	 5c 	 58%


# /home/pi/Documents/bbc-weather-predictions/data/Feb01Mon/bbcweather_Sunday31stJanuary_2021-02-01_0145.txt
02:00Mon 	 2c 	 0%
03:00Mon 	 2c 	 6%
04:00Mon 	 2c 	 23%
05:00Mon 	 2c 	 23%
06:00Mon 	 2c 	 23%
07:00Mon 	 2c 	 22%
08:00Mon 	 2c 	 22%
09:00Mon 	 3c 	 22%
10:00Mon 	 3c 	 20%
11:00Mon 	 4c 	 18%
12:00Mon 	 4c 	 17%
13:00Mon 	 5c 	 15%
14:00Mon 	 5c 	 13%
15:00Mon 	 5c 	 12%
16:00Mon 	 5c 	 13%
17:00Mon 	 5c 	 16%
18:00Mon 	 5c 	 18%
19:00Mon 	 5c 	 20%
20:00Mon 	 4c 	 22%
21:00Mon 	 4c 	 29%
22:00Mon 	 4c 	 42%
23:00Mon 	 5c 	 58%


# /home/pi/Documents/bbc-weather-predictions/data/Feb01Mon/bbcweather_Sunday31stJanuary_2021-02-01_0200.txt
02:00Mon 	 2c 	 0%
03:00Mon 	 2c 	 6%
04:00Mon 	 2c 	 23%
05:00Mon 	 2c 	 23%
06:00Mon 	 2c 	 23%
07:00Mon 	 2c 	 22%
08:00Mon 	 2c 	 22%
09:00Mon 	 3c 	 22%
10:00Mon 	 3c 	 20%
11:00Mon 	 4c 	 18%
12:00Mon 	 4c 	 17%
13:00Mon 	 5c 	 15%
14:00Mon 	 5c 	 13%
15:00Mon 	 5c 	 12%
16:00Mon 	 5c 	 13%
17:00Mon 	 5c 	 16%
18:00Mon 	 5c 	 18%
19:00Mon 	 5c 	 20%
20:00Mon 	 4c 	 22%
21:00Mon 	 4c 	 29%
22:00Mon 	 4c 	 42%
23:00Mon 	 5c 	 58%


# /home/pi/Documents/bbc-weather-predictions/data/Feb01Mon/bbcweather_Sunday31stJanuary_2021-02-01_0215.txt
03:00Mon 	 2c 	 6%
04:00Mon 	 2c 	 23%
05:00Mon 	 2c 	 23%
06:00Mon 	 2c 	 23%
07:00Mon 	 2c 	 22%
08:00Mon 	 2c 	 22%
09:00Mon 	 3c 	 22%
10:00Mon 	 3c 	 20%
11:00Mon 	 4c 	 18%
12:00Mon 	 4c 	 17%
13:00Mon 	 5c 	 15%
14:00Mon 	 5c 	 13%
15:00Mon 	 5c 	 12%
16:00Mon 	 5c 	 13%
17:00Mon 	 5c 	 16%
18:00Mon 	 5c 	 18%
19:00Mon 	 5c 	 20%
20:00Mon 	 4c 	 22%
21:00Mon 	 4c 	 29%
22:00Mon 	 4c 	 42%
23:00Mon 	 5c 	 58%


# /home/pi/Documents/bbc-weather-predictions/data/Feb01Mon/bbcweather_Sunday31stJanuary_2021-02-01_0230.txt
03:00Mon 	 2c 	 0%
04:00Mon 	 2c 	 6%
05:00Mon 	 2c 	 23%
06:00Mon 	 2c 	 23%
07:00Mon 	 2c 	 22%
08:00Mon 	 2c 	 22%
09:00Mon 	 3c 	 22%
10:00Mon 	 3c 	 20%
11:00Mon 	 4c 	 18%
12:00Mon 	 4c 	 17%
13:00Mon 	 5c 	 15%
14:00Mon 	 5c 	 13%
15:00Mon 	 5c 	 12%
16:00Mon 	 5c 	 13%
17:00Mon 	 5c 	 16%
18:00Mon 	 5c 	 18%
19:00Mon 	 5c 	 20%
20:00Mon 	 4c 	 22%
21:00Mon 	 4c 	 29%
22:00Mon 	 4c 	 42%
23:00Mon 	 5c 	 58%


# /home/pi/Documents/bbc-weather-predictions/data/Feb01Mon/bbcweather_Sunday31stJanuary_2021-02-01_0245.txt
03:00Mon 	 2c 	 0%
04:00Mon 	 2c 	 6%
05:00Mon 	 2c 	 23%
06:00Mon 	 2c 	 23%
07:00Mon 	 2c 	 22%
08:00Mon 	 2c 	 22%
09:00Mon 	 3c 	 22%
10:00Mon 	 3c 	 20%
11:00Mon 	 4c 	 18%
12:00Mon 	 4c 	 17%
13:00Mon 	 5c 	 15%
14:00Mon 	 5c 	 13%
15:00Mon 	 5c 	 12%
16:00Mon 	 5c 	 13%
17:00Mon 	 5c 	 16%
18:00Mon 	 5c 	 18%
19:00Mon 	 5c 	 20%
20:00Mon 	 4c 	 22%
21:00Mon 	 4c 	 29%
22:00Mon 	 4c 	 42%
23:00Mon 	 5c 	 58%


# /home/pi/Documents/bbc-weather-predictions/data/Feb01Mon/bbcweather_Sunday31stJanuary_2021-02-01_0300.txt
04:00Mon 	 2c 	 6%
05:00Mon 	 2c 	 23%
06:00Mon 	 2c 	 23%
07:00Mon 	 2c 	 22%
08:00Mon 	 2c 	 22%
09:00Mon 	 3c 	 22%
10:00Mon 	 3c 	 20%
11:00Mon 	 4c 	 18%
12:00Mon 	 4c 	 17%
13:00Mon 	 5c 	 15%
14:00Mon 	 5c 	 13%
15:00Mon 	 5c 	 12%
16:00Mon 	 5c 	 13%
17:00Mon 	 5c 	 16%
18:00Mon 	 5c 	 18%
19:00Mon 	 5c 	 20%
20:00Mon 	 4c 	 22%
21:00Mon 	 4c 	 29%
22:00Mon 	 4c 	 42%
23:00Mon 	 5c 	 58%


# /home/pi/Documents/bbc-weather-predictions/data/Feb01Mon/bbcweather_Sunday31stJanuary_2021-02-01_0315.txt
04:00Mon 	 2c 	 6%
05:00Mon 	 2c 	 23%
06:00Mon 	 2c 	 23%
07:00Mon 	 2c 	 22%
08:00Mon 	 2c 	 22%
09:00Mon 	 3c 	 22%
10:00Mon 	 3c 	 20%
11:00Mon 	 4c 	 18%
12:00Mon 	 4c 	 17%
13:00Mon 	 5c 	 15%
14:00Mon 	 5c 	 13%
15:00Mon 	 5c 	 12%
16:00Mon 	 5c 	 13%
17:00Mon 	 5c 	 16%
18:00Mon 	 5c 	 18%
19:00Mon 	 5c 	 20%
20:00Mon 	 4c 	 22%
21:00Mon 	 4c 	 29%
22:00Mon 	 4c 	 42%
23:00Mon 	 5c 	 58%


# /home/pi/Documents/bbc-weather-predictions/data/Feb01Mon/bbcweather_Sunday31stJanuary_2021-02-01_0330.txt
04:00Mon 	 2c 	 6%
05:00Mon 	 2c 	 23%
06:00Mon 	 2c 	 23%
07:00Mon 	 2c 	 22%
08:00Mon 	 2c 	 22%
09:00Mon 	 3c 	 22%
10:00Mon 	 3c 	 20%
11:00Mon 	 4c 	 18%
12:00Mon 	 4c 	 17%
13:00Mon 	 5c 	 15%
14:00Mon 	 5c 	 13%
15:00Mon 	 5c 	 12%
16:00Mon 	 5c 	 13%
17:00Mon 	 5c 	 16%
18:00Mon 	 5c 	 18%
19:00Mon 	 5c 	 20%
20:00Mon 	 4c 	 22%
21:00Mon 	 4c 	 29%
22:00Mon 	 4c 	 42%
23:00Mon 	 5c 	 58%


# /home/pi/Documents/bbc-weather-predictions/data/Feb01Mon/bbcweather_Sunday31stJanuary_2021-02-01_0345.txt
04:00Mon 	 2c 	 0%
05:00Mon 	 2c 	 6%
06:00Mon 	 2c 	 23%
07:00Mon 	 2c 	 22%
08:00Mon 	 2c 	 22%
09:00Mon 	 3c 	 22%
10:00Mon 	 3c 	 20%
11:00Mon 	 4c 	 18%
12:00Mon 	 4c 	 17%
13:00Mon 	 5c 	 15%
14:00Mon 	 5c 	 13%
15:00Mon 	 5c 	 12%
16:00Mon 	 5c 	 13%
17:00Mon 	 5c 	 16%
18:00Mon 	 5c 	 18%
19:00Mon 	 5c 	 20%
20:00Mon 	 4c 	 22%
21:00Mon 	 4c 	 29%
22:00Mon 	 4c 	 42%
23:00Mon 	 5c 	 58%


# /home/pi/Documents/bbc-weather-predictions/data/Feb01Mon/bbcweather_Sunday31stJanuary_2021-02-01_0400.txt
04:00Mon 	 2c 	 0%
05:00Mon 	 2c 	 6%
06:00Mon 	 2c 	 23%
07:00Mon 	 2c 	 22%
08:00Mon 	 2c 	 22%
09:00Mon 	 3c 	 22%
10:00Mon 	 3c 	 20%
11:00Mon 	 4c 	 18%
12:00Mon 	 4c 	 17%
13:00Mon 	 5c 	 15%
14:00Mon 	 5c 	 13%
15:00Mon 	 5c 	 12%
16:00Mon 	 5c 	 13%
17:00Mon 	 5c 	 16%
18:00Mon 	 5c 	 18%
19:00Mon 	 5c 	 20%
20:00Mon 	 4c 	 22%
21:00Mon 	 4c 	 29%
22:00Mon 	 4c 	 42%
23:00Mon 	 5c 	 58%


# /home/pi/Documents/bbc-weather-predictions/data/Feb01Mon/bbcweather_Sunday31stJanuary_2021-02-01_0415.txt
05:00Mon 	 2c 	 6%
06:00Mon 	 2c 	 23%
07:00Mon 	 2c 	 22%
08:00Mon 	 2c 	 22%
09:00Mon 	 3c 	 22%
10:00Mon 	 3c 	 20%
11:00Mon 	 4c 	 18%
12:00Mon 	 4c 	 17%
13:00Mon 	 5c 	 15%
14:00Mon 	 5c 	 13%
15:00Mon 	 5c 	 12%
16:00Mon 	 5c 	 13%
17:00Mon 	 5c 	 16%
18:00Mon 	 5c 	 18%
19:00Mon 	 5c 	 20%
20:00Mon 	 4c 	 22%
21:00Mon 	 4c 	 29%
22:00Mon 	 4c 	 42%
23:00Mon 	 5c 	 58%


# /home/pi/Documents/bbc-weather-predictions/data/Feb01Mon/bbcweather_Sunday31stJanuary_2021-02-01_0430.txt
05:00Mon 	 2c 	 6%
06:00Mon 	 2c 	 23%
07:00Mon 	 2c 	 22%
08:00Mon 	 2c 	 22%
09:00Mon 	 3c 	 22%
10:00Mon 	 3c 	 20%
11:00Mon 	 4c 	 18%
12:00Mon 	 4c 	 17%
13:00Mon 	 5c 	 15%
14:00Mon 	 5c 	 13%
15:00Mon 	 5c 	 12%
16:00Mon 	 5c 	 13%
17:00Mon 	 5c 	 16%
18:00Mon 	 5c 	 18%
19:00Mon 	 5c 	 20%
20:00Mon 	 4c 	 22%
21:00Mon 	 4c 	 29%
22:00Mon 	 4c 	 42%
23:00Mon 	 5c 	 58%


# /home/pi/Documents/bbc-weather-predictions/data/Feb01Mon/bbcweather_Sunday31stJanuary_2021-02-01_0445.txt
05:00Mon 	 2c 	 0%
06:00Mon 	 2c 	 6%
07:00Mon 	 2c 	 22%
08:00Mon 	 2c 	 22%
09:00Mon 	 3c 	 22%
10:00Mon 	 3c 	 20%
11:00Mon 	 4c 	 18%
12:00Mon 	 4c 	 17%
13:00Mon 	 5c 	 15%
14:00Mon 	 5c 	 13%
15:00Mon 	 5c 	 12%
16:00Mon 	 5c 	 13%
17:00Mon 	 5c 	 16%
18:00Mon 	 5c 	 18%
19:00Mon 	 5c 	 20%
20:00Mon 	 4c 	 22%
21:00Mon 	 4c 	 29%
22:00Mon 	 4c 	 42%
23:00Mon 	 5c 	 58%


# /home/pi/Documents/bbc-weather-predictions/data/Feb01Mon/bbcweather_Sunday31stJanuary_2021-02-01_0500.txt
05:00Mon 	 2c 	 0%
06:00Mon 	 2c 	 6%
07:00Mon 	 2c 	 22%
08:00Mon 	 2c 	 22%
09:00Mon 	 3c 	 22%
10:00Mon 	 3c 	 20%
11:00Mon 	 4c 	 18%
12:00Mon 	 4c 	 17%
13:00Mon 	 5c 	 15%
14:00Mon 	 5c 	 13%
15:00Mon 	 5c 	 12%
16:00Mon 	 5c 	 13%
17:00Mon 	 5c 	 16%
18:00Mon 	 5c 	 18%
19:00Mon 	 5c 	 20%
20:00Mon 	 4c 	 22%
21:00Mon 	 4c 	 29%
22:00Mon 	 4c 	 42%
23:00Mon 	 5c 	 58%


# /home/pi/Documents/bbc-weather-predictions/data/Feb01Mon/bbcweather_Sunday31stJanuary_2021-02-01_0515.txt
06:00Mon 	 2c 	 6%
07:00Mon 	 2c 	 22%
08:00Mon 	 2c 	 22%
09:00Mon 	 3c 	 22%
10:00Mon 	 3c 	 20%
11:00Mon 	 4c 	 18%
12:00Mon 	 4c 	 17%
13:00Mon 	 5c 	 15%
14:00Mon 	 5c 	 13%
15:00Mon 	 5c 	 12%
16:00Mon 	 5c 	 13%
17:00Mon 	 5c 	 16%
18:00Mon 	 5c 	 18%
19:00Mon 	 5c 	 20%
20:00Mon 	 4c 	 22%
21:00Mon 	 4c 	 29%
22:00Mon 	 4c 	 42%
23:00Mon 	 5c 	 58%


