00:00Sun 	 9c 	 22%
00:00Sun 	 9c 	 22%
00:00Sun 	 9c 	 22%
00:00Sun 	 9c 	 22%
00:00Sun 	 9c 	 22%
00:00Sun 	 9c 	 22%
00:00Sun 	 9c 	 22%
00:00Sun 	 9c 	 22%
00:00Sun 	 9c 	 22%
00:00Sun 	 9c 	 22%
00:00Sun 	 9c 	 22%
00:00Sun 	 9c 	 22%
00:00Sun 	 9c 	 22%
00:00Sun 	 9c 	 22%
00:00Sun 	 9c 	 22%
00:00Sun 	 9c 	 22%
00:00Sun 	 9c 	 20%
00:00Sun 	 9c 	 20%
00:00Sun 	 9c 	 20%
00:00Sun 	 9c 	 20%
00:00Sun 	 9c 	 20%
00:00Sun 	 9c 	 20%
00:00Sun 	 9c 	 20%
00:00Sun 	 9c 	 20%
00:00Sun 	 9c 	 20%
00:00Sun 	 9c 	 20%
00:00Sun 	 9c 	 20%
00:00Sun 	 9c 	 20%
00:00Sun 	 9c 	 20%
00:00Sun 	 9c 	 20%
00:00Sun 	 9c 	 20%
00:00Sun 	 9c 	 20%
00:00Sun 	 9c 	 20%
00:00Sun 	 9c 	 20%
00:00Sun 	 9c 	 20%
00:00Sun 	 9c 	 20%
00:00Sun 	 9c 	 20%
00:00Sun 	 9c 	 20%
00:00Sun 	 9c 	 20%
00:00Sun 	 9c 	 20%
00:00Sun 	 9c 	 20%
00:00Sun 	 9c 	 20%
00:00Sun 	 9c 	 20%
00:00Sun 	 9c 	 20%
00:00Sun 	 9c 	 20%
00:00Sun 	 9c 	 20%
00:00Sun 	 9c 	 20%
00:00Sun 	 9c 	 20%
00:00Sun 	 9c 	 20%
00:00Sun 	 9c 	 20%
00:00Sun 	 9c 	 20%
00:00Sun 	 9c 	 20%
00:00Sun 	 9c 	 20%
00:00Sun 	 9c 	 20%
00:00Sun 	 9c 	 20%
00:00Sun 	 9c 	 20%
00:00Sun 	 9c 	 20%
00:00Sun 	 9c 	 20%
00:00Sun 	 9c 	 20%
00:00Sun 	 9c 	 20%
00:00Sun 	 9c 	 20%
00:00Sun 	 9c 	 20%
00:00Sun 	 9c 	 20%
00:00Sun 	 9c 	 20%
00:00Sun 	 9c 	 20%
00:00Sun 	 9c 	 18%
00:00Sun 	 9c 	 18%
00:00Sun 	 9c 	 18%
00:00Sun 	 9c 	 18%
00:00Sun 	 9c 	 18%
00:00Sun 	 9c 	 18%
00:00Sun 	 9c 	 18%
00:00Sun 	 10c 	 20%
00:00Sun 	 10c 	 20%
00:00Sun 	 10c 	 20%

01:00Sun 	 9c 	 24%
01:00Sun 	 9c 	 24%
01:00Sun 	 9c 	 24%
01:00Sun 	 9c 	 24%
01:00Sun 	 9c 	 24%
01:00Sun 	 9c 	 24%
01:00Sun 	 9c 	 24%
01:00Sun 	 9c 	 24%
01:00Sun 	 9c 	 24%
01:00Sun 	 9c 	 24%
01:00Sun 	 9c 	 24%
01:00Sun 	 9c 	 24%
01:00Sun 	 9c 	 24%
01:00Sun 	 9c 	 24%
01:00Sun 	 9c 	 24%
01:00Sun 	 9c 	 24%
01:00Sun 	 9c 	 26%
01:00Sun 	 9c 	 26%
01:00Sun 	 9c 	 26%
01:00Sun 	 9c 	 26%
01:00Sun 	 9c 	 26%
01:00Sun 	 9c 	 26%
01:00Sun 	 9c 	 26%
01:00Sun 	 9c 	 26%
01:00Sun 	 9c 	 26%
01:00Sun 	 9c 	 26%
01:00Sun 	 9c 	 26%
01:00Sun 	 9c 	 26%
01:00Sun 	 9c 	 26%
01:00Sun 	 9c 	 26%
01:00Sun 	 9c 	 26%
01:00Sun 	 9c 	 26%
01:00Sun 	 9c 	 26%
01:00Sun 	 9c 	 26%
01:00Sun 	 9c 	 26%
01:00Sun 	 9c 	 26%
01:00Sun 	 9c 	 26%
01:00Sun 	 9c 	 26%
01:00Sun 	 9c 	 26%
01:00Sun 	 9c 	 26%
01:00Sun 	 9c 	 26%
01:00Sun 	 9c 	 26%
01:00Sun 	 9c 	 26%
01:00Sun 	 9c 	 26%
01:00Sun 	 9c 	 26%
01:00Sun 	 9c 	 26%
01:00Sun 	 9c 	 26%
01:00Sun 	 9c 	 26%
01:00Sun 	 9c 	 26%
01:00Sun 	 9c 	 26%
01:00Sun 	 9c 	 26%
01:00Sun 	 9c 	 26%
01:00Sun 	 9c 	 26%
01:00Sun 	 9c 	 26%
01:00Sun 	 9c 	 26%
01:00Sun 	 9c 	 26%
01:00Sun 	 9c 	 26%
01:00Sun 	 9c 	 26%
01:00Sun 	 9c 	 26%
01:00Sun 	 9c 	 26%
01:00Sun 	 9c 	 26%
01:00Sun 	 9c 	 26%
01:00Sun 	 9c 	 26%
01:00Sun 	 9c 	 26%
01:00Sun 	 9c 	 26%
01:00Sun 	 9c 	 22%
01:00Sun 	 9c 	 22%
01:00Sun 	 9c 	 22%
01:00Sun 	 9c 	 22%
01:00Sun 	 9c 	 22%
01:00Sun 	 9c 	 22%
01:00Sun 	 9c 	 22%
01:00Sun 	 10c 	 24%
01:00Sun 	 10c 	 24%
01:00Sun 	 10c 	 24%

02:00Sun 	 9c 	 28%
02:00Sun 	 9c 	 28%
02:00Sun 	 9c 	 28%
02:00Sun 	 9c 	 28%
02:00Sun 	 9c 	 28%
02:00Sun 	 9c 	 28%
02:00Sun 	 9c 	 28%
02:00Sun 	 9c 	 28%
02:00Sun 	 9c 	 28%
02:00Sun 	 9c 	 28%
02:00Sun 	 9c 	 28%
02:00Sun 	 9c 	 28%
02:00Sun 	 9c 	 28%
02:00Sun 	 9c 	 28%
02:00Sun 	 9c 	 28%
02:00Sun 	 9c 	 28%
02:00Sun 	 9c 	 35%
02:00Sun 	 9c 	 35%
02:00Sun 	 9c 	 35%
02:00Sun 	 9c 	 35%
02:00Sun 	 9c 	 34%
02:00Sun 	 9c 	 34%
02:00Sun 	 9c 	 34%
02:00Sun 	 9c 	 34%
02:00Sun 	 9c 	 34%
02:00Sun 	 9c 	 34%
02:00Sun 	 9c 	 34%
02:00Sun 	 9c 	 34%
02:00Sun 	 9c 	 34%
02:00Sun 	 9c 	 34%
02:00Sun 	 9c 	 34%
02:00Sun 	 9c 	 34%
02:00Sun 	 9c 	 34%
02:00Sun 	 9c 	 34%
02:00Sun 	 9c 	 34%
02:00Sun 	 9c 	 34%
02:00Sun 	 9c 	 34%
02:00Sun 	 9c 	 34%
02:00Sun 	 9c 	 34%
02:00Sun 	 9c 	 34%
02:00Sun 	 9c 	 34%
02:00Sun 	 9c 	 34%
02:00Sun 	 9c 	 34%
02:00Sun 	 9c 	 34%
02:00Sun 	 9c 	 34%
02:00Sun 	 9c 	 34%
02:00Sun 	 9c 	 34%
02:00Sun 	 9c 	 34%
02:00Sun 	 9c 	 34%
02:00Sun 	 9c 	 34%
02:00Sun 	 9c 	 34%
02:00Sun 	 9c 	 34%
02:00Sun 	 9c 	 34%
02:00Sun 	 9c 	 34%
02:00Sun 	 9c 	 34%
02:00Sun 	 9c 	 34%
02:00Sun 	 9c 	 34%
02:00Sun 	 9c 	 34%
02:00Sun 	 9c 	 34%
02:00Sun 	 9c 	 34%
02:00Sun 	 9c 	 34%
02:00Sun 	 9c 	 34%
02:00Sun 	 9c 	 34%
02:00Sun 	 9c 	 34%
02:00Sun 	 9c 	 34%
02:00Sun 	 9c 	 31%
02:00Sun 	 9c 	 31%
02:00Sun 	 9c 	 31%
02:00Sun 	 9c 	 31%
02:00Sun 	 9c 	 31%
02:00Sun 	 9c 	 31%
02:00Sun 	 9c 	 31%
02:00Sun 	 10c 	 32%
02:00Sun 	 10c 	 32%
02:00Sun 	 10c 	 32%

03:00Sun 	 9c 	 32%
03:00Sun 	 9c 	 32%
03:00Sun 	 9c 	 32%
03:00Sun 	 9c 	 32%
03:00Sun 	 9c 	 32%
03:00Sun 	 9c 	 32%
03:00Sun 	 9c 	 32%
03:00Sun 	 9c 	 32%
03:00Sun 	 9c 	 32%
03:00Sun 	 9c 	 32%
03:00Sun 	 9c 	 32%
03:00Sun 	 9c 	 32%
03:00Sun 	 9c 	 32%
03:00Sun 	 9c 	 32%
03:00Sun 	 9c 	 32%
03:00Sun 	 9c 	 32%
03:00Sun 	 9c 	 41%
03:00Sun 	 9c 	 41%
03:00Sun 	 9c 	 41%
03:00Sun 	 9c 	 41%
03:00Sun 	 9c 	 41%
03:00Sun 	 9c 	 41%
03:00Sun 	 9c 	 41%
03:00Sun 	 9c 	 41%
03:00Sun 	 9c 	 41%
03:00Sun 	 9c 	 41%
03:00Sun 	 9c 	 41%
03:00Sun 	 9c 	 41%
03:00Sun 	 9c 	 41%
03:00Sun 	 9c 	 41%
03:00Sun 	 9c 	 41%
03:00Sun 	 9c 	 41%
03:00Sun 	 9c 	 41%
03:00Sun 	 9c 	 41%
03:00Sun 	 9c 	 41%
03:00Sun 	 9c 	 41%
03:00Sun 	 9c 	 41%
03:00Sun 	 9c 	 41%
03:00Sun 	 9c 	 41%
03:00Sun 	 9c 	 41%
03:00Sun 	 9c 	 41%
03:00Sun 	 9c 	 41%
03:00Sun 	 9c 	 41%
03:00Sun 	 9c 	 41%
03:00Sun 	 9c 	 41%
03:00Sun 	 9c 	 41%
03:00Sun 	 9c 	 41%
03:00Sun 	 9c 	 41%
03:00Sun 	 9c 	 41%
03:00Sun 	 9c 	 41%
03:00Sun 	 9c 	 41%
03:00Sun 	 9c 	 41%
03:00Sun 	 9c 	 41%
03:00Sun 	 9c 	 41%
03:00Sun 	 9c 	 41%
03:00Sun 	 9c 	 41%
03:00Sun 	 9c 	 41%
03:00Sun 	 9c 	 41%
03:00Sun 	 9c 	 41%
03:00Sun 	 9c 	 41%
03:00Sun 	 9c 	 41%
03:00Sun 	 9c 	 41%
03:00Sun 	 9c 	 41%
03:00Sun 	 9c 	 41%
03:00Sun 	 9c 	 41%
03:00Sun 	 9c 	 38%
03:00Sun 	 9c 	 38%
03:00Sun 	 9c 	 38%
03:00Sun 	 9c 	 38%
03:00Sun 	 9c 	 38%
03:00Sun 	 9c 	 38%
03:00Sun 	 9c 	 38%
03:00Sun 	 10c 	 40%
03:00Sun 	 10c 	 40%
03:00Sun 	 10c 	 40%

04:00Sun 	 9c 	 34%
04:00Sun 	 9c 	 34%
04:00Sun 	 9c 	 34%
04:00Sun 	 9c 	 34%
04:00Sun 	 9c 	 34%
04:00Sun 	 9c 	 34%
04:00Sun 	 9c 	 34%
04:00Sun 	 9c 	 34%
04:00Sun 	 9c 	 34%
04:00Sun 	 9c 	 34%
04:00Sun 	 9c 	 34%
04:00Sun 	 9c 	 34%
04:00Sun 	 9c 	 34%
04:00Sun 	 9c 	 34%
04:00Sun 	 9c 	 34%
04:00Sun 	 9c 	 34%
04:00Sun 	 9c 	 41%
04:00Sun 	 9c 	 41%
04:00Sun 	 9c 	 41%
04:00Sun 	 9c 	 41%
04:00Sun 	 9c 	 42%
04:00Sun 	 9c 	 42%
04:00Sun 	 9c 	 42%
04:00Sun 	 9c 	 42%
04:00Sun 	 9c 	 42%
04:00Sun 	 9c 	 42%
04:00Sun 	 9c 	 42%
04:00Sun 	 9c 	 42%
04:00Sun 	 9c 	 42%
04:00Sun 	 9c 	 42%
04:00Sun 	 9c 	 42%
04:00Sun 	 9c 	 42%
04:00Sun 	 9c 	 42%
04:00Sun 	 9c 	 42%
04:00Sun 	 9c 	 42%
04:00Sun 	 9c 	 42%
04:00Sun 	 9c 	 42%
04:00Sun 	 9c 	 42%
04:00Sun 	 9c 	 42%
04:00Sun 	 9c 	 42%
04:00Sun 	 9c 	 42%
04:00Sun 	 9c 	 42%
04:00Sun 	 9c 	 42%
04:00Sun 	 9c 	 42%
04:00Sun 	 9c 	 42%
04:00Sun 	 9c 	 42%
04:00Sun 	 9c 	 42%
04:00Sun 	 9c 	 42%
04:00Sun 	 9c 	 42%
04:00Sun 	 9c 	 42%
04:00Sun 	 9c 	 42%
04:00Sun 	 9c 	 42%
04:00Sun 	 9c 	 42%
04:00Sun 	 9c 	 42%
04:00Sun 	 9c 	 42%
04:00Sun 	 9c 	 42%
04:00Sun 	 9c 	 42%
04:00Sun 	 9c 	 42%
04:00Sun 	 9c 	 42%
04:00Sun 	 9c 	 42%
04:00Sun 	 9c 	 42%
04:00Sun 	 9c 	 42%
04:00Sun 	 9c 	 42%
04:00Sun 	 9c 	 42%
04:00Sun 	 9c 	 42%
04:00Sun 	 9c 	 38%
04:00Sun 	 9c 	 38%
04:00Sun 	 9c 	 38%
04:00Sun 	 9c 	 38%
04:00Sun 	 9c 	 38%
04:00Sun 	 9c 	 38%
04:00Sun 	 9c 	 38%
04:00Sun 	 9c 	 41%
04:00Sun 	 9c 	 41%
04:00Sun 	 9c 	 41%

05:00Sun 	 9c 	 34%
05:00Sun 	 9c 	 34%
05:00Sun 	 9c 	 34%
05:00Sun 	 9c 	 34%
05:00Sun 	 9c 	 34%
05:00Sun 	 9c 	 34%
05:00Sun 	 9c 	 34%
05:00Sun 	 9c 	 34%
05:00Sun 	 9c 	 34%
05:00Sun 	 9c 	 34%
05:00Sun 	 9c 	 34%
05:00Sun 	 9c 	 34%
05:00Sun 	 9c 	 34%
05:00Sun 	 9c 	 34%
05:00Sun 	 9c 	 34%
05:00Sun 	 9c 	 34%
05:00Sun 	 9c 	 41%
05:00Sun 	 9c 	 41%
05:00Sun 	 9c 	 41%
05:00Sun 	 9c 	 41%
05:00Sun 	 9c 	 41%
05:00Sun 	 9c 	 41%
05:00Sun 	 9c 	 41%
05:00Sun 	 9c 	 41%
05:00Sun 	 9c 	 41%
05:00Sun 	 9c 	 41%
05:00Sun 	 9c 	 41%
05:00Sun 	 9c 	 41%
05:00Sun 	 9c 	 41%
05:00Sun 	 9c 	 41%
05:00Sun 	 9c 	 41%
05:00Sun 	 9c 	 41%
05:00Sun 	 9c 	 41%
05:00Sun 	 9c 	 41%
05:00Sun 	 9c 	 41%
05:00Sun 	 9c 	 41%
05:00Sun 	 9c 	 41%
05:00Sun 	 9c 	 41%
05:00Sun 	 9c 	 41%
05:00Sun 	 9c 	 41%
05:00Sun 	 9c 	 41%
05:00Sun 	 9c 	 41%
05:00Sun 	 9c 	 41%
05:00Sun 	 9c 	 41%
05:00Sun 	 9c 	 41%
05:00Sun 	 9c 	 41%
05:00Sun 	 9c 	 41%
05:00Sun 	 9c 	 41%
05:00Sun 	 9c 	 41%
05:00Sun 	 9c 	 41%
05:00Sun 	 9c 	 41%
05:00Sun 	 9c 	 41%
05:00Sun 	 9c 	 41%
05:00Sun 	 9c 	 41%
05:00Sun 	 9c 	 41%
05:00Sun 	 9c 	 41%
05:00Sun 	 9c 	 41%
05:00Sun 	 9c 	 41%
05:00Sun 	 9c 	 41%
05:00Sun 	 9c 	 41%
05:00Sun 	 9c 	 41%
05:00Sun 	 9c 	 41%
05:00Sun 	 9c 	 41%
05:00Sun 	 9c 	 41%
05:00Sun 	 9c 	 41%
05:00Sun 	 9c 	 36%
05:00Sun 	 9c 	 36%
05:00Sun 	 9c 	 36%
05:00Sun 	 9c 	 36%
05:00Sun 	 9c 	 36%
05:00Sun 	 9c 	 36%
05:00Sun 	 9c 	 36%
05:00Sun 	 9c 	 41%
05:00Sun 	 9c 	 41%
05:00Sun 	 9c 	 41%



















