00:00Wed 	 11c 	 80%

01:00Wed 	 11c 	 75%
01:00Wed 	 11c 	 75%
01:00Wed 	 11c 	 75%
01:00Wed 	 11c 	 100%
01:00Wed 	 11c 	 100%

02:00Wed 	 11c 	 96%
02:00Wed 	 11c 	 96%
02:00Wed 	 11c 	 96%
02:00Wed 	 11c 	 99%
02:00Wed 	 11c 	 99%
02:00Wed 	 11c 	 99%
02:00Wed 	 11c 	 99%
02:00Wed 	 11c 	 100%
02:00Wed 	 11c 	 100%

03:00Wed 	 11c 	 98%
03:00Wed 	 11c 	 98%
03:00Wed 	 11c 	 98%
03:00Wed 	 11c 	 98%
03:00Wed 	 11c 	 98%
03:00Wed 	 11c 	 98%
03:00Wed 	 11c 	 98%
03:00Wed 	 11c 	 100%
03:00Wed 	 11c 	 100%
03:00Wed 	 11c 	 100%
03:00Wed 	 11c 	 100%
03:00Wed 	 11c 	 100%
03:00Wed 	 11c 	 100%

04:00Wed 	 11c 	 99%
04:00Wed 	 11c 	 99%
04:00Wed 	 11c 	 99%
04:00Wed 	 11c 	 99%
04:00Wed 	 11c 	 99%
04:00Wed 	 11c 	 99%
04:00Wed 	 11c 	 99%
04:00Wed 	 11c 	 99%
04:00Wed 	 11c 	 99%
04:00Wed 	 11c 	 99%
04:00Wed 	 11c 	 99%
04:00Wed 	 11c 	 100%
04:00Wed 	 11c 	 100%
04:00Wed 	 11c 	 100%
04:00Wed 	 11c 	 100%
04:00Wed 	 11c 	 100%
04:00Wed 	 11c 	 100%

05:00Wed 	 11c 	 99%
05:00Wed 	 11c 	 99%
05:00Wed 	 11c 	 99%
05:00Wed 	 11c 	 99%
05:00Wed 	 11c 	 99%
05:00Wed 	 11c 	 99%
05:00Wed 	 11c 	 99%
05:00Wed 	 11c 	 99%
05:00Wed 	 11c 	 99%
05:00Wed 	 11c 	 99%
05:00Wed 	 11c 	 99%
05:00Wed 	 11c 	 99%
05:00Wed 	 11c 	 99%
05:00Wed 	 11c 	 99%
05:00Wed 	 11c 	 99%
05:00Wed 	 11c 	 100%
05:00Wed 	 11c 	 100%
05:00Wed 	 11c 	 100%
05:00Wed 	 11c 	 100%
05:00Wed 	 11c 	 97%
05:00Wed 	 11c 	 97%

06:00Wed 	 11c 	 98%
06:00Wed 	 11c 	 98%
06:00Wed 	 11c 	 98%
06:00Wed 	 11c 	 98%
06:00Wed 	 11c 	 98%
06:00Wed 	 11c 	 98%
06:00Wed 	 11c 	 98%
06:00Wed 	 11c 	 98%
06:00Wed 	 11c 	 98%
06:00Wed 	 11c 	 98%
06:00Wed 	 11c 	 98%
06:00Wed 	 11c 	 98%
06:00Wed 	 11c 	 98%
06:00Wed 	 11c 	 98%
06:00Wed 	 11c 	 98%
06:00Wed 	 11c 	 99%
06:00Wed 	 11c 	 99%
06:00Wed 	 11c 	 99%
06:00Wed 	 11c 	 99%
06:00Wed 	 11c 	 99%
06:00Wed 	 11c 	 99%
06:00Wed 	 11c 	 99%
06:00Wed 	 11c 	 99%
06:00Wed 	 11c 	 43%
06:00Wed 	 11c 	 43%

07:00Wed 	 11c 	 97%
07:00Wed 	 11c 	 97%
07:00Wed 	 11c 	 97%
07:00Wed 	 11c 	 97%
07:00Wed 	 11c 	 97%
07:00Wed 	 11c 	 97%
07:00Wed 	 11c 	 97%
07:00Wed 	 11c 	 97%
07:00Wed 	 11c 	 97%
07:00Wed 	 11c 	 97%
07:00Wed 	 11c 	 96%
07:00Wed 	 11c 	 96%
07:00Wed 	 11c 	 96%
07:00Wed 	 11c 	 96%
07:00Wed 	 11c 	 96%
07:00Wed 	 11c 	 97%
07:00Wed 	 11c 	 97%
07:00Wed 	 11c 	 97%
07:00Wed 	 11c 	 97%
07:00Wed 	 11c 	 96%
07:00Wed 	 11c 	 96%
07:00Wed 	 11c 	 96%
07:00Wed 	 11c 	 96%
07:00Wed 	 11c 	 76%
07:00Wed 	 11c 	 76%
07:00Wed 	 11c 	 76%
07:00Wed 	 11c 	 76%
07:00Wed 	 11c 	 100%

08:00Wed 	 10c 	 92%
08:00Wed 	 10c 	 92%
08:00Wed 	 10c 	 92%
08:00Wed 	 10c 	 92%
08:00Wed 	 10c 	 92%
08:00Wed 	 10c 	 92%
08:00Wed 	 10c 	 92%
08:00Wed 	 10c 	 92%
08:00Wed 	 10c 	 92%
08:00Wed 	 10c 	 92%
08:00Wed 	 10c 	 92%
08:00Wed 	 10c 	 92%
08:00Wed 	 10c 	 92%
08:00Wed 	 10c 	 92%
08:00Wed 	 10c 	 92%
08:00Wed 	 10c 	 92%
08:00Wed 	 10c 	 92%
08:00Wed 	 10c 	 92%
08:00Wed 	 10c 	 92%
08:00Wed 	 11c 	 92%
08:00Wed 	 11c 	 92%
08:00Wed 	 11c 	 92%
08:00Wed 	 11c 	 92%
08:00Wed 	 11c 	 92%
08:00Wed 	 11c 	 92%
08:00Wed 	 11c 	 92%
08:00Wed 	 11c 	 92%
08:00Wed 	 11c 	 98%
08:00Wed 	 11c 	 98%
08:00Wed 	 11c 	 98%
08:00Wed 	 11c 	 98%
08:00Wed 	 11c 	 100%
08:00Wed 	 11c 	 100%

09:00Wed 	 10c 	 89%
09:00Wed 	 10c 	 89%
09:00Wed 	 10c 	 89%
09:00Wed 	 10c 	 89%
09:00Wed 	 10c 	 89%
09:00Wed 	 10c 	 89%
09:00Wed 	 10c 	 89%
09:00Wed 	 10c 	 89%
09:00Wed 	 10c 	 89%
09:00Wed 	 10c 	 89%
09:00Wed 	 10c 	 89%
09:00Wed 	 10c 	 89%
09:00Wed 	 10c 	 89%
09:00Wed 	 10c 	 89%
09:00Wed 	 10c 	 89%
09:00Wed 	 10c 	 89%
09:00Wed 	 10c 	 89%
09:00Wed 	 10c 	 89%
09:00Wed 	 10c 	 89%
09:00Wed 	 10c 	 89%
09:00Wed 	 10c 	 89%
09:00Wed 	 10c 	 89%
09:00Wed 	 10c 	 89%
09:00Wed 	 10c 	 89%
09:00Wed 	 10c 	 89%
09:00Wed 	 10c 	 89%
09:00Wed 	 10c 	 89%
09:00Wed 	 10c 	 90%
09:00Wed 	 10c 	 90%
09:00Wed 	 10c 	 90%
09:00Wed 	 10c 	 90%
09:00Wed 	 10c 	 100%
09:00Wed 	 10c 	 100%
09:00Wed 	 10c 	 100%
09:00Wed 	 10c 	 100%
09:00Wed 	 10c 	 99%
09:00Wed 	 10c 	 99%

10:00Wed 	 10c 	 93%
10:00Wed 	 10c 	 93%
10:00Wed 	 10c 	 93%
10:00Wed 	 10c 	 93%
10:00Wed 	 10c 	 93%
10:00Wed 	 10c 	 93%
10:00Wed 	 10c 	 93%
10:00Wed 	 10c 	 93%
10:00Wed 	 10c 	 93%
10:00Wed 	 10c 	 93%
10:00Wed 	 10c 	 93%
10:00Wed 	 10c 	 93%
10:00Wed 	 10c 	 93%
10:00Wed 	 10c 	 93%
10:00Wed 	 10c 	 93%
10:00Wed 	 10c 	 93%
10:00Wed 	 10c 	 93%
10:00Wed 	 10c 	 93%
10:00Wed 	 10c 	 93%
10:00Wed 	 10c 	 93%
10:00Wed 	 10c 	 93%
10:00Wed 	 10c 	 93%
10:00Wed 	 10c 	 93%
10:00Wed 	 10c 	 93%
10:00Wed 	 10c 	 93%
10:00Wed 	 10c 	 93%
10:00Wed 	 10c 	 93%
10:00Wed 	 10c 	 93%
10:00Wed 	 10c 	 93%
10:00Wed 	 10c 	 93%
10:00Wed 	 10c 	 93%
10:00Wed 	 10c 	 96%
10:00Wed 	 10c 	 96%
10:00Wed 	 10c 	 96%
10:00Wed 	 10c 	 96%
10:00Wed 	 10c 	 98%
10:00Wed 	 10c 	 98%
10:00Wed 	 10c 	 98%
10:00Wed 	 10c 	 98%
10:00Wed 	 10c 	 94%
10:00Wed 	 10c 	 94%

11:00Wed 	 10c 	 94%
11:00Wed 	 10c 	 94%
11:00Wed 	 10c 	 94%
11:00Wed 	 10c 	 94%
11:00Wed 	 10c 	 94%
11:00Wed 	 10c 	 94%
11:00Wed 	 10c 	 94%
11:00Wed 	 10c 	 94%
11:00Wed 	 10c 	 94%
11:00Wed 	 10c 	 94%
11:00Wed 	 10c 	 94%
11:00Wed 	 10c 	 94%
11:00Wed 	 10c 	 94%
11:00Wed 	 10c 	 94%
11:00Wed 	 10c 	 94%
11:00Wed 	 10c 	 94%
11:00Wed 	 10c 	 94%
11:00Wed 	 10c 	 94%
11:00Wed 	 10c 	 94%
11:00Wed 	 10c 	 94%
11:00Wed 	 10c 	 94%
11:00Wed 	 10c 	 94%
11:00Wed 	 10c 	 94%
11:00Wed 	 10c 	 94%
11:00Wed 	 10c 	 94%
11:00Wed 	 10c 	 94%
11:00Wed 	 10c 	 94%
11:00Wed 	 10c 	 95%
11:00Wed 	 10c 	 95%
11:00Wed 	 10c 	 95%
11:00Wed 	 10c 	 95%
11:00Wed 	 10c 	 95%
11:00Wed 	 10c 	 95%
11:00Wed 	 10c 	 95%
11:00Wed 	 10c 	 95%
11:00Wed 	 10c 	 97%
11:00Wed 	 10c 	 97%
11:00Wed 	 10c 	 97%
11:00Wed 	 10c 	 97%
11:00Wed 	 10c 	 100%
11:00Wed 	 10c 	 100%
11:00Wed 	 10c 	 100%
11:00Wed 	 10c 	 100%
11:00Wed 	 10c 	 98%
11:00Wed 	 10c 	 98%

12:00Wed 	 11c 	 90%
12:00Wed 	 11c 	 90%
12:00Wed 	 11c 	 90%
12:00Wed 	 11c 	 90%
12:00Wed 	 11c 	 90%
12:00Wed 	 11c 	 90%
12:00Wed 	 11c 	 90%
12:00Wed 	 11c 	 90%
12:00Wed 	 11c 	 90%
12:00Wed 	 11c 	 90%
12:00Wed 	 11c 	 90%
12:00Wed 	 11c 	 90%
12:00Wed 	 11c 	 90%
12:00Wed 	 11c 	 90%
12:00Wed 	 11c 	 90%
12:00Wed 	 11c 	 90%
12:00Wed 	 11c 	 90%
12:00Wed 	 11c 	 90%
12:00Wed 	 11c 	 90%
12:00Wed 	 11c 	 90%
12:00Wed 	 11c 	 90%
12:00Wed 	 11c 	 90%
12:00Wed 	 11c 	 90%
12:00Wed 	 11c 	 90%
12:00Wed 	 11c 	 90%
12:00Wed 	 11c 	 90%
12:00Wed 	 11c 	 90%
12:00Wed 	 11c 	 90%
12:00Wed 	 11c 	 90%
12:00Wed 	 11c 	 90%
12:00Wed 	 11c 	 90%
12:00Wed 	 10c 	 97%
12:00Wed 	 10c 	 97%
12:00Wed 	 10c 	 97%
12:00Wed 	 10c 	 97%
12:00Wed 	 10c 	 98%
12:00Wed 	 10c 	 98%
12:00Wed 	 10c 	 98%
12:00Wed 	 10c 	 98%
12:00Wed 	 10c 	 99%
12:00Wed 	 10c 	 99%
12:00Wed 	 10c 	 99%
12:00Wed 	 10c 	 99%
12:00Wed 	 10c 	 98%
12:00Wed 	 10c 	 98%
12:00Wed 	 10c 	 98%
12:00Wed 	 10c 	 98%
12:00Wed 	 10c 	 100%
12:00Wed 	 10c 	 100%

13:00Wed 	 11c 	 91%
13:00Wed 	 11c 	 91%
13:00Wed 	 11c 	 91%
13:00Wed 	 11c 	 91%
13:00Wed 	 11c 	 91%
13:00Wed 	 11c 	 91%
13:00Wed 	 11c 	 91%
13:00Wed 	 11c 	 91%
13:00Wed 	 11c 	 91%
13:00Wed 	 11c 	 91%
13:00Wed 	 11c 	 91%
13:00Wed 	 11c 	 91%
13:00Wed 	 11c 	 91%
13:00Wed 	 11c 	 91%
13:00Wed 	 11c 	 91%
13:00Wed 	 11c 	 91%
13:00Wed 	 11c 	 91%
13:00Wed 	 11c 	 91%
13:00Wed 	 11c 	 91%
13:00Wed 	 11c 	 91%
13:00Wed 	 11c 	 91%
13:00Wed 	 11c 	 91%
13:00Wed 	 11c 	 91%
13:00Wed 	 11c 	 91%
13:00Wed 	 11c 	 91%
13:00Wed 	 11c 	 91%
13:00Wed 	 11c 	 91%
13:00Wed 	 11c 	 91%
13:00Wed 	 11c 	 91%
13:00Wed 	 11c 	 91%
13:00Wed 	 11c 	 91%
13:00Wed 	 10c 	 97%
13:00Wed 	 10c 	 97%
13:00Wed 	 10c 	 97%
13:00Wed 	 10c 	 97%
13:00Wed 	 10c 	 98%
13:00Wed 	 10c 	 98%
13:00Wed 	 10c 	 98%
13:00Wed 	 10c 	 98%
13:00Wed 	 10c 	 98%
13:00Wed 	 10c 	 98%
13:00Wed 	 10c 	 98%
13:00Wed 	 10c 	 98%
13:00Wed 	 10c 	 98%
13:00Wed 	 10c 	 98%
13:00Wed 	 10c 	 98%
13:00Wed 	 10c 	 98%
13:00Wed 	 10c 	 100%
13:00Wed 	 10c 	 100%
13:00Wed 	 10c 	 100%
13:00Wed 	 10c 	 100%
13:00Wed 	 10c 	 100%
13:00Wed 	 10c 	 100%

14:00Wed 	 10c 	 95%
14:00Wed 	 10c 	 95%
14:00Wed 	 10c 	 95%
14:00Wed 	 10c 	 95%
14:00Wed 	 10c 	 95%
14:00Wed 	 10c 	 95%
14:00Wed 	 10c 	 95%
14:00Wed 	 10c 	 95%
14:00Wed 	 10c 	 95%
14:00Wed 	 10c 	 95%
14:00Wed 	 10c 	 95%
14:00Wed 	 10c 	 95%
14:00Wed 	 10c 	 95%
14:00Wed 	 10c 	 95%
14:00Wed 	 10c 	 95%
14:00Wed 	 10c 	 95%
14:00Wed 	 10c 	 95%
14:00Wed 	 10c 	 95%
14:00Wed 	 10c 	 95%
14:00Wed 	 10c 	 95%
14:00Wed 	 10c 	 95%
14:00Wed 	 10c 	 95%
14:00Wed 	 10c 	 95%
14:00Wed 	 10c 	 95%
14:00Wed 	 10c 	 95%
14:00Wed 	 10c 	 95%
14:00Wed 	 10c 	 95%
14:00Wed 	 10c 	 95%
14:00Wed 	 10c 	 95%
14:00Wed 	 10c 	 95%
14:00Wed 	 10c 	 95%
14:00Wed 	 10c 	 98%
14:00Wed 	 10c 	 98%
14:00Wed 	 10c 	 98%
14:00Wed 	 10c 	 98%
14:00Wed 	 10c 	 98%
14:00Wed 	 10c 	 98%
14:00Wed 	 10c 	 98%
14:00Wed 	 10c 	 98%
14:00Wed 	 10c 	 98%
14:00Wed 	 10c 	 98%
14:00Wed 	 10c 	 98%
14:00Wed 	 10c 	 98%
14:00Wed 	 10c 	 98%
14:00Wed 	 10c 	 98%
14:00Wed 	 10c 	 98%
14:00Wed 	 10c 	 98%
14:00Wed 	 10c 	 98%
14:00Wed 	 10c 	 98%
14:00Wed 	 10c 	 98%
14:00Wed 	 10c 	 98%
14:00Wed 	 10c 	 100%
14:00Wed 	 10c 	 100%
14:00Wed 	 10c 	 100%
14:00Wed 	 10c 	 100%
14:00Wed 	 10c 	 100%
14:00Wed 	 10c 	 100%

15:00Wed 	 10c 	 95%
15:00Wed 	 10c 	 95%
15:00Wed 	 10c 	 95%
15:00Wed 	 10c 	 95%
15:00Wed 	 10c 	 95%
15:00Wed 	 10c 	 95%
15:00Wed 	 10c 	 95%
15:00Wed 	 10c 	 95%
15:00Wed 	 10c 	 95%
15:00Wed 	 10c 	 95%
15:00Wed 	 10c 	 95%
15:00Wed 	 10c 	 95%
15:00Wed 	 10c 	 95%
15:00Wed 	 10c 	 95%
15:00Wed 	 10c 	 95%
15:00Wed 	 10c 	 95%
15:00Wed 	 10c 	 95%
15:00Wed 	 10c 	 95%
15:00Wed 	 10c 	 95%
15:00Wed 	 10c 	 95%
15:00Wed 	 10c 	 95%
15:00Wed 	 10c 	 95%
15:00Wed 	 10c 	 95%
15:00Wed 	 10c 	 95%
15:00Wed 	 10c 	 95%
15:00Wed 	 10c 	 95%
15:00Wed 	 10c 	 95%
15:00Wed 	 10c 	 95%
15:00Wed 	 10c 	 95%
15:00Wed 	 10c 	 95%
15:00Wed 	 10c 	 95%
15:00Wed 	 10c 	 97%
15:00Wed 	 10c 	 97%
15:00Wed 	 10c 	 97%
15:00Wed 	 10c 	 97%
15:00Wed 	 10c 	 97%
15:00Wed 	 10c 	 97%
15:00Wed 	 10c 	 97%
15:00Wed 	 10c 	 97%
15:00Wed 	 10c 	 97%
15:00Wed 	 10c 	 97%
15:00Wed 	 10c 	 97%
15:00Wed 	 10c 	 97%
15:00Wed 	 10c 	 97%
15:00Wed 	 10c 	 97%
15:00Wed 	 10c 	 97%
15:00Wed 	 10c 	 97%
15:00Wed 	 10c 	 97%
15:00Wed 	 10c 	 97%
15:00Wed 	 10c 	 97%
15:00Wed 	 10c 	 97%
15:00Wed 	 10c 	 97%
15:00Wed 	 10c 	 97%
15:00Wed 	 10c 	 97%
15:00Wed 	 10c 	 97%
15:00Wed 	 10c 	 100%
15:00Wed 	 10c 	 100%
15:00Wed 	 10c 	 100%
15:00Wed 	 10c 	 100%
15:00Wed 	 10c 	 100%
15:00Wed 	 10c 	 100%

16:00Wed 	 10c 	 95%
16:00Wed 	 10c 	 95%
16:00Wed 	 10c 	 95%
16:00Wed 	 10c 	 95%
16:00Wed 	 10c 	 95%
16:00Wed 	 10c 	 95%
16:00Wed 	 10c 	 95%
16:00Wed 	 10c 	 95%
16:00Wed 	 10c 	 95%
16:00Wed 	 10c 	 95%
16:00Wed 	 10c 	 95%
16:00Wed 	 10c 	 95%
16:00Wed 	 10c 	 95%
16:00Wed 	 10c 	 95%
16:00Wed 	 10c 	 95%
16:00Wed 	 10c 	 95%
16:00Wed 	 10c 	 95%
16:00Wed 	 10c 	 95%
16:00Wed 	 10c 	 95%
16:00Wed 	 10c 	 95%
16:00Wed 	 10c 	 95%
16:00Wed 	 10c 	 95%
16:00Wed 	 10c 	 95%
16:00Wed 	 10c 	 95%
16:00Wed 	 10c 	 95%
16:00Wed 	 10c 	 95%
16:00Wed 	 10c 	 95%
16:00Wed 	 10c 	 95%
16:00Wed 	 10c 	 95%
16:00Wed 	 10c 	 95%
16:00Wed 	 10c 	 95%
16:00Wed 	 10c 	 92%
16:00Wed 	 10c 	 92%
16:00Wed 	 10c 	 92%
16:00Wed 	 10c 	 92%
16:00Wed 	 10c 	 95%
16:00Wed 	 10c 	 95%
16:00Wed 	 10c 	 95%
16:00Wed 	 10c 	 95%
16:00Wed 	 10c 	 95%
16:00Wed 	 10c 	 95%
16:00Wed 	 10c 	 95%
16:00Wed 	 10c 	 95%
16:00Wed 	 10c 	 95%
16:00Wed 	 10c 	 95%
16:00Wed 	 10c 	 95%
16:00Wed 	 10c 	 95%
16:00Wed 	 10c 	 95%
16:00Wed 	 10c 	 95%
16:00Wed 	 10c 	 95%
16:00Wed 	 10c 	 95%
16:00Wed 	 10c 	 95%
16:00Wed 	 10c 	 95%
16:00Wed 	 10c 	 95%
16:00Wed 	 10c 	 95%
16:00Wed 	 10c 	 97%
16:00Wed 	 10c 	 97%
16:00Wed 	 10c 	 97%
16:00Wed 	 10c 	 97%
16:00Wed 	 10c 	 98%
16:00Wed 	 10c 	 98%
16:00Wed 	 10c 	 98%
16:00Wed 	 10c 	 98%
16:00Wed 	 10c 	 98%
16:00Wed 	 10c 	 98%

17:00Wed 	 10c 	 95%
17:00Wed 	 10c 	 95%
17:00Wed 	 10c 	 95%
17:00Wed 	 10c 	 95%
17:00Wed 	 10c 	 95%
17:00Wed 	 10c 	 95%
17:00Wed 	 10c 	 95%
17:00Wed 	 10c 	 95%
17:00Wed 	 10c 	 95%
17:00Wed 	 10c 	 95%
17:00Wed 	 10c 	 95%
17:00Wed 	 10c 	 95%
17:00Wed 	 10c 	 95%
17:00Wed 	 10c 	 95%
17:00Wed 	 10c 	 95%
17:00Wed 	 10c 	 95%
17:00Wed 	 10c 	 95%
17:00Wed 	 10c 	 95%
17:00Wed 	 10c 	 95%
17:00Wed 	 10c 	 95%
17:00Wed 	 10c 	 95%
17:00Wed 	 10c 	 95%
17:00Wed 	 10c 	 95%
17:00Wed 	 10c 	 95%
17:00Wed 	 10c 	 95%
17:00Wed 	 10c 	 95%
17:00Wed 	 10c 	 95%
17:00Wed 	 10c 	 95%
17:00Wed 	 10c 	 95%
17:00Wed 	 10c 	 95%
17:00Wed 	 10c 	 95%
17:00Wed 	 10c 	 86%
17:00Wed 	 10c 	 86%
17:00Wed 	 10c 	 86%
17:00Wed 	 10c 	 86%
17:00Wed 	 10c 	 89%
17:00Wed 	 10c 	 89%
17:00Wed 	 10c 	 89%
17:00Wed 	 10c 	 89%
17:00Wed 	 10c 	 89%
17:00Wed 	 10c 	 89%
17:00Wed 	 10c 	 89%
17:00Wed 	 10c 	 89%
17:00Wed 	 10c 	 89%
17:00Wed 	 10c 	 89%
17:00Wed 	 10c 	 89%
17:00Wed 	 10c 	 89%
17:00Wed 	 10c 	 89%
17:00Wed 	 10c 	 89%
17:00Wed 	 10c 	 89%
17:00Wed 	 10c 	 89%
17:00Wed 	 10c 	 89%
17:00Wed 	 10c 	 89%
17:00Wed 	 10c 	 89%
17:00Wed 	 10c 	 89%
17:00Wed 	 10c 	 89%
17:00Wed 	 10c 	 89%
17:00Wed 	 10c 	 89%
17:00Wed 	 10c 	 89%
17:00Wed 	 10c 	 89%
17:00Wed 	 10c 	 89%
17:00Wed 	 10c 	 89%
17:00Wed 	 10c 	 89%
17:00Wed 	 10c 	 95%
17:00Wed 	 10c 	 95%
17:00Wed 	 10c 	 95%
17:00Wed 	 10c 	 95%
17:00Wed 	 10c 	 100%
17:00Wed 	 10c 	 100%

18:00Wed 	 10c 	 93%
18:00Wed 	 10c 	 93%
18:00Wed 	 10c 	 93%
18:00Wed 	 10c 	 93%
18:00Wed 	 10c 	 93%
18:00Wed 	 10c 	 93%
18:00Wed 	 10c 	 93%
18:00Wed 	 10c 	 93%
18:00Wed 	 10c 	 93%
18:00Wed 	 10c 	 93%
18:00Wed 	 10c 	 93%
18:00Wed 	 10c 	 93%
18:00Wed 	 10c 	 93%
18:00Wed 	 10c 	 93%
18:00Wed 	 10c 	 93%
18:00Wed 	 10c 	 93%
18:00Wed 	 10c 	 93%
18:00Wed 	 10c 	 93%
18:00Wed 	 10c 	 93%
18:00Wed 	 10c 	 93%
18:00Wed 	 10c 	 93%
18:00Wed 	 10c 	 93%
18:00Wed 	 10c 	 93%
18:00Wed 	 10c 	 93%
18:00Wed 	 10c 	 93%
18:00Wed 	 10c 	 93%
18:00Wed 	 10c 	 93%
18:00Wed 	 10c 	 93%
18:00Wed 	 10c 	 93%
18:00Wed 	 10c 	 93%
18:00Wed 	 10c 	 93%
18:00Wed 	 10c 	 83%
18:00Wed 	 10c 	 83%
18:00Wed 	 10c 	 83%
18:00Wed 	 10c 	 83%
18:00Wed 	 10c 	 86%
18:00Wed 	 10c 	 86%
18:00Wed 	 10c 	 86%
18:00Wed 	 10c 	 86%
18:00Wed 	 10c 	 86%
18:00Wed 	 10c 	 86%
18:00Wed 	 10c 	 86%
18:00Wed 	 10c 	 86%
18:00Wed 	 10c 	 86%
18:00Wed 	 10c 	 86%
18:00Wed 	 10c 	 86%
18:00Wed 	 10c 	 86%
18:00Wed 	 10c 	 86%
18:00Wed 	 10c 	 86%
18:00Wed 	 10c 	 86%
18:00Wed 	 10c 	 86%
18:00Wed 	 10c 	 86%
18:00Wed 	 10c 	 86%
18:00Wed 	 10c 	 86%
18:00Wed 	 10c 	 86%
18:00Wed 	 10c 	 86%
18:00Wed 	 10c 	 86%
18:00Wed 	 10c 	 86%
18:00Wed 	 10c 	 86%
18:00Wed 	 10c 	 86%
18:00Wed 	 10c 	 86%
18:00Wed 	 10c 	 86%
18:00Wed 	 10c 	 86%
18:00Wed 	 10c 	 93%
18:00Wed 	 10c 	 93%
18:00Wed 	 10c 	 93%
18:00Wed 	 10c 	 93%
18:00Wed 	 10c 	 99%
18:00Wed 	 10c 	 99%
18:00Wed 	 10c 	 99%
18:00Wed 	 10c 	 99%
18:00Wed 	 10c 	 100%
18:00Wed 	 10c 	 100%

19:00Wed 	 10c 	 91%
19:00Wed 	 10c 	 91%
19:00Wed 	 10c 	 91%
19:00Wed 	 10c 	 91%
19:00Wed 	 10c 	 91%
19:00Wed 	 10c 	 91%
19:00Wed 	 10c 	 91%
19:00Wed 	 10c 	 91%
19:00Wed 	 10c 	 91%
19:00Wed 	 10c 	 91%
19:00Wed 	 10c 	 91%
19:00Wed 	 10c 	 91%
19:00Wed 	 10c 	 91%
19:00Wed 	 10c 	 91%
19:00Wed 	 10c 	 91%
19:00Wed 	 10c 	 91%
19:00Wed 	 10c 	 91%
19:00Wed 	 10c 	 91%
19:00Wed 	 10c 	 91%
19:00Wed 	 10c 	 91%
19:00Wed 	 10c 	 91%
19:00Wed 	 10c 	 91%
19:00Wed 	 10c 	 91%
19:00Wed 	 10c 	 91%
19:00Wed 	 10c 	 91%
19:00Wed 	 10c 	 91%
19:00Wed 	 10c 	 91%
19:00Wed 	 10c 	 91%
19:00Wed 	 10c 	 91%
19:00Wed 	 10c 	 91%
19:00Wed 	 10c 	 91%
19:00Wed 	 10c 	 87%
19:00Wed 	 10c 	 87%
19:00Wed 	 10c 	 87%
19:00Wed 	 10c 	 87%
19:00Wed 	 10c 	 92%
19:00Wed 	 10c 	 92%
19:00Wed 	 10c 	 92%
19:00Wed 	 10c 	 92%
19:00Wed 	 10c 	 92%
19:00Wed 	 10c 	 92%
19:00Wed 	 10c 	 92%
19:00Wed 	 10c 	 92%
19:00Wed 	 10c 	 92%
19:00Wed 	 10c 	 92%
19:00Wed 	 10c 	 92%
19:00Wed 	 10c 	 92%
19:00Wed 	 10c 	 92%
19:00Wed 	 10c 	 92%
19:00Wed 	 10c 	 92%
19:00Wed 	 10c 	 92%
19:00Wed 	 10c 	 92%
19:00Wed 	 10c 	 92%
19:00Wed 	 10c 	 92%
19:00Wed 	 10c 	 92%
19:00Wed 	 10c 	 92%
19:00Wed 	 10c 	 92%
19:00Wed 	 10c 	 92%
19:00Wed 	 10c 	 92%
19:00Wed 	 10c 	 92%
19:00Wed 	 10c 	 92%
19:00Wed 	 10c 	 92%
19:00Wed 	 10c 	 92%
19:00Wed 	 10c 	 92%
19:00Wed 	 10c 	 92%
19:00Wed 	 10c 	 92%
19:00Wed 	 10c 	 92%
19:00Wed 	 10c 	 96%
19:00Wed 	 10c 	 96%
19:00Wed 	 10c 	 96%
19:00Wed 	 10c 	 96%
19:00Wed 	 10c 	 100%
19:00Wed 	 10c 	 100%
19:00Wed 	 10c 	 100%
19:00Wed 	 10c 	 100%
19:00Wed 	 10c 	 100%
19:00Wed 	 10c 	 100%

20:00Wed 	 10c 	 90%
20:00Wed 	 10c 	 90%
20:00Wed 	 10c 	 90%
20:00Wed 	 10c 	 90%
20:00Wed 	 10c 	 90%
20:00Wed 	 10c 	 90%
20:00Wed 	 10c 	 90%
20:00Wed 	 10c 	 90%
20:00Wed 	 10c 	 90%
20:00Wed 	 10c 	 90%
20:00Wed 	 10c 	 90%
20:00Wed 	 10c 	 90%
20:00Wed 	 10c 	 90%
20:00Wed 	 10c 	 90%
20:00Wed 	 10c 	 90%
20:00Wed 	 10c 	 90%
20:00Wed 	 10c 	 90%
20:00Wed 	 10c 	 90%
20:00Wed 	 10c 	 90%
20:00Wed 	 10c 	 90%
20:00Wed 	 10c 	 90%
20:00Wed 	 10c 	 90%
20:00Wed 	 10c 	 90%
20:00Wed 	 10c 	 90%
20:00Wed 	 10c 	 90%
20:00Wed 	 10c 	 90%
20:00Wed 	 10c 	 90%
20:00Wed 	 10c 	 90%
20:00Wed 	 10c 	 90%
20:00Wed 	 10c 	 90%
20:00Wed 	 10c 	 90%
20:00Wed 	 10c 	 92%
20:00Wed 	 10c 	 92%
20:00Wed 	 10c 	 92%
20:00Wed 	 10c 	 92%
20:00Wed 	 10c 	 96%
20:00Wed 	 10c 	 96%
20:00Wed 	 10c 	 96%
20:00Wed 	 10c 	 96%
20:00Wed 	 10c 	 96%
20:00Wed 	 10c 	 96%
20:00Wed 	 10c 	 96%
20:00Wed 	 10c 	 96%
20:00Wed 	 10c 	 96%
20:00Wed 	 10c 	 96%
20:00Wed 	 10c 	 96%
20:00Wed 	 10c 	 96%
20:00Wed 	 10c 	 96%
20:00Wed 	 10c 	 96%
20:00Wed 	 10c 	 96%
20:00Wed 	 10c 	 96%
20:00Wed 	 10c 	 96%
20:00Wed 	 10c 	 96%
20:00Wed 	 10c 	 96%
20:00Wed 	 10c 	 96%
20:00Wed 	 10c 	 96%
20:00Wed 	 10c 	 96%
20:00Wed 	 10c 	 96%
20:00Wed 	 10c 	 96%
20:00Wed 	 10c 	 96%
20:00Wed 	 10c 	 96%
20:00Wed 	 10c 	 96%
20:00Wed 	 10c 	 96%
20:00Wed 	 10c 	 96%
20:00Wed 	 10c 	 96%
20:00Wed 	 10c 	 96%
20:00Wed 	 10c 	 96%
20:00Wed 	 10c 	 96%
20:00Wed 	 10c 	 96%
20:00Wed 	 10c 	 96%
20:00Wed 	 10c 	 96%
20:00Wed 	 10c 	 98%
20:00Wed 	 10c 	 98%
20:00Wed 	 10c 	 98%
20:00Wed 	 10c 	 98%
20:00Wed 	 10c 	 99%
20:00Wed 	 10c 	 99%
20:00Wed 	 10c 	 99%
20:00Wed 	 10c 	 99%
20:00Wed 	 10c 	 100%
20:00Wed 	 10c 	 100%

21:00Wed 	 9c 	 91%
21:00Wed 	 9c 	 91%
21:00Wed 	 9c 	 91%
21:00Wed 	 9c 	 91%
21:00Wed 	 9c 	 91%
21:00Wed 	 9c 	 91%
21:00Wed 	 9c 	 91%
21:00Wed 	 9c 	 91%
21:00Wed 	 9c 	 91%
21:00Wed 	 9c 	 91%
21:00Wed 	 9c 	 91%
21:00Wed 	 9c 	 91%
21:00Wed 	 9c 	 91%
21:00Wed 	 9c 	 91%
21:00Wed 	 9c 	 91%
21:00Wed 	 9c 	 91%
21:00Wed 	 9c 	 91%
21:00Wed 	 9c 	 91%
21:00Wed 	 9c 	 91%
21:00Wed 	 9c 	 91%
21:00Wed 	 9c 	 91%
21:00Wed 	 9c 	 91%
21:00Wed 	 9c 	 91%
21:00Wed 	 9c 	 91%
21:00Wed 	 9c 	 91%
21:00Wed 	 9c 	 91%
21:00Wed 	 9c 	 91%
21:00Wed 	 9c 	 91%
21:00Wed 	 9c 	 91%
21:00Wed 	 9c 	 91%
21:00Wed 	 9c 	 91%
21:00Wed 	 9c 	 94%
21:00Wed 	 9c 	 94%
21:00Wed 	 9c 	 94%
21:00Wed 	 9c 	 94%
21:00Wed 	 9c 	 97%
21:00Wed 	 9c 	 97%
21:00Wed 	 9c 	 97%
21:00Wed 	 9c 	 97%
21:00Wed 	 9c 	 97%
21:00Wed 	 9c 	 97%
21:00Wed 	 9c 	 97%
21:00Wed 	 9c 	 97%
21:00Wed 	 9c 	 97%
21:00Wed 	 9c 	 97%
21:00Wed 	 9c 	 97%
21:00Wed 	 9c 	 97%
21:00Wed 	 9c 	 97%
21:00Wed 	 9c 	 97%
21:00Wed 	 9c 	 97%
21:00Wed 	 9c 	 97%
21:00Wed 	 9c 	 97%
21:00Wed 	 9c 	 97%
21:00Wed 	 9c 	 97%
21:00Wed 	 9c 	 97%
21:00Wed 	 9c 	 97%
21:00Wed 	 9c 	 97%
21:00Wed 	 9c 	 97%
21:00Wed 	 9c 	 97%
21:00Wed 	 9c 	 97%
21:00Wed 	 9c 	 97%
21:00Wed 	 9c 	 97%
21:00Wed 	 9c 	 97%
21:00Wed 	 9c 	 97%
21:00Wed 	 9c 	 97%
21:00Wed 	 9c 	 97%
21:00Wed 	 9c 	 97%
21:00Wed 	 9c 	 97%
21:00Wed 	 9c 	 97%
21:00Wed 	 9c 	 97%
21:00Wed 	 9c 	 97%
21:00Wed 	 9c 	 97%
21:00Wed 	 9c 	 97%
21:00Wed 	 9c 	 97%
21:00Wed 	 9c 	 97%
21:00Wed 	 9c 	 97%
21:00Wed 	 9c 	 97%
21:00Wed 	 9c 	 97%
21:00Wed 	 9c 	 97%
21:00Wed 	 9c 	 100%
21:00Wed 	 9c 	 100%
21:00Wed 	 9c 	 100%
21:00Wed 	 9c 	 100%
21:00Wed 	 9c 	 100%
21:00Wed 	 9c 	 100%

22:00Wed 	 8c 	 93%
22:00Wed 	 8c 	 93%
22:00Wed 	 8c 	 93%
22:00Wed 	 8c 	 93%
22:00Wed 	 8c 	 93%
22:00Wed 	 8c 	 93%
22:00Wed 	 8c 	 93%
22:00Wed 	 8c 	 93%
22:00Wed 	 8c 	 93%
22:00Wed 	 8c 	 93%
22:00Wed 	 8c 	 93%
22:00Wed 	 8c 	 93%
22:00Wed 	 8c 	 93%
22:00Wed 	 8c 	 93%
22:00Wed 	 8c 	 93%
22:00Wed 	 8c 	 93%
22:00Wed 	 8c 	 93%
22:00Wed 	 8c 	 93%
22:00Wed 	 8c 	 93%
22:00Wed 	 8c 	 93%
22:00Wed 	 8c 	 93%
22:00Wed 	 8c 	 93%
22:00Wed 	 8c 	 93%
22:00Wed 	 8c 	 93%
22:00Wed 	 8c 	 93%
22:00Wed 	 8c 	 93%
22:00Wed 	 8c 	 93%
22:00Wed 	 8c 	 93%
22:00Wed 	 8c 	 93%
22:00Wed 	 8c 	 93%
22:00Wed 	 8c 	 93%
22:00Wed 	 8c 	 96%
22:00Wed 	 8c 	 96%
22:00Wed 	 8c 	 96%
22:00Wed 	 8c 	 96%
22:00Wed 	 8c 	 96%
22:00Wed 	 8c 	 96%
22:00Wed 	 8c 	 96%
22:00Wed 	 8c 	 96%
22:00Wed 	 6c 	 96%
22:00Wed 	 6c 	 96%
22:00Wed 	 6c 	 96%
22:00Wed 	 6c 	 96%
22:00Wed 	 6c 	 96%
22:00Wed 	 6c 	 96%
22:00Wed 	 6c 	 96%
22:00Wed 	 6c 	 96%
22:00Wed 	 6c 	 96%
22:00Wed 	 6c 	 96%
22:00Wed 	 6c 	 96%
22:00Wed 	 6c 	 96%
22:00Wed 	 6c 	 96%
22:00Wed 	 6c 	 96%
22:00Wed 	 6c 	 96%
22:00Wed 	 6c 	 96%
22:00Wed 	 6c 	 96%
22:00Wed 	 6c 	 96%
22:00Wed 	 6c 	 96%
22:00Wed 	 6c 	 96%
22:00Wed 	 6c 	 96%
22:00Wed 	 6c 	 96%
22:00Wed 	 6c 	 96%
22:00Wed 	 6c 	 96%
22:00Wed 	 6c 	 96%
22:00Wed 	 6c 	 96%
22:00Wed 	 6c 	 96%
22:00Wed 	 6c 	 96%
22:00Wed 	 6c 	 96%
22:00Wed 	 6c 	 96%
22:00Wed 	 6c 	 96%
22:00Wed 	 6c 	 96%
22:00Wed 	 7c 	 96%
22:00Wed 	 7c 	 96%
22:00Wed 	 7c 	 96%
22:00Wed 	 7c 	 96%
22:00Wed 	 7c 	 96%
22:00Wed 	 7c 	 96%
22:00Wed 	 7c 	 96%
22:00Wed 	 7c 	 96%
22:00Wed 	 7c 	 98%
22:00Wed 	 7c 	 98%
22:00Wed 	 7c 	 98%
22:00Wed 	 7c 	 98%
22:00Wed 	 8c 	 100%
22:00Wed 	 8c 	 100%
22:00Wed 	 8c 	 100%
22:00Wed 	 8c 	 100%
22:00Wed 	 8c 	 100%
22:00Wed 	 8c 	 100%

23:00Wed 	 7c 	 92%
23:00Wed 	 7c 	 92%
23:00Wed 	 7c 	 92%
23:00Wed 	 7c 	 92%
23:00Wed 	 7c 	 92%
23:00Wed 	 7c 	 92%
23:00Wed 	 7c 	 92%
23:00Wed 	 7c 	 92%
23:00Wed 	 7c 	 92%
23:00Wed 	 7c 	 92%
23:00Wed 	 7c 	 92%
23:00Wed 	 7c 	 92%
23:00Wed 	 7c 	 92%
23:00Wed 	 7c 	 92%
23:00Wed 	 7c 	 92%
23:00Wed 	 7c 	 92%
23:00Wed 	 7c 	 92%
23:00Wed 	 7c 	 92%
23:00Wed 	 7c 	 92%
23:00Wed 	 7c 	 92%
23:00Wed 	 7c 	 92%
23:00Wed 	 7c 	 92%
23:00Wed 	 7c 	 92%
23:00Wed 	 7c 	 92%
23:00Wed 	 7c 	 92%
23:00Wed 	 7c 	 92%
23:00Wed 	 7c 	 92%
23:00Wed 	 7c 	 92%
23:00Wed 	 7c 	 92%
23:00Wed 	 7c 	 92%
23:00Wed 	 7c 	 92%
23:00Wed 	 6c 	 94%
23:00Wed 	 6c 	 94%
23:00Wed 	 6c 	 94%
23:00Wed 	 6c 	 94%
23:00Wed 	 6c 	 93%
23:00Wed 	 6c 	 93%
23:00Wed 	 6c 	 93%
23:00Wed 	 6c 	 93%
23:00Wed 	 4c 	 93%
23:00Wed 	 4c 	 93%
23:00Wed 	 4c 	 93%
23:00Wed 	 4c 	 93%
23:00Wed 	 4c 	 93%
23:00Wed 	 4c 	 93%
23:00Wed 	 4c 	 93%
23:00Wed 	 4c 	 93%
23:00Wed 	 4c 	 93%
23:00Wed 	 4c 	 93%
23:00Wed 	 4c 	 93%
23:00Wed 	 4c 	 93%
23:00Wed 	 4c 	 93%
23:00Wed 	 4c 	 93%
23:00Wed 	 4c 	 93%
23:00Wed 	 4c 	 93%
23:00Wed 	 4c 	 93%
23:00Wed 	 4c 	 93%
23:00Wed 	 4c 	 93%
23:00Wed 	 4c 	 93%
23:00Wed 	 4c 	 93%
23:00Wed 	 4c 	 93%
23:00Wed 	 4c 	 93%
23:00Wed 	 4c 	 93%
23:00Wed 	 4c 	 93%
23:00Wed 	 4c 	 93%
23:00Wed 	 4c 	 93%
23:00Wed 	 4c 	 93%
23:00Wed 	 4c 	 93%
23:00Wed 	 4c 	 93%
23:00Wed 	 4c 	 93%
23:00Wed 	 4c 	 93%
23:00Wed 	 5c 	 93%
23:00Wed 	 5c 	 93%
23:00Wed 	 5c 	 93%
23:00Wed 	 5c 	 93%
23:00Wed 	 5c 	 93%
23:00Wed 	 5c 	 93%
23:00Wed 	 5c 	 93%
23:00Wed 	 5c 	 93%
23:00Wed 	 5c 	 93%
23:00Wed 	 5c 	 93%
23:00Wed 	 5c 	 93%
23:00Wed 	 5c 	 93%
23:00Wed 	 6c 	 96%
23:00Wed 	 6c 	 96%
23:00Wed 	 6c 	 96%
23:00Wed 	 6c 	 96%
23:00Wed 	 6c 	 100%
23:00Wed 	 6c 	 100%
23:00Wed 	 6c 	 100%
23:00Wed 	 6c 	 100%
23:00Wed 	 5c 	 100%
23:00Wed 	 5c 	 100%

