00:00Tue 	 16c 	 2%
00:00Tue 	 16c 	 2%
00:00Tue 	 16c 	 2%
00:00Tue 	 16c 	 2%
00:00Tue 	 16c 	 2%
00:00Tue 	 16c 	 2%
00:00Tue 	 16c 	 2%
00:00Tue 	 16c 	 2%
00:00Tue 	 16c 	 2%
00:00Tue 	 16c 	 2%
00:00Tue 	 16c 	 2%
00:00Tue 	 16c 	 2%
00:00Tue 	 16c 	 2%
00:00Tue 	 16c 	 2%
00:00Tue 	 16c 	 2%
00:00Tue 	 16c 	 2%
00:00Tue 	 16c 	 2%
00:00Tue 	 16c 	 2%
00:00Tue 	 16c 	 2%
00:00Tue 	 16c 	 1%
00:00Tue 	 16c 	 1%
00:00Tue 	 16c 	 1%
00:00Tue 	 16c 	 1%
00:00Tue 	 16c 	 1%
00:00Tue 	 16c 	 1%
00:00Tue 	 16c 	 1%
00:00Tue 	 16c 	 1%
00:00Tue 	 16c 	 1%
00:00Tue 	 16c 	 1%
00:00Tue 	 16c 	 1%
00:00Tue 	 16c 	 1%
00:00Tue 	 16c 	 1%
00:00Tue 	 16c 	 1%
00:00Tue 	 16c 	 1%
00:00Tue 	 16c 	 1%
00:00Tue 	 16c 	 1%
00:00Tue 	 16c 	 1%
00:00Tue 	 16c 	 1%
00:00Tue 	 16c 	 1%
00:00Tue 	 16c 	 1%
00:00Tue 	 16c 	 1%
00:00Tue 	 16c 	 1%
00:00Tue 	 16c 	 1%
00:00Tue 	 16c 	 1%
00:00Tue 	 16c 	 1%
00:00Tue 	 16c 	 1%
00:00Tue 	 16c 	 1%
00:00Tue 	 16c 	 1%
00:00Tue 	 16c 	 1%
00:00Tue 	 16c 	 1%
00:00Tue 	 16c 	 1%
00:00Tue 	 16c 	 1%
00:00Tue 	 16c 	 1%
00:00Tue 	 16c 	 1%
00:00Tue 	 16c 	 1%
00:00Tue 	 16c 	 1%
00:00Tue 	 16c 	 1%
00:00Tue 	 16c 	 1%
00:00Tue 	 16c 	 1%
00:00Tue 	 16c 	 1%
00:00Tue 	 16c 	 0%
00:00Tue 	 16c 	 0%
00:00Tue 	 16c 	 0%
00:00Tue 	 16c 	 0%
00:00Tue 	 16c 	 0%
00:00Tue 	 16c 	 0%
00:00Tue 	 16c 	 0%
00:00Tue 	 16c 	 0%
00:00Tue 	 16c 	 0%
00:00Tue 	 16c 	 0%
00:00Tue 	 16c 	 0%
00:00Tue 	 16c 	 0%
00:00Tue 	 16c 	 0%
00:00Tue 	 16c 	 0%
00:00Tue 	 16c 	 0%
00:00Tue 	 16c 	 2%
00:00Tue 	 16c 	 2%
00:00Tue 	 16c 	 2%
00:00Tue 	 16c 	 2%
00:00Tue 	 16c 	 2%
00:00Tue 	 16c 	 2%
00:00Tue 	 16c 	 2%
00:00Tue 	 16c 	 2%
00:00Tue 	 16c 	 2%
00:00Tue 	 16c 	 2%
00:00Tue 	 16c 	 2%
00:00Tue 	 16c 	 2%
00:00Tue 	 16c 	 2%
00:00Tue 	 16c 	 2%
00:00Tue 	 16c 	 2%
00:00Tue 	 16c 	 2%
00:00Tue 	 16c 	 2%
00:00Tue 	 16c 	 2%
00:00Tue 	 16c 	 2%
00:00Tue 	 16c 	 2%
00:00Tue 	 16c 	 2%

01:00Tue 	 16c 	 2%
01:00Tue 	 16c 	 2%
01:00Tue 	 16c 	 2%
01:00Tue 	 16c 	 2%
01:00Tue 	 16c 	 2%
01:00Tue 	 16c 	 2%
01:00Tue 	 16c 	 2%
01:00Tue 	 16c 	 2%
01:00Tue 	 16c 	 2%
01:00Tue 	 16c 	 2%
01:00Tue 	 16c 	 2%
01:00Tue 	 15c 	 1%
01:00Tue 	 15c 	 1%
01:00Tue 	 15c 	 1%
01:00Tue 	 15c 	 1%
01:00Tue 	 15c 	 1%
01:00Tue 	 15c 	 1%
01:00Tue 	 15c 	 1%
01:00Tue 	 15c 	 1%
01:00Tue 	 15c 	 1%
01:00Tue 	 15c 	 1%
01:00Tue 	 15c 	 1%
01:00Tue 	 15c 	 1%
01:00Tue 	 15c 	 1%
01:00Tue 	 15c 	 1%
01:00Tue 	 15c 	 1%
01:00Tue 	 15c 	 1%
01:00Tue 	 15c 	 1%
01:00Tue 	 15c 	 1%
01:00Tue 	 15c 	 1%
01:00Tue 	 15c 	 1%
01:00Tue 	 15c 	 1%
01:00Tue 	 15c 	 1%
01:00Tue 	 15c 	 1%
01:00Tue 	 15c 	 1%
01:00Tue 	 15c 	 1%
01:00Tue 	 15c 	 1%
01:00Tue 	 15c 	 1%
01:00Tue 	 15c 	 1%
01:00Tue 	 15c 	 1%
01:00Tue 	 15c 	 1%
01:00Tue 	 15c 	 1%
01:00Tue 	 15c 	 1%
01:00Tue 	 15c 	 1%
01:00Tue 	 15c 	 1%
01:00Tue 	 15c 	 1%
01:00Tue 	 15c 	 1%
01:00Tue 	 15c 	 1%
01:00Tue 	 15c 	 1%
01:00Tue 	 15c 	 1%
01:00Tue 	 15c 	 1%
01:00Tue 	 15c 	 1%
01:00Tue 	 15c 	 1%
01:00Tue 	 15c 	 1%
01:00Tue 	 15c 	 1%
01:00Tue 	 15c 	 1%
01:00Tue 	 15c 	 1%
01:00Tue 	 15c 	 1%
01:00Tue 	 15c 	 1%
01:00Tue 	 15c 	 1%
01:00Tue 	 15c 	 1%
01:00Tue 	 15c 	 1%
01:00Tue 	 15c 	 1%
01:00Tue 	 15c 	 1%
01:00Tue 	 15c 	 1%
01:00Tue 	 15c 	 1%
01:00Tue 	 15c 	 1%
01:00Tue 	 15c 	 1%
01:00Tue 	 15c 	 1%
01:00Tue 	 15c 	 1%
01:00Tue 	 15c 	 1%
01:00Tue 	 15c 	 1%
01:00Tue 	 15c 	 0%
01:00Tue 	 15c 	 0%
01:00Tue 	 15c 	 0%
01:00Tue 	 16c 	 2%
01:00Tue 	 16c 	 2%
01:00Tue 	 16c 	 2%
01:00Tue 	 16c 	 2%
01:00Tue 	 16c 	 2%
01:00Tue 	 16c 	 2%
01:00Tue 	 16c 	 2%
01:00Tue 	 16c 	 2%
01:00Tue 	 16c 	 2%
01:00Tue 	 16c 	 2%
01:00Tue 	 16c 	 2%
01:00Tue 	 16c 	 2%
01:00Tue 	 16c 	 2%
01:00Tue 	 16c 	 2%
01:00Tue 	 16c 	 2%
01:00Tue 	 16c 	 2%
01:00Tue 	 16c 	 2%
01:00Tue 	 16c 	 2%
01:00Tue 	 16c 	 2%
01:00Tue 	 16c 	 2%
01:00Tue 	 16c 	 2%

02:00Tue 	 15c 	 3%
02:00Tue 	 15c 	 3%
02:00Tue 	 15c 	 3%
02:00Tue 	 15c 	 3%
02:00Tue 	 15c 	 3%
02:00Tue 	 15c 	 3%
02:00Tue 	 15c 	 3%
02:00Tue 	 15c 	 3%
02:00Tue 	 15c 	 3%
02:00Tue 	 15c 	 3%
02:00Tue 	 15c 	 3%
02:00Tue 	 15c 	 2%
02:00Tue 	 15c 	 2%
02:00Tue 	 15c 	 2%
02:00Tue 	 15c 	 2%
02:00Tue 	 15c 	 2%
02:00Tue 	 15c 	 2%
02:00Tue 	 15c 	 2%
02:00Tue 	 15c 	 2%
02:00Tue 	 15c 	 2%
02:00Tue 	 15c 	 2%
02:00Tue 	 15c 	 2%
02:00Tue 	 15c 	 2%
02:00Tue 	 15c 	 2%
02:00Tue 	 15c 	 2%
02:00Tue 	 15c 	 2%
02:00Tue 	 15c 	 2%
02:00Tue 	 15c 	 2%
02:00Tue 	 15c 	 2%
02:00Tue 	 15c 	 2%
02:00Tue 	 15c 	 2%
02:00Tue 	 15c 	 2%
02:00Tue 	 15c 	 2%
02:00Tue 	 15c 	 2%
02:00Tue 	 15c 	 2%
02:00Tue 	 15c 	 2%
02:00Tue 	 15c 	 2%
02:00Tue 	 15c 	 2%
02:00Tue 	 15c 	 2%
02:00Tue 	 15c 	 2%
02:00Tue 	 15c 	 2%
02:00Tue 	 15c 	 2%
02:00Tue 	 15c 	 2%
02:00Tue 	 15c 	 2%
02:00Tue 	 15c 	 2%
02:00Tue 	 15c 	 2%
02:00Tue 	 15c 	 2%
02:00Tue 	 15c 	 2%
02:00Tue 	 15c 	 2%
02:00Tue 	 15c 	 2%
02:00Tue 	 15c 	 2%
02:00Tue 	 15c 	 2%
02:00Tue 	 15c 	 2%
02:00Tue 	 15c 	 2%
02:00Tue 	 15c 	 2%
02:00Tue 	 15c 	 2%
02:00Tue 	 15c 	 2%
02:00Tue 	 15c 	 2%
02:00Tue 	 15c 	 2%
02:00Tue 	 15c 	 2%
02:00Tue 	 15c 	 1%
02:00Tue 	 15c 	 1%
02:00Tue 	 15c 	 1%
02:00Tue 	 15c 	 1%
02:00Tue 	 15c 	 1%
02:00Tue 	 15c 	 1%
02:00Tue 	 15c 	 1%
02:00Tue 	 15c 	 1%
02:00Tue 	 15c 	 1%
02:00Tue 	 15c 	 1%
02:00Tue 	 15c 	 1%
02:00Tue 	 15c 	 1%
02:00Tue 	 15c 	 1%
02:00Tue 	 15c 	 1%
02:00Tue 	 15c 	 1%
02:00Tue 	 15c 	 3%
02:00Tue 	 15c 	 3%
02:00Tue 	 15c 	 3%
02:00Tue 	 15c 	 3%
02:00Tue 	 15c 	 3%
02:00Tue 	 15c 	 3%
02:00Tue 	 15c 	 3%
02:00Tue 	 15c 	 3%
02:00Tue 	 15c 	 3%
02:00Tue 	 15c 	 3%
02:00Tue 	 15c 	 3%
02:00Tue 	 15c 	 3%
02:00Tue 	 15c 	 3%
02:00Tue 	 15c 	 3%
02:00Tue 	 15c 	 3%
02:00Tue 	 15c 	 3%
02:00Tue 	 15c 	 3%
02:00Tue 	 15c 	 3%
02:00Tue 	 15c 	 3%
02:00Tue 	 15c 	 3%
02:00Tue 	 15c 	 3%

03:00Tue 	 15c 	 6%
03:00Tue 	 15c 	 6%
03:00Tue 	 15c 	 6%
03:00Tue 	 15c 	 6%
03:00Tue 	 15c 	 6%
03:00Tue 	 15c 	 6%
03:00Tue 	 15c 	 6%
03:00Tue 	 15c 	 6%
03:00Tue 	 15c 	 6%
03:00Tue 	 15c 	 6%
03:00Tue 	 15c 	 6%
03:00Tue 	 15c 	 4%
03:00Tue 	 15c 	 4%
03:00Tue 	 15c 	 4%
03:00Tue 	 15c 	 4%
03:00Tue 	 15c 	 4%
03:00Tue 	 15c 	 4%
03:00Tue 	 15c 	 4%
03:00Tue 	 15c 	 4%
03:00Tue 	 15c 	 4%
03:00Tue 	 15c 	 4%
03:00Tue 	 15c 	 4%
03:00Tue 	 15c 	 4%
03:00Tue 	 15c 	 4%
03:00Tue 	 15c 	 4%
03:00Tue 	 15c 	 4%
03:00Tue 	 15c 	 4%
03:00Tue 	 15c 	 4%
03:00Tue 	 15c 	 4%
03:00Tue 	 15c 	 4%
03:00Tue 	 15c 	 4%
03:00Tue 	 15c 	 4%
03:00Tue 	 15c 	 4%
03:00Tue 	 15c 	 4%
03:00Tue 	 15c 	 4%
03:00Tue 	 15c 	 4%
03:00Tue 	 15c 	 4%
03:00Tue 	 15c 	 4%
03:00Tue 	 15c 	 4%
03:00Tue 	 15c 	 4%
03:00Tue 	 15c 	 4%
03:00Tue 	 15c 	 4%
03:00Tue 	 15c 	 4%
03:00Tue 	 15c 	 4%
03:00Tue 	 15c 	 4%
03:00Tue 	 15c 	 4%
03:00Tue 	 15c 	 4%
03:00Tue 	 15c 	 4%
03:00Tue 	 15c 	 4%
03:00Tue 	 15c 	 4%
03:00Tue 	 15c 	 4%
03:00Tue 	 15c 	 4%
03:00Tue 	 15c 	 4%
03:00Tue 	 15c 	 4%
03:00Tue 	 15c 	 4%
03:00Tue 	 15c 	 4%
03:00Tue 	 15c 	 4%
03:00Tue 	 15c 	 4%
03:00Tue 	 15c 	 4%
03:00Tue 	 15c 	 4%
03:00Tue 	 15c 	 3%
03:00Tue 	 15c 	 3%
03:00Tue 	 15c 	 3%
03:00Tue 	 15c 	 3%
03:00Tue 	 15c 	 3%
03:00Tue 	 15c 	 3%
03:00Tue 	 15c 	 3%
03:00Tue 	 15c 	 3%
03:00Tue 	 15c 	 4%
03:00Tue 	 15c 	 4%
03:00Tue 	 15c 	 4%
03:00Tue 	 15c 	 4%
03:00Tue 	 15c 	 4%
03:00Tue 	 15c 	 4%
03:00Tue 	 15c 	 4%
03:00Tue 	 15c 	 6%
03:00Tue 	 15c 	 6%
03:00Tue 	 15c 	 6%
03:00Tue 	 15c 	 6%
03:00Tue 	 15c 	 6%
03:00Tue 	 15c 	 6%
03:00Tue 	 15c 	 6%
03:00Tue 	 15c 	 6%
03:00Tue 	 15c 	 6%
03:00Tue 	 15c 	 6%
03:00Tue 	 15c 	 6%
03:00Tue 	 15c 	 6%
03:00Tue 	 15c 	 6%
03:00Tue 	 15c 	 6%
03:00Tue 	 15c 	 6%
03:00Tue 	 15c 	 6%
03:00Tue 	 15c 	 6%
03:00Tue 	 15c 	 6%
03:00Tue 	 15c 	 6%
03:00Tue 	 15c 	 6%
03:00Tue 	 15c 	 6%

04:00Tue 	 15c 	 9%
04:00Tue 	 15c 	 9%
04:00Tue 	 15c 	 9%
04:00Tue 	 15c 	 9%
04:00Tue 	 15c 	 9%
04:00Tue 	 15c 	 9%
04:00Tue 	 15c 	 9%
04:00Tue 	 15c 	 9%
04:00Tue 	 15c 	 9%
04:00Tue 	 15c 	 9%
04:00Tue 	 15c 	 9%
04:00Tue 	 14c 	 7%
04:00Tue 	 14c 	 7%
04:00Tue 	 14c 	 7%
04:00Tue 	 14c 	 7%
04:00Tue 	 14c 	 7%
04:00Tue 	 14c 	 7%
04:00Tue 	 14c 	 7%
04:00Tue 	 14c 	 7%
04:00Tue 	 14c 	 7%
04:00Tue 	 14c 	 7%
04:00Tue 	 14c 	 7%
04:00Tue 	 14c 	 7%
04:00Tue 	 14c 	 7%
04:00Tue 	 14c 	 7%
04:00Tue 	 14c 	 7%
04:00Tue 	 14c 	 7%
04:00Tue 	 14c 	 7%
04:00Tue 	 14c 	 7%
04:00Tue 	 14c 	 7%
04:00Tue 	 14c 	 7%
04:00Tue 	 14c 	 7%
04:00Tue 	 14c 	 7%
04:00Tue 	 14c 	 7%
04:00Tue 	 14c 	 7%
04:00Tue 	 14c 	 7%
04:00Tue 	 14c 	 7%
04:00Tue 	 14c 	 7%
04:00Tue 	 14c 	 7%
04:00Tue 	 14c 	 7%
04:00Tue 	 14c 	 7%
04:00Tue 	 14c 	 7%
04:00Tue 	 14c 	 7%
04:00Tue 	 14c 	 7%
04:00Tue 	 14c 	 7%
04:00Tue 	 14c 	 7%
04:00Tue 	 14c 	 7%
04:00Tue 	 14c 	 7%
04:00Tue 	 14c 	 7%
04:00Tue 	 14c 	 7%
04:00Tue 	 14c 	 7%
04:00Tue 	 14c 	 7%
04:00Tue 	 14c 	 7%
04:00Tue 	 14c 	 7%
04:00Tue 	 14c 	 7%
04:00Tue 	 14c 	 7%
04:00Tue 	 14c 	 7%
04:00Tue 	 14c 	 7%
04:00Tue 	 14c 	 7%
04:00Tue 	 14c 	 7%
04:00Tue 	 14c 	 7%
04:00Tue 	 14c 	 7%
04:00Tue 	 14c 	 7%
04:00Tue 	 14c 	 7%
04:00Tue 	 14c 	 7%
04:00Tue 	 14c 	 7%
04:00Tue 	 14c 	 7%
04:00Tue 	 14c 	 7%
04:00Tue 	 14c 	 7%
04:00Tue 	 14c 	 7%
04:00Tue 	 14c 	 7%
04:00Tue 	 14c 	 7%
04:00Tue 	 14c 	 7%
04:00Tue 	 14c 	 7%
04:00Tue 	 14c 	 7%
04:00Tue 	 15c 	 9%
04:00Tue 	 15c 	 9%
04:00Tue 	 15c 	 9%
04:00Tue 	 15c 	 9%
04:00Tue 	 15c 	 9%
04:00Tue 	 15c 	 9%
04:00Tue 	 15c 	 9%
04:00Tue 	 15c 	 9%
04:00Tue 	 15c 	 9%
04:00Tue 	 15c 	 9%
04:00Tue 	 15c 	 9%
04:00Tue 	 15c 	 9%
04:00Tue 	 15c 	 9%
04:00Tue 	 15c 	 9%
04:00Tue 	 15c 	 9%
04:00Tue 	 15c 	 9%
04:00Tue 	 15c 	 9%
04:00Tue 	 15c 	 9%
04:00Tue 	 15c 	 9%
04:00Tue 	 15c 	 9%
04:00Tue 	 15c 	 9%

05:00Tue 	 14c 	 8%
05:00Tue 	 14c 	 8%
05:00Tue 	 14c 	 8%
05:00Tue 	 14c 	 8%
05:00Tue 	 14c 	 8%
05:00Tue 	 14c 	 8%
05:00Tue 	 14c 	 8%
05:00Tue 	 14c 	 8%
05:00Tue 	 14c 	 8%
05:00Tue 	 14c 	 8%
05:00Tue 	 14c 	 8%
05:00Tue 	 14c 	 7%
05:00Tue 	 14c 	 7%
05:00Tue 	 14c 	 7%
05:00Tue 	 14c 	 7%
05:00Tue 	 14c 	 7%
05:00Tue 	 14c 	 7%
05:00Tue 	 14c 	 7%
05:00Tue 	 14c 	 7%
05:00Tue 	 14c 	 7%
05:00Tue 	 14c 	 7%
05:00Tue 	 14c 	 7%
05:00Tue 	 14c 	 7%
05:00Tue 	 14c 	 7%
05:00Tue 	 14c 	 7%
05:00Tue 	 14c 	 7%
05:00Tue 	 14c 	 7%
05:00Tue 	 14c 	 7%
05:00Tue 	 14c 	 7%
05:00Tue 	 14c 	 7%
05:00Tue 	 14c 	 7%
05:00Tue 	 14c 	 7%
05:00Tue 	 14c 	 7%
05:00Tue 	 14c 	 7%
05:00Tue 	 14c 	 7%
05:00Tue 	 14c 	 7%
05:00Tue 	 14c 	 7%
05:00Tue 	 14c 	 7%
05:00Tue 	 14c 	 7%
05:00Tue 	 14c 	 7%
05:00Tue 	 14c 	 7%
05:00Tue 	 14c 	 7%
05:00Tue 	 14c 	 7%
05:00Tue 	 14c 	 7%
05:00Tue 	 14c 	 7%
05:00Tue 	 14c 	 7%
05:00Tue 	 14c 	 7%
05:00Tue 	 14c 	 7%
05:00Tue 	 14c 	 7%
05:00Tue 	 14c 	 7%
05:00Tue 	 14c 	 7%
05:00Tue 	 14c 	 7%
05:00Tue 	 14c 	 7%
05:00Tue 	 14c 	 7%
05:00Tue 	 14c 	 7%
05:00Tue 	 14c 	 7%
05:00Tue 	 14c 	 7%
05:00Tue 	 14c 	 7%
05:00Tue 	 14c 	 7%
05:00Tue 	 14c 	 7%
05:00Tue 	 14c 	 5%
05:00Tue 	 14c 	 5%
05:00Tue 	 14c 	 5%
05:00Tue 	 14c 	 5%
05:00Tue 	 14c 	 5%
05:00Tue 	 14c 	 5%
05:00Tue 	 14c 	 5%
05:00Tue 	 14c 	 5%
05:00Tue 	 14c 	 5%
05:00Tue 	 14c 	 5%
05:00Tue 	 14c 	 5%
05:00Tue 	 14c 	 5%
05:00Tue 	 14c 	 5%
05:00Tue 	 14c 	 5%
05:00Tue 	 14c 	 5%
05:00Tue 	 14c 	 8%
05:00Tue 	 14c 	 8%
05:00Tue 	 14c 	 8%
05:00Tue 	 14c 	 8%
05:00Tue 	 14c 	 8%
05:00Tue 	 14c 	 8%
05:00Tue 	 14c 	 8%
05:00Tue 	 14c 	 8%
05:00Tue 	 14c 	 8%
05:00Tue 	 14c 	 8%
05:00Tue 	 14c 	 8%
05:00Tue 	 14c 	 8%
05:00Tue 	 14c 	 8%
05:00Tue 	 14c 	 8%
05:00Tue 	 14c 	 8%
05:00Tue 	 14c 	 8%
05:00Tue 	 14c 	 8%
05:00Tue 	 14c 	 8%
05:00Tue 	 14c 	 8%
05:00Tue 	 14c 	 8%
05:00Tue 	 14c 	 8%

06:00Tue 	 14c 	 7%
06:00Tue 	 14c 	 7%
06:00Tue 	 14c 	 7%
06:00Tue 	 14c 	 7%
06:00Tue 	 14c 	 7%
06:00Tue 	 14c 	 7%
06:00Tue 	 14c 	 7%
06:00Tue 	 14c 	 7%
06:00Tue 	 14c 	 7%
06:00Tue 	 14c 	 7%
06:00Tue 	 14c 	 7%
06:00Tue 	 14c 	 6%
06:00Tue 	 14c 	 6%
06:00Tue 	 14c 	 6%
06:00Tue 	 14c 	 6%
06:00Tue 	 14c 	 6%
06:00Tue 	 14c 	 6%
06:00Tue 	 14c 	 6%
06:00Tue 	 14c 	 6%
06:00Tue 	 14c 	 6%
06:00Tue 	 14c 	 6%
06:00Tue 	 14c 	 6%
06:00Tue 	 14c 	 6%
06:00Tue 	 14c 	 6%
06:00Tue 	 14c 	 6%
06:00Tue 	 14c 	 6%
06:00Tue 	 14c 	 6%
06:00Tue 	 14c 	 6%
06:00Tue 	 14c 	 6%
06:00Tue 	 14c 	 6%
06:00Tue 	 14c 	 6%
06:00Tue 	 14c 	 6%
06:00Tue 	 14c 	 6%
06:00Tue 	 14c 	 6%
06:00Tue 	 14c 	 6%
06:00Tue 	 14c 	 6%
06:00Tue 	 14c 	 6%
06:00Tue 	 14c 	 6%
06:00Tue 	 14c 	 6%
06:00Tue 	 14c 	 6%
06:00Tue 	 14c 	 6%
06:00Tue 	 14c 	 6%
06:00Tue 	 14c 	 6%
06:00Tue 	 14c 	 6%
06:00Tue 	 14c 	 6%
06:00Tue 	 14c 	 6%
06:00Tue 	 14c 	 6%
06:00Tue 	 14c 	 6%
06:00Tue 	 14c 	 6%
06:00Tue 	 14c 	 6%
06:00Tue 	 14c 	 6%
06:00Tue 	 14c 	 6%
06:00Tue 	 14c 	 6%
06:00Tue 	 14c 	 6%
06:00Tue 	 14c 	 6%
06:00Tue 	 14c 	 6%
06:00Tue 	 14c 	 6%
06:00Tue 	 14c 	 6%
06:00Tue 	 14c 	 6%
06:00Tue 	 14c 	 6%
06:00Tue 	 14c 	 4%
06:00Tue 	 14c 	 4%
06:00Tue 	 14c 	 4%
06:00Tue 	 14c 	 4%
06:00Tue 	 14c 	 4%
06:00Tue 	 14c 	 4%
06:00Tue 	 14c 	 4%
06:00Tue 	 14c 	 4%
06:00Tue 	 14c 	 4%
06:00Tue 	 14c 	 4%
06:00Tue 	 14c 	 4%
06:00Tue 	 14c 	 4%
06:00Tue 	 14c 	 4%
06:00Tue 	 14c 	 4%
06:00Tue 	 14c 	 4%

07:00Tue 	 14c 	 7%
07:00Tue 	 14c 	 7%
07:00Tue 	 14c 	 7%
07:00Tue 	 14c 	 7%
07:00Tue 	 14c 	 7%
07:00Tue 	 14c 	 7%
07:00Tue 	 14c 	 7%
07:00Tue 	 14c 	 7%
07:00Tue 	 14c 	 7%
07:00Tue 	 14c 	 7%
07:00Tue 	 14c 	 7%
07:00Tue 	 14c 	 6%
07:00Tue 	 14c 	 6%
07:00Tue 	 14c 	 6%
07:00Tue 	 14c 	 6%
07:00Tue 	 14c 	 6%
07:00Tue 	 14c 	 6%
07:00Tue 	 14c 	 6%
07:00Tue 	 14c 	 6%
07:00Tue 	 14c 	 6%
07:00Tue 	 14c 	 6%
07:00Tue 	 14c 	 6%
07:00Tue 	 14c 	 6%
07:00Tue 	 14c 	 6%
07:00Tue 	 14c 	 6%
07:00Tue 	 14c 	 6%
07:00Tue 	 14c 	 6%
07:00Tue 	 14c 	 6%
07:00Tue 	 14c 	 6%
07:00Tue 	 14c 	 6%
07:00Tue 	 14c 	 6%
07:00Tue 	 14c 	 6%
07:00Tue 	 14c 	 6%
07:00Tue 	 14c 	 6%
07:00Tue 	 14c 	 6%
07:00Tue 	 14c 	 6%
07:00Tue 	 14c 	 6%
07:00Tue 	 14c 	 6%
07:00Tue 	 14c 	 6%
07:00Tue 	 14c 	 6%
07:00Tue 	 14c 	 6%
07:00Tue 	 14c 	 6%
07:00Tue 	 14c 	 6%
07:00Tue 	 14c 	 6%
07:00Tue 	 14c 	 6%
07:00Tue 	 14c 	 6%
07:00Tue 	 14c 	 6%
07:00Tue 	 14c 	 6%
07:00Tue 	 14c 	 6%
07:00Tue 	 14c 	 6%
07:00Tue 	 14c 	 6%
07:00Tue 	 14c 	 6%
07:00Tue 	 14c 	 6%
07:00Tue 	 14c 	 6%
07:00Tue 	 14c 	 6%
07:00Tue 	 14c 	 6%
07:00Tue 	 14c 	 6%
07:00Tue 	 14c 	 6%
07:00Tue 	 14c 	 6%
07:00Tue 	 14c 	 6%
07:00Tue 	 15c 	 6%
07:00Tue 	 15c 	 6%
07:00Tue 	 15c 	 6%
07:00Tue 	 15c 	 6%
07:00Tue 	 15c 	 6%
07:00Tue 	 15c 	 6%
07:00Tue 	 15c 	 6%
07:00Tue 	 15c 	 6%
07:00Tue 	 15c 	 6%
07:00Tue 	 15c 	 6%
07:00Tue 	 15c 	 6%
07:00Tue 	 15c 	 6%
07:00Tue 	 15c 	 6%
07:00Tue 	 15c 	 6%
07:00Tue 	 15c 	 6%

08:00Tue 	 15c 	 8%
08:00Tue 	 15c 	 8%
08:00Tue 	 15c 	 8%
08:00Tue 	 15c 	 8%
08:00Tue 	 15c 	 8%
08:00Tue 	 15c 	 8%
08:00Tue 	 15c 	 8%
08:00Tue 	 15c 	 8%
08:00Tue 	 15c 	 8%
08:00Tue 	 15c 	 8%
08:00Tue 	 15c 	 8%
08:00Tue 	 15c 	 7%
08:00Tue 	 15c 	 7%
08:00Tue 	 15c 	 7%
08:00Tue 	 15c 	 7%
08:00Tue 	 15c 	 7%
08:00Tue 	 15c 	 7%
08:00Tue 	 15c 	 7%
08:00Tue 	 15c 	 7%
08:00Tue 	 15c 	 7%
08:00Tue 	 15c 	 7%
08:00Tue 	 15c 	 7%
08:00Tue 	 15c 	 7%
08:00Tue 	 15c 	 7%
08:00Tue 	 15c 	 7%
08:00Tue 	 15c 	 7%
08:00Tue 	 15c 	 7%
08:00Tue 	 15c 	 7%
08:00Tue 	 15c 	 7%
08:00Tue 	 15c 	 7%
08:00Tue 	 15c 	 7%
08:00Tue 	 15c 	 7%
08:00Tue 	 15c 	 7%
08:00Tue 	 15c 	 7%
08:00Tue 	 15c 	 7%
08:00Tue 	 15c 	 7%
08:00Tue 	 15c 	 7%
08:00Tue 	 15c 	 7%
08:00Tue 	 15c 	 7%
08:00Tue 	 15c 	 7%
08:00Tue 	 15c 	 7%
08:00Tue 	 15c 	 7%
08:00Tue 	 15c 	 7%
08:00Tue 	 15c 	 7%
08:00Tue 	 15c 	 7%
08:00Tue 	 15c 	 7%
08:00Tue 	 15c 	 7%
08:00Tue 	 15c 	 7%
08:00Tue 	 15c 	 7%
08:00Tue 	 15c 	 7%
08:00Tue 	 15c 	 7%
08:00Tue 	 15c 	 7%
08:00Tue 	 15c 	 7%
08:00Tue 	 15c 	 7%
08:00Tue 	 15c 	 7%
08:00Tue 	 15c 	 7%
08:00Tue 	 15c 	 7%
08:00Tue 	 15c 	 7%
08:00Tue 	 15c 	 7%
08:00Tue 	 15c 	 7%
08:00Tue 	 15c 	 9%
08:00Tue 	 15c 	 9%
08:00Tue 	 15c 	 9%
08:00Tue 	 15c 	 9%
08:00Tue 	 15c 	 9%
08:00Tue 	 15c 	 9%
08:00Tue 	 15c 	 9%
08:00Tue 	 15c 	 9%
08:00Tue 	 15c 	 9%
08:00Tue 	 15c 	 9%
08:00Tue 	 15c 	 9%
08:00Tue 	 15c 	 9%
08:00Tue 	 15c 	 9%
08:00Tue 	 15c 	 9%
08:00Tue 	 15c 	 9%

09:00Tue 	 17c 	 8%
09:00Tue 	 17c 	 8%
09:00Tue 	 17c 	 8%
09:00Tue 	 17c 	 8%
09:00Tue 	 17c 	 8%
09:00Tue 	 17c 	 8%
09:00Tue 	 17c 	 8%
09:00Tue 	 17c 	 8%
09:00Tue 	 17c 	 8%
09:00Tue 	 17c 	 8%
09:00Tue 	 17c 	 8%
09:00Tue 	 16c 	 7%
09:00Tue 	 16c 	 7%
09:00Tue 	 16c 	 7%
09:00Tue 	 16c 	 7%
09:00Tue 	 16c 	 7%
09:00Tue 	 16c 	 7%
09:00Tue 	 16c 	 7%
09:00Tue 	 16c 	 7%
09:00Tue 	 16c 	 7%
09:00Tue 	 16c 	 7%
09:00Tue 	 16c 	 7%
09:00Tue 	 16c 	 7%
09:00Tue 	 16c 	 7%
09:00Tue 	 16c 	 7%
09:00Tue 	 16c 	 7%
09:00Tue 	 16c 	 7%
09:00Tue 	 16c 	 7%
09:00Tue 	 16c 	 7%
09:00Tue 	 16c 	 7%
09:00Tue 	 16c 	 7%
09:00Tue 	 16c 	 7%
09:00Tue 	 16c 	 7%
09:00Tue 	 16c 	 7%
09:00Tue 	 16c 	 7%
09:00Tue 	 16c 	 7%
09:00Tue 	 16c 	 7%
09:00Tue 	 16c 	 7%
09:00Tue 	 16c 	 7%
09:00Tue 	 16c 	 7%
09:00Tue 	 16c 	 7%
09:00Tue 	 16c 	 7%
09:00Tue 	 16c 	 7%
09:00Tue 	 16c 	 7%
09:00Tue 	 16c 	 7%
09:00Tue 	 16c 	 7%
09:00Tue 	 16c 	 7%
09:00Tue 	 16c 	 7%
09:00Tue 	 16c 	 7%
09:00Tue 	 16c 	 7%
09:00Tue 	 16c 	 7%
09:00Tue 	 16c 	 7%
09:00Tue 	 16c 	 7%
09:00Tue 	 16c 	 7%
09:00Tue 	 16c 	 7%
09:00Tue 	 16c 	 7%
09:00Tue 	 16c 	 7%
09:00Tue 	 16c 	 7%
09:00Tue 	 16c 	 7%
09:00Tue 	 16c 	 7%
09:00Tue 	 16c 	 10%
09:00Tue 	 16c 	 10%
09:00Tue 	 16c 	 10%
09:00Tue 	 16c 	 10%
09:00Tue 	 16c 	 10%
09:00Tue 	 16c 	 10%
09:00Tue 	 16c 	 10%
09:00Tue 	 16c 	 10%
09:00Tue 	 16c 	 10%
09:00Tue 	 16c 	 10%
09:00Tue 	 16c 	 10%
09:00Tue 	 16c 	 10%
09:00Tue 	 16c 	 10%
09:00Tue 	 16c 	 10%
09:00Tue 	 16c 	 10%

10:00Tue 	 18c 	 8%
10:00Tue 	 18c 	 8%
10:00Tue 	 18c 	 8%
10:00Tue 	 18c 	 8%
10:00Tue 	 18c 	 8%
10:00Tue 	 18c 	 8%
10:00Tue 	 18c 	 8%
10:00Tue 	 18c 	 8%
10:00Tue 	 18c 	 8%
10:00Tue 	 18c 	 8%
10:00Tue 	 18c 	 8%
10:00Tue 	 17c 	 8%
10:00Tue 	 17c 	 8%
10:00Tue 	 17c 	 8%
10:00Tue 	 17c 	 8%
10:00Tue 	 17c 	 8%
10:00Tue 	 17c 	 8%
10:00Tue 	 17c 	 8%
10:00Tue 	 17c 	 8%
10:00Tue 	 17c 	 8%
10:00Tue 	 17c 	 8%
10:00Tue 	 17c 	 8%
10:00Tue 	 17c 	 8%
10:00Tue 	 17c 	 8%
10:00Tue 	 17c 	 8%
10:00Tue 	 17c 	 8%
10:00Tue 	 17c 	 8%
10:00Tue 	 17c 	 8%
10:00Tue 	 17c 	 8%
10:00Tue 	 17c 	 8%
10:00Tue 	 17c 	 8%
10:00Tue 	 17c 	 8%
10:00Tue 	 17c 	 8%
10:00Tue 	 17c 	 8%
10:00Tue 	 17c 	 8%
10:00Tue 	 17c 	 8%
10:00Tue 	 17c 	 8%
10:00Tue 	 17c 	 8%
10:00Tue 	 17c 	 8%
10:00Tue 	 17c 	 8%
10:00Tue 	 17c 	 8%
10:00Tue 	 17c 	 8%
10:00Tue 	 17c 	 8%
10:00Tue 	 17c 	 8%
10:00Tue 	 17c 	 8%
10:00Tue 	 17c 	 8%
10:00Tue 	 17c 	 8%
10:00Tue 	 17c 	 8%
10:00Tue 	 17c 	 8%
10:00Tue 	 17c 	 8%
10:00Tue 	 17c 	 8%
10:00Tue 	 17c 	 8%
10:00Tue 	 17c 	 8%
10:00Tue 	 17c 	 8%
10:00Tue 	 17c 	 8%
10:00Tue 	 17c 	 8%
10:00Tue 	 17c 	 8%
10:00Tue 	 17c 	 8%
10:00Tue 	 17c 	 8%
10:00Tue 	 17c 	 8%
10:00Tue 	 17c 	 10%
10:00Tue 	 17c 	 10%
10:00Tue 	 17c 	 10%
10:00Tue 	 17c 	 10%
10:00Tue 	 17c 	 10%
10:00Tue 	 17c 	 10%
10:00Tue 	 17c 	 10%
10:00Tue 	 17c 	 10%
10:00Tue 	 17c 	 10%
10:00Tue 	 17c 	 10%
10:00Tue 	 17c 	 10%
10:00Tue 	 17c 	 10%
10:00Tue 	 17c 	 10%
10:00Tue 	 17c 	 10%
10:00Tue 	 17c 	 10%

11:00Tue 	 20c 	 8%
11:00Tue 	 20c 	 8%
11:00Tue 	 20c 	 8%
11:00Tue 	 20c 	 8%
11:00Tue 	 20c 	 8%
11:00Tue 	 20c 	 8%
11:00Tue 	 20c 	 8%
11:00Tue 	 20c 	 8%
11:00Tue 	 20c 	 8%
11:00Tue 	 20c 	 8%
11:00Tue 	 20c 	 8%
11:00Tue 	 19c 	 9%
11:00Tue 	 19c 	 9%
11:00Tue 	 19c 	 9%
11:00Tue 	 19c 	 9%
11:00Tue 	 19c 	 9%
11:00Tue 	 19c 	 9%
11:00Tue 	 19c 	 9%
11:00Tue 	 19c 	 9%
11:00Tue 	 19c 	 9%
11:00Tue 	 19c 	 9%
11:00Tue 	 19c 	 9%
11:00Tue 	 19c 	 9%
11:00Tue 	 19c 	 9%
11:00Tue 	 19c 	 9%
11:00Tue 	 19c 	 9%
11:00Tue 	 19c 	 9%
11:00Tue 	 19c 	 9%
11:00Tue 	 19c 	 9%
11:00Tue 	 19c 	 9%
11:00Tue 	 19c 	 9%
11:00Tue 	 19c 	 9%
11:00Tue 	 19c 	 9%
11:00Tue 	 19c 	 9%
11:00Tue 	 19c 	 9%
11:00Tue 	 19c 	 9%
11:00Tue 	 19c 	 9%
11:00Tue 	 19c 	 9%
11:00Tue 	 19c 	 9%
11:00Tue 	 19c 	 9%
11:00Tue 	 19c 	 9%
11:00Tue 	 19c 	 9%
11:00Tue 	 19c 	 9%
11:00Tue 	 19c 	 9%
11:00Tue 	 19c 	 9%
11:00Tue 	 19c 	 9%
11:00Tue 	 19c 	 9%
11:00Tue 	 19c 	 9%
11:00Tue 	 19c 	 9%
11:00Tue 	 19c 	 9%
11:00Tue 	 19c 	 9%
11:00Tue 	 19c 	 9%
11:00Tue 	 19c 	 9%
11:00Tue 	 19c 	 9%
11:00Tue 	 19c 	 9%
11:00Tue 	 19c 	 9%
11:00Tue 	 19c 	 9%
11:00Tue 	 19c 	 9%
11:00Tue 	 19c 	 9%
11:00Tue 	 19c 	 9%
11:00Tue 	 19c 	 10%
11:00Tue 	 19c 	 10%
11:00Tue 	 19c 	 10%
11:00Tue 	 19c 	 10%
11:00Tue 	 19c 	 10%
11:00Tue 	 19c 	 10%
11:00Tue 	 19c 	 10%
11:00Tue 	 19c 	 10%
11:00Tue 	 19c 	 10%
11:00Tue 	 19c 	 10%
11:00Tue 	 19c 	 10%
11:00Tue 	 19c 	 10%
11:00Tue 	 19c 	 10%
11:00Tue 	 19c 	 10%
11:00Tue 	 19c 	 10%

12:00Tue 	 21c 	 8%
12:00Tue 	 21c 	 8%
12:00Tue 	 21c 	 8%
12:00Tue 	 21c 	 8%
12:00Tue 	 21c 	 8%
12:00Tue 	 21c 	 8%
12:00Tue 	 21c 	 8%
12:00Tue 	 21c 	 8%
12:00Tue 	 21c 	 8%
12:00Tue 	 21c 	 8%
12:00Tue 	 21c 	 8%
12:00Tue 	 20c 	 10%
12:00Tue 	 20c 	 10%
12:00Tue 	 20c 	 10%
12:00Tue 	 20c 	 10%
12:00Tue 	 20c 	 10%
12:00Tue 	 20c 	 10%
12:00Tue 	 20c 	 10%
12:00Tue 	 20c 	 10%
12:00Tue 	 20c 	 10%
12:00Tue 	 20c 	 10%
12:00Tue 	 20c 	 10%
12:00Tue 	 20c 	 10%
12:00Tue 	 20c 	 10%
12:00Tue 	 20c 	 10%
12:00Tue 	 20c 	 10%
12:00Tue 	 20c 	 10%
12:00Tue 	 20c 	 10%
12:00Tue 	 20c 	 10%
12:00Tue 	 20c 	 10%
12:00Tue 	 20c 	 10%
12:00Tue 	 20c 	 10%
12:00Tue 	 20c 	 10%
12:00Tue 	 20c 	 10%
12:00Tue 	 20c 	 10%
12:00Tue 	 20c 	 10%
12:00Tue 	 20c 	 10%
12:00Tue 	 20c 	 10%
12:00Tue 	 20c 	 10%
12:00Tue 	 20c 	 10%
12:00Tue 	 20c 	 10%
12:00Tue 	 20c 	 10%
12:00Tue 	 20c 	 10%
12:00Tue 	 20c 	 10%
12:00Tue 	 20c 	 10%
12:00Tue 	 20c 	 10%
12:00Tue 	 20c 	 10%
12:00Tue 	 20c 	 10%
12:00Tue 	 20c 	 10%
12:00Tue 	 20c 	 10%
12:00Tue 	 20c 	 10%
12:00Tue 	 20c 	 10%
12:00Tue 	 20c 	 10%
12:00Tue 	 20c 	 10%
12:00Tue 	 20c 	 10%
12:00Tue 	 20c 	 10%
12:00Tue 	 20c 	 10%
12:00Tue 	 20c 	 10%
12:00Tue 	 20c 	 10%
12:00Tue 	 20c 	 10%
12:00Tue 	 20c 	 9%
12:00Tue 	 20c 	 9%
12:00Tue 	 20c 	 9%
12:00Tue 	 20c 	 9%
12:00Tue 	 20c 	 9%
12:00Tue 	 20c 	 9%
12:00Tue 	 20c 	 9%
12:00Tue 	 20c 	 9%
12:00Tue 	 20c 	 9%
12:00Tue 	 20c 	 9%
12:00Tue 	 20c 	 9%
12:00Tue 	 20c 	 9%
12:00Tue 	 20c 	 9%
12:00Tue 	 20c 	 9%
12:00Tue 	 20c 	 9%

13:00Tue 	 22c 	 8%
13:00Tue 	 22c 	 8%
13:00Tue 	 22c 	 8%
13:00Tue 	 22c 	 8%
13:00Tue 	 22c 	 8%
13:00Tue 	 22c 	 8%
13:00Tue 	 22c 	 8%
13:00Tue 	 22c 	 8%
13:00Tue 	 22c 	 8%
13:00Tue 	 22c 	 8%
13:00Tue 	 22c 	 8%
13:00Tue 	 21c 	 9%
13:00Tue 	 21c 	 9%
13:00Tue 	 21c 	 9%
13:00Tue 	 21c 	 9%
13:00Tue 	 21c 	 9%
13:00Tue 	 21c 	 9%
13:00Tue 	 21c 	 9%
13:00Tue 	 21c 	 9%
13:00Tue 	 21c 	 9%
13:00Tue 	 21c 	 9%
13:00Tue 	 21c 	 9%
13:00Tue 	 21c 	 9%
13:00Tue 	 21c 	 9%
13:00Tue 	 21c 	 9%
13:00Tue 	 21c 	 9%
13:00Tue 	 21c 	 9%
13:00Tue 	 21c 	 9%
13:00Tue 	 21c 	 9%
13:00Tue 	 21c 	 9%
13:00Tue 	 21c 	 9%
13:00Tue 	 21c 	 9%
13:00Tue 	 21c 	 9%
13:00Tue 	 21c 	 9%
13:00Tue 	 21c 	 9%
13:00Tue 	 21c 	 9%
13:00Tue 	 21c 	 9%
13:00Tue 	 21c 	 9%
13:00Tue 	 21c 	 9%
13:00Tue 	 21c 	 9%
13:00Tue 	 21c 	 9%
13:00Tue 	 21c 	 9%
13:00Tue 	 21c 	 9%
13:00Tue 	 21c 	 9%
13:00Tue 	 21c 	 9%
13:00Tue 	 21c 	 9%
13:00Tue 	 21c 	 9%
13:00Tue 	 21c 	 9%
13:00Tue 	 21c 	 9%
13:00Tue 	 21c 	 9%
13:00Tue 	 21c 	 9%
13:00Tue 	 21c 	 9%
13:00Tue 	 21c 	 9%
13:00Tue 	 21c 	 9%
13:00Tue 	 21c 	 9%
13:00Tue 	 21c 	 9%
13:00Tue 	 21c 	 9%
13:00Tue 	 21c 	 9%
13:00Tue 	 21c 	 9%
13:00Tue 	 21c 	 9%
13:00Tue 	 21c 	 7%
13:00Tue 	 21c 	 7%
13:00Tue 	 21c 	 7%
13:00Tue 	 21c 	 7%
13:00Tue 	 21c 	 7%
13:00Tue 	 21c 	 7%
13:00Tue 	 21c 	 7%
13:00Tue 	 21c 	 7%
13:00Tue 	 21c 	 7%
13:00Tue 	 21c 	 7%
13:00Tue 	 21c 	 7%
13:00Tue 	 21c 	 7%
13:00Tue 	 21c 	 7%
13:00Tue 	 21c 	 7%
13:00Tue 	 21c 	 7%

14:00Tue 	 22c 	 8%
14:00Tue 	 22c 	 8%
14:00Tue 	 22c 	 8%
14:00Tue 	 22c 	 8%
14:00Tue 	 22c 	 8%
14:00Tue 	 22c 	 8%
14:00Tue 	 22c 	 8%
14:00Tue 	 22c 	 8%
14:00Tue 	 22c 	 8%
14:00Tue 	 22c 	 8%
14:00Tue 	 22c 	 8%
14:00Tue 	 21c 	 8%
14:00Tue 	 21c 	 8%
14:00Tue 	 21c 	 8%
14:00Tue 	 21c 	 8%
14:00Tue 	 21c 	 8%
14:00Tue 	 21c 	 8%
14:00Tue 	 21c 	 8%
14:00Tue 	 21c 	 8%
14:00Tue 	 21c 	 7%
14:00Tue 	 21c 	 7%
14:00Tue 	 21c 	 7%
14:00Tue 	 21c 	 7%
14:00Tue 	 21c 	 7%
14:00Tue 	 21c 	 7%
14:00Tue 	 21c 	 7%
14:00Tue 	 21c 	 7%
14:00Tue 	 21c 	 7%
14:00Tue 	 21c 	 7%
14:00Tue 	 21c 	 7%
14:00Tue 	 21c 	 7%
14:00Tue 	 21c 	 7%
14:00Tue 	 21c 	 7%
14:00Tue 	 21c 	 7%
14:00Tue 	 21c 	 7%
14:00Tue 	 21c 	 7%
14:00Tue 	 21c 	 7%
14:00Tue 	 21c 	 7%
14:00Tue 	 21c 	 7%
14:00Tue 	 21c 	 7%
14:00Tue 	 21c 	 7%
14:00Tue 	 21c 	 7%
14:00Tue 	 21c 	 7%
14:00Tue 	 21c 	 7%
14:00Tue 	 21c 	 7%
14:00Tue 	 21c 	 7%
14:00Tue 	 21c 	 7%
14:00Tue 	 21c 	 7%
14:00Tue 	 21c 	 7%
14:00Tue 	 21c 	 7%
14:00Tue 	 21c 	 7%
14:00Tue 	 21c 	 7%
14:00Tue 	 21c 	 7%
14:00Tue 	 21c 	 7%
14:00Tue 	 21c 	 7%
14:00Tue 	 21c 	 7%
14:00Tue 	 21c 	 7%
14:00Tue 	 21c 	 7%
14:00Tue 	 21c 	 7%
14:00Tue 	 21c 	 7%
14:00Tue 	 21c 	 6%
14:00Tue 	 21c 	 6%
14:00Tue 	 21c 	 6%
14:00Tue 	 21c 	 6%
14:00Tue 	 21c 	 6%
14:00Tue 	 21c 	 6%
14:00Tue 	 21c 	 6%
14:00Tue 	 21c 	 6%
14:00Tue 	 21c 	 6%
14:00Tue 	 21c 	 6%
14:00Tue 	 21c 	 6%
14:00Tue 	 21c 	 6%
14:00Tue 	 21c 	 6%
14:00Tue 	 21c 	 6%
14:00Tue 	 21c 	 6%

15:00Tue 	 22c 	 8%
15:00Tue 	 22c 	 8%
15:00Tue 	 22c 	 8%
15:00Tue 	 22c 	 8%
15:00Tue 	 22c 	 8%
15:00Tue 	 22c 	 8%
15:00Tue 	 22c 	 8%
15:00Tue 	 22c 	 8%
15:00Tue 	 22c 	 8%
15:00Tue 	 22c 	 8%
15:00Tue 	 22c 	 8%
15:00Tue 	 21c 	 8%
15:00Tue 	 21c 	 8%
15:00Tue 	 21c 	 8%
15:00Tue 	 21c 	 8%
15:00Tue 	 21c 	 8%
15:00Tue 	 21c 	 8%
15:00Tue 	 21c 	 8%
15:00Tue 	 21c 	 8%
15:00Tue 	 21c 	 7%
15:00Tue 	 21c 	 7%
15:00Tue 	 21c 	 7%
15:00Tue 	 21c 	 7%
15:00Tue 	 21c 	 7%
15:00Tue 	 21c 	 7%
15:00Tue 	 21c 	 7%
15:00Tue 	 21c 	 7%
15:00Tue 	 21c 	 7%
15:00Tue 	 21c 	 7%
15:00Tue 	 21c 	 7%
15:00Tue 	 21c 	 7%
15:00Tue 	 21c 	 7%
15:00Tue 	 21c 	 7%
15:00Tue 	 21c 	 7%
15:00Tue 	 21c 	 7%
15:00Tue 	 21c 	 7%
15:00Tue 	 21c 	 7%
15:00Tue 	 21c 	 7%
15:00Tue 	 21c 	 7%
15:00Tue 	 21c 	 7%
15:00Tue 	 21c 	 7%
15:00Tue 	 21c 	 7%
15:00Tue 	 21c 	 7%
15:00Tue 	 21c 	 7%
15:00Tue 	 21c 	 7%
15:00Tue 	 21c 	 7%
15:00Tue 	 21c 	 7%
15:00Tue 	 21c 	 7%
15:00Tue 	 21c 	 7%
15:00Tue 	 21c 	 7%
15:00Tue 	 21c 	 7%
15:00Tue 	 21c 	 7%
15:00Tue 	 21c 	 7%
15:00Tue 	 21c 	 7%
15:00Tue 	 21c 	 7%
15:00Tue 	 21c 	 7%
15:00Tue 	 21c 	 7%
15:00Tue 	 21c 	 7%
15:00Tue 	 21c 	 7%
15:00Tue 	 21c 	 7%
15:00Tue 	 21c 	 7%
15:00Tue 	 21c 	 7%
15:00Tue 	 21c 	 7%
15:00Tue 	 21c 	 7%
15:00Tue 	 21c 	 7%
15:00Tue 	 21c 	 7%
15:00Tue 	 21c 	 7%
15:00Tue 	 21c 	 7%
15:00Tue 	 21c 	 7%
15:00Tue 	 21c 	 7%
15:00Tue 	 21c 	 7%
15:00Tue 	 21c 	 7%
15:00Tue 	 21c 	 7%
15:00Tue 	 21c 	 7%
15:00Tue 	 21c 	 7%

16:00Tue 	 21c 	 9%
16:00Tue 	 21c 	 9%
16:00Tue 	 21c 	 9%
16:00Tue 	 21c 	 9%
16:00Tue 	 21c 	 9%
16:00Tue 	 21c 	 9%
16:00Tue 	 21c 	 9%
16:00Tue 	 21c 	 9%
16:00Tue 	 21c 	 9%
16:00Tue 	 21c 	 9%
16:00Tue 	 21c 	 9%
16:00Tue 	 20c 	 8%
16:00Tue 	 20c 	 8%
16:00Tue 	 20c 	 8%
16:00Tue 	 20c 	 8%
16:00Tue 	 20c 	 8%
16:00Tue 	 20c 	 8%
16:00Tue 	 20c 	 8%
16:00Tue 	 20c 	 8%
16:00Tue 	 20c 	 8%
16:00Tue 	 20c 	 8%
16:00Tue 	 20c 	 8%
16:00Tue 	 20c 	 8%
16:00Tue 	 20c 	 8%
16:00Tue 	 20c 	 8%
16:00Tue 	 20c 	 8%
16:00Tue 	 20c 	 8%
16:00Tue 	 20c 	 8%
16:00Tue 	 20c 	 8%
16:00Tue 	 20c 	 8%
16:00Tue 	 20c 	 8%
16:00Tue 	 20c 	 8%
16:00Tue 	 20c 	 8%
16:00Tue 	 20c 	 8%
16:00Tue 	 20c 	 8%
16:00Tue 	 20c 	 8%
16:00Tue 	 20c 	 8%
16:00Tue 	 20c 	 8%
16:00Tue 	 20c 	 8%
16:00Tue 	 20c 	 8%
16:00Tue 	 20c 	 8%
16:00Tue 	 20c 	 8%
16:00Tue 	 20c 	 8%
16:00Tue 	 20c 	 8%
16:00Tue 	 20c 	 8%
16:00Tue 	 20c 	 8%
16:00Tue 	 20c 	 8%
16:00Tue 	 20c 	 8%
16:00Tue 	 20c 	 8%
16:00Tue 	 20c 	 8%
16:00Tue 	 20c 	 8%
16:00Tue 	 20c 	 8%
16:00Tue 	 20c 	 8%
16:00Tue 	 20c 	 8%
16:00Tue 	 20c 	 8%
16:00Tue 	 20c 	 8%
16:00Tue 	 20c 	 8%
16:00Tue 	 20c 	 8%
16:00Tue 	 20c 	 8%
16:00Tue 	 20c 	 8%
16:00Tue 	 20c 	 10%
16:00Tue 	 20c 	 10%
16:00Tue 	 20c 	 10%
16:00Tue 	 20c 	 10%
16:00Tue 	 20c 	 10%
16:00Tue 	 20c 	 10%
16:00Tue 	 20c 	 10%
16:00Tue 	 20c 	 10%
16:00Tue 	 20c 	 10%
16:00Tue 	 20c 	 10%
16:00Tue 	 20c 	 10%
16:00Tue 	 20c 	 10%
16:00Tue 	 20c 	 10%
16:00Tue 	 20c 	 10%
16:00Tue 	 20c 	 10%

17:00Tue 	 20c 	 12%
17:00Tue 	 20c 	 12%
17:00Tue 	 20c 	 12%
17:00Tue 	 20c 	 12%
17:00Tue 	 20c 	 12%
17:00Tue 	 20c 	 12%
17:00Tue 	 20c 	 12%
17:00Tue 	 20c 	 12%
17:00Tue 	 20c 	 12%
17:00Tue 	 20c 	 12%
17:00Tue 	 20c 	 12%
17:00Tue 	 20c 	 9%
17:00Tue 	 20c 	 9%
17:00Tue 	 20c 	 9%
17:00Tue 	 20c 	 9%
17:00Tue 	 20c 	 9%
17:00Tue 	 20c 	 9%
17:00Tue 	 20c 	 9%
17:00Tue 	 20c 	 9%
17:00Tue 	 20c 	 8%
17:00Tue 	 20c 	 8%
17:00Tue 	 20c 	 8%
17:00Tue 	 20c 	 8%
17:00Tue 	 20c 	 8%
17:00Tue 	 20c 	 8%
17:00Tue 	 20c 	 8%
17:00Tue 	 20c 	 8%
17:00Tue 	 20c 	 8%
17:00Tue 	 20c 	 8%
17:00Tue 	 20c 	 8%
17:00Tue 	 20c 	 8%
17:00Tue 	 20c 	 8%
17:00Tue 	 20c 	 8%
17:00Tue 	 20c 	 8%
17:00Tue 	 20c 	 8%
17:00Tue 	 20c 	 8%
17:00Tue 	 20c 	 8%
17:00Tue 	 20c 	 8%
17:00Tue 	 20c 	 8%
17:00Tue 	 20c 	 8%
17:00Tue 	 20c 	 8%
17:00Tue 	 20c 	 8%
17:00Tue 	 20c 	 8%
17:00Tue 	 20c 	 8%
17:00Tue 	 20c 	 8%
17:00Tue 	 20c 	 8%
17:00Tue 	 20c 	 8%
17:00Tue 	 20c 	 8%
17:00Tue 	 20c 	 8%
17:00Tue 	 20c 	 8%
17:00Tue 	 20c 	 8%
17:00Tue 	 20c 	 8%
17:00Tue 	 20c 	 8%
17:00Tue 	 20c 	 8%
17:00Tue 	 20c 	 8%
17:00Tue 	 20c 	 8%
17:00Tue 	 20c 	 8%
17:00Tue 	 20c 	 8%
17:00Tue 	 20c 	 8%
17:00Tue 	 20c 	 8%
17:00Tue 	 19c 	 12%
17:00Tue 	 19c 	 12%
17:00Tue 	 19c 	 12%
17:00Tue 	 19c 	 12%
17:00Tue 	 19c 	 12%
17:00Tue 	 19c 	 12%
17:00Tue 	 19c 	 12%
17:00Tue 	 19c 	 12%
17:00Tue 	 19c 	 12%
17:00Tue 	 19c 	 12%
17:00Tue 	 19c 	 12%
17:00Tue 	 19c 	 12%
17:00Tue 	 19c 	 12%
17:00Tue 	 19c 	 12%
17:00Tue 	 19c 	 12%

18:00Tue 	 19c 	 14%
18:00Tue 	 19c 	 14%
18:00Tue 	 19c 	 14%
18:00Tue 	 19c 	 14%
18:00Tue 	 19c 	 14%
18:00Tue 	 19c 	 14%
18:00Tue 	 19c 	 14%
18:00Tue 	 19c 	 14%
18:00Tue 	 19c 	 14%
18:00Tue 	 19c 	 14%
18:00Tue 	 19c 	 14%
18:00Tue 	 19c 	 9%
18:00Tue 	 19c 	 9%
18:00Tue 	 19c 	 9%
18:00Tue 	 19c 	 9%
18:00Tue 	 19c 	 9%
18:00Tue 	 19c 	 9%
18:00Tue 	 19c 	 9%
18:00Tue 	 19c 	 9%
18:00Tue 	 19c 	 8%
18:00Tue 	 19c 	 8%
18:00Tue 	 19c 	 8%
18:00Tue 	 19c 	 8%
18:00Tue 	 19c 	 8%
18:00Tue 	 19c 	 8%
18:00Tue 	 19c 	 8%
18:00Tue 	 19c 	 8%
18:00Tue 	 19c 	 8%
18:00Tue 	 19c 	 8%
18:00Tue 	 19c 	 8%
18:00Tue 	 19c 	 8%
18:00Tue 	 19c 	 8%
18:00Tue 	 19c 	 8%
18:00Tue 	 19c 	 8%
18:00Tue 	 19c 	 8%
18:00Tue 	 19c 	 8%
18:00Tue 	 19c 	 8%
18:00Tue 	 19c 	 8%
18:00Tue 	 19c 	 8%
18:00Tue 	 19c 	 8%
18:00Tue 	 19c 	 8%
18:00Tue 	 19c 	 8%
18:00Tue 	 19c 	 8%
18:00Tue 	 19c 	 8%
18:00Tue 	 19c 	 8%
18:00Tue 	 19c 	 8%
18:00Tue 	 19c 	 8%
18:00Tue 	 19c 	 8%
18:00Tue 	 19c 	 8%
18:00Tue 	 19c 	 8%
18:00Tue 	 19c 	 8%
18:00Tue 	 19c 	 8%
18:00Tue 	 19c 	 8%
18:00Tue 	 19c 	 8%
18:00Tue 	 19c 	 8%
18:00Tue 	 19c 	 8%
18:00Tue 	 19c 	 8%
18:00Tue 	 19c 	 8%
18:00Tue 	 19c 	 8%
18:00Tue 	 19c 	 8%
18:00Tue 	 18c 	 12%
18:00Tue 	 18c 	 12%
18:00Tue 	 18c 	 12%
18:00Tue 	 18c 	 12%
18:00Tue 	 18c 	 12%
18:00Tue 	 18c 	 12%
18:00Tue 	 18c 	 12%
18:00Tue 	 18c 	 12%
18:00Tue 	 18c 	 12%
18:00Tue 	 18c 	 12%
18:00Tue 	 18c 	 12%
18:00Tue 	 18c 	 12%
18:00Tue 	 18c 	 12%
18:00Tue 	 18c 	 12%
18:00Tue 	 18c 	 12%

19:00Tue 	 18c 	 14%
19:00Tue 	 18c 	 14%
19:00Tue 	 18c 	 14%
19:00Tue 	 18c 	 14%
19:00Tue 	 18c 	 14%
19:00Tue 	 18c 	 14%
19:00Tue 	 18c 	 14%
19:00Tue 	 18c 	 14%
19:00Tue 	 18c 	 14%
19:00Tue 	 18c 	 14%
19:00Tue 	 18c 	 14%
19:00Tue 	 18c 	 9%
19:00Tue 	 18c 	 9%
19:00Tue 	 18c 	 9%
19:00Tue 	 18c 	 9%
19:00Tue 	 18c 	 9%
19:00Tue 	 18c 	 9%
19:00Tue 	 18c 	 9%
19:00Tue 	 18c 	 9%
19:00Tue 	 18c 	 8%
19:00Tue 	 18c 	 8%
19:00Tue 	 18c 	 8%
19:00Tue 	 18c 	 8%
19:00Tue 	 18c 	 8%
19:00Tue 	 18c 	 8%
19:00Tue 	 18c 	 8%
19:00Tue 	 18c 	 8%
19:00Tue 	 18c 	 8%
19:00Tue 	 18c 	 8%
19:00Tue 	 18c 	 8%
19:00Tue 	 18c 	 8%
19:00Tue 	 18c 	 8%
19:00Tue 	 18c 	 8%
19:00Tue 	 18c 	 8%
19:00Tue 	 18c 	 8%
19:00Tue 	 18c 	 8%
19:00Tue 	 18c 	 8%
19:00Tue 	 18c 	 8%
19:00Tue 	 18c 	 8%
19:00Tue 	 18c 	 8%
19:00Tue 	 18c 	 8%
19:00Tue 	 18c 	 8%
19:00Tue 	 18c 	 8%
19:00Tue 	 18c 	 8%
19:00Tue 	 18c 	 8%
19:00Tue 	 18c 	 8%
19:00Tue 	 18c 	 8%
19:00Tue 	 18c 	 8%
19:00Tue 	 18c 	 8%
19:00Tue 	 18c 	 8%
19:00Tue 	 18c 	 8%
19:00Tue 	 18c 	 8%
19:00Tue 	 18c 	 8%
19:00Tue 	 18c 	 8%
19:00Tue 	 18c 	 8%
19:00Tue 	 18c 	 8%
19:00Tue 	 18c 	 8%
19:00Tue 	 18c 	 8%
19:00Tue 	 18c 	 8%
19:00Tue 	 18c 	 8%
19:00Tue 	 17c 	 12%
19:00Tue 	 17c 	 12%
19:00Tue 	 17c 	 12%
19:00Tue 	 17c 	 12%
19:00Tue 	 17c 	 12%
19:00Tue 	 17c 	 12%
19:00Tue 	 17c 	 12%
19:00Tue 	 17c 	 12%
19:00Tue 	 17c 	 11%
19:00Tue 	 17c 	 11%
19:00Tue 	 17c 	 11%
19:00Tue 	 17c 	 11%
19:00Tue 	 17c 	 11%
19:00Tue 	 17c 	 11%
19:00Tue 	 17c 	 11%

20:00Tue 	 17c 	 16%
20:00Tue 	 17c 	 16%
20:00Tue 	 17c 	 16%
20:00Tue 	 17c 	 16%
20:00Tue 	 17c 	 16%
20:00Tue 	 17c 	 16%
20:00Tue 	 17c 	 16%
20:00Tue 	 17c 	 16%
20:00Tue 	 17c 	 16%
20:00Tue 	 17c 	 16%
20:00Tue 	 17c 	 16%
20:00Tue 	 17c 	 13%
20:00Tue 	 17c 	 13%
20:00Tue 	 17c 	 13%
20:00Tue 	 17c 	 13%
20:00Tue 	 17c 	 13%
20:00Tue 	 17c 	 13%
20:00Tue 	 17c 	 13%
20:00Tue 	 17c 	 13%
20:00Tue 	 17c 	 13%
20:00Tue 	 17c 	 13%
20:00Tue 	 17c 	 13%
20:00Tue 	 17c 	 13%
20:00Tue 	 17c 	 13%
20:00Tue 	 17c 	 13%
20:00Tue 	 17c 	 13%
20:00Tue 	 17c 	 13%
20:00Tue 	 17c 	 14%
20:00Tue 	 17c 	 14%
20:00Tue 	 17c 	 14%
20:00Tue 	 17c 	 14%
20:00Tue 	 17c 	 14%
20:00Tue 	 17c 	 14%
20:00Tue 	 17c 	 14%
20:00Tue 	 17c 	 14%
20:00Tue 	 17c 	 14%
20:00Tue 	 17c 	 14%
20:00Tue 	 17c 	 14%
20:00Tue 	 17c 	 14%
20:00Tue 	 17c 	 14%
20:00Tue 	 17c 	 14%
20:00Tue 	 17c 	 14%
20:00Tue 	 17c 	 14%
20:00Tue 	 17c 	 14%
20:00Tue 	 17c 	 14%
20:00Tue 	 17c 	 14%
20:00Tue 	 17c 	 14%
20:00Tue 	 17c 	 14%
20:00Tue 	 17c 	 14%
20:00Tue 	 17c 	 14%
20:00Tue 	 17c 	 14%
20:00Tue 	 17c 	 14%
20:00Tue 	 17c 	 14%
20:00Tue 	 17c 	 14%
20:00Tue 	 17c 	 14%
20:00Tue 	 17c 	 14%
20:00Tue 	 17c 	 14%
20:00Tue 	 17c 	 14%
20:00Tue 	 17c 	 14%
20:00Tue 	 17c 	 14%
20:00Tue 	 16c 	 16%
20:00Tue 	 16c 	 16%
20:00Tue 	 16c 	 16%
20:00Tue 	 16c 	 16%
20:00Tue 	 16c 	 16%
20:00Tue 	 16c 	 16%
20:00Tue 	 16c 	 16%
20:00Tue 	 16c 	 16%
20:00Tue 	 16c 	 14%
20:00Tue 	 16c 	 14%
20:00Tue 	 16c 	 14%
20:00Tue 	 16c 	 14%
20:00Tue 	 16c 	 14%
20:00Tue 	 16c 	 14%
20:00Tue 	 16c 	 14%

21:00Tue 	 17c 	 17%
21:00Tue 	 17c 	 17%
21:00Tue 	 17c 	 17%
21:00Tue 	 17c 	 17%
21:00Tue 	 17c 	 17%
21:00Tue 	 17c 	 17%
21:00Tue 	 17c 	 17%
21:00Tue 	 17c 	 17%
21:00Tue 	 17c 	 17%
21:00Tue 	 17c 	 17%
21:00Tue 	 17c 	 17%
21:00Tue 	 16c 	 17%
21:00Tue 	 16c 	 17%
21:00Tue 	 16c 	 17%
21:00Tue 	 16c 	 17%
21:00Tue 	 16c 	 17%
21:00Tue 	 16c 	 17%
21:00Tue 	 16c 	 17%
21:00Tue 	 16c 	 17%
21:00Tue 	 16c 	 21%
21:00Tue 	 16c 	 21%
21:00Tue 	 16c 	 21%
21:00Tue 	 16c 	 21%
21:00Tue 	 16c 	 21%
21:00Tue 	 16c 	 21%
21:00Tue 	 16c 	 21%
21:00Tue 	 16c 	 21%
21:00Tue 	 16c 	 23%
21:00Tue 	 16c 	 23%
21:00Tue 	 16c 	 23%
21:00Tue 	 16c 	 23%
21:00Tue 	 16c 	 23%
21:00Tue 	 16c 	 23%
21:00Tue 	 16c 	 23%
21:00Tue 	 16c 	 23%
21:00Tue 	 16c 	 23%
21:00Tue 	 16c 	 23%
21:00Tue 	 16c 	 23%
21:00Tue 	 16c 	 23%
21:00Tue 	 16c 	 23%
21:00Tue 	 16c 	 23%
21:00Tue 	 16c 	 23%
21:00Tue 	 16c 	 23%
21:00Tue 	 16c 	 23%
21:00Tue 	 16c 	 23%
21:00Tue 	 16c 	 23%
21:00Tue 	 16c 	 23%
21:00Tue 	 16c 	 23%
21:00Tue 	 16c 	 23%
21:00Tue 	 16c 	 23%
21:00Tue 	 16c 	 23%
21:00Tue 	 16c 	 23%
21:00Tue 	 16c 	 23%
21:00Tue 	 16c 	 23%
21:00Tue 	 16c 	 23%
21:00Tue 	 16c 	 23%
21:00Tue 	 16c 	 23%
21:00Tue 	 16c 	 23%
21:00Tue 	 16c 	 23%
21:00Tue 	 16c 	 23%
21:00Tue 	 16c 	 23%
21:00Tue 	 16c 	 23%
21:00Tue 	 16c 	 23%
21:00Tue 	 16c 	 23%
21:00Tue 	 16c 	 23%
21:00Tue 	 16c 	 23%
21:00Tue 	 16c 	 23%
21:00Tue 	 16c 	 23%
21:00Tue 	 16c 	 20%
21:00Tue 	 16c 	 20%
21:00Tue 	 16c 	 20%
21:00Tue 	 16c 	 20%
21:00Tue 	 16c 	 20%
21:00Tue 	 16c 	 20%
21:00Tue 	 16c 	 20%

22:00Tue 	 16c 	 17%
22:00Tue 	 16c 	 17%
22:00Tue 	 16c 	 17%
22:00Tue 	 16c 	 17%
22:00Tue 	 16c 	 17%
22:00Tue 	 16c 	 17%
22:00Tue 	 16c 	 17%
22:00Tue 	 16c 	 17%
22:00Tue 	 16c 	 17%
22:00Tue 	 16c 	 17%
22:00Tue 	 16c 	 17%
22:00Tue 	 16c 	 19%
22:00Tue 	 16c 	 19%
22:00Tue 	 16c 	 19%
22:00Tue 	 16c 	 19%
22:00Tue 	 16c 	 19%
22:00Tue 	 16c 	 19%
22:00Tue 	 16c 	 19%
22:00Tue 	 16c 	 19%
22:00Tue 	 16c 	 26%
22:00Tue 	 16c 	 26%
22:00Tue 	 16c 	 26%
22:00Tue 	 16c 	 26%
22:00Tue 	 16c 	 26%
22:00Tue 	 16c 	 26%
22:00Tue 	 16c 	 26%
22:00Tue 	 16c 	 26%
22:00Tue 	 16c 	 29%
22:00Tue 	 16c 	 29%
22:00Tue 	 16c 	 29%
22:00Tue 	 16c 	 29%
22:00Tue 	 16c 	 29%
22:00Tue 	 16c 	 29%
22:00Tue 	 16c 	 29%
22:00Tue 	 16c 	 29%
22:00Tue 	 16c 	 29%
22:00Tue 	 16c 	 29%
22:00Tue 	 16c 	 29%
22:00Tue 	 16c 	 29%
22:00Tue 	 16c 	 29%
22:00Tue 	 16c 	 29%
22:00Tue 	 16c 	 29%
22:00Tue 	 16c 	 29%
22:00Tue 	 16c 	 29%
22:00Tue 	 16c 	 29%
22:00Tue 	 16c 	 29%
22:00Tue 	 16c 	 29%
22:00Tue 	 16c 	 29%
22:00Tue 	 16c 	 29%
22:00Tue 	 16c 	 29%
22:00Tue 	 16c 	 29%
22:00Tue 	 16c 	 29%
22:00Tue 	 16c 	 29%
22:00Tue 	 16c 	 29%
22:00Tue 	 16c 	 29%
22:00Tue 	 16c 	 29%
22:00Tue 	 16c 	 29%
22:00Tue 	 16c 	 29%
22:00Tue 	 16c 	 29%
22:00Tue 	 16c 	 29%
22:00Tue 	 16c 	 29%
22:00Tue 	 16c 	 29%
22:00Tue 	 16c 	 29%
22:00Tue 	 16c 	 29%
22:00Tue 	 16c 	 29%
22:00Tue 	 16c 	 29%
22:00Tue 	 16c 	 29%
22:00Tue 	 16c 	 29%
22:00Tue 	 15c 	 22%
22:00Tue 	 15c 	 22%
22:00Tue 	 15c 	 22%
22:00Tue 	 15c 	 22%
22:00Tue 	 15c 	 22%
22:00Tue 	 15c 	 22%
22:00Tue 	 15c 	 22%

23:00Tue 	 16c 	 19%
23:00Tue 	 16c 	 19%
23:00Tue 	 16c 	 19%
23:00Tue 	 16c 	 19%
23:00Tue 	 16c 	 19%
23:00Tue 	 16c 	 19%
23:00Tue 	 16c 	 19%
23:00Tue 	 16c 	 19%
23:00Tue 	 16c 	 19%
23:00Tue 	 16c 	 19%
23:00Tue 	 16c 	 19%
23:00Tue 	 16c 	 20%
23:00Tue 	 16c 	 20%
23:00Tue 	 16c 	 20%
23:00Tue 	 16c 	 20%
23:00Tue 	 16c 	 20%
23:00Tue 	 16c 	 20%
23:00Tue 	 16c 	 20%
23:00Tue 	 16c 	 20%
23:00Tue 	 15c 	 28%
23:00Tue 	 15c 	 28%
23:00Tue 	 15c 	 28%
23:00Tue 	 15c 	 28%
23:00Tue 	 15c 	 28%
23:00Tue 	 15c 	 28%
23:00Tue 	 15c 	 28%
23:00Tue 	 15c 	 28%
23:00Tue 	 15c 	 30%
23:00Tue 	 15c 	 30%
23:00Tue 	 15c 	 30%
23:00Tue 	 15c 	 30%
23:00Tue 	 15c 	 30%
23:00Tue 	 15c 	 30%
23:00Tue 	 15c 	 30%
23:00Tue 	 15c 	 30%
23:00Tue 	 15c 	 30%
23:00Tue 	 15c 	 30%
23:00Tue 	 15c 	 30%
23:00Tue 	 15c 	 30%
23:00Tue 	 15c 	 30%
23:00Tue 	 15c 	 30%
23:00Tue 	 15c 	 30%
23:00Tue 	 15c 	 30%
23:00Tue 	 15c 	 30%
23:00Tue 	 15c 	 30%
23:00Tue 	 15c 	 30%
23:00Tue 	 15c 	 30%
23:00Tue 	 15c 	 30%
23:00Tue 	 15c 	 30%
23:00Tue 	 15c 	 30%
23:00Tue 	 15c 	 30%
23:00Tue 	 15c 	 30%
23:00Tue 	 15c 	 30%
23:00Tue 	 15c 	 30%
23:00Tue 	 15c 	 30%
23:00Tue 	 15c 	 30%
23:00Tue 	 15c 	 30%
23:00Tue 	 15c 	 30%
23:00Tue 	 15c 	 30%
23:00Tue 	 15c 	 30%
23:00Tue 	 15c 	 30%
23:00Tue 	 15c 	 30%
23:00Tue 	 15c 	 30%
23:00Tue 	 15c 	 30%
23:00Tue 	 15c 	 30%
23:00Tue 	 15c 	 30%
23:00Tue 	 15c 	 30%
23:00Tue 	 15c 	 30%
23:00Tue 	 15c 	 22%
23:00Tue 	 15c 	 22%
23:00Tue 	 15c 	 22%
23:00Tue 	 15c 	 22%
23:00Tue 	 15c 	 22%
23:00Tue 	 15c 	 22%
23:00Tue 	 15c 	 22%

