
# /home/pi/Documents/bbc-weather-predictions/data/Dec11Wed/bbcweather_Tuesday10thDecember_2019-12-11_0000.txt
# time 	 temp 	 rain
00:00Wed 	 6c 	 3%
01:00Wed 	 6c 	 4%
02:00Wed 	 6c 	 11%
03:00Wed 	 5c 	 7%
04:00Wed 	 5c 	 6%
05:00Wed 	 5c 	 8%
06:00Wed 	 5c 	 12%
07:00Wed 	 5c 	 19%
08:00Wed 	 5c 	 25%
09:00Wed 	 5c 	 30%
10:00Wed 	 5c 	 39%
11:00Wed 	 6c 	 45%
12:00Wed 	 6c 	 45%
13:00Wed 	 6c 	 40%
14:00Wed 	 5c 	 33%
15:00Wed 	 5c 	 26%
16:00Wed 	 5c 	 20%
17:00Wed 	 5c 	 13%
18:00Wed 	 5c 	 9%
19:00Wed 	 4c 	 5%
20:00Wed 	 4c 	 3%
21:00Wed 	 3c 	 2%
22:00Wed 	 3c 	 2%
23:00Wed 	 3c 	 2%
00:00Thu 	 3c 	 3%
01:00Thu 	 3c 	 5%
02:00Thu 	 3c 	 8%
03:00Thu 	 3c 	 12%
04:00Thu 	 4c 	 17%
05:00Thu 	 4c 	 22%

# /home/pi/Documents/bbc-weather-predictions/data/Dec11Wed/bbcweather_Tuesday10thDecember_2019-12-11_0015.txt
# time 	 temp 	 rain
01:00Wed 	 6c 	 4%
02:00Wed 	 6c 	 11%
03:00Wed 	 5c 	 7%
04:00Wed 	 5c 	 6%
05:00Wed 	 5c 	 8%
06:00Wed 	 5c 	 12%
07:00Wed 	 5c 	 19%
08:00Wed 	 5c 	 25%
09:00Wed 	 5c 	 30%
10:00Wed 	 5c 	 39%
11:00Wed 	 6c 	 45%
12:00Wed 	 6c 	 45%
13:00Wed 	 6c 	 40%
14:00Wed 	 5c 	 33%
15:00Wed 	 5c 	 26%
16:00Wed 	 5c 	 20%
17:00Wed 	 5c 	 13%
18:00Wed 	 5c 	 9%
19:00Wed 	 4c 	 5%
20:00Wed 	 4c 	 3%
21:00Wed 	 3c 	 2%
22:00Wed 	 3c 	 2%
23:00Wed 	 3c 	 2%
00:00Thu 	 3c 	 3%
01:00Thu 	 3c 	 5%
02:00Thu 	 3c 	 8%
03:00Thu 	 3c 	 12%
04:00Thu 	 4c 	 17%
05:00Thu 	 4c 	 22%

# /home/pi/Documents/bbc-weather-predictions/data/Dec11Wed/bbcweather_Tuesday10thDecember_2019-12-11_0030.txt
# time 	 temp 	 rain
01:00Wed 	 6c 	 4%
02:00Wed 	 6c 	 11%
03:00Wed 	 5c 	 7%
04:00Wed 	 5c 	 6%
05:00Wed 	 5c 	 8%
06:00Wed 	 5c 	 12%
07:00Wed 	 5c 	 19%
08:00Wed 	 5c 	 25%
09:00Wed 	 5c 	 30%
10:00Wed 	 5c 	 39%
11:00Wed 	 6c 	 45%
12:00Wed 	 6c 	 45%
13:00Wed 	 6c 	 40%
14:00Wed 	 5c 	 33%
15:00Wed 	 5c 	 26%
16:00Wed 	 5c 	 20%
17:00Wed 	 5c 	 13%
18:00Wed 	 5c 	 9%
19:00Wed 	 4c 	 5%
20:00Wed 	 4c 	 3%
21:00Wed 	 3c 	 2%
22:00Wed 	 3c 	 2%
23:00Wed 	 3c 	 2%
00:00Thu 	 3c 	 3%
01:00Thu 	 3c 	 5%
02:00Thu 	 3c 	 8%
03:00Thu 	 3c 	 12%
04:00Thu 	 4c 	 17%
05:00Thu 	 4c 	 22%

# /home/pi/Documents/bbc-weather-predictions/data/Dec11Wed/bbcweather_Tuesday10thDecember_2019-12-11_0045.txt
# time 	 temp 	 rain
01:00Wed 	 6c 	 8%
02:00Wed 	 6c 	 3%
03:00Wed 	 6c 	 7%
04:00Wed 	 5c 	 6%
05:00Wed 	 5c 	 8%
06:00Wed 	 5c 	 12%
07:00Wed 	 5c 	 19%
08:00Wed 	 5c 	 25%
09:00Wed 	 5c 	 30%
10:00Wed 	 5c 	 39%
11:00Wed 	 6c 	 45%
12:00Wed 	 6c 	 45%
13:00Wed 	 6c 	 40%
14:00Wed 	 5c 	 33%
15:00Wed 	 5c 	 26%
16:00Wed 	 5c 	 20%
17:00Wed 	 5c 	 13%
18:00Wed 	 5c 	 9%
19:00Wed 	 4c 	 5%
20:00Wed 	 4c 	 3%
21:00Wed 	 3c 	 2%
22:00Wed 	 3c 	 2%
23:00Wed 	 3c 	 2%
00:00Thu 	 3c 	 3%
01:00Thu 	 3c 	 5%
02:00Thu 	 3c 	 8%
03:00Thu 	 3c 	 12%
04:00Thu 	 4c 	 17%
05:00Thu 	 4c 	 22%

# /home/pi/Documents/bbc-weather-predictions/data/Dec11Wed/bbcweather_Tuesday10thDecember_2019-12-11_0100.txt
# time 	 temp 	 rain
01:00Wed 	 6c 	 8%
02:00Wed 	 6c 	 3%
03:00Wed 	 6c 	 7%
04:00Wed 	 5c 	 6%
05:00Wed 	 5c 	 8%
06:00Wed 	 5c 	 12%
07:00Wed 	 5c 	 19%
08:00Wed 	 5c 	 25%
09:00Wed 	 5c 	 30%
10:00Wed 	 5c 	 39%
11:00Wed 	 6c 	 45%
12:00Wed 	 6c 	 45%
13:00Wed 	 6c 	 40%
14:00Wed 	 5c 	 33%
15:00Wed 	 5c 	 26%
16:00Wed 	 5c 	 20%
17:00Wed 	 5c 	 13%
18:00Wed 	 5c 	 9%
19:00Wed 	 4c 	 5%
20:00Wed 	 4c 	 3%
21:00Wed 	 3c 	 2%
22:00Wed 	 3c 	 2%
23:00Wed 	 3c 	 2%
00:00Thu 	 3c 	 3%
01:00Thu 	 3c 	 5%
02:00Thu 	 3c 	 8%
03:00Thu 	 3c 	 12%
04:00Thu 	 4c 	 17%
05:00Thu 	 4c 	 22%

# /home/pi/Documents/bbc-weather-predictions/data/Dec11Wed/bbcweather_Tuesday10thDecember_2019-12-11_0115.txt
# time 	 temp 	 rain
02:00Wed 	 6c 	 3%
03:00Wed 	 6c 	 7%
04:00Wed 	 5c 	 6%
05:00Wed 	 5c 	 8%
06:00Wed 	 5c 	 12%
07:00Wed 	 5c 	 19%
08:00Wed 	 5c 	 25%
09:00Wed 	 5c 	 30%
10:00Wed 	 5c 	 39%
11:00Wed 	 6c 	 45%
12:00Wed 	 6c 	 45%
13:00Wed 	 6c 	 40%
14:00Wed 	 5c 	 33%
15:00Wed 	 5c 	 26%
16:00Wed 	 5c 	 20%
17:00Wed 	 5c 	 13%
18:00Wed 	 5c 	 9%
19:00Wed 	 4c 	 5%
20:00Wed 	 4c 	 3%
21:00Wed 	 3c 	 2%
22:00Wed 	 3c 	 2%
23:00Wed 	 3c 	 2%
00:00Thu 	 3c 	 3%
01:00Thu 	 3c 	 5%
02:00Thu 	 3c 	 8%
03:00Thu 	 3c 	 12%
04:00Thu 	 4c 	 17%
05:00Thu 	 4c 	 22%

# /home/pi/Documents/bbc-weather-predictions/data/Dec11Wed/bbcweather_Tuesday10thDecember_2019-12-11_0130.txt
# time 	 temp 	 rain
02:00Wed 	 6c 	 3%
03:00Wed 	 6c 	 7%
04:00Wed 	 5c 	 6%
05:00Wed 	 5c 	 8%
06:00Wed 	 5c 	 12%
07:00Wed 	 5c 	 19%
08:00Wed 	 5c 	 25%
09:00Wed 	 5c 	 30%
10:00Wed 	 5c 	 39%
11:00Wed 	 6c 	 45%
12:00Wed 	 6c 	 45%
13:00Wed 	 6c 	 40%
14:00Wed 	 5c 	 33%
15:00Wed 	 5c 	 26%
16:00Wed 	 5c 	 20%
17:00Wed 	 5c 	 13%
18:00Wed 	 5c 	 9%
19:00Wed 	 4c 	 5%
20:00Wed 	 4c 	 3%
21:00Wed 	 3c 	 2%
22:00Wed 	 3c 	 2%
23:00Wed 	 3c 	 2%
00:00Thu 	 3c 	 3%
01:00Thu 	 3c 	 5%
02:00Thu 	 3c 	 8%
03:00Thu 	 3c 	 12%
04:00Thu 	 4c 	 17%
05:00Thu 	 4c 	 22%

# /home/pi/Documents/bbc-weather-predictions/data/Dec11Wed/bbcweather_Tuesday10thDecember_2019-12-11_0145.txt
# time 	 temp 	 rain
02:00Wed 	 6c 	 1%
03:00Wed 	 6c 	 2%
04:00Wed 	 6c 	 7%
05:00Wed 	 5c 	 8%
06:00Wed 	 5c 	 12%
07:00Wed 	 5c 	 19%
08:00Wed 	 5c 	 25%
09:00Wed 	 5c 	 30%
10:00Wed 	 5c 	 39%
11:00Wed 	 6c 	 45%
12:00Wed 	 6c 	 45%
13:00Wed 	 6c 	 40%
14:00Wed 	 5c 	 33%
15:00Wed 	 5c 	 26%
16:00Wed 	 5c 	 20%
17:00Wed 	 5c 	 13%
18:00Wed 	 5c 	 9%
19:00Wed 	 4c 	 5%
20:00Wed 	 4c 	 3%
21:00Wed 	 3c 	 2%
22:00Wed 	 3c 	 2%
23:00Wed 	 3c 	 2%
00:00Thu 	 3c 	 3%
01:00Thu 	 3c 	 5%
02:00Thu 	 3c 	 8%
03:00Thu 	 3c 	 12%
04:00Thu 	 4c 	 17%
05:00Thu 	 4c 	 22%

# /home/pi/Documents/bbc-weather-predictions/data/Dec11Wed/bbcweather_Tuesday10thDecember_2019-12-11_0200.txt
# time 	 temp 	 rain
02:00Wed 	 6c 	 1%
03:00Wed 	 6c 	 2%
04:00Wed 	 6c 	 7%
05:00Wed 	 5c 	 8%
06:00Wed 	 5c 	 12%
07:00Wed 	 5c 	 19%
08:00Wed 	 5c 	 25%
09:00Wed 	 5c 	 30%
10:00Wed 	 5c 	 39%
11:00Wed 	 6c 	 45%
12:00Wed 	 6c 	 45%
13:00Wed 	 6c 	 40%
14:00Wed 	 5c 	 33%
15:00Wed 	 5c 	 26%
16:00Wed 	 5c 	 20%
17:00Wed 	 5c 	 13%
18:00Wed 	 5c 	 9%
19:00Wed 	 4c 	 5%
20:00Wed 	 4c 	 3%
21:00Wed 	 3c 	 2%
22:00Wed 	 3c 	 2%
23:00Wed 	 3c 	 2%
00:00Thu 	 3c 	 3%
01:00Thu 	 3c 	 5%
02:00Thu 	 3c 	 8%
03:00Thu 	 3c 	 12%
04:00Thu 	 4c 	 17%
05:00Thu 	 4c 	 22%

# /home/pi/Documents/bbc-weather-predictions/data/Dec11Wed/bbcweather_Tuesday10thDecember_2019-12-11_0215.txt
# time 	 temp 	 rain
03:00Wed 	 6c 	 2%
04:00Wed 	 6c 	 7%
05:00Wed 	 5c 	 8%
06:00Wed 	 5c 	 12%
07:00Wed 	 5c 	 19%
08:00Wed 	 5c 	 25%
09:00Wed 	 5c 	 30%
10:00Wed 	 5c 	 39%
11:00Wed 	 6c 	 45%
12:00Wed 	 6c 	 45%
13:00Wed 	 6c 	 40%
14:00Wed 	 5c 	 33%
15:00Wed 	 5c 	 26%
16:00Wed 	 5c 	 20%
17:00Wed 	 5c 	 13%
18:00Wed 	 5c 	 9%
19:00Wed 	 4c 	 5%
20:00Wed 	 4c 	 3%
21:00Wed 	 3c 	 2%
22:00Wed 	 3c 	 2%
23:00Wed 	 3c 	 2%
00:00Thu 	 3c 	 3%
01:00Thu 	 3c 	 5%
02:00Thu 	 3c 	 8%
03:00Thu 	 3c 	 12%
04:00Thu 	 4c 	 17%
05:00Thu 	 4c 	 22%

# /home/pi/Documents/bbc-weather-predictions/data/Dec11Wed/bbcweather_Tuesday10thDecember_2019-12-11_0230.txt
# time 	 temp 	 rain
03:00Wed 	 6c 	 2%
04:00Wed 	 6c 	 7%
05:00Wed 	 5c 	 8%
06:00Wed 	 5c 	 12%
07:00Wed 	 5c 	 19%
08:00Wed 	 5c 	 25%
09:00Wed 	 5c 	 30%
10:00Wed 	 5c 	 39%
11:00Wed 	 6c 	 45%
12:00Wed 	 6c 	 45%
13:00Wed 	 6c 	 40%
14:00Wed 	 5c 	 33%
15:00Wed 	 5c 	 26%
16:00Wed 	 5c 	 20%
17:00Wed 	 5c 	 13%
18:00Wed 	 5c 	 9%
19:00Wed 	 4c 	 5%
20:00Wed 	 4c 	 3%
21:00Wed 	 3c 	 2%
22:00Wed 	 3c 	 2%
23:00Wed 	 3c 	 2%
00:00Thu 	 3c 	 3%
01:00Thu 	 3c 	 5%
02:00Thu 	 3c 	 8%
03:00Thu 	 3c 	 12%
04:00Thu 	 4c 	 17%
05:00Thu 	 4c 	 22%

# /home/pi/Documents/bbc-weather-predictions/data/Dec11Wed/bbcweather_Tuesday10thDecember_2019-12-11_0245.txt
# time 	 temp 	 rain
03:00Wed 	 6c 	 65%
04:00Wed 	 6c 	 60%
05:00Wed 	 5c 	 9%
06:00Wed 	 5c 	 12%
07:00Wed 	 5c 	 18%
08:00Wed 	 5c 	 25%
09:00Wed 	 5c 	 30%
10:00Wed 	 5c 	 39%
11:00Wed 	 6c 	 45%
12:00Wed 	 6c 	 45%
13:00Wed 	 6c 	 40%
14:00Wed 	 5c 	 33%
15:00Wed 	 5c 	 26%
16:00Wed 	 5c 	 20%
17:00Wed 	 5c 	 13%
18:00Wed 	 5c 	 9%
19:00Wed 	 4c 	 5%
20:00Wed 	 4c 	 3%
21:00Wed 	 3c 	 2%
22:00Wed 	 3c 	 2%
23:00Wed 	 3c 	 2%
00:00Thu 	 3c 	 3%
01:00Thu 	 3c 	 5%
02:00Thu 	 3c 	 8%
03:00Thu 	 3c 	 12%
04:00Thu 	 4c 	 17%
05:00Thu 	 4c 	 22%

# /home/pi/Documents/bbc-weather-predictions/data/Dec11Wed/bbcweather_Tuesday10thDecember_2019-12-11_0300.txt
# time 	 temp 	 rain
03:00Wed 	 6c 	 65%
04:00Wed 	 6c 	 60%
05:00Wed 	 5c 	 9%
06:00Wed 	 5c 	 12%
07:00Wed 	 5c 	 18%
08:00Wed 	 5c 	 25%
09:00Wed 	 5c 	 30%
10:00Wed 	 5c 	 39%
11:00Wed 	 6c 	 45%
12:00Wed 	 6c 	 45%
13:00Wed 	 6c 	 40%
14:00Wed 	 5c 	 33%
15:00Wed 	 5c 	 26%
16:00Wed 	 5c 	 20%
17:00Wed 	 5c 	 13%
18:00Wed 	 5c 	 9%
19:00Wed 	 4c 	 5%
20:00Wed 	 4c 	 3%
21:00Wed 	 3c 	 2%
22:00Wed 	 3c 	 2%
23:00Wed 	 3c 	 2%
00:00Thu 	 3c 	 3%
01:00Thu 	 3c 	 5%
02:00Thu 	 3c 	 8%
03:00Thu 	 3c 	 12%
04:00Thu 	 4c 	 17%
05:00Thu 	 4c 	 22%

# /home/pi/Documents/bbc-weather-predictions/data/Dec11Wed/bbcweather_Tuesday10thDecember_2019-12-11_0315.txt
# time 	 temp 	 rain
04:00Wed 	 6c 	 60%
05:00Wed 	 5c 	 9%
06:00Wed 	 5c 	 12%
07:00Wed 	 5c 	 18%
08:00Wed 	 5c 	 25%
09:00Wed 	 5c 	 30%
10:00Wed 	 5c 	 39%
11:00Wed 	 6c 	 45%
12:00Wed 	 6c 	 45%
13:00Wed 	 6c 	 40%
14:00Wed 	 5c 	 33%
15:00Wed 	 5c 	 26%
16:00Wed 	 5c 	 20%
17:00Wed 	 5c 	 13%
18:00Wed 	 5c 	 9%
19:00Wed 	 4c 	 5%
20:00Wed 	 4c 	 3%
21:00Wed 	 3c 	 2%
22:00Wed 	 3c 	 2%
23:00Wed 	 3c 	 2%
00:00Thu 	 3c 	 3%
01:00Thu 	 3c 	 5%
02:00Thu 	 3c 	 8%
03:00Thu 	 3c 	 12%
04:00Thu 	 4c 	 17%
05:00Thu 	 4c 	 22%

# /home/pi/Documents/bbc-weather-predictions/data/Dec11Wed/bbcweather_Tuesday10thDecember_2019-12-11_0330.txt
# time 	 temp 	 rain
04:00Wed 	 6c 	 60%
05:00Wed 	 5c 	 9%
06:00Wed 	 5c 	 12%
07:00Wed 	 5c 	 18%
08:00Wed 	 5c 	 25%
09:00Wed 	 5c 	 30%
10:00Wed 	 5c 	 39%
11:00Wed 	 6c 	 45%
12:00Wed 	 6c 	 45%
13:00Wed 	 6c 	 40%
14:00Wed 	 5c 	 33%
15:00Wed 	 5c 	 26%
16:00Wed 	 5c 	 20%
17:00Wed 	 5c 	 13%
18:00Wed 	 5c 	 9%
19:00Wed 	 4c 	 5%
20:00Wed 	 4c 	 3%
21:00Wed 	 3c 	 2%
22:00Wed 	 3c 	 2%
23:00Wed 	 3c 	 2%
00:00Thu 	 3c 	 3%
01:00Thu 	 3c 	 5%
02:00Thu 	 3c 	 8%
03:00Thu 	 3c 	 12%
04:00Thu 	 4c 	 17%
05:00Thu 	 4c 	 22%

# /home/pi/Documents/bbc-weather-predictions/data/Dec11Wed/bbcweather_Tuesday10thDecember_2019-12-11_0345.txt
# time 	 temp 	 rain
04:00Wed 	 5c 	 96%
05:00Wed 	 5c 	 4%
06:00Wed 	 5c 	 12%
07:00Wed 	 5c 	 18%
08:00Wed 	 5c 	 25%
09:00Wed 	 5c 	 30%
10:00Wed 	 5c 	 39%
11:00Wed 	 6c 	 45%
12:00Wed 	 6c 	 45%
13:00Wed 	 6c 	 40%
14:00Wed 	 5c 	 33%
15:00Wed 	 5c 	 26%
16:00Wed 	 5c 	 20%
17:00Wed 	 5c 	 13%
18:00Wed 	 5c 	 9%
19:00Wed 	 4c 	 5%
20:00Wed 	 4c 	 3%
21:00Wed 	 3c 	 2%
22:00Wed 	 3c 	 2%
23:00Wed 	 3c 	 2%
00:00Thu 	 3c 	 3%
01:00Thu 	 3c 	 5%
02:00Thu 	 3c 	 8%
03:00Thu 	 3c 	 12%
04:00Thu 	 4c 	 17%
05:00Thu 	 4c 	 22%

# /home/pi/Documents/bbc-weather-predictions/data/Dec11Wed/bbcweather_Tuesday10thDecember_2019-12-11_0400.txt
# time 	 temp 	 rain
04:00Wed 	 5c 	 96%
05:00Wed 	 5c 	 4%
06:00Wed 	 5c 	 12%
07:00Wed 	 5c 	 18%
08:00Wed 	 5c 	 25%
09:00Wed 	 5c 	 30%
10:00Wed 	 5c 	 39%
11:00Wed 	 6c 	 45%
12:00Wed 	 6c 	 45%
13:00Wed 	 6c 	 40%
14:00Wed 	 5c 	 33%
15:00Wed 	 5c 	 26%
16:00Wed 	 5c 	 20%
17:00Wed 	 5c 	 13%
18:00Wed 	 5c 	 9%
19:00Wed 	 4c 	 5%
20:00Wed 	 4c 	 3%
21:00Wed 	 3c 	 2%
22:00Wed 	 3c 	 2%
23:00Wed 	 3c 	 2%
00:00Thu 	 3c 	 3%
01:00Thu 	 3c 	 5%
02:00Thu 	 3c 	 8%
03:00Thu 	 3c 	 12%
04:00Thu 	 4c 	 17%
05:00Thu 	 4c 	 22%

# /home/pi/Documents/bbc-weather-predictions/data/Dec11Wed/bbcweather_Tuesday10thDecember_2019-12-11_0415.txt
# time 	 temp 	 rain
05:00Wed 	 5c 	 4%
06:00Wed 	 5c 	 12%
07:00Wed 	 5c 	 18%
08:00Wed 	 5c 	 25%
09:00Wed 	 5c 	 30%
10:00Wed 	 5c 	 39%
11:00Wed 	 6c 	 45%
12:00Wed 	 6c 	 45%
13:00Wed 	 6c 	 40%
14:00Wed 	 5c 	 33%
15:00Wed 	 5c 	 26%
16:00Wed 	 5c 	 20%
17:00Wed 	 5c 	 13%
18:00Wed 	 5c 	 9%
19:00Wed 	 4c 	 5%
20:00Wed 	 4c 	 3%
21:00Wed 	 3c 	 2%
22:00Wed 	 3c 	 2%
23:00Wed 	 3c 	 2%
00:00Thu 	 3c 	 3%
01:00Thu 	 3c 	 5%
02:00Thu 	 3c 	 8%
03:00Thu 	 3c 	 12%
04:00Thu 	 4c 	 17%
05:00Thu 	 4c 	 22%

# /home/pi/Documents/bbc-weather-predictions/data/Dec11Wed/bbcweather_Tuesday10thDecember_2019-12-11_0430.txt
# time 	 temp 	 rain
05:00Wed 	 5c 	 4%
06:00Wed 	 5c 	 12%
07:00Wed 	 5c 	 18%
08:00Wed 	 5c 	 25%
09:00Wed 	 5c 	 30%
10:00Wed 	 5c 	 39%
11:00Wed 	 6c 	 45%
12:00Wed 	 6c 	 45%
13:00Wed 	 6c 	 40%
14:00Wed 	 5c 	 33%
15:00Wed 	 5c 	 26%
16:00Wed 	 5c 	 20%
17:00Wed 	 5c 	 13%
18:00Wed 	 5c 	 9%
19:00Wed 	 4c 	 5%
20:00Wed 	 4c 	 3%
21:00Wed 	 3c 	 2%
22:00Wed 	 3c 	 2%
23:00Wed 	 3c 	 2%
00:00Thu 	 3c 	 3%
01:00Thu 	 3c 	 5%
02:00Thu 	 3c 	 8%
03:00Thu 	 3c 	 12%
04:00Thu 	 4c 	 17%
05:00Thu 	 4c 	 22%

# /home/pi/Documents/bbc-weather-predictions/data/Dec11Wed/bbcweather_Tuesday10thDecember_2019-12-11_0445.txt
# time 	 temp 	 rain
05:00Wed 	 5c 	 52%
06:00Wed 	 5c 	 39%
07:00Wed 	 5c 	 19%
08:00Wed 	 5c 	 24%
09:00Wed 	 5c 	 30%
10:00Wed 	 5c 	 39%
11:00Wed 	 6c 	 45%
12:00Wed 	 6c 	 45%
13:00Wed 	 6c 	 40%
14:00Wed 	 5c 	 33%
15:00Wed 	 5c 	 26%
16:00Wed 	 5c 	 20%
17:00Wed 	 5c 	 13%
18:00Wed 	 5c 	 9%
19:00Wed 	 4c 	 5%
20:00Wed 	 4c 	 3%
21:00Wed 	 3c 	 2%
22:00Wed 	 3c 	 2%
23:00Wed 	 3c 	 2%
00:00Thu 	 3c 	 3%
01:00Thu 	 3c 	 5%
02:00Thu 	 3c 	 8%
03:00Thu 	 3c 	 12%
04:00Thu 	 4c 	 17%
05:00Thu 	 4c 	 22%

# /home/pi/Documents/bbc-weather-predictions/data/Dec11Wed/bbcweather_Tuesday10thDecember_2019-12-11_0500.txt
# time 	 temp 	 rain
05:00Wed 	 5c 	 52%
06:00Wed 	 5c 	 39%
07:00Wed 	 5c 	 19%
08:00Wed 	 5c 	 24%
09:00Wed 	 5c 	 30%
10:00Wed 	 5c 	 39%
11:00Wed 	 6c 	 45%
12:00Wed 	 6c 	 45%
13:00Wed 	 6c 	 40%
14:00Wed 	 5c 	 33%
15:00Wed 	 5c 	 26%
16:00Wed 	 5c 	 20%
17:00Wed 	 5c 	 13%
18:00Wed 	 5c 	 9%
19:00Wed 	 4c 	 5%
20:00Wed 	 4c 	 3%
21:00Wed 	 3c 	 2%
22:00Wed 	 3c 	 2%
23:00Wed 	 3c 	 2%
00:00Thu 	 3c 	 3%
01:00Thu 	 3c 	 5%
02:00Thu 	 3c 	 8%
03:00Thu 	 3c 	 12%
04:00Thu 	 4c 	 17%
05:00Thu 	 4c 	 22%

# /home/pi/Documents/bbc-weather-predictions/data/Dec11Wed/bbcweather_Wednesday11thDecember_2019-12-11_0515.txt
# time 	 temp 	 rain
06:00Wed 	 5c 	 39%
07:00Wed 	 5c 	 19%
08:00Wed 	 5c 	 24%
09:00Wed 	 5c 	 30%
10:00Wed 	 5c 	 39%
11:00Wed 	 6c 	 45%
12:00Wed 	 6c 	 45%
13:00Wed 	 6c 	 40%
14:00Wed 	 5c 	 33%
15:00Wed 	 5c 	 26%
16:00Wed 	 5c 	 20%
17:00Wed 	 5c 	 13%
18:00Wed 	 5c 	 9%
19:00Wed 	 4c 	 5%
20:00Wed 	 4c 	 3%
21:00Wed 	 3c 	 2%
22:00Wed 	 3c 	 2%
23:00Wed 	 3c 	 2%
00:00Thu 	 3c 	 3%
01:00Thu 	 3c 	 5%
02:00Thu 	 3c 	 8%
03:00Thu 	 3c 	 12%
04:00Thu 	 4c 	 17%
05:00Thu 	 4c 	 22%
06:00Thu 	 4c 	 31%
07:00Thu 	 4c 	 47%
08:00Thu 	 5c 	 64%
09:00Thu 	 6c 	 73%
10:00Thu 	 7c 	 83%
11:00Thu 	 7c 	 91%
12:00Thu 	 8c 	 90%
13:00Thu 	 8c 	 84%
14:00Thu 	 9c 	 78%
15:00Thu 	 9c 	 68%
16:00Thu 	 8c 	 57%
17:00Thu 	 8c 	 52%
18:00Thu 	 7c 	 48%
19:00Thu 	 7c 	 47%
20:00Thu 	 7c 	 49%
21:00Thu 	 7c 	 52%
22:00Thu 	 7c 	 55%
23:00Thu 	 6c 	 57%
00:00Fri 	 6c 	 58%
01:00Fri 	 6c 	 55%
02:00Fri 	 6c 	 50%
03:00Fri 	 6c 	 44%
04:00Fri 	 6c 	 37%
05:00Fri 	 5c 	 30%

# /home/pi/Documents/bbc-weather-predictions/data/Dec11Wed/bbcweather_Wednesday11thDecember_2019-12-11_0530.txt
# time 	 temp 	 rain
06:00Wed 	 5c 	 39%
07:00Wed 	 5c 	 19%
08:00Wed 	 5c 	 24%
09:00Wed 	 5c 	 30%
10:00Wed 	 5c 	 39%
11:00Wed 	 6c 	 45%
12:00Wed 	 6c 	 45%
13:00Wed 	 6c 	 40%
14:00Wed 	 5c 	 33%
15:00Wed 	 5c 	 26%
16:00Wed 	 5c 	 20%
17:00Wed 	 5c 	 13%
18:00Wed 	 5c 	 9%
19:00Wed 	 4c 	 5%
20:00Wed 	 4c 	 3%
21:00Wed 	 3c 	 2%
22:00Wed 	 3c 	 2%
23:00Wed 	 3c 	 2%
00:00Thu 	 3c 	 3%
01:00Thu 	 3c 	 5%
02:00Thu 	 3c 	 8%
03:00Thu 	 3c 	 12%
04:00Thu 	 4c 	 17%
05:00Thu 	 4c 	 22%
06:00Thu 	 4c 	 31%
07:00Thu 	 4c 	 47%
08:00Thu 	 5c 	 64%
09:00Thu 	 6c 	 73%
10:00Thu 	 7c 	 83%
11:00Thu 	 7c 	 91%
12:00Thu 	 8c 	 90%
13:00Thu 	 8c 	 84%
14:00Thu 	 9c 	 78%
15:00Thu 	 9c 	 68%
16:00Thu 	 8c 	 57%
17:00Thu 	 8c 	 52%
18:00Thu 	 7c 	 48%
19:00Thu 	 7c 	 47%
20:00Thu 	 7c 	 49%
21:00Thu 	 7c 	 52%
22:00Thu 	 7c 	 55%
23:00Thu 	 6c 	 57%
00:00Fri 	 6c 	 58%
01:00Fri 	 6c 	 55%
02:00Fri 	 6c 	 50%
03:00Fri 	 6c 	 44%
04:00Fri 	 6c 	 37%
05:00Fri 	 5c 	 30%

# /home/pi/Documents/bbc-weather-predictions/data/Dec11Wed/bbcweather_Wednesday11thDecember_2019-12-11_0545.txt
# time 	 temp 	 rain
06:00Wed 	 5c 	 54%
07:00Wed 	 5c 	 78%
08:00Wed 	 5c 	 23%
09:00Wed 	 5c 	 29%
10:00Wed 	 5c 	 38%
11:00Wed 	 6c 	 45%
12:00Wed 	 6c 	 45%
13:00Wed 	 6c 	 40%
14:00Wed 	 5c 	 33%
15:00Wed 	 5c 	 26%
16:00Wed 	 5c 	 20%
17:00Wed 	 5c 	 13%
18:00Wed 	 5c 	 9%
19:00Wed 	 4c 	 5%
20:00Wed 	 4c 	 3%
21:00Wed 	 3c 	 2%
22:00Wed 	 3c 	 2%
23:00Wed 	 3c 	 2%
00:00Thu 	 3c 	 3%
01:00Thu 	 3c 	 5%
02:00Thu 	 3c 	 8%
03:00Thu 	 3c 	 12%
04:00Thu 	 4c 	 17%
05:00Thu 	 4c 	 22%
06:00Thu 	 4c 	 31%
07:00Thu 	 4c 	 47%
08:00Thu 	 5c 	 64%
09:00Thu 	 6c 	 73%
10:00Thu 	 7c 	 83%
11:00Thu 	 7c 	 91%
12:00Thu 	 8c 	 90%
13:00Thu 	 8c 	 84%
14:00Thu 	 9c 	 78%
15:00Thu 	 9c 	 68%
16:00Thu 	 8c 	 57%
17:00Thu 	 8c 	 52%
18:00Thu 	 7c 	 48%
19:00Thu 	 7c 	 47%
20:00Thu 	 7c 	 49%
21:00Thu 	 7c 	 52%
22:00Thu 	 7c 	 55%
23:00Thu 	 6c 	 57%
00:00Fri 	 6c 	 58%
01:00Fri 	 6c 	 55%
02:00Fri 	 6c 	 50%
03:00Fri 	 6c 	 44%
04:00Fri 	 6c 	 37%
05:00Fri 	 5c 	 30%

# /home/pi/Documents/bbc-weather-predictions/data/Dec11Wed/bbcweather_Wednesday11thDecember_2019-12-11_0600.txt
# time 	 temp 	 rain
06:00Wed 	 5c 	 54%
07:00Wed 	 5c 	 78%
08:00Wed 	 5c 	 23%
09:00Wed 	 5c 	 29%
10:00Wed 	 5c 	 38%
11:00Wed 	 6c 	 45%
12:00Wed 	 6c 	 45%
13:00Wed 	 6c 	 40%
14:00Wed 	 5c 	 33%
15:00Wed 	 5c 	 26%
16:00Wed 	 5c 	 20%
17:00Wed 	 5c 	 13%
18:00Wed 	 5c 	 9%
19:00Wed 	 4c 	 5%
20:00Wed 	 4c 	 3%
21:00Wed 	 3c 	 2%
22:00Wed 	 3c 	 2%
23:00Wed 	 3c 	 2%
00:00Thu 	 3c 	 3%
01:00Thu 	 3c 	 5%
02:00Thu 	 3c 	 8%
03:00Thu 	 3c 	 12%
04:00Thu 	 4c 	 17%
05:00Thu 	 4c 	 22%
06:00Thu 	 4c 	 31%
07:00Thu 	 4c 	 47%
08:00Thu 	 5c 	 64%
09:00Thu 	 6c 	 73%
10:00Thu 	 7c 	 83%
11:00Thu 	 7c 	 91%
12:00Thu 	 8c 	 90%
13:00Thu 	 8c 	 84%
14:00Thu 	 9c 	 78%
15:00Thu 	 9c 	 68%
16:00Thu 	 8c 	 57%
17:00Thu 	 8c 	 52%
18:00Thu 	 7c 	 48%
19:00Thu 	 7c 	 47%
20:00Thu 	 7c 	 49%
21:00Thu 	 7c 	 52%
22:00Thu 	 7c 	 55%
23:00Thu 	 6c 	 57%
00:00Fri 	 6c 	 58%
01:00Fri 	 6c 	 55%
02:00Fri 	 6c 	 50%
03:00Fri 	 6c 	 44%
04:00Fri 	 6c 	 37%
05:00Fri 	 5c 	 30%

# /home/pi/Documents/bbc-weather-predictions/data/Dec11Wed/bbcweather_Wednesday11thDecember_2019-12-11_0615.txt
# time 	 temp 	 rain
07:00Wed 	 5c 	 78%
08:00Wed 	 5c 	 23%
09:00Wed 	 5c 	 29%
10:00Wed 	 5c 	 38%
11:00Wed 	 6c 	 45%
12:00Wed 	 6c 	 45%
13:00Wed 	 6c 	 40%
14:00Wed 	 5c 	 33%
15:00Wed 	 5c 	 26%
16:00Wed 	 5c 	 20%
17:00Wed 	 5c 	 13%
18:00Wed 	 5c 	 9%
19:00Wed 	 4c 	 5%
20:00Wed 	 4c 	 3%
21:00Wed 	 3c 	 2%
22:00Wed 	 3c 	 2%
23:00Wed 	 3c 	 2%
00:00Thu 	 3c 	 3%
01:00Thu 	 3c 	 5%
02:00Thu 	 3c 	 8%
03:00Thu 	 3c 	 12%
04:00Thu 	 4c 	 17%
05:00Thu 	 4c 	 22%
06:00Thu 	 4c 	 31%
07:00Thu 	 4c 	 47%
08:00Thu 	 5c 	 64%
09:00Thu 	 6c 	 73%
10:00Thu 	 7c 	 83%
11:00Thu 	 7c 	 91%
12:00Thu 	 8c 	 90%
13:00Thu 	 8c 	 84%
14:00Thu 	 9c 	 78%
15:00Thu 	 9c 	 68%
16:00Thu 	 8c 	 57%
17:00Thu 	 8c 	 52%
18:00Thu 	 7c 	 48%
19:00Thu 	 7c 	 47%
20:00Thu 	 7c 	 49%
21:00Thu 	 7c 	 52%
22:00Thu 	 7c 	 55%
23:00Thu 	 6c 	 57%
00:00Fri 	 6c 	 58%
01:00Fri 	 6c 	 55%
02:00Fri 	 6c 	 50%
03:00Fri 	 6c 	 44%
04:00Fri 	 6c 	 37%
05:00Fri 	 5c 	 30%

# /home/pi/Documents/bbc-weather-predictions/data/Dec11Wed/bbcweather_Wednesday11thDecember_2019-12-11_0630.txt
# time 	 temp 	 rain
07:00Wed 	 5c 	 78%
08:00Wed 	 5c 	 23%
09:00Wed 	 5c 	 29%
10:00Wed 	 5c 	 38%
11:00Wed 	 6c 	 45%
12:00Wed 	 6c 	 45%
13:00Wed 	 6c 	 40%
14:00Wed 	 5c 	 33%
15:00Wed 	 5c 	 26%
16:00Wed 	 5c 	 20%
17:00Wed 	 5c 	 13%
18:00Wed 	 5c 	 9%
19:00Wed 	 4c 	 5%
20:00Wed 	 4c 	 3%
21:00Wed 	 3c 	 2%
22:00Wed 	 3c 	 2%
23:00Wed 	 3c 	 2%
00:00Thu 	 3c 	 3%
01:00Thu 	 3c 	 5%
02:00Thu 	 3c 	 8%
03:00Thu 	 3c 	 12%
04:00Thu 	 4c 	 17%
05:00Thu 	 4c 	 22%
06:00Thu 	 4c 	 31%
07:00Thu 	 4c 	 47%
08:00Thu 	 5c 	 64%
09:00Thu 	 6c 	 73%
10:00Thu 	 7c 	 83%
11:00Thu 	 7c 	 91%
12:00Thu 	 8c 	 90%
13:00Thu 	 8c 	 84%
14:00Thu 	 9c 	 78%
15:00Thu 	 9c 	 68%
16:00Thu 	 8c 	 57%
17:00Thu 	 8c 	 52%
18:00Thu 	 7c 	 48%
19:00Thu 	 7c 	 47%
20:00Thu 	 7c 	 49%
21:00Thu 	 7c 	 52%
22:00Thu 	 7c 	 55%
23:00Thu 	 6c 	 57%
00:00Fri 	 6c 	 58%
01:00Fri 	 6c 	 55%
02:00Fri 	 6c 	 50%
03:00Fri 	 6c 	 44%
04:00Fri 	 6c 	 37%
05:00Fri 	 5c 	 30%

# /home/pi/Documents/bbc-weather-predictions/data/Dec11Wed/bbcweather_Wednesday11thDecember_2019-12-11_0645.txt
# time 	 temp 	 rain
07:00Wed 	 5c 	 87%
08:00Wed 	 5c 	 6%
09:00Wed 	 5c 	 28%
10:00Wed 	 5c 	 36%
11:00Wed 	 6c 	 44%
12:00Wed 	 6c 	 45%
13:00Wed 	 6c 	 40%
14:00Wed 	 5c 	 33%
15:00Wed 	 5c 	 26%
16:00Wed 	 5c 	 20%
17:00Wed 	 5c 	 13%
18:00Wed 	 5c 	 9%
19:00Wed 	 4c 	 5%
20:00Wed 	 4c 	 3%
21:00Wed 	 3c 	 2%
22:00Wed 	 3c 	 2%
23:00Wed 	 3c 	 2%
00:00Thu 	 3c 	 3%
01:00Thu 	 3c 	 5%
02:00Thu 	 3c 	 8%
03:00Thu 	 3c 	 12%
04:00Thu 	 4c 	 17%
05:00Thu 	 4c 	 22%
06:00Thu 	 4c 	 31%
07:00Thu 	 4c 	 47%
08:00Thu 	 5c 	 64%
09:00Thu 	 6c 	 73%
10:00Thu 	 7c 	 83%
11:00Thu 	 7c 	 91%
12:00Thu 	 8c 	 90%
13:00Thu 	 8c 	 84%
14:00Thu 	 9c 	 78%
15:00Thu 	 9c 	 68%
16:00Thu 	 8c 	 57%
17:00Thu 	 8c 	 52%
18:00Thu 	 7c 	 48%
19:00Thu 	 7c 	 47%
20:00Thu 	 7c 	 49%
21:00Thu 	 7c 	 52%
22:00Thu 	 7c 	 55%
23:00Thu 	 6c 	 57%
00:00Fri 	 6c 	 58%
01:00Fri 	 6c 	 55%
02:00Fri 	 6c 	 50%
03:00Fri 	 6c 	 44%
04:00Fri 	 6c 	 37%
05:00Fri 	 5c 	 30%

# /home/pi/Documents/bbc-weather-predictions/data/Dec11Wed/bbcweather_Wednesday11thDecember_2019-12-11_0700.txt
# time 	 temp 	 rain
07:00Wed 	 5c 	 87%
08:00Wed 	 5c 	 6%
09:00Wed 	 5c 	 28%
10:00Wed 	 5c 	 36%
11:00Wed 	 6c 	 44%
12:00Wed 	 6c 	 45%
13:00Wed 	 6c 	 40%
14:00Wed 	 5c 	 33%
15:00Wed 	 5c 	 26%
16:00Wed 	 5c 	 20%
17:00Wed 	 5c 	 13%
18:00Wed 	 5c 	 9%
19:00Wed 	 4c 	 5%
20:00Wed 	 4c 	 3%
21:00Wed 	 3c 	 2%
22:00Wed 	 3c 	 2%
23:00Wed 	 3c 	 2%
00:00Thu 	 3c 	 3%
01:00Thu 	 3c 	 5%
02:00Thu 	 3c 	 8%
03:00Thu 	 3c 	 12%
04:00Thu 	 4c 	 17%
05:00Thu 	 4c 	 22%
06:00Thu 	 4c 	 31%
07:00Thu 	 4c 	 47%
08:00Thu 	 5c 	 64%
09:00Thu 	 6c 	 73%
10:00Thu 	 7c 	 83%
11:00Thu 	 7c 	 91%
12:00Thu 	 8c 	 90%
13:00Thu 	 8c 	 84%
14:00Thu 	 9c 	 78%
15:00Thu 	 9c 	 68%
16:00Thu 	 8c 	 57%
17:00Thu 	 8c 	 52%
18:00Thu 	 7c 	 48%
19:00Thu 	 7c 	 47%
20:00Thu 	 7c 	 49%
21:00Thu 	 7c 	 52%
22:00Thu 	 7c 	 55%
23:00Thu 	 6c 	 57%
00:00Fri 	 6c 	 58%
01:00Fri 	 6c 	 55%
02:00Fri 	 6c 	 50%
03:00Fri 	 6c 	 44%
04:00Fri 	 6c 	 37%
05:00Fri 	 5c 	 30%

# /home/pi/Documents/bbc-weather-predictions/data/Dec11Wed/bbcweather_Wednesday11thDecember_2019-12-11_0715.txt
# time 	 temp 	 rain
08:00Wed 	 5c 	 6%
09:00Wed 	 5c 	 28%
10:00Wed 	 5c 	 36%
11:00Wed 	 6c 	 44%
12:00Wed 	 6c 	 45%
13:00Wed 	 6c 	 40%
14:00Wed 	 5c 	 33%
15:00Wed 	 5c 	 26%
16:00Wed 	 5c 	 20%
17:00Wed 	 5c 	 13%
18:00Wed 	 5c 	 9%
19:00Wed 	 4c 	 5%
20:00Wed 	 4c 	 3%
21:00Wed 	 3c 	 2%
22:00Wed 	 3c 	 2%
23:00Wed 	 3c 	 2%
00:00Thu 	 3c 	 3%
01:00Thu 	 3c 	 5%
02:00Thu 	 3c 	 8%
03:00Thu 	 3c 	 12%
04:00Thu 	 4c 	 17%
05:00Thu 	 4c 	 22%
06:00Thu 	 4c 	 31%
07:00Thu 	 4c 	 47%
08:00Thu 	 5c 	 64%
09:00Thu 	 6c 	 73%
10:00Thu 	 7c 	 83%
11:00Thu 	 7c 	 91%
12:00Thu 	 8c 	 90%
13:00Thu 	 8c 	 84%
14:00Thu 	 9c 	 78%
15:00Thu 	 9c 	 68%
16:00Thu 	 8c 	 57%
17:00Thu 	 8c 	 52%
18:00Thu 	 7c 	 48%
19:00Thu 	 7c 	 47%
20:00Thu 	 7c 	 49%
21:00Thu 	 7c 	 52%
22:00Thu 	 7c 	 55%
23:00Thu 	 6c 	 57%
00:00Fri 	 6c 	 58%
01:00Fri 	 6c 	 55%
02:00Fri 	 6c 	 50%
03:00Fri 	 6c 	 44%
04:00Fri 	 6c 	 37%
05:00Fri 	 5c 	 30%

# /home/pi/Documents/bbc-weather-predictions/data/Dec11Wed/bbcweather_Wednesday11thDecember_2019-12-11_0730.txt
# time 	 temp 	 rain
08:00Wed 	 5c 	 6%
09:00Wed 	 5c 	 28%
10:00Wed 	 5c 	 36%
11:00Wed 	 6c 	 44%
12:00Wed 	 6c 	 45%
13:00Wed 	 6c 	 40%
14:00Wed 	 5c 	 33%
15:00Wed 	 5c 	 26%
16:00Wed 	 5c 	 20%
17:00Wed 	 5c 	 13%
18:00Wed 	 5c 	 9%
19:00Wed 	 4c 	 5%
20:00Wed 	 4c 	 3%
21:00Wed 	 3c 	 2%
22:00Wed 	 3c 	 2%
23:00Wed 	 3c 	 2%
00:00Thu 	 3c 	 3%
01:00Thu 	 3c 	 5%
02:00Thu 	 3c 	 8%
03:00Thu 	 3c 	 12%
04:00Thu 	 4c 	 17%
05:00Thu 	 4c 	 22%
06:00Thu 	 4c 	 31%
07:00Thu 	 4c 	 47%
08:00Thu 	 5c 	 64%
09:00Thu 	 6c 	 73%
10:00Thu 	 7c 	 83%
11:00Thu 	 7c 	 91%
12:00Thu 	 8c 	 90%
13:00Thu 	 8c 	 84%
14:00Thu 	 9c 	 78%
15:00Thu 	 9c 	 68%
16:00Thu 	 8c 	 57%
17:00Thu 	 8c 	 52%
18:00Thu 	 7c 	 48%
19:00Thu 	 7c 	 47%
20:00Thu 	 7c 	 49%
21:00Thu 	 7c 	 52%
22:00Thu 	 7c 	 55%
23:00Thu 	 6c 	 57%
00:00Fri 	 6c 	 58%
01:00Fri 	 6c 	 55%
02:00Fri 	 6c 	 50%
03:00Fri 	 6c 	 44%
04:00Fri 	 6c 	 37%
05:00Fri 	 5c 	 30%

# /home/pi/Documents/bbc-weather-predictions/data/Dec11Wed/bbcweather_Wednesday11thDecember_2019-12-11_0745.txt
# time 	 temp 	 rain
08:00Wed 	 5c 	 1%
09:00Wed 	 5c 	 68%
10:00Wed 	 6c 	 83%
11:00Wed 	 6c 	 83%
12:00Wed 	 7c 	 82%
13:00Wed 	 6c 	 78%
14:00Wed 	 6c 	 71%
15:00Wed 	 6c 	 59%
16:00Wed 	 5c 	 44%
17:00Wed 	 5c 	 26%
18:00Wed 	 4c 	 13%
19:00Wed 	 4c 	 8%
20:00Wed 	 4c 	 5%
21:00Wed 	 3c 	 2%
22:00Wed 	 3c 	 2%
23:00Wed 	 3c 	 3%
00:00Thu 	 3c 	 4%
01:00Thu 	 3c 	 5%
02:00Thu 	 3c 	 9%
03:00Thu 	 3c 	 14%
04:00Thu 	 3c 	 19%
05:00Thu 	 4c 	 23%
06:00Thu 	 4c 	 30%
07:00Thu 	 5c 	 44%
08:00Thu 	 5c 	 59%
09:00Thu 	 6c 	 67%
10:00Thu 	 7c 	 80%
11:00Thu 	 7c 	 92%
12:00Thu 	 8c 	 93%
13:00Thu 	 8c 	 91%
14:00Thu 	 9c 	 90%
15:00Thu 	 9c 	 86%
16:00Thu 	 9c 	 73%
17:00Thu 	 8c 	 58%
18:00Thu 	 8c 	 50%
19:00Thu 	 7c 	 52%
20:00Thu 	 7c 	 55%
21:00Thu 	 7c 	 57%
22:00Thu 	 7c 	 57%
23:00Thu 	 6c 	 57%
00:00Fri 	 6c 	 58%
01:00Fri 	 6c 	 55%
02:00Fri 	 6c 	 50%
03:00Fri 	 6c 	 44%
04:00Fri 	 6c 	 37%
05:00Fri 	 5c 	 30%

# /home/pi/Documents/bbc-weather-predictions/data/Dec11Wed/bbcweather_Wednesday11thDecember_2019-12-11_0800.txt
# time 	 temp 	 rain
08:00Wed 	 5c 	 1%
09:00Wed 	 5c 	 68%
10:00Wed 	 6c 	 83%
11:00Wed 	 6c 	 83%
12:00Wed 	 7c 	 82%
13:00Wed 	 6c 	 78%
14:00Wed 	 6c 	 71%
15:00Wed 	 6c 	 59%
16:00Wed 	 5c 	 44%
17:00Wed 	 5c 	 26%
18:00Wed 	 4c 	 13%
19:00Wed 	 4c 	 8%
20:00Wed 	 4c 	 5%
21:00Wed 	 3c 	 2%
22:00Wed 	 3c 	 2%
23:00Wed 	 3c 	 3%
00:00Thu 	 3c 	 4%
01:00Thu 	 3c 	 5%
02:00Thu 	 3c 	 9%
03:00Thu 	 3c 	 14%
04:00Thu 	 3c 	 19%
05:00Thu 	 4c 	 23%
06:00Thu 	 4c 	 30%
07:00Thu 	 5c 	 44%
08:00Thu 	 5c 	 59%
09:00Thu 	 6c 	 67%
10:00Thu 	 7c 	 80%
11:00Thu 	 7c 	 92%
12:00Thu 	 8c 	 93%
13:00Thu 	 8c 	 91%
14:00Thu 	 9c 	 90%
15:00Thu 	 9c 	 86%
16:00Thu 	 9c 	 73%
17:00Thu 	 8c 	 58%
18:00Thu 	 8c 	 50%
19:00Thu 	 7c 	 52%
20:00Thu 	 7c 	 55%
21:00Thu 	 7c 	 57%
22:00Thu 	 7c 	 57%
23:00Thu 	 6c 	 57%
00:00Fri 	 6c 	 58%
01:00Fri 	 6c 	 55%
02:00Fri 	 6c 	 50%
03:00Fri 	 6c 	 44%
04:00Fri 	 6c 	 37%
05:00Fri 	 5c 	 30%

# /home/pi/Documents/bbc-weather-predictions/data/Dec11Wed/bbcweather_Wednesday11thDecember_2019-12-11_0815.txt
# time 	 temp 	 rain
09:00Wed 	 5c 	 68%
10:00Wed 	 6c 	 83%
11:00Wed 	 6c 	 83%
12:00Wed 	 7c 	 82%
13:00Wed 	 6c 	 78%
14:00Wed 	 6c 	 71%
15:00Wed 	 6c 	 59%
16:00Wed 	 5c 	 44%
17:00Wed 	 5c 	 26%
18:00Wed 	 4c 	 13%
19:00Wed 	 4c 	 8%
20:00Wed 	 4c 	 5%
21:00Wed 	 3c 	 2%
22:00Wed 	 3c 	 2%
23:00Wed 	 3c 	 3%
00:00Thu 	 3c 	 4%
01:00Thu 	 3c 	 5%
02:00Thu 	 3c 	 9%
03:00Thu 	 3c 	 14%
04:00Thu 	 3c 	 19%
05:00Thu 	 4c 	 23%
06:00Thu 	 4c 	 30%
07:00Thu 	 5c 	 44%
08:00Thu 	 5c 	 59%
09:00Thu 	 6c 	 67%
10:00Thu 	 7c 	 80%
11:00Thu 	 7c 	 92%
12:00Thu 	 8c 	 93%
13:00Thu 	 8c 	 91%
14:00Thu 	 9c 	 90%
15:00Thu 	 9c 	 86%
16:00Thu 	 9c 	 73%
17:00Thu 	 8c 	 58%
18:00Thu 	 8c 	 50%
19:00Thu 	 7c 	 52%
20:00Thu 	 7c 	 55%
21:00Thu 	 7c 	 57%
22:00Thu 	 7c 	 57%
23:00Thu 	 6c 	 57%
00:00Fri 	 6c 	 58%
01:00Fri 	 6c 	 55%
02:00Fri 	 6c 	 50%
03:00Fri 	 6c 	 44%
04:00Fri 	 6c 	 37%
05:00Fri 	 5c 	 30%

# /home/pi/Documents/bbc-weather-predictions/data/Dec11Wed/bbcweather_Wednesday11thDecember_2019-12-11_0830.txt
# time 	 temp 	 rain
09:00Wed 	 5c 	 68%
10:00Wed 	 6c 	 83%
11:00Wed 	 6c 	 83%
12:00Wed 	 7c 	 82%
13:00Wed 	 6c 	 78%
14:00Wed 	 6c 	 71%
15:00Wed 	 6c 	 59%
16:00Wed 	 5c 	 44%
17:00Wed 	 5c 	 26%
18:00Wed 	 4c 	 13%
19:00Wed 	 4c 	 8%
20:00Wed 	 4c 	 5%
21:00Wed 	 3c 	 2%
22:00Wed 	 3c 	 2%
23:00Wed 	 3c 	 3%
00:00Thu 	 3c 	 4%
01:00Thu 	 3c 	 5%
02:00Thu 	 3c 	 9%
03:00Thu 	 3c 	 14%
04:00Thu 	 3c 	 19%
05:00Thu 	 4c 	 23%
06:00Thu 	 4c 	 30%
07:00Thu 	 5c 	 44%
08:00Thu 	 5c 	 59%
09:00Thu 	 6c 	 67%
10:00Thu 	 7c 	 80%
11:00Thu 	 7c 	 92%
12:00Thu 	 8c 	 93%
13:00Thu 	 8c 	 91%
14:00Thu 	 9c 	 90%
15:00Thu 	 9c 	 86%
16:00Thu 	 9c 	 73%
17:00Thu 	 8c 	 58%
18:00Thu 	 8c 	 50%
19:00Thu 	 7c 	 52%
20:00Thu 	 7c 	 55%
21:00Thu 	 7c 	 57%
22:00Thu 	 7c 	 57%
23:00Thu 	 6c 	 57%
00:00Fri 	 6c 	 58%
01:00Fri 	 6c 	 55%
02:00Fri 	 6c 	 50%
03:00Fri 	 6c 	 44%
04:00Fri 	 6c 	 37%
05:00Fri 	 5c 	 30%

# /home/pi/Documents/bbc-weather-predictions/data/Dec11Wed/bbcweather_Wednesday11thDecember_2019-12-11_0845.txt
# time 	 temp 	 rain
09:00Wed 	 5c 	 68%
10:00Wed 	 6c 	 83%
11:00Wed 	 6c 	 83%
12:00Wed 	 7c 	 82%
13:00Wed 	 6c 	 78%
14:00Wed 	 6c 	 71%
15:00Wed 	 6c 	 59%
16:00Wed 	 5c 	 44%
17:00Wed 	 5c 	 26%
18:00Wed 	 4c 	 13%
19:00Wed 	 4c 	 8%
20:00Wed 	 4c 	 5%
21:00Wed 	 3c 	 2%
22:00Wed 	 3c 	 2%
23:00Wed 	 3c 	 3%
00:00Thu 	 3c 	 4%
01:00Thu 	 3c 	 5%
02:00Thu 	 3c 	 9%
03:00Thu 	 3c 	 14%
04:00Thu 	 3c 	 19%
05:00Thu 	 4c 	 23%
06:00Thu 	 4c 	 30%
07:00Thu 	 5c 	 44%
08:00Thu 	 5c 	 59%
09:00Thu 	 6c 	 67%
10:00Thu 	 7c 	 80%
11:00Thu 	 7c 	 92%
12:00Thu 	 8c 	 93%
13:00Thu 	 8c 	 91%
14:00Thu 	 9c 	 90%
15:00Thu 	 9c 	 86%
16:00Thu 	 9c 	 73%
17:00Thu 	 8c 	 58%
18:00Thu 	 8c 	 50%
19:00Thu 	 7c 	 52%
20:00Thu 	 7c 	 55%
21:00Thu 	 7c 	 57%
22:00Thu 	 7c 	 57%
23:00Thu 	 6c 	 57%
00:00Fri 	 6c 	 58%
01:00Fri 	 6c 	 55%
02:00Fri 	 6c 	 50%
03:00Fri 	 6c 	 44%
04:00Fri 	 6c 	 37%
05:00Fri 	 5c 	 30%

# /home/pi/Documents/bbc-weather-predictions/data/Dec11Wed/bbcweather_Wednesday11thDecember_2019-12-11_0900.txt
# time 	 temp 	 rain
09:00Wed 	 5c 	 41%
10:00Wed 	 6c 	 86%
11:00Wed 	 6c 	 87%
12:00Wed 	 7c 	 83%
13:00Wed 	 6c 	 79%
14:00Wed 	 6c 	 72%
15:00Wed 	 6c 	 59%
16:00Wed 	 5c 	 44%
17:00Wed 	 5c 	 26%
18:00Wed 	 4c 	 13%
19:00Wed 	 4c 	 8%
20:00Wed 	 4c 	 5%
21:00Wed 	 3c 	 2%
22:00Wed 	 3c 	 2%
23:00Wed 	 3c 	 3%
00:00Thu 	 3c 	 4%
01:00Thu 	 3c 	 5%
02:00Thu 	 3c 	 9%
03:00Thu 	 3c 	 14%
04:00Thu 	 3c 	 19%
05:00Thu 	 4c 	 23%
06:00Thu 	 4c 	 30%
07:00Thu 	 5c 	 44%
08:00Thu 	 5c 	 59%
09:00Thu 	 6c 	 67%
10:00Thu 	 7c 	 80%
11:00Thu 	 7c 	 92%
12:00Thu 	 8c 	 93%
13:00Thu 	 8c 	 91%
14:00Thu 	 9c 	 90%
15:00Thu 	 9c 	 86%
16:00Thu 	 9c 	 73%
17:00Thu 	 8c 	 58%
18:00Thu 	 8c 	 49%
19:00Thu 	 8c 	 51%
20:00Thu 	 7c 	 56%
21:00Thu 	 7c 	 57%
22:00Thu 	 7c 	 53%
23:00Thu 	 7c 	 44%
00:00Fri 	 7c 	 34%
01:00Fri 	 6c 	 32%
02:00Fri 	 6c 	 30%
03:00Fri 	 6c 	 25%
04:00Fri 	 5c 	 27%
05:00Fri 	 5c 	 31%

# /home/pi/Documents/bbc-weather-predictions/data/Dec11Wed/bbcweather_Wednesday11thDecember_2019-12-11_0915.txt
# time 	 temp 	 rain
10:00Wed 	 6c 	 86%
11:00Wed 	 6c 	 87%
12:00Wed 	 7c 	 83%
13:00Wed 	 6c 	 79%
14:00Wed 	 6c 	 72%
15:00Wed 	 6c 	 59%
16:00Wed 	 5c 	 44%
17:00Wed 	 5c 	 26%
18:00Wed 	 4c 	 13%
19:00Wed 	 4c 	 8%
20:00Wed 	 4c 	 5%
21:00Wed 	 3c 	 2%
22:00Wed 	 3c 	 2%
23:00Wed 	 3c 	 3%
00:00Thu 	 3c 	 4%
01:00Thu 	 3c 	 5%
02:00Thu 	 3c 	 9%
03:00Thu 	 3c 	 14%
04:00Thu 	 3c 	 19%
05:00Thu 	 4c 	 23%
06:00Thu 	 4c 	 30%
07:00Thu 	 5c 	 44%
08:00Thu 	 5c 	 59%
09:00Thu 	 6c 	 67%
10:00Thu 	 7c 	 80%
11:00Thu 	 7c 	 92%
12:00Thu 	 8c 	 93%
13:00Thu 	 8c 	 91%
14:00Thu 	 9c 	 90%
15:00Thu 	 9c 	 86%
16:00Thu 	 9c 	 73%
17:00Thu 	 8c 	 58%
18:00Thu 	 8c 	 49%
19:00Thu 	 8c 	 51%
20:00Thu 	 7c 	 56%
21:00Thu 	 7c 	 57%
22:00Thu 	 7c 	 53%
23:00Thu 	 7c 	 44%
00:00Fri 	 7c 	 34%
01:00Fri 	 6c 	 32%
02:00Fri 	 6c 	 30%
03:00Fri 	 6c 	 25%
04:00Fri 	 5c 	 27%
05:00Fri 	 5c 	 31%

# /home/pi/Documents/bbc-weather-predictions/data/Dec11Wed/bbcweather_Wednesday11thDecember_2019-12-11_0930.txt
# time 	 temp 	 rain
10:00Wed 	 6c 	 86%
11:00Wed 	 6c 	 87%
12:00Wed 	 7c 	 83%
13:00Wed 	 6c 	 79%
14:00Wed 	 6c 	 72%
15:00Wed 	 6c 	 59%
16:00Wed 	 5c 	 44%
17:00Wed 	 5c 	 26%
18:00Wed 	 4c 	 13%
19:00Wed 	 4c 	 8%
20:00Wed 	 4c 	 5%
21:00Wed 	 3c 	 2%
22:00Wed 	 3c 	 2%
23:00Wed 	 3c 	 3%
00:00Thu 	 3c 	 4%
01:00Thu 	 3c 	 5%
02:00Thu 	 3c 	 9%
03:00Thu 	 3c 	 14%
04:00Thu 	 3c 	 19%
05:00Thu 	 4c 	 23%
06:00Thu 	 4c 	 30%
07:00Thu 	 5c 	 44%
08:00Thu 	 5c 	 59%
09:00Thu 	 6c 	 67%
10:00Thu 	 7c 	 80%
11:00Thu 	 7c 	 92%
12:00Thu 	 8c 	 93%
13:00Thu 	 8c 	 91%
14:00Thu 	 9c 	 90%
15:00Thu 	 9c 	 86%
16:00Thu 	 9c 	 73%
17:00Thu 	 8c 	 58%
18:00Thu 	 8c 	 49%
19:00Thu 	 8c 	 51%
20:00Thu 	 7c 	 56%
21:00Thu 	 7c 	 57%
22:00Thu 	 7c 	 53%
23:00Thu 	 7c 	 44%
00:00Fri 	 7c 	 34%
01:00Fri 	 6c 	 32%
02:00Fri 	 6c 	 30%
03:00Fri 	 6c 	 25%
04:00Fri 	 5c 	 27%
05:00Fri 	 5c 	 31%

# /home/pi/Documents/bbc-weather-predictions/data/Dec11Wed/bbcweather_Wednesday11thDecember_2019-12-11_0945.txt
# time 	 temp 	 rain
10:00Wed 	 6c 	 63%
11:00Wed 	 6c 	 83%
12:00Wed 	 7c 	 92%
13:00Wed 	 6c 	 79%
14:00Wed 	 6c 	 71%
15:00Wed 	 6c 	 59%
16:00Wed 	 5c 	 44%
17:00Wed 	 5c 	 26%
18:00Wed 	 4c 	 13%
19:00Wed 	 4c 	 8%
20:00Wed 	 4c 	 5%
21:00Wed 	 3c 	 2%
22:00Wed 	 3c 	 2%
23:00Wed 	 3c 	 3%
00:00Thu 	 3c 	 4%
01:00Thu 	 3c 	 5%
02:00Thu 	 3c 	 9%
03:00Thu 	 3c 	 14%
04:00Thu 	 3c 	 19%
05:00Thu 	 4c 	 23%
06:00Thu 	 4c 	 30%
07:00Thu 	 5c 	 44%
08:00Thu 	 5c 	 59%
09:00Thu 	 6c 	 67%
10:00Thu 	 7c 	 80%
11:00Thu 	 7c 	 92%
12:00Thu 	 8c 	 93%
13:00Thu 	 8c 	 91%
14:00Thu 	 9c 	 90%
15:00Thu 	 9c 	 86%
16:00Thu 	 9c 	 73%
17:00Thu 	 8c 	 58%
18:00Thu 	 8c 	 49%
19:00Thu 	 8c 	 51%
20:00Thu 	 7c 	 56%
21:00Thu 	 7c 	 57%
22:00Thu 	 7c 	 53%
23:00Thu 	 7c 	 44%
00:00Fri 	 7c 	 34%
01:00Fri 	 6c 	 32%
02:00Fri 	 6c 	 30%
03:00Fri 	 6c 	 25%
04:00Fri 	 5c 	 27%
05:00Fri 	 5c 	 31%

# /home/pi/Documents/bbc-weather-predictions/data/Dec11Wed/bbcweather_Wednesday11thDecember_2019-12-11_1000.txt
# time 	 temp 	 rain
10:00Wed 	 6c 	 63%
11:00Wed 	 6c 	 83%
12:00Wed 	 7c 	 92%
13:00Wed 	 6c 	 79%
14:00Wed 	 6c 	 71%
15:00Wed 	 6c 	 59%
16:00Wed 	 5c 	 44%
17:00Wed 	 5c 	 26%
18:00Wed 	 4c 	 13%
19:00Wed 	 4c 	 8%
20:00Wed 	 4c 	 5%
21:00Wed 	 3c 	 2%
22:00Wed 	 3c 	 2%
23:00Wed 	 3c 	 3%
00:00Thu 	 3c 	 4%
01:00Thu 	 3c 	 5%
02:00Thu 	 3c 	 9%
03:00Thu 	 3c 	 14%
04:00Thu 	 3c 	 19%
05:00Thu 	 4c 	 23%
06:00Thu 	 4c 	 30%
07:00Thu 	 5c 	 44%
08:00Thu 	 5c 	 59%
09:00Thu 	 6c 	 67%
10:00Thu 	 7c 	 80%
11:00Thu 	 7c 	 92%
12:00Thu 	 8c 	 93%
13:00Thu 	 8c 	 91%
14:00Thu 	 9c 	 90%
15:00Thu 	 9c 	 86%
16:00Thu 	 9c 	 73%
17:00Thu 	 8c 	 58%
18:00Thu 	 8c 	 49%
19:00Thu 	 8c 	 51%
20:00Thu 	 7c 	 56%
21:00Thu 	 7c 	 57%
22:00Thu 	 7c 	 53%
23:00Thu 	 7c 	 44%
00:00Fri 	 7c 	 34%
01:00Fri 	 6c 	 32%
02:00Fri 	 6c 	 30%
03:00Fri 	 6c 	 25%
04:00Fri 	 5c 	 27%
05:00Fri 	 5c 	 31%

# /home/pi/Documents/bbc-weather-predictions/data/Dec11Wed/bbcweather_Wednesday11thDecember_2019-12-11_1015.txt
# time 	 temp 	 rain
11:00Wed 	 6c 	 83%
12:00Wed 	 7c 	 92%
13:00Wed 	 6c 	 79%
14:00Wed 	 6c 	 71%
15:00Wed 	 6c 	 59%
16:00Wed 	 5c 	 44%
17:00Wed 	 5c 	 26%
18:00Wed 	 4c 	 13%
19:00Wed 	 4c 	 8%
20:00Wed 	 4c 	 5%
21:00Wed 	 3c 	 2%
22:00Wed 	 3c 	 2%
23:00Wed 	 3c 	 3%
00:00Thu 	 3c 	 4%
01:00Thu 	 3c 	 5%
02:00Thu 	 3c 	 9%
03:00Thu 	 3c 	 14%
04:00Thu 	 3c 	 19%
05:00Thu 	 4c 	 23%
06:00Thu 	 4c 	 30%
07:00Thu 	 5c 	 44%
08:00Thu 	 5c 	 59%
09:00Thu 	 6c 	 67%
10:00Thu 	 7c 	 80%
11:00Thu 	 7c 	 92%
12:00Thu 	 8c 	 93%
13:00Thu 	 8c 	 91%
14:00Thu 	 9c 	 90%
15:00Thu 	 9c 	 86%
16:00Thu 	 9c 	 73%
17:00Thu 	 8c 	 58%
18:00Thu 	 8c 	 49%
19:00Thu 	 8c 	 51%
20:00Thu 	 7c 	 56%
21:00Thu 	 7c 	 57%
22:00Thu 	 7c 	 53%
23:00Thu 	 7c 	 44%
00:00Fri 	 7c 	 34%
01:00Fri 	 6c 	 32%
02:00Fri 	 6c 	 30%
03:00Fri 	 6c 	 25%
04:00Fri 	 5c 	 27%
05:00Fri 	 5c 	 31%

# /home/pi/Documents/bbc-weather-predictions/data/Dec11Wed/bbcweather_Wednesday11thDecember_2019-12-11_1030.txt
# time 	 temp 	 rain
11:00Wed 	 6c 	 83%
12:00Wed 	 7c 	 92%
13:00Wed 	 6c 	 79%
14:00Wed 	 6c 	 71%
15:00Wed 	 6c 	 59%
16:00Wed 	 5c 	 44%
17:00Wed 	 5c 	 26%
18:00Wed 	 4c 	 13%
19:00Wed 	 4c 	 8%
20:00Wed 	 4c 	 5%
21:00Wed 	 3c 	 2%
22:00Wed 	 3c 	 2%
23:00Wed 	 3c 	 3%
00:00Thu 	 3c 	 4%
01:00Thu 	 3c 	 5%
02:00Thu 	 3c 	 9%
03:00Thu 	 3c 	 14%
04:00Thu 	 3c 	 19%
05:00Thu 	 4c 	 23%
06:00Thu 	 4c 	 30%
07:00Thu 	 5c 	 44%
08:00Thu 	 5c 	 59%
09:00Thu 	 6c 	 67%
10:00Thu 	 7c 	 80%
11:00Thu 	 7c 	 92%
12:00Thu 	 8c 	 93%
13:00Thu 	 8c 	 91%
14:00Thu 	 9c 	 90%
15:00Thu 	 9c 	 86%
16:00Thu 	 9c 	 73%
17:00Thu 	 8c 	 58%
18:00Thu 	 8c 	 49%
19:00Thu 	 8c 	 51%
20:00Thu 	 7c 	 56%
21:00Thu 	 7c 	 57%
22:00Thu 	 7c 	 53%
23:00Thu 	 7c 	 44%
00:00Fri 	 7c 	 34%
01:00Fri 	 6c 	 32%
02:00Fri 	 6c 	 30%
03:00Fri 	 6c 	 25%
04:00Fri 	 5c 	 27%
05:00Fri 	 5c 	 31%

# /home/pi/Documents/bbc-weather-predictions/data/Dec11Wed/bbcweather_Wednesday11thDecember_2019-12-11_1045.txt
# time 	 temp 	 rain
11:00Wed 	 6c 	 87%
12:00Wed 	 7c 	 93%
13:00Wed 	 6c 	 79%
14:00Wed 	 6c 	 71%
15:00Wed 	 6c 	 59%
16:00Wed 	 5c 	 44%
17:00Wed 	 5c 	 26%
18:00Wed 	 4c 	 13%
19:00Wed 	 4c 	 8%
20:00Wed 	 4c 	 5%
21:00Wed 	 3c 	 2%
22:00Wed 	 3c 	 2%
23:00Wed 	 3c 	 3%
00:00Thu 	 3c 	 4%
01:00Thu 	 3c 	 5%
02:00Thu 	 3c 	 9%
03:00Thu 	 3c 	 14%
04:00Thu 	 3c 	 19%
05:00Thu 	 4c 	 23%
06:00Thu 	 4c 	 30%
07:00Thu 	 5c 	 44%
08:00Thu 	 5c 	 59%
09:00Thu 	 6c 	 67%
10:00Thu 	 7c 	 80%
11:00Thu 	 7c 	 92%
12:00Thu 	 8c 	 93%
13:00Thu 	 8c 	 91%
14:00Thu 	 9c 	 90%
15:00Thu 	 9c 	 86%
16:00Thu 	 9c 	 73%
17:00Thu 	 8c 	 58%
18:00Thu 	 8c 	 49%
19:00Thu 	 8c 	 53%
20:00Thu 	 8c 	 60%
21:00Thu 	 7c 	 63%
22:00Thu 	 7c 	 62%
23:00Thu 	 7c 	 57%
00:00Fri 	 7c 	 51%
01:00Fri 	 6c 	 48%
02:00Fri 	 6c 	 40%
03:00Fri 	 6c 	 30%
04:00Fri 	 5c 	 31%
05:00Fri 	 5c 	 35%

# /home/pi/Documents/bbc-weather-predictions/data/Dec11Wed/bbcweather_Wednesday11thDecember_2019-12-11_1100.txt
# time 	 temp 	 rain
11:00Wed 	 6c 	 87%
12:00Wed 	 7c 	 93%
13:00Wed 	 6c 	 79%
14:00Wed 	 6c 	 71%
15:00Wed 	 6c 	 59%
16:00Wed 	 5c 	 44%
17:00Wed 	 5c 	 26%
18:00Wed 	 4c 	 13%
19:00Wed 	 4c 	 8%
20:00Wed 	 4c 	 5%
21:00Wed 	 3c 	 2%
22:00Wed 	 3c 	 2%
23:00Wed 	 3c 	 3%
00:00Thu 	 3c 	 4%
01:00Thu 	 3c 	 5%
02:00Thu 	 3c 	 9%
03:00Thu 	 3c 	 14%
04:00Thu 	 3c 	 19%
05:00Thu 	 4c 	 23%
06:00Thu 	 4c 	 30%
07:00Thu 	 5c 	 44%
08:00Thu 	 5c 	 59%
09:00Thu 	 6c 	 67%
10:00Thu 	 7c 	 80%
11:00Thu 	 7c 	 92%
12:00Thu 	 8c 	 93%
13:00Thu 	 8c 	 91%
14:00Thu 	 9c 	 90%
15:00Thu 	 9c 	 86%
16:00Thu 	 9c 	 73%
17:00Thu 	 8c 	 58%
18:00Thu 	 8c 	 49%
19:00Thu 	 8c 	 53%
20:00Thu 	 8c 	 60%
21:00Thu 	 7c 	 63%
22:00Thu 	 7c 	 62%
23:00Thu 	 7c 	 57%
00:00Fri 	 7c 	 51%
01:00Fri 	 6c 	 48%
02:00Fri 	 6c 	 40%
03:00Fri 	 6c 	 30%
04:00Fri 	 5c 	 31%
05:00Fri 	 5c 	 35%

# /home/pi/Documents/bbc-weather-predictions/data/Dec11Wed/bbcweather_Wednesday11thDecember_2019-12-11_1115.txt
# time 	 temp 	 rain
12:00Wed 	 7c 	 93%
13:00Wed 	 6c 	 79%
14:00Wed 	 6c 	 71%
15:00Wed 	 6c 	 59%
16:00Wed 	 5c 	 44%
17:00Wed 	 5c 	 26%
18:00Wed 	 4c 	 13%
19:00Wed 	 4c 	 8%
20:00Wed 	 4c 	 5%
21:00Wed 	 3c 	 2%
22:00Wed 	 3c 	 2%
23:00Wed 	 3c 	 3%
00:00Thu 	 3c 	 4%
01:00Thu 	 3c 	 5%
02:00Thu 	 3c 	 9%
03:00Thu 	 3c 	 14%
04:00Thu 	 3c 	 19%
05:00Thu 	 4c 	 23%
06:00Thu 	 4c 	 30%
07:00Thu 	 5c 	 44%
08:00Thu 	 5c 	 59%
09:00Thu 	 6c 	 67%
10:00Thu 	 7c 	 80%
11:00Thu 	 7c 	 92%
12:00Thu 	 8c 	 93%
13:00Thu 	 8c 	 91%
14:00Thu 	 9c 	 90%
15:00Thu 	 9c 	 86%
16:00Thu 	 9c 	 73%
17:00Thu 	 8c 	 58%
18:00Thu 	 8c 	 49%
19:00Thu 	 8c 	 53%
20:00Thu 	 8c 	 60%
21:00Thu 	 7c 	 63%
22:00Thu 	 7c 	 62%
23:00Thu 	 7c 	 57%
00:00Fri 	 7c 	 51%
01:00Fri 	 6c 	 48%
02:00Fri 	 6c 	 40%
03:00Fri 	 6c 	 30%
04:00Fri 	 5c 	 31%
05:00Fri 	 5c 	 35%

# /home/pi/Documents/bbc-weather-predictions/data/Dec11Wed/bbcweather_Wednesday11thDecember_2019-12-11_1130.txt
# time 	 temp 	 rain
12:00Wed 	 7c 	 93%
13:00Wed 	 6c 	 79%
14:00Wed 	 6c 	 71%
15:00Wed 	 6c 	 59%
16:00Wed 	 5c 	 44%
17:00Wed 	 5c 	 26%
18:00Wed 	 4c 	 13%
19:00Wed 	 4c 	 8%
20:00Wed 	 4c 	 5%
21:00Wed 	 3c 	 2%
22:00Wed 	 3c 	 2%
23:00Wed 	 3c 	 3%
00:00Thu 	 3c 	 4%
01:00Thu 	 3c 	 5%
02:00Thu 	 3c 	 9%
03:00Thu 	 3c 	 14%
04:00Thu 	 3c 	 19%
05:00Thu 	 4c 	 23%
06:00Thu 	 4c 	 30%
07:00Thu 	 5c 	 44%
08:00Thu 	 5c 	 59%
09:00Thu 	 6c 	 67%
10:00Thu 	 7c 	 80%
11:00Thu 	 7c 	 92%
12:00Thu 	 8c 	 93%
13:00Thu 	 8c 	 91%
14:00Thu 	 9c 	 90%
15:00Thu 	 9c 	 86%
16:00Thu 	 9c 	 73%
17:00Thu 	 8c 	 58%
18:00Thu 	 8c 	 49%
19:00Thu 	 8c 	 53%
20:00Thu 	 8c 	 60%
21:00Thu 	 7c 	 63%
22:00Thu 	 7c 	 62%
23:00Thu 	 7c 	 57%
00:00Fri 	 7c 	 51%
01:00Fri 	 6c 	 48%
02:00Fri 	 6c 	 40%
03:00Fri 	 6c 	 30%
04:00Fri 	 5c 	 31%
05:00Fri 	 5c 	 35%

# /home/pi/Documents/bbc-weather-predictions/data/Dec11Wed/bbcweather_Wednesday11thDecember_2019-12-11_1145.txt
# time 	 temp 	 rain
12:00Wed 	 7c 	 99%
13:00Wed 	 6c 	 95%
14:00Wed 	 6c 	 71%
15:00Wed 	 6c 	 59%
16:00Wed 	 5c 	 44%
17:00Wed 	 5c 	 26%
18:00Wed 	 4c 	 13%
19:00Wed 	 4c 	 8%
20:00Wed 	 4c 	 5%
21:00Wed 	 3c 	 2%
22:00Wed 	 3c 	 2%
23:00Wed 	 3c 	 3%
00:00Thu 	 3c 	 4%
01:00Thu 	 3c 	 5%
02:00Thu 	 3c 	 9%
03:00Thu 	 3c 	 14%
04:00Thu 	 3c 	 19%
05:00Thu 	 4c 	 23%
06:00Thu 	 4c 	 30%
07:00Thu 	 5c 	 44%
08:00Thu 	 5c 	 59%
09:00Thu 	 6c 	 67%
10:00Thu 	 7c 	 80%
11:00Thu 	 7c 	 92%
12:00Thu 	 8c 	 93%
13:00Thu 	 8c 	 91%
14:00Thu 	 9c 	 90%
15:00Thu 	 9c 	 86%
16:00Thu 	 9c 	 73%
17:00Thu 	 8c 	 58%
18:00Thu 	 8c 	 49%
19:00Thu 	 8c 	 53%
20:00Thu 	 8c 	 60%
21:00Thu 	 7c 	 63%
22:00Thu 	 7c 	 62%
23:00Thu 	 7c 	 57%
00:00Fri 	 7c 	 51%
01:00Fri 	 6c 	 48%
02:00Fri 	 6c 	 40%
03:00Fri 	 6c 	 30%
04:00Fri 	 5c 	 31%
05:00Fri 	 5c 	 35%

# /home/pi/Documents/bbc-weather-predictions/data/Dec11Wed/bbcweather_Wednesday11thDecember_2019-12-11_1200.txt
# time 	 temp 	 rain
12:00Wed 	 7c 	 99%
13:00Wed 	 6c 	 95%
14:00Wed 	 6c 	 71%
15:00Wed 	 6c 	 59%
16:00Wed 	 5c 	 44%
17:00Wed 	 5c 	 26%
18:00Wed 	 4c 	 13%
19:00Wed 	 4c 	 8%
20:00Wed 	 4c 	 5%
21:00Wed 	 3c 	 2%
22:00Wed 	 3c 	 2%
23:00Wed 	 3c 	 3%
00:00Thu 	 3c 	 4%
01:00Thu 	 3c 	 5%
02:00Thu 	 3c 	 9%
03:00Thu 	 3c 	 14%
04:00Thu 	 3c 	 19%
05:00Thu 	 4c 	 23%
06:00Thu 	 4c 	 30%
07:00Thu 	 5c 	 44%
08:00Thu 	 5c 	 59%
09:00Thu 	 6c 	 67%
10:00Thu 	 7c 	 80%
11:00Thu 	 7c 	 92%
12:00Thu 	 8c 	 93%
13:00Thu 	 8c 	 91%
14:00Thu 	 9c 	 90%
15:00Thu 	 9c 	 86%
16:00Thu 	 9c 	 73%
17:00Thu 	 8c 	 58%
18:00Thu 	 8c 	 49%
19:00Thu 	 8c 	 53%
20:00Thu 	 8c 	 60%
21:00Thu 	 7c 	 63%
22:00Thu 	 7c 	 62%
23:00Thu 	 7c 	 57%
00:00Fri 	 7c 	 51%
01:00Fri 	 6c 	 48%
02:00Fri 	 6c 	 40%
03:00Fri 	 6c 	 30%
04:00Fri 	 5c 	 31%
05:00Fri 	 5c 	 35%

# /home/pi/Documents/bbc-weather-predictions/data/Dec11Wed/bbcweather_Wednesday11thDecember_2019-12-11_1215.txt
# time 	 temp 	 rain
13:00Wed 	 6c 	 95%
14:00Wed 	 6c 	 71%
15:00Wed 	 6c 	 59%
16:00Wed 	 5c 	 44%
17:00Wed 	 5c 	 26%
18:00Wed 	 4c 	 13%
19:00Wed 	 4c 	 8%
20:00Wed 	 4c 	 5%
21:00Wed 	 3c 	 2%
22:00Wed 	 3c 	 2%
23:00Wed 	 3c 	 3%
00:00Thu 	 3c 	 4%
01:00Thu 	 3c 	 5%
02:00Thu 	 3c 	 9%
03:00Thu 	 3c 	 14%
04:00Thu 	 3c 	 19%
05:00Thu 	 4c 	 23%
06:00Thu 	 4c 	 30%
07:00Thu 	 5c 	 44%
08:00Thu 	 5c 	 59%
09:00Thu 	 6c 	 67%
10:00Thu 	 7c 	 80%
11:00Thu 	 7c 	 92%
12:00Thu 	 8c 	 93%
13:00Thu 	 8c 	 91%
14:00Thu 	 9c 	 90%
15:00Thu 	 9c 	 86%
16:00Thu 	 9c 	 73%
17:00Thu 	 8c 	 58%
18:00Thu 	 8c 	 49%
19:00Thu 	 8c 	 53%
20:00Thu 	 8c 	 60%
21:00Thu 	 7c 	 63%
22:00Thu 	 7c 	 62%
23:00Thu 	 7c 	 57%
00:00Fri 	 7c 	 51%
01:00Fri 	 6c 	 48%
02:00Fri 	 6c 	 40%
03:00Fri 	 6c 	 30%
04:00Fri 	 5c 	 31%
05:00Fri 	 5c 	 35%

# /home/pi/Documents/bbc-weather-predictions/data/Dec11Wed/bbcweather_Wednesday11thDecember_2019-12-11_1230.txt
# time 	 temp 	 rain
13:00Wed 	 6c 	 95%
14:00Wed 	 6c 	 71%
15:00Wed 	 6c 	 59%
16:00Wed 	 5c 	 44%
17:00Wed 	 5c 	 26%
18:00Wed 	 4c 	 13%
19:00Wed 	 4c 	 8%
20:00Wed 	 4c 	 5%
21:00Wed 	 3c 	 2%
22:00Wed 	 3c 	 2%
23:00Wed 	 3c 	 3%
00:00Thu 	 3c 	 4%
01:00Thu 	 3c 	 5%
02:00Thu 	 3c 	 9%
03:00Thu 	 3c 	 14%
04:00Thu 	 3c 	 19%
05:00Thu 	 4c 	 23%
06:00Thu 	 4c 	 30%
07:00Thu 	 5c 	 44%
08:00Thu 	 5c 	 59%
09:00Thu 	 6c 	 67%
10:00Thu 	 7c 	 80%
11:00Thu 	 7c 	 92%
12:00Thu 	 8c 	 93%
13:00Thu 	 8c 	 91%
14:00Thu 	 9c 	 90%
15:00Thu 	 9c 	 86%
16:00Thu 	 9c 	 73%
17:00Thu 	 8c 	 58%
18:00Thu 	 8c 	 49%
19:00Thu 	 8c 	 53%
20:00Thu 	 8c 	 60%
21:00Thu 	 7c 	 63%
22:00Thu 	 7c 	 62%
23:00Thu 	 7c 	 57%
00:00Fri 	 7c 	 51%
01:00Fri 	 6c 	 48%
02:00Fri 	 6c 	 40%
03:00Fri 	 6c 	 30%
04:00Fri 	 5c 	 31%
05:00Fri 	 5c 	 35%

# /home/pi/Documents/bbc-weather-predictions/data/Dec11Wed/bbcweather_Wednesday11thDecember_2019-12-11_1245.txt
# time 	 temp 	 rain
13:00Wed 	 6c 	 95%
14:00Wed 	 6c 	 93%
15:00Wed 	 6c 	 59%
16:00Wed 	 5c 	 44%
17:00Wed 	 5c 	 27%
18:00Wed 	 4c 	 13%
19:00Wed 	 4c 	 8%
20:00Wed 	 4c 	 5%
21:00Wed 	 3c 	 2%
22:00Wed 	 3c 	 2%
23:00Wed 	 3c 	 3%
00:00Thu 	 3c 	 4%
01:00Thu 	 3c 	 5%
02:00Thu 	 3c 	 9%
03:00Thu 	 3c 	 14%
04:00Thu 	 3c 	 19%
05:00Thu 	 4c 	 23%
06:00Thu 	 4c 	 30%
07:00Thu 	 5c 	 44%
08:00Thu 	 5c 	 59%
09:00Thu 	 6c 	 67%
10:00Thu 	 7c 	 80%
11:00Thu 	 7c 	 92%
12:00Thu 	 8c 	 93%
13:00Thu 	 8c 	 91%
14:00Thu 	 9c 	 90%
15:00Thu 	 9c 	 86%
16:00Thu 	 9c 	 73%
17:00Thu 	 8c 	 58%
18:00Thu 	 8c 	 49%
19:00Thu 	 8c 	 53%
20:00Thu 	 8c 	 60%
21:00Thu 	 7c 	 63%
22:00Thu 	 7c 	 62%
23:00Thu 	 7c 	 57%
00:00Fri 	 7c 	 51%
01:00Fri 	 6c 	 48%
02:00Fri 	 6c 	 40%
03:00Fri 	 6c 	 30%
04:00Fri 	 5c 	 31%
05:00Fri 	 5c 	 35%

# /home/pi/Documents/bbc-weather-predictions/data/Dec11Wed/bbcweather_Wednesday11thDecember_2019-12-11_1300.txt
# time 	 temp 	 rain
13:00Wed 	 6c 	 95%
14:00Wed 	 6c 	 93%
15:00Wed 	 6c 	 59%
16:00Wed 	 5c 	 44%
17:00Wed 	 5c 	 27%
18:00Wed 	 4c 	 13%
19:00Wed 	 4c 	 8%
20:00Wed 	 4c 	 5%
21:00Wed 	 3c 	 2%
22:00Wed 	 3c 	 2%
23:00Wed 	 3c 	 3%
00:00Thu 	 3c 	 4%
01:00Thu 	 3c 	 5%
02:00Thu 	 3c 	 9%
03:00Thu 	 3c 	 14%
04:00Thu 	 3c 	 19%
05:00Thu 	 4c 	 23%
06:00Thu 	 4c 	 30%
07:00Thu 	 5c 	 44%
08:00Thu 	 5c 	 59%
09:00Thu 	 6c 	 67%
10:00Thu 	 7c 	 80%
11:00Thu 	 7c 	 92%
12:00Thu 	 8c 	 93%
13:00Thu 	 8c 	 91%
14:00Thu 	 9c 	 90%
15:00Thu 	 9c 	 86%
16:00Thu 	 9c 	 73%
17:00Thu 	 8c 	 58%
18:00Thu 	 8c 	 49%
19:00Thu 	 8c 	 53%
20:00Thu 	 8c 	 60%
21:00Thu 	 7c 	 63%
22:00Thu 	 7c 	 62%
23:00Thu 	 7c 	 57%
00:00Fri 	 7c 	 51%
01:00Fri 	 6c 	 48%
02:00Fri 	 6c 	 40%
03:00Fri 	 6c 	 30%
04:00Fri 	 5c 	 31%
05:00Fri 	 5c 	 35%

# /home/pi/Documents/bbc-weather-predictions/data/Dec11Wed/bbcweather_Wednesday11thDecember_2019-12-11_1315.txt
# time 	 temp 	 rain
14:00Wed 	 6c 	 93%
15:00Wed 	 6c 	 59%
16:00Wed 	 5c 	 44%
17:00Wed 	 5c 	 27%
18:00Wed 	 4c 	 13%
19:00Wed 	 4c 	 8%
20:00Wed 	 4c 	 5%
21:00Wed 	 3c 	 2%
22:00Wed 	 3c 	 2%
23:00Wed 	 3c 	 3%
00:00Thu 	 3c 	 4%
01:00Thu 	 3c 	 5%
02:00Thu 	 3c 	 9%
03:00Thu 	 3c 	 14%
04:00Thu 	 3c 	 19%
05:00Thu 	 4c 	 23%
06:00Thu 	 4c 	 30%
07:00Thu 	 5c 	 44%
08:00Thu 	 5c 	 59%
09:00Thu 	 6c 	 67%
10:00Thu 	 7c 	 80%
11:00Thu 	 7c 	 92%
12:00Thu 	 8c 	 93%
13:00Thu 	 8c 	 91%
14:00Thu 	 9c 	 90%
15:00Thu 	 9c 	 86%
16:00Thu 	 9c 	 73%
17:00Thu 	 8c 	 58%
18:00Thu 	 8c 	 49%
19:00Thu 	 8c 	 53%
20:00Thu 	 8c 	 60%
21:00Thu 	 7c 	 63%
22:00Thu 	 7c 	 62%
23:00Thu 	 7c 	 57%
00:00Fri 	 7c 	 51%
01:00Fri 	 6c 	 48%
02:00Fri 	 6c 	 40%
03:00Fri 	 6c 	 30%
04:00Fri 	 5c 	 31%
05:00Fri 	 5c 	 35%

# /home/pi/Documents/bbc-weather-predictions/data/Dec11Wed/bbcweather_Wednesday11thDecember_2019-12-11_1330.txt
# time 	 temp 	 rain
14:00Wed 	 6c 	 93%
15:00Wed 	 6c 	 59%
16:00Wed 	 5c 	 44%
17:00Wed 	 5c 	 27%
18:00Wed 	 4c 	 13%
19:00Wed 	 4c 	 8%
20:00Wed 	 4c 	 5%
21:00Wed 	 3c 	 2%
22:00Wed 	 3c 	 2%
23:00Wed 	 3c 	 3%
00:00Thu 	 3c 	 4%
01:00Thu 	 3c 	 5%
02:00Thu 	 3c 	 9%
03:00Thu 	 3c 	 14%
04:00Thu 	 3c 	 19%
05:00Thu 	 4c 	 23%
06:00Thu 	 4c 	 30%
07:00Thu 	 5c 	 44%
08:00Thu 	 5c 	 59%
09:00Thu 	 6c 	 67%
10:00Thu 	 7c 	 80%
11:00Thu 	 7c 	 92%
12:00Thu 	 8c 	 93%
13:00Thu 	 8c 	 91%
14:00Thu 	 9c 	 90%
15:00Thu 	 9c 	 86%
16:00Thu 	 9c 	 73%
17:00Thu 	 8c 	 58%
18:00Thu 	 8c 	 49%
19:00Thu 	 8c 	 53%
20:00Thu 	 8c 	 60%
21:00Thu 	 7c 	 63%
22:00Thu 	 7c 	 62%
23:00Thu 	 7c 	 57%
00:00Fri 	 7c 	 51%
01:00Fri 	 6c 	 48%
02:00Fri 	 6c 	 40%
03:00Fri 	 6c 	 30%
04:00Fri 	 5c 	 31%
05:00Fri 	 5c 	 35%

# /home/pi/Documents/bbc-weather-predictions/data/Dec11Wed/bbcweather_Wednesday11thDecember_2019-12-11_1345.txt
# time 	 temp 	 rain
14:00Wed 	 7c 	 98%
15:00Wed 	 6c 	 92%
16:00Wed 	 6c 	 73%
17:00Wed 	 5c 	 28%
18:00Wed 	 5c 	 15%
19:00Wed 	 4c 	 9%
20:00Wed 	 4c 	 5%
21:00Wed 	 3c 	 2%
22:00Wed 	 3c 	 2%
23:00Wed 	 3c 	 3%
00:00Thu 	 3c 	 4%
01:00Thu 	 3c 	 5%
02:00Thu 	 3c 	 9%
03:00Thu 	 3c 	 14%
04:00Thu 	 3c 	 19%
05:00Thu 	 4c 	 23%
06:00Thu 	 4c 	 30%
07:00Thu 	 5c 	 44%
08:00Thu 	 5c 	 59%
09:00Thu 	 6c 	 67%
10:00Thu 	 7c 	 80%
11:00Thu 	 7c 	 92%
12:00Thu 	 8c 	 93%
13:00Thu 	 8c 	 91%
14:00Thu 	 9c 	 90%
15:00Thu 	 9c 	 86%
16:00Thu 	 9c 	 73%
17:00Thu 	 8c 	 58%
18:00Thu 	 8c 	 49%
19:00Thu 	 8c 	 53%
20:00Thu 	 8c 	 60%
21:00Thu 	 7c 	 63%
22:00Thu 	 7c 	 62%
23:00Thu 	 7c 	 57%
00:00Fri 	 7c 	 51%
01:00Fri 	 6c 	 48%
02:00Fri 	 6c 	 40%
03:00Fri 	 6c 	 30%
04:00Fri 	 5c 	 31%
05:00Fri 	 5c 	 35%

# /home/pi/Documents/bbc-weather-predictions/data/Dec11Wed/bbcweather_Wednesday11thDecember_2019-12-11_1400.txt
# time 	 temp 	 rain
14:00Wed 	 7c 	 98%
15:00Wed 	 6c 	 92%
16:00Wed 	 6c 	 73%
17:00Wed 	 5c 	 28%
18:00Wed 	 5c 	 15%
19:00Wed 	 4c 	 9%
20:00Wed 	 4c 	 5%
21:00Wed 	 3c 	 2%
22:00Wed 	 3c 	 2%
23:00Wed 	 3c 	 3%
00:00Thu 	 3c 	 4%
01:00Thu 	 3c 	 5%
02:00Thu 	 3c 	 9%
03:00Thu 	 3c 	 14%
04:00Thu 	 3c 	 19%
05:00Thu 	 4c 	 23%
06:00Thu 	 4c 	 30%
07:00Thu 	 5c 	 44%
08:00Thu 	 5c 	 59%
09:00Thu 	 6c 	 67%
10:00Thu 	 7c 	 80%
11:00Thu 	 7c 	 92%
12:00Thu 	 8c 	 93%
13:00Thu 	 8c 	 91%
14:00Thu 	 9c 	 90%
15:00Thu 	 9c 	 86%
16:00Thu 	 9c 	 73%
17:00Thu 	 8c 	 58%
18:00Thu 	 8c 	 49%
19:00Thu 	 8c 	 53%
20:00Thu 	 8c 	 60%
21:00Thu 	 7c 	 63%
22:00Thu 	 7c 	 62%
23:00Thu 	 7c 	 57%
00:00Fri 	 7c 	 51%
01:00Fri 	 6c 	 48%
02:00Fri 	 6c 	 40%
03:00Fri 	 6c 	 30%
04:00Fri 	 5c 	 31%
05:00Fri 	 5c 	 35%

# /home/pi/Documents/bbc-weather-predictions/data/Dec11Wed/bbcweather_Wednesday11thDecember_2019-12-11_1415.txt
# time 	 temp 	 rain
15:00Wed 	 6c 	 92%
16:00Wed 	 6c 	 73%
17:00Wed 	 5c 	 28%
18:00Wed 	 5c 	 15%
19:00Wed 	 4c 	 9%
20:00Wed 	 4c 	 5%
21:00Wed 	 3c 	 2%
22:00Wed 	 3c 	 2%
23:00Wed 	 3c 	 3%
00:00Thu 	 3c 	 4%
01:00Thu 	 3c 	 5%
02:00Thu 	 3c 	 9%
03:00Thu 	 3c 	 14%
04:00Thu 	 3c 	 19%
05:00Thu 	 4c 	 23%
06:00Thu 	 4c 	 30%
07:00Thu 	 5c 	 44%
08:00Thu 	 5c 	 59%
09:00Thu 	 6c 	 67%
10:00Thu 	 7c 	 80%
11:00Thu 	 7c 	 92%
12:00Thu 	 8c 	 93%
13:00Thu 	 8c 	 91%
14:00Thu 	 9c 	 90%
15:00Thu 	 9c 	 86%
16:00Thu 	 9c 	 73%
17:00Thu 	 8c 	 58%
18:00Thu 	 8c 	 49%
19:00Thu 	 8c 	 53%
20:00Thu 	 8c 	 60%
21:00Thu 	 7c 	 63%
22:00Thu 	 7c 	 62%
23:00Thu 	 7c 	 57%
00:00Fri 	 7c 	 51%
01:00Fri 	 6c 	 48%
02:00Fri 	 6c 	 40%
03:00Fri 	 6c 	 30%
04:00Fri 	 5c 	 31%
05:00Fri 	 5c 	 35%

# /home/pi/Documents/bbc-weather-predictions/data/Dec11Wed/bbcweather_Wednesday11thDecember_2019-12-11_1430.txt
# time 	 temp 	 rain
15:00Wed 	 6c 	 92%
16:00Wed 	 6c 	 73%
17:00Wed 	 5c 	 28%
18:00Wed 	 5c 	 15%
19:00Wed 	 4c 	 9%
20:00Wed 	 4c 	 5%
21:00Wed 	 3c 	 2%
22:00Wed 	 3c 	 2%
23:00Wed 	 3c 	 3%
00:00Thu 	 3c 	 4%
01:00Thu 	 3c 	 5%
02:00Thu 	 3c 	 9%
03:00Thu 	 3c 	 14%
04:00Thu 	 3c 	 19%
05:00Thu 	 4c 	 23%
06:00Thu 	 4c 	 30%
07:00Thu 	 5c 	 44%
08:00Thu 	 5c 	 59%
09:00Thu 	 6c 	 67%
10:00Thu 	 7c 	 80%
11:00Thu 	 7c 	 92%
12:00Thu 	 8c 	 93%
13:00Thu 	 8c 	 91%
14:00Thu 	 9c 	 90%
15:00Thu 	 9c 	 86%
16:00Thu 	 9c 	 73%
17:00Thu 	 8c 	 58%
18:00Thu 	 8c 	 49%
19:00Thu 	 8c 	 53%
20:00Thu 	 8c 	 60%
21:00Thu 	 7c 	 63%
22:00Thu 	 7c 	 62%
23:00Thu 	 7c 	 57%
00:00Fri 	 7c 	 51%
01:00Fri 	 6c 	 48%
02:00Fri 	 6c 	 40%
03:00Fri 	 6c 	 30%
04:00Fri 	 5c 	 31%
05:00Fri 	 5c 	 35%

# /home/pi/Documents/bbc-weather-predictions/data/Dec11Wed/bbcweather_Wednesday11thDecember_2019-12-11_1445.txt
# time 	 temp 	 rain
15:00Wed 	 6c 	 92%
16:00Wed 	 6c 	 73%
17:00Wed 	 5c 	 28%
18:00Wed 	 5c 	 15%
19:00Wed 	 4c 	 9%
20:00Wed 	 4c 	 5%
21:00Wed 	 3c 	 2%
22:00Wed 	 3c 	 2%
23:00Wed 	 3c 	 3%
00:00Thu 	 3c 	 4%
01:00Thu 	 3c 	 5%
02:00Thu 	 3c 	 9%
03:00Thu 	 3c 	 14%
04:00Thu 	 3c 	 19%
05:00Thu 	 4c 	 23%
06:00Thu 	 4c 	 30%
07:00Thu 	 5c 	 44%
08:00Thu 	 5c 	 59%
09:00Thu 	 6c 	 67%
10:00Thu 	 7c 	 80%
11:00Thu 	 7c 	 92%
12:00Thu 	 8c 	 93%
13:00Thu 	 8c 	 91%
14:00Thu 	 9c 	 90%
15:00Thu 	 9c 	 86%
16:00Thu 	 9c 	 73%
17:00Thu 	 8c 	 58%
18:00Thu 	 8c 	 49%
19:00Thu 	 8c 	 53%
20:00Thu 	 8c 	 60%
21:00Thu 	 7c 	 63%
22:00Thu 	 7c 	 62%
23:00Thu 	 7c 	 57%
00:00Fri 	 7c 	 51%
01:00Fri 	 6c 	 48%
02:00Fri 	 6c 	 40%
03:00Fri 	 6c 	 30%
04:00Fri 	 5c 	 31%
05:00Fri 	 5c 	 35%

# /home/pi/Documents/bbc-weather-predictions/data/Dec11Wed/bbcweather_Wednesday11thDecember_2019-12-11_1500.txt
# time 	 temp 	 rain
15:00Wed 	 5c 	 97%
16:00Wed 	 5c 	 89%
17:00Wed 	 5c 	 24%
18:00Wed 	 5c 	 15%
19:00Wed 	 4c 	 8%
20:00Wed 	 4c 	 5%
21:00Wed 	 3c 	 2%
22:00Wed 	 3c 	 2%
23:00Wed 	 3c 	 3%
00:00Thu 	 3c 	 4%
01:00Thu 	 3c 	 5%
02:00Thu 	 3c 	 9%
03:00Thu 	 3c 	 14%
04:00Thu 	 3c 	 19%
05:00Thu 	 4c 	 23%
06:00Thu 	 4c 	 30%
07:00Thu 	 5c 	 44%
08:00Thu 	 5c 	 59%
09:00Thu 	 6c 	 67%
10:00Thu 	 7c 	 80%
11:00Thu 	 7c 	 92%
12:00Thu 	 8c 	 93%
13:00Thu 	 8c 	 91%
14:00Thu 	 9c 	 90%
15:00Thu 	 9c 	 86%
16:00Thu 	 9c 	 73%
17:00Thu 	 8c 	 58%
18:00Thu 	 8c 	 49%
19:00Thu 	 8c 	 53%
20:00Thu 	 8c 	 60%
21:00Thu 	 7c 	 63%
22:00Thu 	 7c 	 62%
23:00Thu 	 7c 	 57%
00:00Fri 	 7c 	 51%
01:00Fri 	 6c 	 48%
02:00Fri 	 6c 	 40%
03:00Fri 	 6c 	 30%
04:00Fri 	 5c 	 31%
05:00Fri 	 5c 	 35%

# /home/pi/Documents/bbc-weather-predictions/data/Dec11Wed/bbcweather_Wednesday11thDecember_2019-12-11_1515.txt
# time 	 temp 	 rain
16:00Wed 	 5c 	 89%
17:00Wed 	 5c 	 24%
18:00Wed 	 5c 	 15%
19:00Wed 	 4c 	 8%
20:00Wed 	 4c 	 5%
21:00Wed 	 3c 	 2%
22:00Wed 	 3c 	 2%
23:00Wed 	 3c 	 3%
00:00Thu 	 3c 	 4%
01:00Thu 	 3c 	 5%
02:00Thu 	 3c 	 9%
03:00Thu 	 3c 	 14%
04:00Thu 	 3c 	 19%
05:00Thu 	 4c 	 23%
06:00Thu 	 4c 	 30%
07:00Thu 	 5c 	 44%
08:00Thu 	 5c 	 59%
09:00Thu 	 6c 	 67%
10:00Thu 	 7c 	 80%
11:00Thu 	 7c 	 92%
12:00Thu 	 8c 	 93%
13:00Thu 	 8c 	 91%
14:00Thu 	 9c 	 90%
15:00Thu 	 9c 	 86%
16:00Thu 	 9c 	 73%
17:00Thu 	 8c 	 58%
18:00Thu 	 8c 	 49%
19:00Thu 	 8c 	 53%
20:00Thu 	 8c 	 60%
21:00Thu 	 7c 	 63%
22:00Thu 	 7c 	 62%
23:00Thu 	 7c 	 57%
00:00Fri 	 7c 	 51%
01:00Fri 	 6c 	 48%
02:00Fri 	 6c 	 40%
03:00Fri 	 6c 	 30%
04:00Fri 	 5c 	 31%
05:00Fri 	 5c 	 35%

# /home/pi/Documents/bbc-weather-predictions/data/Dec11Wed/bbcweather_Wednesday11thDecember_2019-12-11_1530.txt
# time 	 temp 	 rain
16:00Wed 	 5c 	 89%
17:00Wed 	 5c 	 24%
18:00Wed 	 5c 	 15%
19:00Wed 	 4c 	 8%
20:00Wed 	 4c 	 5%
21:00Wed 	 3c 	 2%
22:00Wed 	 3c 	 2%
23:00Wed 	 3c 	 3%
00:00Thu 	 3c 	 4%
01:00Thu 	 3c 	 5%
02:00Thu 	 3c 	 9%
03:00Thu 	 3c 	 14%
04:00Thu 	 3c 	 19%
05:00Thu 	 4c 	 23%
06:00Thu 	 4c 	 30%
07:00Thu 	 5c 	 44%
08:00Thu 	 5c 	 59%
09:00Thu 	 6c 	 67%
10:00Thu 	 7c 	 80%
11:00Thu 	 7c 	 92%
12:00Thu 	 8c 	 93%
13:00Thu 	 8c 	 91%
14:00Thu 	 9c 	 90%
15:00Thu 	 9c 	 86%
16:00Thu 	 9c 	 73%
17:00Thu 	 8c 	 58%
18:00Thu 	 8c 	 49%
19:00Thu 	 8c 	 53%
20:00Thu 	 8c 	 60%
21:00Thu 	 7c 	 63%
22:00Thu 	 7c 	 62%
23:00Thu 	 7c 	 57%
00:00Fri 	 7c 	 51%
01:00Fri 	 6c 	 48%
02:00Fri 	 6c 	 40%
03:00Fri 	 6c 	 30%
04:00Fri 	 5c 	 31%
05:00Fri 	 5c 	 35%

# /home/pi/Documents/bbc-weather-predictions/data/Dec11Wed/bbcweather_Wednesday11thDecember_2019-12-11_1545.txt
# time 	 temp 	 rain
16:00Wed 	 5c 	 96%
17:00Wed 	 5c 	 13%
18:00Wed 	 5c 	 46%
19:00Wed 	 4c 	 9%
20:00Wed 	 4c 	 5%
21:00Wed 	 3c 	 2%
22:00Wed 	 3c 	 2%
23:00Wed 	 3c 	 3%
00:00Thu 	 3c 	 4%
01:00Thu 	 3c 	 5%
02:00Thu 	 3c 	 9%
03:00Thu 	 3c 	 14%
04:00Thu 	 3c 	 19%
05:00Thu 	 4c 	 23%
06:00Thu 	 4c 	 30%
07:00Thu 	 5c 	 44%
08:00Thu 	 5c 	 59%
09:00Thu 	 6c 	 67%
10:00Thu 	 7c 	 80%
11:00Thu 	 7c 	 92%
12:00Thu 	 8c 	 93%
13:00Thu 	 8c 	 91%
14:00Thu 	 9c 	 90%
15:00Thu 	 9c 	 86%
16:00Thu 	 9c 	 73%
17:00Thu 	 8c 	 58%
18:00Thu 	 8c 	 49%
19:00Thu 	 8c 	 53%
20:00Thu 	 8c 	 60%
21:00Thu 	 7c 	 63%
22:00Thu 	 7c 	 62%
23:00Thu 	 7c 	 57%
00:00Fri 	 7c 	 51%
01:00Fri 	 6c 	 48%
02:00Fri 	 6c 	 40%
03:00Fri 	 6c 	 30%
04:00Fri 	 5c 	 31%
05:00Fri 	 5c 	 35%

# /home/pi/Documents/bbc-weather-predictions/data/Dec11Wed/bbcweather_Wednesday11thDecember_2019-12-11_1600.txt
# time 	 temp 	 rain
16:00Wed 	 5c 	 96%
17:00Wed 	 5c 	 13%
18:00Wed 	 5c 	 46%
19:00Wed 	 4c 	 9%
20:00Wed 	 4c 	 5%
21:00Wed 	 3c 	 2%
22:00Wed 	 3c 	 2%
23:00Wed 	 3c 	 3%
00:00Thu 	 3c 	 4%
01:00Thu 	 3c 	 5%
02:00Thu 	 3c 	 9%
03:00Thu 	 3c 	 14%
04:00Thu 	 3c 	 19%
05:00Thu 	 4c 	 23%
06:00Thu 	 4c 	 30%
07:00Thu 	 5c 	 44%
08:00Thu 	 5c 	 59%
09:00Thu 	 6c 	 67%
10:00Thu 	 7c 	 80%
11:00Thu 	 7c 	 92%
12:00Thu 	 8c 	 93%
13:00Thu 	 8c 	 91%
14:00Thu 	 9c 	 90%
15:00Thu 	 9c 	 86%
16:00Thu 	 9c 	 73%
17:00Thu 	 8c 	 58%
18:00Thu 	 8c 	 49%
19:00Thu 	 8c 	 53%
20:00Thu 	 8c 	 60%
21:00Thu 	 7c 	 63%
22:00Thu 	 7c 	 62%
23:00Thu 	 7c 	 57%
00:00Fri 	 7c 	 51%
01:00Fri 	 6c 	 48%
02:00Fri 	 6c 	 40%
03:00Fri 	 6c 	 30%
04:00Fri 	 5c 	 31%
05:00Fri 	 5c 	 35%

# /home/pi/Documents/bbc-weather-predictions/data/Dec11Wed/bbcweather_Wednesday11thDecember_2019-12-11_1615.txt
# time 	 temp 	 rain
17:00Wed 	 5c 	 13%
18:00Wed 	 5c 	 46%
19:00Wed 	 4c 	 9%
20:00Wed 	 4c 	 5%
21:00Wed 	 3c 	 2%
22:00Wed 	 3c 	 2%
23:00Wed 	 3c 	 3%
00:00Thu 	 3c 	 4%
01:00Thu 	 3c 	 5%
02:00Thu 	 3c 	 9%
03:00Thu 	 3c 	 14%
04:00Thu 	 3c 	 19%
05:00Thu 	 4c 	 23%
06:00Thu 	 4c 	 30%
07:00Thu 	 5c 	 44%
08:00Thu 	 5c 	 59%
09:00Thu 	 6c 	 67%
10:00Thu 	 7c 	 80%
11:00Thu 	 7c 	 92%
12:00Thu 	 8c 	 93%
13:00Thu 	 8c 	 91%
14:00Thu 	 9c 	 90%
15:00Thu 	 9c 	 86%
16:00Thu 	 9c 	 73%
17:00Thu 	 8c 	 58%
18:00Thu 	 8c 	 49%
19:00Thu 	 8c 	 53%
20:00Thu 	 8c 	 60%
21:00Thu 	 7c 	 63%
22:00Thu 	 7c 	 62%
23:00Thu 	 7c 	 57%
00:00Fri 	 7c 	 51%
01:00Fri 	 6c 	 48%
02:00Fri 	 6c 	 40%
03:00Fri 	 6c 	 30%
04:00Fri 	 5c 	 31%
05:00Fri 	 5c 	 35%

# /home/pi/Documents/bbc-weather-predictions/data/Dec11Wed/bbcweather_Wednesday11thDecember_2019-12-11_1630.txt
# time 	 temp 	 rain
17:00Wed 	 5c 	 13%
18:00Wed 	 5c 	 46%
19:00Wed 	 4c 	 9%
20:00Wed 	 4c 	 5%
21:00Wed 	 3c 	 2%
22:00Wed 	 3c 	 2%
23:00Wed 	 3c 	 3%
00:00Thu 	 3c 	 4%
01:00Thu 	 3c 	 5%
02:00Thu 	 3c 	 9%
03:00Thu 	 3c 	 14%
04:00Thu 	 3c 	 19%
05:00Thu 	 4c 	 23%
06:00Thu 	 4c 	 30%
07:00Thu 	 5c 	 44%
08:00Thu 	 5c 	 59%
09:00Thu 	 6c 	 67%
10:00Thu 	 7c 	 80%
11:00Thu 	 7c 	 92%
12:00Thu 	 8c 	 93%
13:00Thu 	 8c 	 91%
14:00Thu 	 9c 	 90%
15:00Thu 	 9c 	 86%
16:00Thu 	 9c 	 73%
17:00Thu 	 8c 	 58%
18:00Thu 	 8c 	 49%
19:00Thu 	 8c 	 53%
20:00Thu 	 8c 	 60%
21:00Thu 	 7c 	 63%
22:00Thu 	 7c 	 62%
23:00Thu 	 7c 	 57%
00:00Fri 	 7c 	 51%
01:00Fri 	 6c 	 48%
02:00Fri 	 6c 	 40%
03:00Fri 	 6c 	 30%
04:00Fri 	 5c 	 31%
05:00Fri 	 5c 	 35%

# /home/pi/Documents/bbc-weather-predictions/data/Dec11Wed/bbcweather_Wednesday11thDecember_2019-12-11_1645.txt
# time 	 temp 	 rain
17:00Wed 	 5c 	 4%
18:00Wed 	 5c 	 70%
19:00Wed 	 4c 	 9%
20:00Wed 	 4c 	 5%
21:00Wed 	 3c 	 2%
22:00Wed 	 3c 	 2%
23:00Wed 	 3c 	 3%
00:00Thu 	 3c 	 4%
01:00Thu 	 3c 	 5%
02:00Thu 	 3c 	 9%
03:00Thu 	 3c 	 14%
04:00Thu 	 3c 	 19%
05:00Thu 	 4c 	 23%
06:00Thu 	 4c 	 30%
07:00Thu 	 5c 	 44%
08:00Thu 	 5c 	 59%
09:00Thu 	 6c 	 67%
10:00Thu 	 7c 	 80%
11:00Thu 	 7c 	 92%
12:00Thu 	 8c 	 93%
13:00Thu 	 8c 	 91%
14:00Thu 	 9c 	 90%
15:00Thu 	 9c 	 86%
16:00Thu 	 9c 	 73%
17:00Thu 	 8c 	 58%
18:00Thu 	 8c 	 49%
19:00Thu 	 8c 	 53%
20:00Thu 	 8c 	 60%
21:00Thu 	 7c 	 63%
22:00Thu 	 7c 	 62%
23:00Thu 	 7c 	 57%
00:00Fri 	 7c 	 51%
01:00Fri 	 6c 	 48%
02:00Fri 	 6c 	 40%
03:00Fri 	 6c 	 30%
04:00Fri 	 5c 	 31%
05:00Fri 	 5c 	 35%

# /home/pi/Documents/bbc-weather-predictions/data/Dec11Wed/bbcweather_Wednesday11thDecember_2019-12-11_1700.txt
# time 	 temp 	 rain
17:00Wed 	 5c 	 4%
18:00Wed 	 5c 	 70%
19:00Wed 	 4c 	 9%
20:00Wed 	 4c 	 5%
21:00Wed 	 3c 	 2%
22:00Wed 	 3c 	 2%
23:00Wed 	 3c 	 3%
00:00Thu 	 3c 	 4%
01:00Thu 	 3c 	 5%
02:00Thu 	 3c 	 9%
03:00Thu 	 3c 	 14%
04:00Thu 	 3c 	 19%
05:00Thu 	 4c 	 23%
06:00Thu 	 4c 	 30%
07:00Thu 	 5c 	 44%
08:00Thu 	 5c 	 59%
09:00Thu 	 6c 	 67%
10:00Thu 	 7c 	 80%
11:00Thu 	 7c 	 92%
12:00Thu 	 8c 	 93%
13:00Thu 	 8c 	 91%
14:00Thu 	 9c 	 90%
15:00Thu 	 9c 	 86%
16:00Thu 	 9c 	 73%
17:00Thu 	 8c 	 58%
18:00Thu 	 8c 	 49%
19:00Thu 	 8c 	 53%
20:00Thu 	 8c 	 60%
21:00Thu 	 7c 	 63%
22:00Thu 	 7c 	 62%
23:00Thu 	 7c 	 57%
00:00Fri 	 7c 	 51%
01:00Fri 	 6c 	 48%
02:00Fri 	 6c 	 40%
03:00Fri 	 6c 	 30%
04:00Fri 	 5c 	 31%
05:00Fri 	 5c 	 35%

# /home/pi/Documents/bbc-weather-predictions/data/Dec11Wed/bbcweather_Wednesday11thDecember_2019-12-11_1715.txt
# time 	 temp 	 rain
18:00Wed 	 5c 	 70%
19:00Wed 	 4c 	 9%
20:00Wed 	 4c 	 5%
21:00Wed 	 3c 	 2%
22:00Wed 	 3c 	 2%
23:00Wed 	 3c 	 3%
00:00Thu 	 3c 	 4%
01:00Thu 	 3c 	 5%
02:00Thu 	 3c 	 9%
03:00Thu 	 3c 	 14%
04:00Thu 	 3c 	 19%
05:00Thu 	 4c 	 23%
06:00Thu 	 4c 	 30%
07:00Thu 	 5c 	 44%
08:00Thu 	 5c 	 59%
09:00Thu 	 6c 	 67%
10:00Thu 	 7c 	 80%
11:00Thu 	 7c 	 92%
12:00Thu 	 8c 	 93%
13:00Thu 	 8c 	 91%
14:00Thu 	 9c 	 90%
15:00Thu 	 9c 	 86%
16:00Thu 	 9c 	 73%
17:00Thu 	 8c 	 58%
18:00Thu 	 8c 	 49%
19:00Thu 	 8c 	 53%
20:00Thu 	 8c 	 60%
21:00Thu 	 7c 	 63%
22:00Thu 	 7c 	 62%
23:00Thu 	 7c 	 57%
00:00Fri 	 7c 	 51%
01:00Fri 	 6c 	 48%
02:00Fri 	 6c 	 40%
03:00Fri 	 6c 	 30%
04:00Fri 	 5c 	 31%
05:00Fri 	 5c 	 35%

# /home/pi/Documents/bbc-weather-predictions/data/Dec11Wed/bbcweather_Wednesday11thDecember_2019-12-11_1730.txt
# time 	 temp 	 rain
18:00Wed 	 5c 	 70%
19:00Wed 	 4c 	 9%
20:00Wed 	 4c 	 5%
21:00Wed 	 3c 	 2%
22:00Wed 	 3c 	 2%
23:00Wed 	 3c 	 3%
00:00Thu 	 3c 	 4%
01:00Thu 	 3c 	 5%
02:00Thu 	 3c 	 9%
03:00Thu 	 3c 	 14%
04:00Thu 	 3c 	 19%
05:00Thu 	 4c 	 23%
06:00Thu 	 4c 	 30%
07:00Thu 	 5c 	 44%
08:00Thu 	 5c 	 59%
09:00Thu 	 6c 	 67%
10:00Thu 	 7c 	 80%
11:00Thu 	 7c 	 92%
12:00Thu 	 8c 	 93%
13:00Thu 	 8c 	 91%
14:00Thu 	 9c 	 90%
15:00Thu 	 9c 	 86%
16:00Thu 	 9c 	 73%
17:00Thu 	 8c 	 58%
18:00Thu 	 8c 	 49%
19:00Thu 	 8c 	 53%
20:00Thu 	 8c 	 60%
21:00Thu 	 7c 	 63%
22:00Thu 	 7c 	 62%
23:00Thu 	 7c 	 57%
00:00Fri 	 7c 	 51%
01:00Fri 	 6c 	 48%
02:00Fri 	 6c 	 40%
03:00Fri 	 6c 	 30%
04:00Fri 	 5c 	 31%
05:00Fri 	 5c 	 35%

# /home/pi/Documents/bbc-weather-predictions/data/Dec11Wed/bbcweather_Wednesday11thDecember_2019-12-11_1745.txt
# time 	 temp 	 rain
18:00Wed 	 3c 	 4%
19:00Wed 	 4c 	 2%
20:00Wed 	 4c 	 43%
21:00Wed 	 3c 	 2%
22:00Wed 	 3c 	 2%
23:00Wed 	 3c 	 3%
00:00Thu 	 3c 	 4%
01:00Thu 	 3c 	 5%
02:00Thu 	 3c 	 9%
03:00Thu 	 3c 	 14%
04:00Thu 	 3c 	 19%
05:00Thu 	 4c 	 23%
06:00Thu 	 4c 	 30%
07:00Thu 	 5c 	 44%
08:00Thu 	 5c 	 59%
09:00Thu 	 6c 	 67%
10:00Thu 	 7c 	 80%
11:00Thu 	 7c 	 92%
12:00Thu 	 8c 	 93%
13:00Thu 	 8c 	 91%
14:00Thu 	 9c 	 90%
15:00Thu 	 9c 	 86%
16:00Thu 	 9c 	 73%
17:00Thu 	 8c 	 58%
18:00Thu 	 8c 	 49%
19:00Thu 	 8c 	 53%
20:00Thu 	 8c 	 60%
21:00Thu 	 7c 	 63%
22:00Thu 	 7c 	 62%
23:00Thu 	 7c 	 57%
00:00Fri 	 7c 	 51%
01:00Fri 	 6c 	 48%
02:00Fri 	 6c 	 40%
03:00Fri 	 6c 	 30%
04:00Fri 	 5c 	 31%
05:00Fri 	 5c 	 35%

# /home/pi/Documents/bbc-weather-predictions/data/Dec11Wed/bbcweather_Wednesday11thDecember_2019-12-11_1800.txt
# time 	 temp 	 rain
18:00Wed 	 3c 	 4%
19:00Wed 	 4c 	 2%
20:00Wed 	 4c 	 43%
21:00Wed 	 3c 	 2%
22:00Wed 	 3c 	 2%
23:00Wed 	 3c 	 3%
00:00Thu 	 3c 	 4%
01:00Thu 	 3c 	 5%
02:00Thu 	 3c 	 9%
03:00Thu 	 3c 	 14%
04:00Thu 	 3c 	 19%
05:00Thu 	 4c 	 23%
06:00Thu 	 4c 	 30%
07:00Thu 	 5c 	 44%
08:00Thu 	 5c 	 59%
09:00Thu 	 6c 	 67%
10:00Thu 	 7c 	 80%
11:00Thu 	 7c 	 92%
12:00Thu 	 8c 	 93%
13:00Thu 	 8c 	 91%
14:00Thu 	 9c 	 90%
15:00Thu 	 9c 	 86%
16:00Thu 	 9c 	 73%
17:00Thu 	 8c 	 58%
18:00Thu 	 8c 	 49%
19:00Thu 	 8c 	 53%
20:00Thu 	 8c 	 60%
21:00Thu 	 7c 	 63%
22:00Thu 	 7c 	 62%
23:00Thu 	 7c 	 57%
00:00Fri 	 7c 	 51%
01:00Fri 	 6c 	 48%
02:00Fri 	 6c 	 40%
03:00Fri 	 6c 	 30%
04:00Fri 	 5c 	 31%
05:00Fri 	 5c 	 35%

# /home/pi/Documents/bbc-weather-predictions/data/Dec11Wed/bbcweather_Wednesday11thDecember_2019-12-11_1815.txt
# time 	 temp 	 rain
19:00Wed 	 4c 	 2%
20:00Wed 	 4c 	 43%
21:00Wed 	 3c 	 2%
22:00Wed 	 3c 	 2%
23:00Wed 	 3c 	 3%
00:00Thu 	 3c 	 4%
01:00Thu 	 3c 	 5%
02:00Thu 	 3c 	 9%
03:00Thu 	 3c 	 14%
04:00Thu 	 3c 	 19%
05:00Thu 	 4c 	 23%
06:00Thu 	 4c 	 30%
07:00Thu 	 5c 	 44%
08:00Thu 	 5c 	 59%
09:00Thu 	 6c 	 67%
10:00Thu 	 7c 	 80%
11:00Thu 	 7c 	 92%
12:00Thu 	 8c 	 93%
13:00Thu 	 8c 	 91%
14:00Thu 	 9c 	 90%
15:00Thu 	 9c 	 86%
16:00Thu 	 9c 	 73%
17:00Thu 	 8c 	 58%
18:00Thu 	 8c 	 49%
19:00Thu 	 8c 	 53%
20:00Thu 	 8c 	 60%
21:00Thu 	 7c 	 63%
22:00Thu 	 7c 	 62%
23:00Thu 	 7c 	 57%
00:00Fri 	 7c 	 51%
01:00Fri 	 6c 	 48%
02:00Fri 	 6c 	 40%
03:00Fri 	 6c 	 30%
04:00Fri 	 5c 	 31%
05:00Fri 	 5c 	 35%

# /home/pi/Documents/bbc-weather-predictions/data/Dec11Wed/bbcweather_Wednesday11thDecember_2019-12-11_1830.txt
# time 	 temp 	 rain
19:00Wed 	 4c 	 2%
20:00Wed 	 4c 	 43%
21:00Wed 	 3c 	 2%
22:00Wed 	 3c 	 2%
23:00Wed 	 3c 	 3%
00:00Thu 	 3c 	 4%
01:00Thu 	 3c 	 5%
02:00Thu 	 3c 	 9%
03:00Thu 	 3c 	 14%
04:00Thu 	 3c 	 19%
05:00Thu 	 4c 	 23%
06:00Thu 	 4c 	 30%
07:00Thu 	 5c 	 44%
08:00Thu 	 5c 	 59%
09:00Thu 	 6c 	 67%
10:00Thu 	 7c 	 80%
11:00Thu 	 7c 	 92%
12:00Thu 	 8c 	 93%
13:00Thu 	 8c 	 91%
14:00Thu 	 9c 	 90%
15:00Thu 	 9c 	 86%
16:00Thu 	 9c 	 73%
17:00Thu 	 8c 	 58%
18:00Thu 	 8c 	 49%
19:00Thu 	 8c 	 53%
20:00Thu 	 8c 	 60%
21:00Thu 	 7c 	 63%
22:00Thu 	 7c 	 62%
23:00Thu 	 7c 	 57%
00:00Fri 	 7c 	 51%
01:00Fri 	 6c 	 48%
02:00Fri 	 6c 	 40%
03:00Fri 	 6c 	 30%
04:00Fri 	 5c 	 31%
05:00Fri 	 5c 	 35%

# /home/pi/Documents/bbc-weather-predictions/data/Dec11Wed/bbcweather_Wednesday11thDecember_2019-12-11_1845.txt
# time 	 temp 	 rain
19:00Wed 	 4c 	 2%
20:00Wed 	 4c 	 43%
21:00Wed 	 3c 	 2%
22:00Wed 	 3c 	 2%
23:00Wed 	 3c 	 3%
00:00Thu 	 3c 	 4%
01:00Thu 	 3c 	 5%
02:00Thu 	 3c 	 9%
03:00Thu 	 3c 	 14%
04:00Thu 	 3c 	 19%
05:00Thu 	 4c 	 23%
06:00Thu 	 4c 	 30%
07:00Thu 	 5c 	 44%
08:00Thu 	 5c 	 59%
09:00Thu 	 6c 	 67%
10:00Thu 	 7c 	 80%
11:00Thu 	 7c 	 92%
12:00Thu 	 8c 	 93%
13:00Thu 	 8c 	 91%
14:00Thu 	 9c 	 90%
15:00Thu 	 9c 	 86%
16:00Thu 	 9c 	 73%
17:00Thu 	 8c 	 58%
18:00Thu 	 8c 	 49%
19:00Thu 	 8c 	 53%
20:00Thu 	 8c 	 60%
21:00Thu 	 7c 	 63%
22:00Thu 	 7c 	 62%
23:00Thu 	 7c 	 57%
00:00Fri 	 7c 	 51%
01:00Fri 	 6c 	 48%
02:00Fri 	 6c 	 40%
03:00Fri 	 6c 	 30%
04:00Fri 	 5c 	 31%
05:00Fri 	 5c 	 35%

# /home/pi/Documents/bbc-weather-predictions/data/Dec11Wed/bbcweather_Wednesday11thDecember_2019-12-11_1900.txt
# time 	 temp 	 rain
19:00Wed 	 3c 	 0%
20:00Wed 	 3c 	 14%
21:00Wed 	 3c 	 1%
22:00Wed 	 3c 	 2%
23:00Wed 	 3c 	 3%
00:00Thu 	 3c 	 4%
01:00Thu 	 3c 	 5%
02:00Thu 	 3c 	 9%
03:00Thu 	 3c 	 14%
04:00Thu 	 3c 	 19%
05:00Thu 	 4c 	 23%
06:00Thu 	 4c 	 30%
07:00Thu 	 5c 	 44%
08:00Thu 	 5c 	 59%
09:00Thu 	 6c 	 67%
10:00Thu 	 7c 	 80%
11:00Thu 	 7c 	 92%
12:00Thu 	 8c 	 93%
13:00Thu 	 8c 	 91%
14:00Thu 	 9c 	 90%
15:00Thu 	 9c 	 86%
16:00Thu 	 9c 	 73%
17:00Thu 	 8c 	 58%
18:00Thu 	 8c 	 49%
19:00Thu 	 8c 	 53%
20:00Thu 	 8c 	 60%
21:00Thu 	 7c 	 63%
22:00Thu 	 7c 	 62%
23:00Thu 	 7c 	 57%
00:00Fri 	 7c 	 51%
01:00Fri 	 6c 	 48%
02:00Fri 	 6c 	 40%
03:00Fri 	 6c 	 30%
04:00Fri 	 5c 	 31%
05:00Fri 	 5c 	 35%

# /home/pi/Documents/bbc-weather-predictions/data/Dec11Wed/bbcweather_Wednesday11thDecember_2019-12-11_1915.txt
# time 	 temp 	 rain
20:00Wed 	 3c 	 14%
21:00Wed 	 3c 	 1%
22:00Wed 	 3c 	 2%
23:00Wed 	 3c 	 3%
00:00Thu 	 3c 	 4%
01:00Thu 	 3c 	 5%
02:00Thu 	 3c 	 9%
03:00Thu 	 3c 	 14%
04:00Thu 	 3c 	 19%
05:00Thu 	 4c 	 23%
06:00Thu 	 4c 	 30%
07:00Thu 	 5c 	 44%
08:00Thu 	 5c 	 59%
09:00Thu 	 6c 	 67%
10:00Thu 	 7c 	 80%
11:00Thu 	 7c 	 92%
12:00Thu 	 8c 	 93%
13:00Thu 	 8c 	 91%
14:00Thu 	 9c 	 90%
15:00Thu 	 9c 	 86%
16:00Thu 	 9c 	 73%
17:00Thu 	 8c 	 58%
18:00Thu 	 8c 	 49%
19:00Thu 	 8c 	 53%
20:00Thu 	 8c 	 60%
21:00Thu 	 7c 	 63%
22:00Thu 	 7c 	 62%
23:00Thu 	 7c 	 57%
00:00Fri 	 7c 	 51%
01:00Fri 	 6c 	 48%
02:00Fri 	 6c 	 40%
03:00Fri 	 6c 	 30%
04:00Fri 	 5c 	 31%
05:00Fri 	 5c 	 35%

# /home/pi/Documents/bbc-weather-predictions/data/Dec11Wed/bbcweather_Wednesday11thDecember_2019-12-11_1930.txt
# time 	 temp 	 rain
20:00Wed 	 3c 	 14%
21:00Wed 	 3c 	 1%
22:00Wed 	 3c 	 2%
23:00Wed 	 3c 	 3%
00:00Thu 	 3c 	 4%
01:00Thu 	 3c 	 5%
02:00Thu 	 3c 	 9%
03:00Thu 	 3c 	 14%
04:00Thu 	 3c 	 19%
05:00Thu 	 4c 	 23%
06:00Thu 	 4c 	 30%
07:00Thu 	 5c 	 44%
08:00Thu 	 5c 	 59%
09:00Thu 	 6c 	 67%
10:00Thu 	 7c 	 80%
11:00Thu 	 7c 	 92%
12:00Thu 	 8c 	 93%
13:00Thu 	 8c 	 91%
14:00Thu 	 9c 	 90%
15:00Thu 	 9c 	 86%
16:00Thu 	 9c 	 73%
17:00Thu 	 8c 	 58%
18:00Thu 	 8c 	 49%
19:00Thu 	 8c 	 53%
20:00Thu 	 8c 	 60%
21:00Thu 	 7c 	 63%
22:00Thu 	 7c 	 62%
23:00Thu 	 7c 	 57%
00:00Fri 	 7c 	 51%
01:00Fri 	 6c 	 48%
02:00Fri 	 6c 	 40%
03:00Fri 	 6c 	 30%
04:00Fri 	 5c 	 31%
05:00Fri 	 5c 	 35%

# /home/pi/Documents/bbc-weather-predictions/data/Dec11Wed/bbcweather_Wednesday11thDecember_2019-12-11_1945.txt
# time 	 temp 	 rain
20:00Wed 	 3c 	 0%
21:00Wed 	 3c 	 0%
22:00Wed 	 3c 	 13%
23:00Wed 	 3c 	 3%
00:00Thu 	 3c 	 4%
01:00Thu 	 3c 	 5%
02:00Thu 	 3c 	 9%
03:00Thu 	 3c 	 14%
04:00Thu 	 3c 	 19%
05:00Thu 	 4c 	 23%
06:00Thu 	 4c 	 30%
07:00Thu 	 5c 	 44%
08:00Thu 	 5c 	 59%
09:00Thu 	 6c 	 67%
10:00Thu 	 7c 	 80%
11:00Thu 	 7c 	 92%
12:00Thu 	 8c 	 93%
13:00Thu 	 8c 	 91%
14:00Thu 	 9c 	 90%
15:00Thu 	 9c 	 86%
16:00Thu 	 9c 	 73%
17:00Thu 	 8c 	 58%
18:00Thu 	 8c 	 49%
19:00Thu 	 8c 	 53%
20:00Thu 	 8c 	 60%
21:00Thu 	 7c 	 63%
22:00Thu 	 7c 	 62%
23:00Thu 	 7c 	 57%
00:00Fri 	 7c 	 51%
01:00Fri 	 6c 	 48%
02:00Fri 	 6c 	 40%
03:00Fri 	 6c 	 30%
04:00Fri 	 5c 	 31%
05:00Fri 	 5c 	 35%

# /home/pi/Documents/bbc-weather-predictions/data/Dec11Wed/bbcweather_Wednesday11thDecember_2019-12-11_2000.txt
# time 	 temp 	 rain
20:00Wed 	 3c 	 0%
21:00Wed 	 3c 	 0%
22:00Wed 	 3c 	 13%
23:00Wed 	 3c 	 3%
00:00Thu 	 3c 	 4%
01:00Thu 	 3c 	 5%
02:00Thu 	 3c 	 9%
03:00Thu 	 3c 	 14%
04:00Thu 	 3c 	 19%
05:00Thu 	 4c 	 23%
06:00Thu 	 4c 	 30%
07:00Thu 	 5c 	 44%
08:00Thu 	 5c 	 59%
09:00Thu 	 6c 	 67%
10:00Thu 	 7c 	 80%
11:00Thu 	 7c 	 92%
12:00Thu 	 8c 	 93%
13:00Thu 	 8c 	 91%
14:00Thu 	 9c 	 90%
15:00Thu 	 9c 	 86%
16:00Thu 	 9c 	 73%
17:00Thu 	 8c 	 58%
18:00Thu 	 8c 	 49%
19:00Thu 	 8c 	 53%
20:00Thu 	 8c 	 60%
21:00Thu 	 7c 	 63%
22:00Thu 	 7c 	 62%
23:00Thu 	 7c 	 57%
00:00Fri 	 7c 	 51%
01:00Fri 	 6c 	 48%
02:00Fri 	 6c 	 40%
03:00Fri 	 6c 	 30%
04:00Fri 	 5c 	 31%
05:00Fri 	 5c 	 35%

# /home/pi/Documents/bbc-weather-predictions/data/Dec11Wed/bbcweather_Wednesday11thDecember_2019-12-11_2015.txt
# time 	 temp 	 rain
21:00Wed 	 3c 	 0%
22:00Wed 	 3c 	 13%
23:00Wed 	 3c 	 3%
00:00Thu 	 3c 	 4%
01:00Thu 	 3c 	 5%
02:00Thu 	 3c 	 9%
03:00Thu 	 3c 	 14%
04:00Thu 	 3c 	 19%
05:00Thu 	 4c 	 23%
06:00Thu 	 4c 	 30%
07:00Thu 	 5c 	 44%
08:00Thu 	 5c 	 59%
09:00Thu 	 6c 	 67%
10:00Thu 	 7c 	 80%
11:00Thu 	 7c 	 92%
12:00Thu 	 8c 	 93%
13:00Thu 	 8c 	 91%
14:00Thu 	 9c 	 90%
15:00Thu 	 9c 	 86%
16:00Thu 	 9c 	 73%
17:00Thu 	 8c 	 58%
18:00Thu 	 8c 	 49%
19:00Thu 	 8c 	 53%
20:00Thu 	 8c 	 60%
21:00Thu 	 7c 	 63%
22:00Thu 	 7c 	 62%
23:00Thu 	 7c 	 57%
00:00Fri 	 7c 	 51%
01:00Fri 	 6c 	 48%
02:00Fri 	 6c 	 40%
03:00Fri 	 6c 	 30%
04:00Fri 	 5c 	 31%
05:00Fri 	 5c 	 35%

# /home/pi/Documents/bbc-weather-predictions/data/Dec11Wed/bbcweather_Wednesday11thDecember_2019-12-11_2030.txt
# time 	 temp 	 rain
21:00Wed 	 3c 	 0%
22:00Wed 	 3c 	 13%
23:00Wed 	 3c 	 3%
00:00Thu 	 3c 	 4%
01:00Thu 	 3c 	 5%
02:00Thu 	 3c 	 9%
03:00Thu 	 3c 	 14%
04:00Thu 	 3c 	 19%
05:00Thu 	 4c 	 23%
06:00Thu 	 4c 	 30%
07:00Thu 	 5c 	 44%
08:00Thu 	 5c 	 59%
09:00Thu 	 6c 	 67%
10:00Thu 	 7c 	 80%
11:00Thu 	 7c 	 92%
12:00Thu 	 8c 	 93%
13:00Thu 	 8c 	 91%
14:00Thu 	 9c 	 90%
15:00Thu 	 9c 	 86%
16:00Thu 	 9c 	 73%
17:00Thu 	 8c 	 58%
18:00Thu 	 8c 	 49%
19:00Thu 	 8c 	 53%
20:00Thu 	 8c 	 60%
21:00Thu 	 7c 	 63%
22:00Thu 	 7c 	 62%
23:00Thu 	 7c 	 57%
00:00Fri 	 7c 	 51%
01:00Fri 	 6c 	 48%
02:00Fri 	 6c 	 40%
03:00Fri 	 6c 	 30%
04:00Fri 	 5c 	 31%
05:00Fri 	 5c 	 35%

# /home/pi/Documents/bbc-weather-predictions/data/Dec11Wed/bbcweather_Wednesday11thDecember_2019-12-11_2045.txt
# time 	 temp 	 rain
21:00Wed 	 3c 	 0%
22:00Wed 	 3c 	 1%
23:00Wed 	 3c 	 1%
00:00Thu 	 3c 	 4%
01:00Thu 	 3c 	 5%
02:00Thu 	 3c 	 9%
03:00Thu 	 3c 	 14%
04:00Thu 	 3c 	 19%
05:00Thu 	 4c 	 23%
06:00Thu 	 4c 	 30%
07:00Thu 	 5c 	 44%
08:00Thu 	 5c 	 59%
09:00Thu 	 6c 	 67%
10:00Thu 	 7c 	 80%
11:00Thu 	 7c 	 92%
12:00Thu 	 8c 	 93%
13:00Thu 	 8c 	 91%
14:00Thu 	 9c 	 90%
15:00Thu 	 9c 	 86%
16:00Thu 	 9c 	 73%
17:00Thu 	 8c 	 58%
18:00Thu 	 8c 	 49%
19:00Thu 	 8c 	 55%
20:00Thu 	 8c 	 57%
21:00Thu 	 8c 	 54%
22:00Thu 	 7c 	 59%
23:00Thu 	 7c 	 59%
00:00Fri 	 7c 	 52%
01:00Fri 	 6c 	 49%
02:00Fri 	 6c 	 39%
03:00Fri 	 6c 	 27%
04:00Fri 	 6c 	 28%
05:00Fri 	 6c 	 33%

# /home/pi/Documents/bbc-weather-predictions/data/Dec11Wed/bbcweather_Wednesday11thDecember_2019-12-11_2100.txt
# time 	 temp 	 rain
21:00Wed 	 3c 	 0%
22:00Wed 	 3c 	 1%
23:00Wed 	 3c 	 1%
00:00Thu 	 3c 	 4%
01:00Thu 	 3c 	 5%
02:00Thu 	 3c 	 9%
03:00Thu 	 3c 	 14%
04:00Thu 	 3c 	 19%
05:00Thu 	 4c 	 23%
06:00Thu 	 4c 	 30%
07:00Thu 	 5c 	 44%
08:00Thu 	 5c 	 59%
09:00Thu 	 6c 	 67%
10:00Thu 	 7c 	 80%
11:00Thu 	 7c 	 92%
12:00Thu 	 8c 	 93%
13:00Thu 	 8c 	 91%
14:00Thu 	 9c 	 90%
15:00Thu 	 9c 	 86%
16:00Thu 	 9c 	 73%
17:00Thu 	 8c 	 58%
18:00Thu 	 8c 	 49%
19:00Thu 	 8c 	 55%
20:00Thu 	 8c 	 57%
21:00Thu 	 8c 	 54%
22:00Thu 	 7c 	 59%
23:00Thu 	 7c 	 59%
00:00Fri 	 7c 	 52%
01:00Fri 	 6c 	 49%
02:00Fri 	 6c 	 39%
03:00Fri 	 6c 	 27%
04:00Fri 	 6c 	 28%
05:00Fri 	 6c 	 33%

# /home/pi/Documents/bbc-weather-predictions/data/Dec11Wed/bbcweather_Wednesday11thDecember_2019-12-11_2115.txt
# time 	 temp 	 rain
22:00Wed 	 3c 	 1%
23:00Wed 	 3c 	 1%
00:00Thu 	 3c 	 4%
01:00Thu 	 3c 	 5%
02:00Thu 	 3c 	 9%
03:00Thu 	 3c 	 14%
04:00Thu 	 3c 	 19%
05:00Thu 	 4c 	 23%
06:00Thu 	 4c 	 30%
07:00Thu 	 5c 	 44%
08:00Thu 	 5c 	 59%
09:00Thu 	 6c 	 67%
10:00Thu 	 7c 	 80%
11:00Thu 	 7c 	 92%
12:00Thu 	 8c 	 93%
13:00Thu 	 8c 	 91%
14:00Thu 	 9c 	 90%
15:00Thu 	 9c 	 86%
16:00Thu 	 9c 	 73%
17:00Thu 	 8c 	 58%
18:00Thu 	 8c 	 49%
19:00Thu 	 8c 	 55%
20:00Thu 	 8c 	 57%
21:00Thu 	 8c 	 54%
22:00Thu 	 7c 	 59%
23:00Thu 	 7c 	 59%
00:00Fri 	 7c 	 52%
01:00Fri 	 6c 	 49%
02:00Fri 	 6c 	 39%
03:00Fri 	 6c 	 27%
04:00Fri 	 6c 	 28%
05:00Fri 	 6c 	 33%

# /home/pi/Documents/bbc-weather-predictions/data/Dec11Wed/bbcweather_Wednesday11thDecember_2019-12-11_2130.txt
# time 	 temp 	 rain
22:00Wed 	 3c 	 1%
23:00Wed 	 3c 	 1%
00:00Thu 	 3c 	 4%
01:00Thu 	 3c 	 5%
02:00Thu 	 3c 	 9%
03:00Thu 	 3c 	 14%
04:00Thu 	 3c 	 19%
05:00Thu 	 4c 	 23%
06:00Thu 	 4c 	 30%
07:00Thu 	 5c 	 44%
08:00Thu 	 5c 	 59%
09:00Thu 	 6c 	 67%
10:00Thu 	 7c 	 80%
11:00Thu 	 7c 	 92%
12:00Thu 	 8c 	 93%
13:00Thu 	 8c 	 91%
14:00Thu 	 9c 	 90%
15:00Thu 	 9c 	 86%
16:00Thu 	 9c 	 73%
17:00Thu 	 8c 	 58%
18:00Thu 	 8c 	 49%
19:00Thu 	 8c 	 55%
20:00Thu 	 8c 	 57%
21:00Thu 	 8c 	 54%
22:00Thu 	 7c 	 59%
23:00Thu 	 7c 	 59%
00:00Fri 	 7c 	 52%
01:00Fri 	 6c 	 49%
02:00Fri 	 6c 	 39%
03:00Fri 	 6c 	 27%
04:00Fri 	 6c 	 28%
05:00Fri 	 6c 	 33%

# /home/pi/Documents/bbc-weather-predictions/data/Dec11Wed/bbcweather_Wednesday11thDecember_2019-12-11_2145.txt
# time 	 temp 	 rain
22:00Wed 	 3c 	 0%
23:00Wed 	 3c 	 0%
00:00Thu 	 3c 	 2%
01:00Thu 	 3c 	 5%
02:00Thu 	 3c 	 9%
03:00Thu 	 3c 	 14%
04:00Thu 	 3c 	 19%
05:00Thu 	 4c 	 23%
06:00Thu 	 4c 	 30%
07:00Thu 	 5c 	 44%
08:00Thu 	 5c 	 59%
09:00Thu 	 6c 	 67%
10:00Thu 	 7c 	 80%
11:00Thu 	 7c 	 92%
12:00Thu 	 8c 	 93%
13:00Thu 	 8c 	 91%
14:00Thu 	 9c 	 90%
15:00Thu 	 9c 	 86%
16:00Thu 	 9c 	 73%
17:00Thu 	 8c 	 58%
18:00Thu 	 8c 	 49%
19:00Thu 	 8c 	 55%
20:00Thu 	 8c 	 57%
21:00Thu 	 8c 	 54%
22:00Thu 	 7c 	 59%
23:00Thu 	 7c 	 59%
00:00Fri 	 7c 	 52%
01:00Fri 	 6c 	 49%
02:00Fri 	 6c 	 39%
03:00Fri 	 6c 	 27%
04:00Fri 	 6c 	 28%
05:00Fri 	 6c 	 33%

# /home/pi/Documents/bbc-weather-predictions/data/Dec11Wed/bbcweather_Wednesday11thDecember_2019-12-11_2200.txt
# time 	 temp 	 rain
22:00Wed 	 3c 	 0%
23:00Wed 	 3c 	 0%
00:00Thu 	 3c 	 2%
01:00Thu 	 3c 	 5%
02:00Thu 	 3c 	 9%
03:00Thu 	 3c 	 14%
04:00Thu 	 3c 	 19%
05:00Thu 	 4c 	 23%
06:00Thu 	 4c 	 30%
07:00Thu 	 5c 	 44%
08:00Thu 	 5c 	 59%
09:00Thu 	 6c 	 67%
10:00Thu 	 7c 	 80%
11:00Thu 	 7c 	 92%
12:00Thu 	 8c 	 93%
13:00Thu 	 8c 	 91%
14:00Thu 	 9c 	 90%
15:00Thu 	 9c 	 86%
16:00Thu 	 9c 	 73%
17:00Thu 	 8c 	 58%
18:00Thu 	 8c 	 49%
19:00Thu 	 8c 	 55%
20:00Thu 	 8c 	 57%
21:00Thu 	 8c 	 54%
22:00Thu 	 7c 	 59%
23:00Thu 	 7c 	 59%
00:00Fri 	 7c 	 52%
01:00Fri 	 6c 	 49%
02:00Fri 	 6c 	 39%
03:00Fri 	 6c 	 27%
04:00Fri 	 6c 	 28%
05:00Fri 	 6c 	 33%

# /home/pi/Documents/bbc-weather-predictions/data/Dec11Wed/bbcweather_Wednesday11thDecember_2019-12-11_2215.txt
# time 	 temp 	 rain
23:00Wed 	 3c 	 0%
00:00Thu 	 3c 	 2%
01:00Thu 	 3c 	 5%
02:00Thu 	 3c 	 9%
03:00Thu 	 3c 	 14%
04:00Thu 	 3c 	 19%
05:00Thu 	 4c 	 23%
06:00Thu 	 4c 	 30%
07:00Thu 	 5c 	 44%
08:00Thu 	 5c 	 59%
09:00Thu 	 6c 	 67%
10:00Thu 	 7c 	 80%
11:00Thu 	 7c 	 92%
12:00Thu 	 8c 	 93%
13:00Thu 	 8c 	 91%
14:00Thu 	 9c 	 90%
15:00Thu 	 9c 	 86%
16:00Thu 	 9c 	 73%
17:00Thu 	 8c 	 58%
18:00Thu 	 8c 	 49%
19:00Thu 	 8c 	 55%
20:00Thu 	 8c 	 57%
21:00Thu 	 8c 	 54%
22:00Thu 	 7c 	 59%
23:00Thu 	 7c 	 59%
00:00Fri 	 7c 	 52%
01:00Fri 	 6c 	 49%
02:00Fri 	 6c 	 39%
03:00Fri 	 6c 	 27%
04:00Fri 	 6c 	 28%
05:00Fri 	 6c 	 33%

# /home/pi/Documents/bbc-weather-predictions/data/Dec11Wed/bbcweather_Wednesday11thDecember_2019-12-11_2230.txt
# time 	 temp 	 rain
23:00Wed 	 3c 	 0%
00:00Thu 	 3c 	 2%
01:00Thu 	 3c 	 5%
02:00Thu 	 3c 	 9%
03:00Thu 	 3c 	 14%
04:00Thu 	 3c 	 19%
05:00Thu 	 4c 	 23%
06:00Thu 	 4c 	 30%
07:00Thu 	 5c 	 44%
08:00Thu 	 5c 	 59%
09:00Thu 	 6c 	 67%
10:00Thu 	 7c 	 80%
11:00Thu 	 7c 	 92%
12:00Thu 	 8c 	 93%
13:00Thu 	 8c 	 91%
14:00Thu 	 9c 	 90%
15:00Thu 	 9c 	 86%
16:00Thu 	 9c 	 73%
17:00Thu 	 8c 	 58%
18:00Thu 	 8c 	 49%
19:00Thu 	 8c 	 55%
20:00Thu 	 8c 	 57%
21:00Thu 	 8c 	 54%
22:00Thu 	 7c 	 59%
23:00Thu 	 7c 	 59%
00:00Fri 	 7c 	 52%
01:00Fri 	 6c 	 49%
02:00Fri 	 6c 	 39%
03:00Fri 	 6c 	 27%
04:00Fri 	 6c 	 28%
05:00Fri 	 6c 	 33%

# /home/pi/Documents/bbc-weather-predictions/data/Dec11Wed/bbcweather_Wednesday11thDecember_2019-12-11_2245.txt
# time 	 temp 	 rain
23:00Wed 	 3c 	 0%
00:00Thu 	 3c 	 0%
01:00Thu 	 3c 	 3%
02:00Thu 	 4c 	 9%
03:00Thu 	 4c 	 14%
04:00Thu 	 3c 	 19%
05:00Thu 	 4c 	 23%
06:00Thu 	 4c 	 30%
07:00Thu 	 5c 	 44%
08:00Thu 	 5c 	 59%
09:00Thu 	 6c 	 67%
10:00Thu 	 7c 	 80%
11:00Thu 	 7c 	 92%
12:00Thu 	 8c 	 93%
13:00Thu 	 8c 	 91%
14:00Thu 	 9c 	 90%
15:00Thu 	 9c 	 86%
16:00Thu 	 9c 	 73%
17:00Thu 	 8c 	 58%
18:00Thu 	 8c 	 49%
19:00Thu 	 8c 	 54%
20:00Thu 	 8c 	 51%
21:00Thu 	 8c 	 48%
22:00Thu 	 7c 	 61%
23:00Thu 	 7c 	 70%
00:00Fri 	 7c 	 68%
01:00Fri 	 6c 	 64%
02:00Fri 	 6c 	 48%
03:00Fri 	 6c 	 31%
04:00Fri 	 6c 	 29%
05:00Fri 	 6c 	 31%

# /home/pi/Documents/bbc-weather-predictions/data/Dec11Wed/bbcweather_Wednesday11thDecember_2019-12-11_2300.txt
# time 	 temp 	 rain
23:00Wed 	 3c 	 0%
00:00Thu 	 3c 	 0%
01:00Thu 	 3c 	 3%
02:00Thu 	 4c 	 9%
03:00Thu 	 4c 	 14%
04:00Thu 	 3c 	 19%
05:00Thu 	 4c 	 23%
06:00Thu 	 4c 	 30%
07:00Thu 	 5c 	 44%
08:00Thu 	 5c 	 59%
09:00Thu 	 6c 	 67%
10:00Thu 	 7c 	 80%
11:00Thu 	 7c 	 92%
12:00Thu 	 8c 	 93%
13:00Thu 	 8c 	 91%
14:00Thu 	 9c 	 90%
15:00Thu 	 9c 	 86%
16:00Thu 	 9c 	 73%
17:00Thu 	 8c 	 58%
18:00Thu 	 8c 	 49%
19:00Thu 	 8c 	 54%
20:00Thu 	 8c 	 51%
21:00Thu 	 8c 	 48%
22:00Thu 	 7c 	 61%
23:00Thu 	 7c 	 70%
00:00Fri 	 7c 	 68%
01:00Fri 	 6c 	 64%
02:00Fri 	 6c 	 48%
03:00Fri 	 6c 	 31%
04:00Fri 	 6c 	 29%
05:00Fri 	 6c 	 31%

# /home/pi/Documents/bbc-weather-predictions/data/Dec11Wed/bbcweather_Wednesday11thDecember_2019-12-11_2315.txt
# time 	 temp 	 rain
00:00Thu 	 3c 	 0%
01:00Thu 	 3c 	 3%
02:00Thu 	 4c 	 9%
03:00Thu 	 4c 	 14%
04:00Thu 	 3c 	 19%
05:00Thu 	 4c 	 23%
06:00Thu 	 4c 	 30%
07:00Thu 	 5c 	 44%
08:00Thu 	 5c 	 59%
09:00Thu 	 6c 	 67%
10:00Thu 	 7c 	 80%
11:00Thu 	 7c 	 92%
12:00Thu 	 8c 	 93%
13:00Thu 	 8c 	 91%
14:00Thu 	 9c 	 90%
15:00Thu 	 9c 	 86%
16:00Thu 	 9c 	 73%
17:00Thu 	 8c 	 58%
18:00Thu 	 8c 	 49%
19:00Thu 	 8c 	 54%
20:00Thu 	 8c 	 51%
21:00Thu 	 8c 	 48%
22:00Thu 	 7c 	 61%
23:00Thu 	 7c 	 70%
00:00Fri 	 7c 	 68%
01:00Fri 	 6c 	 64%
02:00Fri 	 6c 	 48%
03:00Fri 	 6c 	 31%
04:00Fri 	 6c 	 29%
05:00Fri 	 6c 	 31%

# /home/pi/Documents/bbc-weather-predictions/data/Dec11Wed/bbcweather_Wednesday11thDecember_2019-12-11_2330.txt
# time 	 temp 	 rain
00:00Thu 	 3c 	 0%
01:00Thu 	 3c 	 3%
02:00Thu 	 4c 	 9%
03:00Thu 	 4c 	 14%
04:00Thu 	 3c 	 19%
05:00Thu 	 4c 	 23%
06:00Thu 	 4c 	 30%
07:00Thu 	 5c 	 44%
08:00Thu 	 5c 	 59%
09:00Thu 	 6c 	 67%
10:00Thu 	 7c 	 80%
11:00Thu 	 7c 	 92%
12:00Thu 	 8c 	 93%
13:00Thu 	 8c 	 91%
14:00Thu 	 9c 	 90%
15:00Thu 	 9c 	 86%
16:00Thu 	 9c 	 73%
17:00Thu 	 8c 	 58%
18:00Thu 	 8c 	 49%
19:00Thu 	 8c 	 54%
20:00Thu 	 8c 	 51%
21:00Thu 	 8c 	 48%
22:00Thu 	 7c 	 61%
23:00Thu 	 7c 	 70%
00:00Fri 	 7c 	 68%
01:00Fri 	 6c 	 64%
02:00Fri 	 6c 	 48%
03:00Fri 	 6c 	 31%
04:00Fri 	 6c 	 29%
05:00Fri 	 6c 	 31%

# /home/pi/Documents/bbc-weather-predictions/data/Dec11Wed/bbcweather_Wednesday11thDecember_2019-12-11_2345.txt
# time 	 temp 	 rain
00:00Thu 	 3c 	 4%
01:00Thu 	 4c 	 7%
02:00Thu 	 4c 	 26%
03:00Thu 	 4c 	 14%
04:00Thu 	 4c 	 19%
05:00Thu 	 4c 	 23%
06:00Thu 	 4c 	 30%
07:00Thu 	 5c 	 44%
08:00Thu 	 5c 	 59%
09:00Thu 	 6c 	 67%
10:00Thu 	 7c 	 80%
11:00Thu 	 7c 	 92%
12:00Thu 	 8c 	 93%
13:00Thu 	 8c 	 91%
14:00Thu 	 9c 	 90%
15:00Thu 	 9c 	 86%
16:00Thu 	 9c 	 73%
17:00Thu 	 8c 	 58%
18:00Thu 	 8c 	 49%
19:00Thu 	 8c 	 54%
20:00Thu 	 8c 	 51%
21:00Thu 	 8c 	 48%
22:00Thu 	 7c 	 61%
23:00Thu 	 7c 	 70%
00:00Fri 	 7c 	 68%
01:00Fri 	 6c 	 64%
02:00Fri 	 6c 	 48%
03:00Fri 	 6c 	 31%
04:00Fri 	 6c 	 29%
05:00Fri 	 6c 	 31%
