00:00Sun 	 14c 	 3%
01:00Sun 	 13c 	 4%
02:00Sun 	 13c 	 4%
03:00Sun 	 13c 	 5%
04:00Sun 	 13c 	 6%
05:00Sun 	 13c 	 6%
00:00Sun 	 14c 	 3%
01:00Sun 	 13c 	 4%
02:00Sun 	 13c 	 4%
03:00Sun 	 13c 	 5%
04:00Sun 	 13c 	 6%
05:00Sun 	 13c 	 6%
00:00Sun 	 14c 	 3%
01:00Sun 	 13c 	 4%
02:00Sun 	 13c 	 4%
03:00Sun 	 13c 	 5%
04:00Sun 	 13c 	 6%
05:00Sun 	 13c 	 6%
00:00Sun 	 14c 	 3%
01:00Sun 	 13c 	 4%
02:00Sun 	 13c 	 4%
03:00Sun 	 13c 	 5%
04:00Sun 	 13c 	 6%
05:00Sun 	 13c 	 6%
00:00Sun 	 14c 	 3%
01:00Sun 	 13c 	 4%
02:00Sun 	 13c 	 4%
03:00Sun 	 13c 	 5%
04:00Sun 	 13c 	 6%
05:00Sun 	 13c 	 6%
00:00Sun 	 14c 	 3%
01:00Sun 	 13c 	 4%
02:00Sun 	 13c 	 4%
03:00Sun 	 13c 	 5%
04:00Sun 	 13c 	 6%
05:00Sun 	 13c 	 6%
00:00Sun 	 14c 	 3%
01:00Sun 	 13c 	 4%
02:00Sun 	 13c 	 4%
03:00Sun 	 13c 	 5%
04:00Sun 	 13c 	 6%
05:00Sun 	 13c 	 6%
00:00Sun 	 14c 	 3%
01:00Sun 	 13c 	 4%
02:00Sun 	 13c 	 4%
03:00Sun 	 13c 	 5%
04:00Sun 	 13c 	 6%
05:00Sun 	 13c 	 6%
00:00Sun 	 14c 	 3%
01:00Sun 	 13c 	 4%
02:00Sun 	 13c 	 4%
03:00Sun 	 13c 	 5%
04:00Sun 	 13c 	 6%
05:00Sun 	 13c 	 6%
00:00Sun 	 14c 	 3%
01:00Sun 	 13c 	 4%
02:00Sun 	 13c 	 4%
03:00Sun 	 13c 	 5%
04:00Sun 	 13c 	 6%
05:00Sun 	 13c 	 6%
00:00Sun 	 14c 	 3%
01:00Sun 	 13c 	 4%
02:00Sun 	 13c 	 4%
03:00Sun 	 13c 	 5%
04:00Sun 	 13c 	 6%
05:00Sun 	 13c 	 6%
00:00Sun 	 14c 	 3%
01:00Sun 	 13c 	 4%
02:00Sun 	 13c 	 4%
03:00Sun 	 13c 	 5%
04:00Sun 	 13c 	 6%
05:00Sun 	 13c 	 6%
00:00Sun 	 14c 	 3%
01:00Sun 	 13c 	 4%
02:00Sun 	 13c 	 4%
03:00Sun 	 13c 	 5%
04:00Sun 	 13c 	 6%
05:00Sun 	 13c 	 6%
00:00Sun 	 14c 	 3%
01:00Sun 	 13c 	 4%
02:00Sun 	 13c 	 4%
03:00Sun 	 13c 	 5%
04:00Sun 	 13c 	 6%
05:00Sun 	 13c 	 6%
00:00Sun 	 14c 	 3%
01:00Sun 	 13c 	 4%
02:00Sun 	 13c 	 4%
03:00Sun 	 13c 	 5%
04:00Sun 	 13c 	 6%
05:00Sun 	 13c 	 6%
00:00Sun 	 14c 	 3%
01:00Sun 	 13c 	 4%
02:00Sun 	 13c 	 4%
03:00Sun 	 13c 	 5%
04:00Sun 	 13c 	 6%
05:00Sun 	 13c 	 6%
00:00Sun 	 14c 	 3%
01:00Sun 	 13c 	 4%
02:00Sun 	 13c 	 4%
03:00Sun 	 13c 	 5%
04:00Sun 	 13c 	 6%
05:00Sun 	 13c 	 6%
00:00Sun 	 14c 	 3%
01:00Sun 	 13c 	 4%
02:00Sun 	 13c 	 4%
03:00Sun 	 13c 	 5%
04:00Sun 	 13c 	 6%
05:00Sun 	 13c 	 6%
00:00Sun 	 14c 	 3%
01:00Sun 	 13c 	 4%
02:00Sun 	 13c 	 4%
03:00Sun 	 13c 	 5%
04:00Sun 	 13c 	 6%
05:00Sun 	 13c 	 6%
00:00Sun 	 14c 	 3%
01:00Sun 	 13c 	 4%
02:00Sun 	 13c 	 4%
03:00Sun 	 13c 	 5%
04:00Sun 	 13c 	 6%
05:00Sun 	 13c 	 6%
00:00Sun 	 14c 	 3%
01:00Sun 	 13c 	 4%
02:00Sun 	 13c 	 4%
03:00Sun 	 13c 	 5%
04:00Sun 	 13c 	 6%
05:00Sun 	 13c 	 6%
00:00Sun 	 14c 	 3%
01:00Sun 	 13c 	 4%
02:00Sun 	 13c 	 4%
03:00Sun 	 13c 	 5%
04:00Sun 	 13c 	 6%
05:00Sun 	 13c 	 6%
06:00Sun 	 14c 	 61%
07:00Sun 	 14c 	 15%
08:00Sun 	 14c 	 12%
09:00Sun 	 15c 	 9%
10:00Sun 	 16c 	 7%
11:00Sun 	 16c 	 7%
12:00Sun 	 17c 	 5%
13:00Sun 	 18c 	 3%
14:00Sun 	 18c 	 2%
15:00Sun 	 18c 	 3%
16:00Sun 	 18c 	 3%
17:00Sun 	 17c 	 4%
18:00Sun 	 17c 	 4%
19:00Sun 	 16c 	 3%
20:00Sun 	 15c 	 2%
21:00Sun 	 14c 	 2%
22:00Sun 	 14c 	 2%
23:00Sun 	 14c 	 2%


00:00Sun 	 14c 	 3%
01:00Sun 	 13c 	 4%
02:00Sun 	 13c 	 4%
03:00Sun 	 13c 	 5%
04:00Sun 	 13c 	 6%
05:00Sun 	 13c 	 6%
00:00Sun 	 14c 	 3%
01:00Sun 	 13c 	 4%
02:00Sun 	 13c 	 4%
03:00Sun 	 13c 	 5%
04:00Sun 	 13c 	 6%
05:00Sun 	 13c 	 6%
06:00Sun 	 13c 	 6%
07:00Sun 	 14c 	 6%
08:00Sun 	 15c 	 6%
09:00Sun 	 16c 	 6%
10:00Sun 	 17c 	 5%
11:00Sun 	 18c 	 5%
12:00Sun 	 19c 	 4%
13:00Sun 	 20c 	 3%
14:00Sun 	 21c 	 2%
15:00Sun 	 21c 	 2%
16:00Sun 	 21c 	 3%
17:00Sun 	 21c 	 4%
18:00Sun 	 21c 	 4%
19:00Sun 	 20c 	 2%
20:00Sun 	 19c 	 1%
21:00Sun 	 18c 	 1%
22:00Sun 	 17c 	 1%
23:00Sun 	 16c 	 1%


00:00Sun 	 14c 	 3%
01:00Sun 	 13c 	 4%
02:00Sun 	 13c 	 4%
03:00Sun 	 13c 	 5%
04:00Sun 	 13c 	 6%
05:00Sun 	 13c 	 6%
06:00Sun 	 13c 	 6%
07:00Sun 	 14c 	 6%
08:00Sun 	 15c 	 6%
09:00Sun 	 16c 	 6%
10:00Sun 	 17c 	 5%
11:00Sun 	 18c 	 5%
12:00Sun 	 19c 	 4%
13:00Sun 	 20c 	 3%
14:00Sun 	 21c 	 2%
15:00Sun 	 21c 	 2%
16:00Sun 	 21c 	 3%
17:00Sun 	 21c 	 4%
18:00Sun 	 21c 	 4%
19:00Sun 	 20c 	 2%
20:00Sun 	 19c 	 1%
21:00Sun 	 18c 	 1%
22:00Sun 	 17c 	 1%
23:00Sun 	 16c 	 1%


00:00Sun 	 14c 	 3%
01:00Sun 	 13c 	 4%
02:00Sun 	 13c 	 4%
03:00Sun 	 13c 	 5%
04:00Sun 	 13c 	 6%
05:00Sun 	 13c 	 6%
06:00Sun 	 13c 	 6%
07:00Sun 	 14c 	 6%
08:00Sun 	 15c 	 6%
09:00Sun 	 16c 	 6%
10:00Sun 	 17c 	 5%
11:00Sun 	 18c 	 5%
12:00Sun 	 19c 	 4%
13:00Sun 	 20c 	 3%
14:00Sun 	 21c 	 2%
15:00Sun 	 21c 	 2%
16:00Sun 	 21c 	 3%
17:00Sun 	 21c 	 4%
18:00Sun 	 21c 	 4%
19:00Sun 	 20c 	 2%
20:00Sun 	 19c 	 1%
21:00Sun 	 18c 	 1%
22:00Sun 	 17c 	 1%
23:00Sun 	 16c 	 1%


00:00Sun 	 14c 	 3%
01:00Sun 	 13c 	 4%
02:00Sun 	 13c 	 4%
03:00Sun 	 13c 	 5%
04:00Sun 	 13c 	 6%
05:00Sun 	 13c 	 6%
06:00Sun 	 13c 	 6%
07:00Sun 	 14c 	 6%
08:00Sun 	 15c 	 6%
09:00Sun 	 16c 	 6%
10:00Sun 	 17c 	 5%
11:00Sun 	 18c 	 5%
12:00Sun 	 19c 	 4%
13:00Sun 	 20c 	 3%
14:00Sun 	 21c 	 2%
15:00Sun 	 21c 	 2%
16:00Sun 	 21c 	 3%
17:00Sun 	 21c 	 4%
18:00Sun 	 21c 	 4%
19:00Sun 	 20c 	 2%
20:00Sun 	 19c 	 1%
21:00Sun 	 18c 	 1%
22:00Sun 	 17c 	 1%
23:00Sun 	 16c 	 1%


00:00Sun 	 14c 	 3%
01:00Sun 	 13c 	 4%
02:00Sun 	 13c 	 4%
03:00Sun 	 13c 	 5%
04:00Sun 	 13c 	 6%
05:00Sun 	 13c 	 6%
06:00Sun 	 13c 	 6%
07:00Sun 	 14c 	 6%
08:00Sun 	 15c 	 6%
09:00Sun 	 16c 	 6%
10:00Sun 	 17c 	 5%
11:00Sun 	 18c 	 5%
12:00Sun 	 19c 	 4%
13:00Sun 	 20c 	 3%
14:00Sun 	 21c 	 2%
15:00Sun 	 21c 	 2%
16:00Sun 	 21c 	 3%
17:00Sun 	 21c 	 4%
18:00Sun 	 21c 	 4%
19:00Sun 	 20c 	 2%
20:00Sun 	 19c 	 1%
21:00Sun 	 18c 	 1%
22:00Sun 	 17c 	 1%
23:00Sun 	 16c 	 1%


00:00Sun 	 14c 	 3%
01:00Sun 	 13c 	 4%
02:00Sun 	 13c 	 4%
03:00Sun 	 13c 	 5%
04:00Sun 	 13c 	 6%
05:00Sun 	 13c 	 6%
06:00Sun 	 13c 	 6%
07:00Sun 	 14c 	 6%
08:00Sun 	 15c 	 6%
09:00Sun 	 16c 	 6%
10:00Sun 	 17c 	 5%
11:00Sun 	 18c 	 5%
12:00Sun 	 19c 	 4%
13:00Sun 	 20c 	 3%
14:00Sun 	 21c 	 2%
15:00Sun 	 21c 	 2%
16:00Sun 	 21c 	 3%
17:00Sun 	 21c 	 4%
18:00Sun 	 21c 	 4%
19:00Sun 	 20c 	 2%
20:00Sun 	 19c 	 1%
21:00Sun 	 18c 	 1%
22:00Sun 	 17c 	 1%
23:00Sun 	 16c 	 1%


00:00Sun 	 14c 	 3%
01:00Sun 	 13c 	 4%
02:00Sun 	 13c 	 4%
03:00Sun 	 13c 	 5%
04:00Sun 	 13c 	 6%
05:00Sun 	 13c 	 6%
06:00Sun 	 13c 	 6%
07:00Sun 	 14c 	 6%
08:00Sun 	 15c 	 6%
09:00Sun 	 16c 	 6%
10:00Sun 	 17c 	 5%
11:00Sun 	 18c 	 5%
12:00Sun 	 19c 	 4%
13:00Sun 	 20c 	 3%
14:00Sun 	 21c 	 2%
15:00Sun 	 21c 	 2%
16:00Sun 	 21c 	 3%
17:00Sun 	 21c 	 4%
18:00Sun 	 21c 	 4%
19:00Sun 	 20c 	 2%
20:00Sun 	 19c 	 1%
21:00Sun 	 18c 	 1%
22:00Sun 	 17c 	 1%
23:00Sun 	 16c 	 1%


00:00Sun 	 14c 	 3%
01:00Sun 	 13c 	 4%
02:00Sun 	 13c 	 4%
03:00Sun 	 13c 	 5%
04:00Sun 	 13c 	 6%
05:00Sun 	 13c 	 6%
06:00Sun 	 13c 	 6%
07:00Sun 	 14c 	 6%
08:00Sun 	 15c 	 6%
09:00Sun 	 16c 	 6%
10:00Sun 	 17c 	 5%
11:00Sun 	 18c 	 5%
12:00Sun 	 19c 	 4%
13:00Sun 	 20c 	 3%
14:00Sun 	 21c 	 2%
15:00Sun 	 21c 	 2%
16:00Sun 	 21c 	 3%
17:00Sun 	 21c 	 4%
18:00Sun 	 21c 	 4%
19:00Sun 	 20c 	 2%
20:00Sun 	 19c 	 1%
21:00Sun 	 18c 	 1%
22:00Sun 	 17c 	 1%
23:00Sun 	 16c 	 1%


00:00Sun 	 14c 	 3%
01:00Sun 	 13c 	 4%
02:00Sun 	 13c 	 4%
03:00Sun 	 13c 	 5%
04:00Sun 	 13c 	 6%
05:00Sun 	 13c 	 6%
06:00Sun 	 13c 	 6%
07:00Sun 	 14c 	 6%
08:00Sun 	 15c 	 6%
09:00Sun 	 16c 	 6%
10:00Sun 	 17c 	 5%
11:00Sun 	 18c 	 5%
12:00Sun 	 19c 	 4%
13:00Sun 	 20c 	 3%
14:00Sun 	 21c 	 2%
15:00Sun 	 21c 	 2%
16:00Sun 	 21c 	 3%
17:00Sun 	 21c 	 4%
18:00Sun 	 21c 	 4%
19:00Sun 	 20c 	 2%
20:00Sun 	 19c 	 1%
21:00Sun 	 18c 	 1%
22:00Sun 	 17c 	 1%
23:00Sun 	 16c 	 1%


00:00Sun 	 14c 	 3%
01:00Sun 	 13c 	 4%
02:00Sun 	 13c 	 4%
03:00Sun 	 13c 	 5%
04:00Sun 	 13c 	 6%
05:00Sun 	 13c 	 6%
06:00Sun 	 13c 	 6%
07:00Sun 	 14c 	 6%
08:00Sun 	 15c 	 6%
09:00Sun 	 16c 	 6%
10:00Sun 	 17c 	 5%
11:00Sun 	 18c 	 5%
12:00Sun 	 19c 	 4%
13:00Sun 	 20c 	 3%
14:00Sun 	 21c 	 2%
15:00Sun 	 21c 	 2%
16:00Sun 	 21c 	 3%
17:00Sun 	 21c 	 4%
18:00Sun 	 21c 	 4%
19:00Sun 	 20c 	 2%
20:00Sun 	 19c 	 1%
21:00Sun 	 18c 	 1%
22:00Sun 	 17c 	 1%
23:00Sun 	 16c 	 1%


00:00Sun 	 14c 	 3%
01:00Sun 	 13c 	 4%
02:00Sun 	 13c 	 4%
03:00Sun 	 13c 	 5%
04:00Sun 	 13c 	 6%
05:00Sun 	 13c 	 6%
06:00Sun 	 13c 	 6%
07:00Sun 	 14c 	 6%
08:00Sun 	 15c 	 6%
09:00Sun 	 16c 	 6%
10:00Sun 	 17c 	 5%
11:00Sun 	 18c 	 5%
12:00Sun 	 19c 	 4%
13:00Sun 	 20c 	 3%
14:00Sun 	 21c 	 2%
15:00Sun 	 21c 	 2%
16:00Sun 	 21c 	 3%
17:00Sun 	 21c 	 4%
18:00Sun 	 21c 	 4%
19:00Sun 	 20c 	 2%
20:00Sun 	 19c 	 1%
21:00Sun 	 18c 	 1%
22:00Sun 	 17c 	 1%
23:00Sun 	 16c 	 1%


00:00Sun 	 14c 	 3%
01:00Sun 	 13c 	 4%
02:00Sun 	 13c 	 4%
03:00Sun 	 13c 	 5%
04:00Sun 	 13c 	 6%
05:00Sun 	 13c 	 6%
06:00Sun 	 13c 	 6%
07:00Sun 	 14c 	 6%
08:00Sun 	 15c 	 6%
09:00Sun 	 16c 	 6%
10:00Sun 	 17c 	 5%
11:00Sun 	 18c 	 5%
12:00Sun 	 19c 	 4%
13:00Sun 	 20c 	 3%
14:00Sun 	 21c 	 2%
15:00Sun 	 21c 	 2%
16:00Sun 	 21c 	 3%
17:00Sun 	 21c 	 4%
18:00Sun 	 21c 	 4%
19:00Sun 	 20c 	 2%
20:00Sun 	 19c 	 1%
21:00Sun 	 18c 	 1%
22:00Sun 	 17c 	 1%
23:00Sun 	 16c 	 1%


00:00Sun 	 14c 	 3%
01:00Sun 	 13c 	 4%
02:00Sun 	 13c 	 4%
03:00Sun 	 13c 	 5%
04:00Sun 	 13c 	 6%
05:00Sun 	 13c 	 6%
06:00Sun 	 13c 	 6%
07:00Sun 	 14c 	 6%
08:00Sun 	 15c 	 6%
09:00Sun 	 16c 	 6%
10:00Sun 	 17c 	 5%
11:00Sun 	 18c 	 5%
12:00Sun 	 19c 	 4%
13:00Sun 	 20c 	 3%
14:00Sun 	 21c 	 2%
15:00Sun 	 21c 	 2%
16:00Sun 	 21c 	 3%
17:00Sun 	 21c 	 4%
18:00Sun 	 21c 	 4%
19:00Sun 	 20c 	 2%
20:00Sun 	 19c 	 1%
21:00Sun 	 18c 	 1%
22:00Sun 	 17c 	 1%
23:00Sun 	 16c 	 1%


00:00Sun 	 13c 	 3%
01:00Sun 	 13c 	 4%
02:00Sun 	 13c 	 5%
03:00Sun 	 13c 	 5%
04:00Sun 	 13c 	 5%
05:00Sun 	 13c 	 6%
06:00Sun 	 13c 	 7%
07:00Sun 	 13c 	 7%
08:00Sun 	 14c 	 6%
09:00Sun 	 15c 	 5%
10:00Sun 	 17c 	 5%
11:00Sun 	 18c 	 6%
12:00Sun 	 19c 	 5%
13:00Sun 	 20c 	 3%
14:00Sun 	 21c 	 2%
15:00Sun 	 21c 	 2%
16:00Sun 	 21c 	 3%
17:00Sun 	 21c 	 4%
18:00Sun 	 21c 	 4%
19:00Sun 	 20c 	 2%
20:00Sun 	 19c 	 1%
21:00Sun 	 18c 	 1%
22:00Sun 	 17c 	 1%
23:00Sun 	 16c 	 1%


00:00Sun 	 13c 	 3%
01:00Sun 	 13c 	 4%
02:00Sun 	 13c 	 5%
03:00Sun 	 13c 	 5%
04:00Sun 	 13c 	 5%
05:00Sun 	 13c 	 6%
06:00Sun 	 13c 	 7%
07:00Sun 	 13c 	 7%
08:00Sun 	 14c 	 6%
09:00Sun 	 15c 	 5%
10:00Sun 	 17c 	 5%
11:00Sun 	 18c 	 6%
12:00Sun 	 19c 	 5%
13:00Sun 	 20c 	 3%
14:00Sun 	 21c 	 2%
15:00Sun 	 21c 	 2%
16:00Sun 	 21c 	 3%
17:00Sun 	 21c 	 4%
18:00Sun 	 21c 	 4%
19:00Sun 	 20c 	 2%
20:00Sun 	 19c 	 1%
21:00Sun 	 18c 	 1%
22:00Sun 	 17c 	 1%
23:00Sun 	 16c 	 1%


00:00Sun 	 13c 	 3%
01:00Sun 	 13c 	 4%
02:00Sun 	 13c 	 5%
03:00Sun 	 13c 	 5%
04:00Sun 	 13c 	 5%
05:00Sun 	 13c 	 6%
06:00Sun 	 13c 	 7%
07:00Sun 	 13c 	 7%
08:00Sun 	 14c 	 6%
09:00Sun 	 15c 	 5%
10:00Sun 	 17c 	 5%
11:00Sun 	 18c 	 6%
12:00Sun 	 19c 	 5%
13:00Sun 	 20c 	 3%
14:00Sun 	 21c 	 2%
15:00Sun 	 21c 	 2%
16:00Sun 	 21c 	 3%
17:00Sun 	 21c 	 4%
18:00Sun 	 21c 	 4%
19:00Sun 	 20c 	 2%
20:00Sun 	 19c 	 1%
21:00Sun 	 18c 	 1%
22:00Sun 	 17c 	 1%
23:00Sun 	 16c 	 1%


00:00Sun 	 13c 	 3%
01:00Sun 	 13c 	 4%
02:00Sun 	 13c 	 5%
03:00Sun 	 13c 	 5%
04:00Sun 	 13c 	 5%
05:00Sun 	 13c 	 6%
06:00Sun 	 13c 	 7%
07:00Sun 	 13c 	 7%
08:00Sun 	 14c 	 6%
09:00Sun 	 15c 	 5%
10:00Sun 	 17c 	 5%
11:00Sun 	 18c 	 6%
12:00Sun 	 19c 	 5%
13:00Sun 	 20c 	 3%
14:00Sun 	 21c 	 2%
15:00Sun 	 21c 	 2%
16:00Sun 	 21c 	 3%
17:00Sun 	 21c 	 4%
18:00Sun 	 21c 	 4%
19:00Sun 	 20c 	 2%
20:00Sun 	 19c 	 1%
21:00Sun 	 18c 	 1%
22:00Sun 	 17c 	 1%
23:00Sun 	 16c 	 1%


00:00Sun 	 14c 	 3%
01:00Sun 	 13c 	 4%
02:00Sun 	 13c 	 5%
03:00Sun 	 13c 	 5%
04:00Sun 	 13c 	 5%
05:00Sun 	 13c 	 6%
06:00Sun 	 13c 	 7%
07:00Sun 	 13c 	 7%
08:00Sun 	 14c 	 6%
09:00Sun 	 15c 	 5%
10:00Sun 	 17c 	 5%
11:00Sun 	 18c 	 5%
12:00Sun 	 19c 	 4%
13:00Sun 	 20c 	 3%
14:00Sun 	 21c 	 2%
15:00Sun 	 21c 	 2%
16:00Sun 	 21c 	 3%
17:00Sun 	 21c 	 4%
18:00Sun 	 21c 	 4%
19:00Sun 	 20c 	 3%
20:00Sun 	 19c 	 1%
21:00Sun 	 17c 	 1%
22:00Sun 	 16c 	 2%
23:00Sun 	 16c 	 1%


00:00Sun 	 14c 	 3%
01:00Sun 	 13c 	 4%
02:00Sun 	 13c 	 5%
03:00Sun 	 13c 	 5%
04:00Sun 	 13c 	 5%
05:00Sun 	 13c 	 6%
06:00Sun 	 13c 	 7%
07:00Sun 	 13c 	 7%
08:00Sun 	 14c 	 6%
09:00Sun 	 15c 	 5%
10:00Sun 	 17c 	 5%
11:00Sun 	 18c 	 5%
12:00Sun 	 19c 	 4%
13:00Sun 	 20c 	 3%
14:00Sun 	 21c 	 2%
15:00Sun 	 21c 	 2%
16:00Sun 	 21c 	 3%
17:00Sun 	 21c 	 4%
18:00Sun 	 21c 	 4%
19:00Sun 	 20c 	 3%
20:00Sun 	 19c 	 1%
21:00Sun 	 17c 	 1%
22:00Sun 	 16c 	 2%
23:00Sun 	 16c 	 1%


00:00Sun 	 14c 	 3%
01:00Sun 	 13c 	 4%
02:00Sun 	 13c 	 5%
03:00Sun 	 13c 	 5%
04:00Sun 	 13c 	 5%
05:00Sun 	 13c 	 6%
06:00Sun 	 13c 	 7%
07:00Sun 	 13c 	 7%
08:00Sun 	 14c 	 6%
09:00Sun 	 15c 	 5%
10:00Sun 	 17c 	 5%
11:00Sun 	 18c 	 5%
12:00Sun 	 19c 	 4%
13:00Sun 	 20c 	 3%
14:00Sun 	 21c 	 2%
15:00Sun 	 21c 	 2%
16:00Sun 	 21c 	 3%
17:00Sun 	 21c 	 4%
18:00Sun 	 21c 	 4%
19:00Sun 	 20c 	 3%
20:00Sun 	 19c 	 1%
21:00Sun 	 17c 	 1%
22:00Sun 	 16c 	 2%
23:00Sun 	 16c 	 1%


00:00Sun 	 14c 	 3%
01:00Sun 	 13c 	 4%
02:00Sun 	 13c 	 5%
03:00Sun 	 13c 	 5%
04:00Sun 	 13c 	 5%
05:00Sun 	 13c 	 6%
06:00Sun 	 13c 	 7%
07:00Sun 	 13c 	 7%
08:00Sun 	 14c 	 6%
09:00Sun 	 15c 	 5%
10:00Sun 	 17c 	 5%
11:00Sun 	 18c 	 5%
12:00Sun 	 19c 	 4%
13:00Sun 	 20c 	 3%
14:00Sun 	 21c 	 2%
15:00Sun 	 21c 	 2%
16:00Sun 	 21c 	 3%
17:00Sun 	 21c 	 4%
18:00Sun 	 21c 	 4%
19:00Sun 	 20c 	 3%
20:00Sun 	 19c 	 1%
21:00Sun 	 17c 	 1%
22:00Sun 	 16c 	 2%
23:00Sun 	 16c 	 1%


00:00Sun 	 14c 	 3%
01:00Sun 	 13c 	 4%
02:00Sun 	 13c 	 5%
03:00Sun 	 13c 	 5%
04:00Sun 	 13c 	 5%
05:00Sun 	 13c 	 6%
06:00Sun 	 13c 	 7%
07:00Sun 	 13c 	 7%
08:00Sun 	 14c 	 6%
09:00Sun 	 15c 	 5%
10:00Sun 	 17c 	 5%
11:00Sun 	 18c 	 5%
12:00Sun 	 19c 	 4%
13:00Sun 	 20c 	 3%
14:00Sun 	 21c 	 2%
15:00Sun 	 21c 	 2%
16:00Sun 	 21c 	 3%
17:00Sun 	 21c 	 4%
18:00Sun 	 21c 	 4%
19:00Sun 	 20c 	 3%
20:00Sun 	 19c 	 1%
21:00Sun 	 17c 	 1%
22:00Sun 	 16c 	 2%
23:00Sun 	 16c 	 1%


00:00Sun 	 14c 	 3%
01:00Sun 	 13c 	 4%
02:00Sun 	 13c 	 5%
03:00Sun 	 13c 	 5%
04:00Sun 	 13c 	 5%
05:00Sun 	 13c 	 6%
06:00Sun 	 13c 	 7%
07:00Sun 	 13c 	 7%
08:00Sun 	 14c 	 6%
09:00Sun 	 15c 	 5%
10:00Sun 	 17c 	 5%
11:00Sun 	 18c 	 5%
12:00Sun 	 19c 	 4%
13:00Sun 	 20c 	 3%
14:00Sun 	 21c 	 2%
15:00Sun 	 21c 	 2%
16:00Sun 	 21c 	 3%
17:00Sun 	 21c 	 4%
18:00Sun 	 21c 	 4%
19:00Sun 	 20c 	 3%
20:00Sun 	 19c 	 1%
21:00Sun 	 17c 	 1%
22:00Sun 	 16c 	 2%
23:00Sun 	 16c 	 1%


00:00Sun 	 14c 	 3%
01:00Sun 	 13c 	 4%
02:00Sun 	 13c 	 5%
03:00Sun 	 13c 	 5%
04:00Sun 	 13c 	 5%
05:00Sun 	 13c 	 6%
06:00Sun 	 13c 	 7%
07:00Sun 	 13c 	 7%
08:00Sun 	 14c 	 6%
09:00Sun 	 15c 	 5%
10:00Sun 	 17c 	 5%
11:00Sun 	 18c 	 5%
12:00Sun 	 19c 	 4%
13:00Sun 	 20c 	 3%
14:00Sun 	 21c 	 2%
15:00Sun 	 21c 	 2%
16:00Sun 	 21c 	 3%
17:00Sun 	 21c 	 4%
18:00Sun 	 21c 	 4%
19:00Sun 	 20c 	 3%
20:00Sun 	 19c 	 1%
21:00Sun 	 17c 	 1%
22:00Sun 	 16c 	 2%
23:00Sun 	 16c 	 1%


00:00Sun 	 14c 	 3%
01:00Sun 	 13c 	 4%
02:00Sun 	 13c 	 5%
03:00Sun 	 13c 	 5%
04:00Sun 	 13c 	 5%
05:00Sun 	 13c 	 6%
06:00Sun 	 13c 	 7%
07:00Sun 	 13c 	 7%
08:00Sun 	 14c 	 6%
09:00Sun 	 15c 	 5%
10:00Sun 	 17c 	 5%
11:00Sun 	 18c 	 5%
12:00Sun 	 19c 	 4%
13:00Sun 	 20c 	 3%
14:00Sun 	 21c 	 2%
15:00Sun 	 21c 	 2%
16:00Sun 	 21c 	 3%
17:00Sun 	 21c 	 4%
18:00Sun 	 21c 	 4%
19:00Sun 	 20c 	 3%
20:00Sun 	 19c 	 1%
21:00Sun 	 17c 	 1%
22:00Sun 	 16c 	 2%
23:00Sun 	 16c 	 1%


00:00Sun 	 14c 	 3%
01:00Sun 	 13c 	 4%
02:00Sun 	 13c 	 5%
03:00Sun 	 13c 	 5%
04:00Sun 	 13c 	 5%
05:00Sun 	 13c 	 6%
06:00Sun 	 13c 	 7%
07:00Sun 	 13c 	 7%
08:00Sun 	 14c 	 6%
09:00Sun 	 15c 	 5%
10:00Sun 	 17c 	 5%
11:00Sun 	 18c 	 5%
12:00Sun 	 19c 	 4%
13:00Sun 	 20c 	 3%
14:00Sun 	 21c 	 2%
15:00Sun 	 21c 	 2%
16:00Sun 	 21c 	 3%
17:00Sun 	 21c 	 4%
18:00Sun 	 21c 	 4%
19:00Sun 	 20c 	 3%
20:00Sun 	 19c 	 1%
21:00Sun 	 17c 	 1%
22:00Sun 	 16c 	 2%
23:00Sun 	 16c 	 1%


00:00Sun 	 14c 	 3%
01:00Sun 	 13c 	 4%
02:00Sun 	 13c 	 5%
03:00Sun 	 13c 	 5%
04:00Sun 	 13c 	 5%
05:00Sun 	 13c 	 6%
06:00Sun 	 13c 	 7%
07:00Sun 	 13c 	 7%
08:00Sun 	 14c 	 6%
09:00Sun 	 15c 	 5%
10:00Sun 	 17c 	 5%
11:00Sun 	 18c 	 5%
12:00Sun 	 19c 	 4%
13:00Sun 	 20c 	 3%
14:00Sun 	 21c 	 2%
15:00Sun 	 21c 	 2%
16:00Sun 	 21c 	 3%
17:00Sun 	 21c 	 4%
18:00Sun 	 21c 	 4%
19:00Sun 	 20c 	 3%
20:00Sun 	 19c 	 1%
21:00Sun 	 17c 	 1%
22:00Sun 	 16c 	 2%
23:00Sun 	 16c 	 1%


00:00Sun 	 14c 	 3%
01:00Sun 	 13c 	 4%
02:00Sun 	 13c 	 5%
03:00Sun 	 13c 	 5%
04:00Sun 	 13c 	 5%
05:00Sun 	 13c 	 6%
06:00Sun 	 13c 	 7%
07:00Sun 	 13c 	 7%
08:00Sun 	 14c 	 6%
09:00Sun 	 15c 	 5%
10:00Sun 	 17c 	 5%
11:00Sun 	 18c 	 5%
12:00Sun 	 19c 	 4%
13:00Sun 	 20c 	 3%
14:00Sun 	 21c 	 2%
15:00Sun 	 21c 	 2%
16:00Sun 	 21c 	 3%
17:00Sun 	 21c 	 4%
18:00Sun 	 21c 	 4%
19:00Sun 	 20c 	 3%
20:00Sun 	 19c 	 1%
21:00Sun 	 17c 	 1%
22:00Sun 	 16c 	 2%
23:00Sun 	 16c 	 1%


00:00Sun 	 14c 	 3%
01:00Sun 	 13c 	 4%
02:00Sun 	 13c 	 5%
03:00Sun 	 13c 	 5%
04:00Sun 	 13c 	 5%
05:00Sun 	 13c 	 6%
06:00Sun 	 13c 	 7%
07:00Sun 	 13c 	 7%
08:00Sun 	 14c 	 6%
09:00Sun 	 15c 	 5%
10:00Sun 	 17c 	 5%
11:00Sun 	 18c 	 5%
12:00Sun 	 19c 	 4%
13:00Sun 	 20c 	 3%
14:00Sun 	 21c 	 2%
15:00Sun 	 21c 	 2%
16:00Sun 	 21c 	 3%
17:00Sun 	 21c 	 4%
18:00Sun 	 21c 	 4%
19:00Sun 	 20c 	 3%
20:00Sun 	 19c 	 1%
21:00Sun 	 17c 	 1%
22:00Sun 	 16c 	 2%
23:00Sun 	 16c 	 1%


00:00Sun 	 14c 	 3%
01:00Sun 	 13c 	 4%
02:00Sun 	 13c 	 5%
03:00Sun 	 13c 	 5%
04:00Sun 	 13c 	 5%
05:00Sun 	 13c 	 6%
06:00Sun 	 13c 	 7%
07:00Sun 	 13c 	 7%
08:00Sun 	 14c 	 6%
09:00Sun 	 15c 	 5%
10:00Sun 	 17c 	 5%
11:00Sun 	 18c 	 5%
12:00Sun 	 19c 	 4%
13:00Sun 	 20c 	 3%
14:00Sun 	 21c 	 2%
15:00Sun 	 21c 	 2%
16:00Sun 	 21c 	 3%
17:00Sun 	 21c 	 4%
18:00Sun 	 21c 	 4%
19:00Sun 	 20c 	 3%
20:00Sun 	 19c 	 1%
21:00Sun 	 17c 	 1%
22:00Sun 	 16c 	 2%
23:00Sun 	 16c 	 1%


00:00Sun 	 14c 	 3%
01:00Sun 	 13c 	 4%
02:00Sun 	 13c 	 5%
03:00Sun 	 13c 	 5%
04:00Sun 	 13c 	 5%
05:00Sun 	 13c 	 6%
06:00Sun 	 13c 	 7%
07:00Sun 	 13c 	 7%
08:00Sun 	 14c 	 6%
09:00Sun 	 15c 	 5%
10:00Sun 	 17c 	 5%
11:00Sun 	 18c 	 5%
12:00Sun 	 19c 	 4%
13:00Sun 	 20c 	 3%
14:00Sun 	 21c 	 2%
15:00Sun 	 21c 	 2%
16:00Sun 	 21c 	 3%
17:00Sun 	 21c 	 4%
18:00Sun 	 21c 	 4%
19:00Sun 	 20c 	 3%
20:00Sun 	 19c 	 1%
21:00Sun 	 17c 	 1%
22:00Sun 	 16c 	 2%
23:00Sun 	 16c 	 1%


00:00Sun 	 14c 	 3%
01:00Sun 	 13c 	 4%
02:00Sun 	 13c 	 5%
03:00Sun 	 13c 	 5%
04:00Sun 	 13c 	 5%
05:00Sun 	 13c 	 6%
06:00Sun 	 13c 	 7%
07:00Sun 	 13c 	 7%
08:00Sun 	 14c 	 6%
09:00Sun 	 15c 	 5%
10:00Sun 	 17c 	 5%
11:00Sun 	 18c 	 5%
12:00Sun 	 19c 	 4%
13:00Sun 	 20c 	 3%
14:00Sun 	 21c 	 2%
15:00Sun 	 21c 	 2%
16:00Sun 	 21c 	 3%
17:00Sun 	 21c 	 4%
18:00Sun 	 21c 	 4%
19:00Sun 	 20c 	 3%
20:00Sun 	 19c 	 1%
21:00Sun 	 17c 	 1%
22:00Sun 	 16c 	 2%
23:00Sun 	 16c 	 1%


00:00Sun 	 14c 	 3%
01:00Sun 	 13c 	 4%
02:00Sun 	 13c 	 5%
03:00Sun 	 13c 	 5%
04:00Sun 	 13c 	 5%
05:00Sun 	 13c 	 6%
06:00Sun 	 13c 	 7%
07:00Sun 	 13c 	 7%
08:00Sun 	 14c 	 6%
09:00Sun 	 15c 	 5%
10:00Sun 	 17c 	 5%
11:00Sun 	 18c 	 5%
12:00Sun 	 19c 	 4%
13:00Sun 	 20c 	 3%
14:00Sun 	 21c 	 2%
15:00Sun 	 21c 	 2%
16:00Sun 	 21c 	 3%
17:00Sun 	 21c 	 4%
18:00Sun 	 21c 	 4%
19:00Sun 	 20c 	 3%
20:00Sun 	 19c 	 1%
21:00Sun 	 17c 	 1%
22:00Sun 	 16c 	 2%
23:00Sun 	 16c 	 1%


00:00Sun 	 14c 	 3%
01:00Sun 	 13c 	 4%
02:00Sun 	 13c 	 5%
03:00Sun 	 13c 	 5%
04:00Sun 	 13c 	 5%
05:00Sun 	 13c 	 6%
06:00Sun 	 13c 	 7%
07:00Sun 	 13c 	 7%
08:00Sun 	 14c 	 6%
09:00Sun 	 15c 	 5%
10:00Sun 	 17c 	 5%
11:00Sun 	 18c 	 5%
12:00Sun 	 19c 	 4%
13:00Sun 	 20c 	 3%
14:00Sun 	 21c 	 2%
15:00Sun 	 21c 	 2%
16:00Sun 	 21c 	 3%
17:00Sun 	 21c 	 4%
18:00Sun 	 21c 	 4%
19:00Sun 	 20c 	 3%
20:00Sun 	 19c 	 1%
21:00Sun 	 17c 	 1%
22:00Sun 	 16c 	 2%
23:00Sun 	 16c 	 1%


00:00Sun 	 14c 	 3%
01:00Sun 	 13c 	 4%
02:00Sun 	 13c 	 5%
03:00Sun 	 13c 	 5%
04:00Sun 	 13c 	 5%
05:00Sun 	 13c 	 6%
06:00Sun 	 13c 	 7%
07:00Sun 	 13c 	 7%
08:00Sun 	 14c 	 6%
09:00Sun 	 15c 	 5%
10:00Sun 	 17c 	 5%
11:00Sun 	 18c 	 5%
12:00Sun 	 19c 	 4%
13:00Sun 	 20c 	 3%
14:00Sun 	 21c 	 2%
15:00Sun 	 21c 	 2%
16:00Sun 	 21c 	 3%
17:00Sun 	 21c 	 4%
18:00Sun 	 21c 	 4%
19:00Sun 	 20c 	 3%
20:00Sun 	 19c 	 1%
21:00Sun 	 17c 	 1%
22:00Sun 	 16c 	 2%
23:00Sun 	 16c 	 1%


00:00Sun 	 14c 	 3%
01:00Sun 	 13c 	 4%
02:00Sun 	 13c 	 5%
03:00Sun 	 13c 	 5%
04:00Sun 	 13c 	 5%
05:00Sun 	 13c 	 6%
06:00Sun 	 13c 	 7%
07:00Sun 	 13c 	 7%
08:00Sun 	 14c 	 6%
09:00Sun 	 15c 	 5%
10:00Sun 	 17c 	 5%
11:00Sun 	 18c 	 5%
12:00Sun 	 19c 	 4%
13:00Sun 	 20c 	 3%
14:00Sun 	 21c 	 2%
15:00Sun 	 21c 	 2%
16:00Sun 	 21c 	 3%
17:00Sun 	 21c 	 4%
18:00Sun 	 21c 	 4%
19:00Sun 	 20c 	 3%
20:00Sun 	 19c 	 1%
21:00Sun 	 17c 	 1%
22:00Sun 	 16c 	 2%
23:00Sun 	 16c 	 1%


00:00Sun 	 14c 	 3%
01:00Sun 	 13c 	 4%
02:00Sun 	 13c 	 5%
03:00Sun 	 13c 	 5%
04:00Sun 	 13c 	 5%
05:00Sun 	 13c 	 6%
06:00Sun 	 13c 	 7%
07:00Sun 	 13c 	 7%
08:00Sun 	 14c 	 6%
09:00Sun 	 15c 	 5%
10:00Sun 	 17c 	 5%
11:00Sun 	 18c 	 5%
12:00Sun 	 19c 	 4%
13:00Sun 	 20c 	 3%
14:00Sun 	 21c 	 2%
15:00Sun 	 21c 	 2%
16:00Sun 	 21c 	 3%
17:00Sun 	 21c 	 4%
18:00Sun 	 21c 	 4%
19:00Sun 	 20c 	 3%
20:00Sun 	 19c 	 1%
21:00Sun 	 17c 	 1%
22:00Sun 	 16c 	 2%
23:00Sun 	 16c 	 1%


00:00Sun 	 14c 	 3%
01:00Sun 	 13c 	 4%
02:00Sun 	 13c 	 5%
03:00Sun 	 13c 	 5%
04:00Sun 	 13c 	 5%
05:00Sun 	 13c 	 6%
06:00Sun 	 13c 	 7%
07:00Sun 	 13c 	 7%
08:00Sun 	 14c 	 6%
09:00Sun 	 15c 	 5%
10:00Sun 	 17c 	 5%
11:00Sun 	 18c 	 5%
12:00Sun 	 19c 	 4%
13:00Sun 	 20c 	 3%
14:00Sun 	 21c 	 2%
15:00Sun 	 21c 	 2%
16:00Sun 	 21c 	 3%
17:00Sun 	 21c 	 4%
18:00Sun 	 21c 	 4%
19:00Sun 	 20c 	 3%
20:00Sun 	 19c 	 1%
21:00Sun 	 17c 	 1%
22:00Sun 	 16c 	 2%
23:00Sun 	 16c 	 1%


00:00Sun 	 14c 	 3%
01:00Sun 	 13c 	 4%
02:00Sun 	 13c 	 5%
03:00Sun 	 13c 	 5%
04:00Sun 	 13c 	 5%
05:00Sun 	 13c 	 6%
06:00Sun 	 13c 	 7%
07:00Sun 	 13c 	 7%
08:00Sun 	 14c 	 6%
09:00Sun 	 15c 	 5%
10:00Sun 	 17c 	 5%
11:00Sun 	 18c 	 5%
12:00Sun 	 19c 	 4%
13:00Sun 	 20c 	 3%
14:00Sun 	 21c 	 2%
15:00Sun 	 21c 	 2%
16:00Sun 	 21c 	 3%
17:00Sun 	 21c 	 4%
18:00Sun 	 21c 	 4%
19:00Sun 	 20c 	 3%
20:00Sun 	 19c 	 1%
21:00Sun 	 17c 	 1%
22:00Sun 	 16c 	 2%
23:00Sun 	 16c 	 1%


00:00Sun 	 14c 	 3%
01:00Sun 	 13c 	 4%
02:00Sun 	 13c 	 5%
03:00Sun 	 13c 	 5%
04:00Sun 	 13c 	 5%
05:00Sun 	 13c 	 6%
06:00Sun 	 13c 	 7%
07:00Sun 	 13c 	 7%
08:00Sun 	 14c 	 6%
09:00Sun 	 15c 	 5%
10:00Sun 	 17c 	 5%
11:00Sun 	 18c 	 5%
12:00Sun 	 19c 	 4%
13:00Sun 	 20c 	 3%
14:00Sun 	 21c 	 2%
15:00Sun 	 21c 	 2%
16:00Sun 	 21c 	 3%
17:00Sun 	 21c 	 4%
18:00Sun 	 21c 	 4%
19:00Sun 	 20c 	 3%
20:00Sun 	 19c 	 1%
21:00Sun 	 17c 	 1%
22:00Sun 	 16c 	 2%
23:00Sun 	 16c 	 1%


00:00Sun 	 14c 	 3%
01:00Sun 	 13c 	 4%
02:00Sun 	 13c 	 5%
03:00Sun 	 13c 	 5%
04:00Sun 	 13c 	 5%
05:00Sun 	 13c 	 6%
06:00Sun 	 13c 	 7%
07:00Sun 	 13c 	 7%
08:00Sun 	 14c 	 6%
09:00Sun 	 15c 	 5%
10:00Sun 	 17c 	 5%
11:00Sun 	 18c 	 5%
12:00Sun 	 19c 	 4%
13:00Sun 	 20c 	 3%
14:00Sun 	 21c 	 2%
15:00Sun 	 21c 	 2%
16:00Sun 	 21c 	 3%
17:00Sun 	 21c 	 4%
18:00Sun 	 21c 	 4%
19:00Sun 	 20c 	 3%
20:00Sun 	 19c 	 1%
21:00Sun 	 17c 	 1%
22:00Sun 	 16c 	 2%
23:00Sun 	 16c 	 1%


00:00Sun 	 14c 	 3%
01:00Sun 	 13c 	 4%
02:00Sun 	 13c 	 5%
03:00Sun 	 13c 	 5%
04:00Sun 	 13c 	 5%
05:00Sun 	 13c 	 6%
06:00Sun 	 13c 	 7%
07:00Sun 	 13c 	 7%
08:00Sun 	 14c 	 6%
09:00Sun 	 15c 	 5%
10:00Sun 	 17c 	 5%
11:00Sun 	 18c 	 5%
12:00Sun 	 19c 	 4%
13:00Sun 	 20c 	 3%
14:00Sun 	 21c 	 2%
15:00Sun 	 21c 	 2%
16:00Sun 	 21c 	 3%
17:00Sun 	 21c 	 4%
18:00Sun 	 21c 	 4%
19:00Sun 	 20c 	 3%
20:00Sun 	 19c 	 1%
21:00Sun 	 17c 	 1%
22:00Sun 	 16c 	 2%
23:00Sun 	 16c 	 1%


00:00Sun 	 14c 	 3%
01:00Sun 	 13c 	 4%
02:00Sun 	 13c 	 5%
03:00Sun 	 13c 	 5%
04:00Sun 	 13c 	 5%
05:00Sun 	 13c 	 6%
06:00Sun 	 13c 	 7%
07:00Sun 	 13c 	 7%
08:00Sun 	 14c 	 6%
09:00Sun 	 15c 	 5%
10:00Sun 	 17c 	 5%
11:00Sun 	 18c 	 5%
12:00Sun 	 19c 	 4%
13:00Sun 	 20c 	 3%
14:00Sun 	 21c 	 2%
15:00Sun 	 21c 	 2%
16:00Sun 	 21c 	 3%
17:00Sun 	 21c 	 4%
18:00Sun 	 21c 	 4%
19:00Sun 	 20c 	 3%
20:00Sun 	 19c 	 1%
21:00Sun 	 17c 	 1%
22:00Sun 	 16c 	 2%
23:00Sun 	 16c 	 1%


00:00Sun 	 14c 	 3%
01:00Sun 	 13c 	 4%
02:00Sun 	 13c 	 5%
03:00Sun 	 13c 	 5%
04:00Sun 	 13c 	 5%
05:00Sun 	 13c 	 6%
06:00Sun 	 13c 	 7%
07:00Sun 	 13c 	 7%
08:00Sun 	 14c 	 6%
09:00Sun 	 15c 	 5%
10:00Sun 	 17c 	 5%
11:00Sun 	 18c 	 5%
12:00Sun 	 19c 	 4%
13:00Sun 	 20c 	 3%
14:00Sun 	 21c 	 2%
15:00Sun 	 21c 	 2%
16:00Sun 	 21c 	 3%
17:00Sun 	 21c 	 4%
18:00Sun 	 21c 	 4%
19:00Sun 	 20c 	 3%
20:00Sun 	 19c 	 1%
21:00Sun 	 17c 	 1%
22:00Sun 	 16c 	 2%
23:00Sun 	 16c 	 1%


00:00Sun 	 14c 	 3%
01:00Sun 	 13c 	 4%
02:00Sun 	 13c 	 5%
03:00Sun 	 13c 	 5%
04:00Sun 	 13c 	 5%
05:00Sun 	 13c 	 6%
06:00Sun 	 13c 	 7%
07:00Sun 	 13c 	 7%
08:00Sun 	 14c 	 6%
09:00Sun 	 15c 	 5%
10:00Sun 	 17c 	 5%
11:00Sun 	 18c 	 5%
12:00Sun 	 19c 	 4%
13:00Sun 	 20c 	 3%
14:00Sun 	 21c 	 2%
15:00Sun 	 21c 	 2%
16:00Sun 	 21c 	 3%
17:00Sun 	 21c 	 4%
18:00Sun 	 21c 	 4%
19:00Sun 	 20c 	 3%
20:00Sun 	 19c 	 1%
21:00Sun 	 17c 	 1%
22:00Sun 	 16c 	 2%
23:00Sun 	 16c 	 1%


00:00Sun 	 14c 	 3%
01:00Sun 	 13c 	 4%
02:00Sun 	 13c 	 5%
03:00Sun 	 13c 	 5%
04:00Sun 	 13c 	 5%
05:00Sun 	 13c 	 6%
06:00Sun 	 13c 	 7%
07:00Sun 	 13c 	 7%
08:00Sun 	 14c 	 6%
09:00Sun 	 15c 	 5%
10:00Sun 	 17c 	 5%
11:00Sun 	 18c 	 5%
12:00Sun 	 19c 	 4%
13:00Sun 	 20c 	 3%
14:00Sun 	 21c 	 2%
15:00Sun 	 21c 	 2%
16:00Sun 	 21c 	 3%
17:00Sun 	 21c 	 4%
18:00Sun 	 21c 	 4%
19:00Sun 	 20c 	 3%
20:00Sun 	 19c 	 1%
21:00Sun 	 17c 	 1%
22:00Sun 	 16c 	 2%
23:00Sun 	 16c 	 1%


00:00Sun 	 14c 	 3%
01:00Sun 	 13c 	 4%
02:00Sun 	 13c 	 5%
03:00Sun 	 13c 	 5%
04:00Sun 	 13c 	 5%
05:00Sun 	 13c 	 6%
06:00Sun 	 13c 	 7%
07:00Sun 	 13c 	 7%
08:00Sun 	 14c 	 6%
09:00Sun 	 15c 	 5%
10:00Sun 	 17c 	 5%
11:00Sun 	 18c 	 5%
12:00Sun 	 19c 	 4%
13:00Sun 	 20c 	 3%
14:00Sun 	 21c 	 2%
15:00Sun 	 21c 	 2%
16:00Sun 	 21c 	 3%
17:00Sun 	 21c 	 4%
18:00Sun 	 21c 	 4%
19:00Sun 	 20c 	 3%
20:00Sun 	 19c 	 1%
21:00Sun 	 17c 	 1%
22:00Sun 	 16c 	 2%
23:00Sun 	 16c 	 1%


00:00Sun 	 14c 	 3%
01:00Sun 	 13c 	 4%
02:00Sun 	 13c 	 5%
03:00Sun 	 13c 	 5%
04:00Sun 	 13c 	 5%
05:00Sun 	 13c 	 6%
06:00Sun 	 13c 	 7%
07:00Sun 	 13c 	 7%
08:00Sun 	 14c 	 6%
09:00Sun 	 15c 	 5%
10:00Sun 	 17c 	 5%
11:00Sun 	 18c 	 5%
12:00Sun 	 19c 	 4%
13:00Sun 	 20c 	 3%
14:00Sun 	 21c 	 2%
15:00Sun 	 21c 	 2%
16:00Sun 	 21c 	 3%
17:00Sun 	 21c 	 4%
18:00Sun 	 21c 	 4%
19:00Sun 	 20c 	 3%
20:00Sun 	 19c 	 1%
21:00Sun 	 17c 	 1%
22:00Sun 	 16c 	 2%
23:00Sun 	 16c 	 1%


00:00Sun 	 14c 	 3%
01:00Sun 	 13c 	 4%
02:00Sun 	 13c 	 5%
03:00Sun 	 13c 	 5%
04:00Sun 	 13c 	 5%
05:00Sun 	 13c 	 6%
06:00Sun 	 13c 	 7%
07:00Sun 	 13c 	 7%
08:00Sun 	 14c 	 6%
09:00Sun 	 15c 	 5%
10:00Sun 	 17c 	 5%
11:00Sun 	 18c 	 5%
12:00Sun 	 19c 	 4%
13:00Sun 	 20c 	 3%
14:00Sun 	 21c 	 2%
15:00Sun 	 21c 	 2%
16:00Sun 	 21c 	 3%
17:00Sun 	 21c 	 4%
18:00Sun 	 21c 	 4%
19:00Sun 	 20c 	 3%
20:00Sun 	 19c 	 1%
21:00Sun 	 17c 	 1%
22:00Sun 	 16c 	 2%
23:00Sun 	 16c 	 1%


00:00Sun 	 14c 	 3%
01:00Sun 	 13c 	 4%
02:00Sun 	 13c 	 5%
03:00Sun 	 13c 	 5%
04:00Sun 	 13c 	 5%
05:00Sun 	 13c 	 6%
06:00Sun 	 13c 	 7%
07:00Sun 	 13c 	 7%
08:00Sun 	 14c 	 6%
09:00Sun 	 15c 	 5%
10:00Sun 	 17c 	 5%
11:00Sun 	 18c 	 5%
12:00Sun 	 19c 	 4%
13:00Sun 	 20c 	 3%
14:00Sun 	 21c 	 2%
15:00Sun 	 21c 	 2%
16:00Sun 	 21c 	 3%
17:00Sun 	 21c 	 4%
18:00Sun 	 21c 	 4%
19:00Sun 	 20c 	 3%
20:00Sun 	 19c 	 1%
21:00Sun 	 17c 	 1%
22:00Sun 	 16c 	 2%
23:00Sun 	 16c 	 1%


00:00Sun 	 14c 	 3%
01:00Sun 	 13c 	 4%
02:00Sun 	 13c 	 5%
03:00Sun 	 13c 	 5%
04:00Sun 	 13c 	 5%
05:00Sun 	 13c 	 6%
06:00Sun 	 13c 	 7%
07:00Sun 	 13c 	 7%
08:00Sun 	 14c 	 6%
09:00Sun 	 15c 	 5%
10:00Sun 	 17c 	 5%
11:00Sun 	 18c 	 5%
12:00Sun 	 19c 	 4%
13:00Sun 	 20c 	 3%
14:00Sun 	 21c 	 2%
15:00Sun 	 21c 	 2%
16:00Sun 	 21c 	 3%
17:00Sun 	 21c 	 4%
18:00Sun 	 21c 	 4%
19:00Sun 	 20c 	 3%
20:00Sun 	 19c 	 1%
21:00Sun 	 17c 	 1%
22:00Sun 	 16c 	 2%
23:00Sun 	 16c 	 1%


00:00Sun 	 14c 	 3%
01:00Sun 	 13c 	 4%
02:00Sun 	 13c 	 5%
03:00Sun 	 13c 	 5%
04:00Sun 	 13c 	 5%
05:00Sun 	 13c 	 6%
06:00Sun 	 13c 	 7%
07:00Sun 	 13c 	 7%
08:00Sun 	 14c 	 6%
09:00Sun 	 15c 	 5%
10:00Sun 	 17c 	 5%
11:00Sun 	 18c 	 5%
12:00Sun 	 19c 	 4%
13:00Sun 	 20c 	 3%
14:00Sun 	 21c 	 2%
15:00Sun 	 21c 	 2%
16:00Sun 	 21c 	 3%
17:00Sun 	 21c 	 4%
18:00Sun 	 21c 	 4%
19:00Sun 	 20c 	 3%
20:00Sun 	 19c 	 1%
21:00Sun 	 17c 	 1%
22:00Sun 	 16c 	 2%
23:00Sun 	 16c 	 1%


00:00Sun 	 14c 	 3%
01:00Sun 	 13c 	 4%
02:00Sun 	 13c 	 5%
03:00Sun 	 13c 	 5%
04:00Sun 	 13c 	 5%
05:00Sun 	 13c 	 6%
06:00Sun 	 13c 	 7%
07:00Sun 	 13c 	 7%
08:00Sun 	 14c 	 6%
09:00Sun 	 15c 	 5%
10:00Sun 	 17c 	 5%
11:00Sun 	 18c 	 5%
12:00Sun 	 19c 	 4%
13:00Sun 	 20c 	 3%
14:00Sun 	 21c 	 2%
15:00Sun 	 21c 	 2%
16:00Sun 	 21c 	 3%
17:00Sun 	 21c 	 4%
18:00Sun 	 21c 	 4%
19:00Sun 	 20c 	 3%
20:00Sun 	 19c 	 1%
21:00Sun 	 17c 	 1%
22:00Sun 	 16c 	 2%
23:00Sun 	 16c 	 1%


00:00Sun 	 14c 	 3%
01:00Sun 	 13c 	 4%
02:00Sun 	 13c 	 5%
03:00Sun 	 13c 	 5%
04:00Sun 	 13c 	 5%
05:00Sun 	 13c 	 6%
06:00Sun 	 13c 	 7%
07:00Sun 	 13c 	 7%
08:00Sun 	 14c 	 6%
09:00Sun 	 15c 	 5%
10:00Sun 	 17c 	 5%
11:00Sun 	 18c 	 5%
12:00Sun 	 19c 	 4%
13:00Sun 	 20c 	 3%
14:00Sun 	 21c 	 2%
15:00Sun 	 21c 	 2%
16:00Sun 	 21c 	 3%
17:00Sun 	 21c 	 4%
18:00Sun 	 21c 	 4%
19:00Sun 	 20c 	 3%
20:00Sun 	 19c 	 1%
21:00Sun 	 17c 	 1%
22:00Sun 	 16c 	 2%
23:00Sun 	 16c 	 1%


00:00Sun 	 14c 	 3%
01:00Sun 	 13c 	 4%
02:00Sun 	 13c 	 5%
03:00Sun 	 13c 	 5%
04:00Sun 	 13c 	 5%
05:00Sun 	 13c 	 6%
06:00Sun 	 13c 	 7%
07:00Sun 	 13c 	 7%
08:00Sun 	 14c 	 6%
09:00Sun 	 15c 	 5%
10:00Sun 	 17c 	 5%
11:00Sun 	 18c 	 5%
12:00Sun 	 19c 	 4%
13:00Sun 	 20c 	 3%
14:00Sun 	 21c 	 2%
15:00Sun 	 21c 	 2%
16:00Sun 	 21c 	 3%
17:00Sun 	 21c 	 4%
18:00Sun 	 21c 	 4%
19:00Sun 	 20c 	 3%
20:00Sun 	 19c 	 1%
21:00Sun 	 17c 	 1%
22:00Sun 	 16c 	 2%
23:00Sun 	 16c 	 1%


00:00Sun 	 14c 	 3%
01:00Sun 	 13c 	 4%
02:00Sun 	 13c 	 5%
03:00Sun 	 13c 	 5%
04:00Sun 	 13c 	 5%
05:00Sun 	 13c 	 6%
06:00Sun 	 13c 	 7%
07:00Sun 	 13c 	 7%
08:00Sun 	 14c 	 6%
09:00Sun 	 15c 	 5%
10:00Sun 	 17c 	 5%
11:00Sun 	 18c 	 5%
12:00Sun 	 19c 	 4%
13:00Sun 	 20c 	 3%
14:00Sun 	 21c 	 2%
15:00Sun 	 21c 	 2%
16:00Sun 	 21c 	 3%
17:00Sun 	 21c 	 4%
18:00Sun 	 21c 	 4%
19:00Sun 	 20c 	 3%
20:00Sun 	 19c 	 1%
21:00Sun 	 17c 	 1%
22:00Sun 	 16c 	 2%
23:00Sun 	 16c 	 1%


00:00Sun 	 14c 	 3%
01:00Sun 	 13c 	 4%
02:00Sun 	 13c 	 5%
03:00Sun 	 13c 	 5%
04:00Sun 	 13c 	 5%
05:00Sun 	 13c 	 6%
06:00Sun 	 13c 	 7%
07:00Sun 	 13c 	 7%
08:00Sun 	 14c 	 6%
09:00Sun 	 15c 	 5%
10:00Sun 	 17c 	 5%
11:00Sun 	 18c 	 5%
12:00Sun 	 19c 	 4%
13:00Sun 	 20c 	 3%
14:00Sun 	 21c 	 2%
15:00Sun 	 21c 	 2%
16:00Sun 	 21c 	 3%
17:00Sun 	 21c 	 4%
18:00Sun 	 21c 	 4%
19:00Sun 	 20c 	 3%
20:00Sun 	 19c 	 1%
21:00Sun 	 17c 	 1%
22:00Sun 	 16c 	 2%
23:00Sun 	 16c 	 1%


00:00Sun 	 14c 	 3%
01:00Sun 	 13c 	 4%
02:00Sun 	 13c 	 5%
03:00Sun 	 13c 	 5%
04:00Sun 	 13c 	 5%
05:00Sun 	 13c 	 6%
06:00Sun 	 13c 	 7%
07:00Sun 	 13c 	 7%
08:00Sun 	 14c 	 6%
09:00Sun 	 15c 	 5%
10:00Sun 	 17c 	 5%
11:00Sun 	 18c 	 5%
12:00Sun 	 19c 	 4%
13:00Sun 	 20c 	 3%
14:00Sun 	 21c 	 2%
15:00Sun 	 21c 	 2%
16:00Sun 	 21c 	 3%
17:00Sun 	 21c 	 4%
18:00Sun 	 21c 	 4%
19:00Sun 	 20c 	 3%
20:00Sun 	 19c 	 1%
21:00Sun 	 17c 	 1%
22:00Sun 	 16c 	 2%
23:00Sun 	 16c 	 1%


00:00Sun 	 14c 	 3%
01:00Sun 	 13c 	 4%
02:00Sun 	 13c 	 5%
03:00Sun 	 13c 	 5%
04:00Sun 	 13c 	 5%
05:00Sun 	 13c 	 6%
06:00Sun 	 13c 	 7%
07:00Sun 	 13c 	 7%
08:00Sun 	 14c 	 6%
09:00Sun 	 15c 	 5%
10:00Sun 	 17c 	 5%
11:00Sun 	 18c 	 5%
12:00Sun 	 19c 	 4%
13:00Sun 	 20c 	 3%
14:00Sun 	 21c 	 2%
15:00Sun 	 21c 	 2%
16:00Sun 	 21c 	 3%
17:00Sun 	 21c 	 4%
18:00Sun 	 21c 	 4%
19:00Sun 	 20c 	 3%
20:00Sun 	 19c 	 1%
21:00Sun 	 17c 	 1%
22:00Sun 	 16c 	 2%
23:00Sun 	 16c 	 1%


00:00Sun 	 14c 	 3%
01:00Sun 	 13c 	 4%
02:00Sun 	 13c 	 5%
03:00Sun 	 13c 	 5%
04:00Sun 	 13c 	 5%
05:00Sun 	 13c 	 6%
06:00Sun 	 13c 	 7%
07:00Sun 	 13c 	 7%
08:00Sun 	 14c 	 6%
09:00Sun 	 15c 	 5%
10:00Sun 	 17c 	 5%
11:00Sun 	 18c 	 5%
12:00Sun 	 19c 	 4%
13:00Sun 	 20c 	 3%
14:00Sun 	 21c 	 2%
15:00Sun 	 21c 	 2%
16:00Sun 	 21c 	 3%
17:00Sun 	 21c 	 4%
18:00Sun 	 21c 	 4%
19:00Sun 	 20c 	 3%
20:00Sun 	 19c 	 1%
21:00Sun 	 17c 	 1%
22:00Sun 	 16c 	 2%
23:00Sun 	 16c 	 1%


00:00Sun 	 14c 	 3%
01:00Sun 	 13c 	 4%
02:00Sun 	 13c 	 5%
03:00Sun 	 13c 	 5%
04:00Sun 	 13c 	 5%
05:00Sun 	 13c 	 6%
06:00Sun 	 13c 	 7%
07:00Sun 	 13c 	 7%
08:00Sun 	 14c 	 6%
09:00Sun 	 15c 	 5%
10:00Sun 	 17c 	 5%
11:00Sun 	 18c 	 5%
12:00Sun 	 19c 	 4%
13:00Sun 	 20c 	 3%
14:00Sun 	 21c 	 2%
15:00Sun 	 21c 	 2%
16:00Sun 	 21c 	 3%
17:00Sun 	 21c 	 4%
18:00Sun 	 21c 	 4%
19:00Sun 	 20c 	 3%
20:00Sun 	 19c 	 1%
21:00Sun 	 17c 	 1%
22:00Sun 	 16c 	 2%
23:00Sun 	 16c 	 1%


00:00Sun 	 14c 	 3%
01:00Sun 	 13c 	 4%
02:00Sun 	 13c 	 4%
03:00Sun 	 13c 	 4%
04:00Sun 	 13c 	 4%
05:00Sun 	 13c 	 5%
06:00Sun 	 13c 	 5%
07:00Sun 	 13c 	 5%
08:00Sun 	 14c 	 4%
09:00Sun 	 15c 	 4%
10:00Sun 	 17c 	 4%
11:00Sun 	 18c 	 5%
12:00Sun 	 19c 	 5%
13:00Sun 	 20c 	 3%
14:00Sun 	 21c 	 2%
15:00Sun 	 21c 	 2%
16:00Sun 	 21c 	 3%
17:00Sun 	 21c 	 4%
18:00Sun 	 21c 	 4%
19:00Sun 	 20c 	 3%
20:00Sun 	 19c 	 2%
21:00Sun 	 17c 	 2%
22:00Sun 	 16c 	 2%
23:00Sun 	 16c 	 1%


00:00Sun 	 14c 	 3%
01:00Sun 	 13c 	 4%
02:00Sun 	 13c 	 4%
03:00Sun 	 13c 	 4%
04:00Sun 	 13c 	 4%
05:00Sun 	 13c 	 5%
06:00Sun 	 13c 	 5%
07:00Sun 	 13c 	 5%
08:00Sun 	 14c 	 4%
09:00Sun 	 15c 	 4%
10:00Sun 	 17c 	 4%
11:00Sun 	 18c 	 5%
12:00Sun 	 19c 	 5%
13:00Sun 	 20c 	 3%
14:00Sun 	 21c 	 2%
15:00Sun 	 21c 	 2%
16:00Sun 	 21c 	 3%
17:00Sun 	 21c 	 4%
18:00Sun 	 21c 	 4%
19:00Sun 	 20c 	 3%
20:00Sun 	 19c 	 2%
21:00Sun 	 17c 	 2%
22:00Sun 	 16c 	 2%
23:00Sun 	 16c 	 1%


00:00Sun 	 14c 	 3%
01:00Sun 	 13c 	 4%
02:00Sun 	 13c 	 4%
03:00Sun 	 13c 	 4%
04:00Sun 	 13c 	 4%
05:00Sun 	 13c 	 5%
06:00Sun 	 13c 	 5%
07:00Sun 	 13c 	 5%
08:00Sun 	 14c 	 4%
09:00Sun 	 15c 	 4%
10:00Sun 	 17c 	 4%
11:00Sun 	 18c 	 5%
12:00Sun 	 19c 	 5%
13:00Sun 	 20c 	 3%
14:00Sun 	 21c 	 2%
15:00Sun 	 21c 	 2%
16:00Sun 	 21c 	 3%
17:00Sun 	 21c 	 4%
18:00Sun 	 21c 	 4%
19:00Sun 	 20c 	 3%
20:00Sun 	 19c 	 2%
21:00Sun 	 17c 	 2%
22:00Sun 	 16c 	 2%
23:00Sun 	 16c 	 1%


00:00Sun 	 14c 	 3%
01:00Sun 	 13c 	 4%
02:00Sun 	 13c 	 4%
03:00Sun 	 13c 	 4%
04:00Sun 	 13c 	 4%
05:00Sun 	 13c 	 5%
06:00Sun 	 13c 	 5%
07:00Sun 	 13c 	 5%
08:00Sun 	 14c 	 4%
09:00Sun 	 15c 	 4%
10:00Sun 	 17c 	 4%
11:00Sun 	 18c 	 5%
12:00Sun 	 19c 	 5%
13:00Sun 	 20c 	 3%
14:00Sun 	 21c 	 2%
15:00Sun 	 21c 	 2%
16:00Sun 	 21c 	 3%
17:00Sun 	 21c 	 4%
18:00Sun 	 21c 	 4%
19:00Sun 	 20c 	 3%
20:00Sun 	 19c 	 2%
21:00Sun 	 17c 	 2%
22:00Sun 	 16c 	 2%
23:00Sun 	 16c 	 1%


00:00Sun 	 14c 	 3%
01:00Sun 	 14c 	 4%
02:00Sun 	 13c 	 4%
03:00Sun 	 13c 	 4%
04:00Sun 	 13c 	 4%
05:00Sun 	 13c 	 5%
06:00Sun 	 13c 	 5%
07:00Sun 	 13c 	 5%
08:00Sun 	 14c 	 4%
09:00Sun 	 15c 	 4%
10:00Sun 	 17c 	 4%
11:00Sun 	 18c 	 5%
12:00Sun 	 19c 	 5%
13:00Sun 	 20c 	 3%
14:00Sun 	 21c 	 2%
15:00Sun 	 21c 	 2%
16:00Sun 	 21c 	 3%
17:00Sun 	 21c 	 4%
18:00Sun 	 21c 	 5%
19:00Sun 	 20c 	 3%
20:00Sun 	 19c 	 2%
21:00Sun 	 17c 	 2%
22:00Sun 	 16c 	 1%
23:00Sun 	 15c 	 1%


00:00Sun 	 14c 	 3%
01:00Sun 	 14c 	 4%
02:00Sun 	 13c 	 4%
03:00Sun 	 13c 	 4%
04:00Sun 	 13c 	 4%
05:00Sun 	 13c 	 5%
06:00Sun 	 13c 	 5%
07:00Sun 	 13c 	 5%
08:00Sun 	 14c 	 4%
09:00Sun 	 15c 	 4%
10:00Sun 	 17c 	 4%
11:00Sun 	 18c 	 5%
12:00Sun 	 19c 	 5%
13:00Sun 	 20c 	 3%
14:00Sun 	 21c 	 2%
15:00Sun 	 21c 	 2%
16:00Sun 	 21c 	 3%
17:00Sun 	 21c 	 4%
18:00Sun 	 21c 	 5%
19:00Sun 	 20c 	 3%
20:00Sun 	 19c 	 2%
21:00Sun 	 17c 	 2%
22:00Sun 	 16c 	 1%
23:00Sun 	 15c 	 1%


00:00Sun 	 14c 	 3%
01:00Sun 	 14c 	 4%
02:00Sun 	 13c 	 4%
03:00Sun 	 13c 	 4%
04:00Sun 	 13c 	 4%
05:00Sun 	 13c 	 5%
06:00Sun 	 13c 	 5%
07:00Sun 	 13c 	 5%
08:00Sun 	 14c 	 4%
09:00Sun 	 15c 	 4%
10:00Sun 	 17c 	 4%
11:00Sun 	 18c 	 5%
12:00Sun 	 19c 	 5%
13:00Sun 	 20c 	 3%
14:00Sun 	 21c 	 2%
15:00Sun 	 21c 	 2%
16:00Sun 	 21c 	 3%
17:00Sun 	 21c 	 4%
18:00Sun 	 21c 	 5%
19:00Sun 	 20c 	 3%
20:00Sun 	 19c 	 2%
21:00Sun 	 17c 	 2%
22:00Sun 	 16c 	 1%
23:00Sun 	 15c 	 1%


00:00Sun 	 14c 	 3%
01:00Sun 	 14c 	 4%
02:00Sun 	 13c 	 4%
03:00Sun 	 13c 	 4%
04:00Sun 	 13c 	 4%
05:00Sun 	 13c 	 5%
06:00Sun 	 13c 	 5%
07:00Sun 	 13c 	 5%
08:00Sun 	 14c 	 4%
09:00Sun 	 15c 	 4%
10:00Sun 	 17c 	 4%
11:00Sun 	 18c 	 5%
12:00Sun 	 19c 	 5%
13:00Sun 	 20c 	 3%
14:00Sun 	 21c 	 2%
15:00Sun 	 21c 	 2%
16:00Sun 	 21c 	 3%
17:00Sun 	 21c 	 4%
18:00Sun 	 21c 	 5%
19:00Sun 	 20c 	 3%
20:00Sun 	 19c 	 2%
21:00Sun 	 17c 	 2%
22:00Sun 	 16c 	 1%
23:00Sun 	 15c 	 1%


00:00Sun 	 14c 	 0%
01:00Sun 	 14c 	 2%
02:00Sun 	 13c 	 4%
03:00Sun 	 13c 	 4%
04:00Sun 	 13c 	 4%
05:00Sun 	 13c 	 5%
06:00Sun 	 13c 	 5%
07:00Sun 	 13c 	 5%
08:00Sun 	 14c 	 4%
09:00Sun 	 15c 	 4%
10:00Sun 	 17c 	 4%
11:00Sun 	 18c 	 5%
12:00Sun 	 19c 	 5%
13:00Sun 	 20c 	 3%
14:00Sun 	 21c 	 2%
15:00Sun 	 21c 	 2%
16:00Sun 	 21c 	 3%
17:00Sun 	 21c 	 4%
18:00Sun 	 21c 	 5%
19:00Sun 	 20c 	 3%
20:00Sun 	 19c 	 2%
21:00Sun 	 17c 	 2%
22:00Sun 	 16c 	 1%
23:00Sun 	 15c 	 1%


00:00Sun 	 14c 	 0%
01:00Sun 	 14c 	 2%
02:00Sun 	 13c 	 4%
03:00Sun 	 13c 	 4%
04:00Sun 	 13c 	 4%
05:00Sun 	 13c 	 5%
06:00Sun 	 13c 	 5%
07:00Sun 	 13c 	 5%
08:00Sun 	 14c 	 4%
09:00Sun 	 15c 	 4%
10:00Sun 	 17c 	 4%
11:00Sun 	 18c 	 5%
12:00Sun 	 19c 	 5%
13:00Sun 	 20c 	 3%
14:00Sun 	 21c 	 2%
15:00Sun 	 21c 	 2%
16:00Sun 	 21c 	 3%
17:00Sun 	 21c 	 4%
18:00Sun 	 21c 	 5%
19:00Sun 	 20c 	 3%
20:00Sun 	 19c 	 2%
21:00Sun 	 17c 	 2%
22:00Sun 	 16c 	 1%
23:00Sun 	 15c 	 1%


00:00Sun 	 14c 	 0%
01:00Sun 	 14c 	 2%
02:00Sun 	 13c 	 4%
03:00Sun 	 13c 	 4%
04:00Sun 	 13c 	 4%
05:00Sun 	 13c 	 5%
06:00Sun 	 13c 	 5%
07:00Sun 	 13c 	 5%
08:00Sun 	 14c 	 4%
09:00Sun 	 15c 	 4%
10:00Sun 	 17c 	 4%
11:00Sun 	 18c 	 5%
12:00Sun 	 19c 	 5%
13:00Sun 	 20c 	 3%
14:00Sun 	 21c 	 2%
15:00Sun 	 21c 	 2%
16:00Sun 	 21c 	 3%
17:00Sun 	 21c 	 4%
18:00Sun 	 21c 	 5%
19:00Sun 	 20c 	 3%
20:00Sun 	 19c 	 2%
21:00Sun 	 17c 	 2%
22:00Sun 	 16c 	 1%
23:00Sun 	 15c 	 1%


00:00Sun 	 14c 	 0%
01:00Sun 	 14c 	 2%
02:00Sun 	 13c 	 4%
03:00Sun 	 13c 	 4%
04:00Sun 	 13c 	 4%
05:00Sun 	 13c 	 5%
06:00Sun 	 13c 	 5%
07:00Sun 	 13c 	 5%
08:00Sun 	 14c 	 4%
09:00Sun 	 15c 	 4%
10:00Sun 	 17c 	 4%
11:00Sun 	 18c 	 5%
12:00Sun 	 19c 	 5%
13:00Sun 	 20c 	 3%
14:00Sun 	 21c 	 2%
15:00Sun 	 21c 	 2%
16:00Sun 	 21c 	 3%
17:00Sun 	 21c 	 4%
18:00Sun 	 21c 	 5%
19:00Sun 	 20c 	 3%
20:00Sun 	 19c 	 2%
21:00Sun 	 17c 	 2%
22:00Sun 	 16c 	 1%
23:00Sun 	 15c 	 1%


00:00Sun 	 13c 	 1%
01:00Sun 	 13c 	 2%
02:00Sun 	 13c 	 4%
03:00Sun 	 13c 	 4%
04:00Sun 	 13c 	 4%
05:00Sun 	 13c 	 5%
06:00Sun 	 13c 	 5%
07:00Sun 	 13c 	 5%
08:00Sun 	 14c 	 4%
09:00Sun 	 15c 	 4%
10:00Sun 	 17c 	 4%
11:00Sun 	 18c 	 5%
12:00Sun 	 19c 	 5%
13:00Sun 	 20c 	 3%
14:00Sun 	 21c 	 2%
15:00Sun 	 21c 	 2%
16:00Sun 	 21c 	 3%
17:00Sun 	 21c 	 4%
18:00Sun 	 21c 	 5%
19:00Sun 	 20c 	 3%
20:00Sun 	 19c 	 2%
21:00Sun 	 17c 	 2%
22:00Sun 	 16c 	 1%
23:00Sun 	 15c 	 1%


