00:00Wed 	 3c 	 4%
01:00Wed 	 3c 	 4%
02:00Wed 	 3c 	 5%
03:00Wed 	 3c 	 7%
04:00Wed 	 3c 	 9%
05:00Wed 	 3c 	 10%
00:00Wed 	 3c 	 4%
01:00Wed 	 3c 	 4%
02:00Wed 	 3c 	 5%
03:00Wed 	 3c 	 7%
04:00Wed 	 3c 	 9%
05:00Wed 	 3c 	 10%
00:00Wed 	 3c 	 4%
01:00Wed 	 3c 	 4%
02:00Wed 	 3c 	 5%
03:00Wed 	 3c 	 7%
04:00Wed 	 3c 	 9%
05:00Wed 	 3c 	 10%
00:00Wed 	 3c 	 4%
01:00Wed 	 3c 	 4%
02:00Wed 	 3c 	 5%
03:00Wed 	 3c 	 7%
04:00Wed 	 3c 	 9%
05:00Wed 	 3c 	 10%
00:00Wed 	 3c 	 4%
01:00Wed 	 3c 	 4%
02:00Wed 	 3c 	 5%
03:00Wed 	 3c 	 7%
04:00Wed 	 3c 	 9%
05:00Wed 	 3c 	 10%
00:00Wed 	 3c 	 4%
01:00Wed 	 3c 	 4%
02:00Wed 	 3c 	 5%
03:00Wed 	 3c 	 7%
04:00Wed 	 3c 	 9%
05:00Wed 	 3c 	 10%
00:00Wed 	 3c 	 4%
01:00Wed 	 3c 	 4%
02:00Wed 	 3c 	 5%
03:00Wed 	 3c 	 7%
04:00Wed 	 3c 	 9%
05:00Wed 	 3c 	 10%
00:00Wed 	 3c 	 4%
01:00Wed 	 3c 	 4%
02:00Wed 	 3c 	 5%
03:00Wed 	 3c 	 7%
04:00Wed 	 3c 	 9%
05:00Wed 	 3c 	 10%
00:00Wed 	 3c 	 4%
01:00Wed 	 3c 	 4%
02:00Wed 	 3c 	 5%
03:00Wed 	 3c 	 7%
04:00Wed 	 3c 	 9%
05:00Wed 	 3c 	 10%
00:00Wed 	 3c 	 4%
01:00Wed 	 3c 	 4%
02:00Wed 	 3c 	 5%
03:00Wed 	 3c 	 7%
04:00Wed 	 3c 	 9%
05:00Wed 	 3c 	 10%
00:00Wed 	 3c 	 4%
01:00Wed 	 3c 	 4%
02:00Wed 	 3c 	 5%
03:00Wed 	 3c 	 7%
04:00Wed 	 3c 	 9%
05:00Wed 	 3c 	 10%
00:00Wed 	 3c 	 4%
01:00Wed 	 3c 	 4%
02:00Wed 	 3c 	 5%
03:00Wed 	 3c 	 7%
04:00Wed 	 3c 	 9%
05:00Wed 	 3c 	 10%
00:00Wed 	 3c 	 4%
01:00Wed 	 3c 	 4%
02:00Wed 	 3c 	 5%
03:00Wed 	 3c 	 7%
04:00Wed 	 3c 	 9%
05:00Wed 	 3c 	 10%
00:00Wed 	 3c 	 4%
01:00Wed 	 3c 	 4%
02:00Wed 	 3c 	 5%
03:00Wed 	 3c 	 7%
04:00Wed 	 3c 	 9%
05:00Wed 	 3c 	 10%
00:00Wed 	 3c 	 4%
01:00Wed 	 3c 	 4%
02:00Wed 	 3c 	 5%
03:00Wed 	 3c 	 7%
04:00Wed 	 3c 	 9%
05:00Wed 	 3c 	 10%
00:00Wed 	 3c 	 4%
01:00Wed 	 3c 	 4%
02:00Wed 	 3c 	 5%
03:00Wed 	 3c 	 7%
04:00Wed 	 3c 	 9%
05:00Wed 	 3c 	 10%
00:00Wed 	 3c 	 4%
01:00Wed 	 3c 	 4%
02:00Wed 	 3c 	 5%
03:00Wed 	 3c 	 7%
04:00Wed 	 3c 	 9%
05:00Wed 	 3c 	 10%
00:00Wed 	 3c 	 4%
01:00Wed 	 3c 	 4%
02:00Wed 	 3c 	 5%
03:00Wed 	 3c 	 7%
04:00Wed 	 3c 	 9%
05:00Wed 	 3c 	 10%
00:00Wed 	 3c 	 4%
01:00Wed 	 3c 	 4%
02:00Wed 	 3c 	 5%
03:00Wed 	 3c 	 7%
04:00Wed 	 3c 	 9%
05:00Wed 	 3c 	 10%
00:00Wed 	 3c 	 4%
01:00Wed 	 3c 	 4%
02:00Wed 	 3c 	 5%
03:00Wed 	 3c 	 7%
04:00Wed 	 3c 	 9%
05:00Wed 	 3c 	 10%
00:00Wed 	 3c 	 4%
01:00Wed 	 3c 	 4%
02:00Wed 	 3c 	 5%
03:00Wed 	 3c 	 7%
04:00Wed 	 3c 	 9%
05:00Wed 	 3c 	 10%
00:00Wed 	 3c 	 4%
01:00Wed 	 3c 	 4%
02:00Wed 	 3c 	 5%
03:00Wed 	 3c 	 7%
04:00Wed 	 3c 	 9%
05:00Wed 	 3c 	 10%
06:00Wed 	 3c 	 13%
07:00Wed 	 4c 	 16%
08:00Wed 	 4c 	 20%
09:00Wed 	 5c 	 24%
10:00Wed 	 6c 	 29%
11:00Wed 	 6c 	 31%
12:00Wed 	 7c 	 31%
13:00Wed 	 8c 	 35%
14:00Wed 	 8c 	 43%
15:00Wed 	 8c 	 48%
16:00Wed 	 8c 	 53%
17:00Wed 	 8c 	 58%
18:00Wed 	 8c 	 62%
19:00Wed 	 7c 	 65%
20:00Wed 	 7c 	 66%
21:00Wed 	 7c 	 67%
22:00Wed 	 7c 	 66%
23:00Wed 	 7c 	 64%


00:00Wed 	 3c 	 4%
01:00Wed 	 3c 	 4%
02:00Wed 	 3c 	 5%
03:00Wed 	 3c 	 7%
04:00Wed 	 3c 	 9%
05:00Wed 	 3c 	 10%
06:00Wed 	 3c 	 13%
07:00Wed 	 4c 	 16%
08:00Wed 	 4c 	 20%
09:00Wed 	 5c 	 24%
10:00Wed 	 6c 	 29%
11:00Wed 	 6c 	 31%
12:00Wed 	 7c 	 31%
13:00Wed 	 8c 	 35%
14:00Wed 	 8c 	 43%
15:00Wed 	 8c 	 48%
16:00Wed 	 8c 	 53%
17:00Wed 	 8c 	 58%
18:00Wed 	 8c 	 62%
19:00Wed 	 7c 	 65%
20:00Wed 	 7c 	 66%
21:00Wed 	 7c 	 67%
22:00Wed 	 7c 	 66%
23:00Wed 	 7c 	 64%


00:00Wed 	 3c 	 4%
01:00Wed 	 3c 	 4%
02:00Wed 	 3c 	 5%
03:00Wed 	 3c 	 7%
04:00Wed 	 3c 	 9%
05:00Wed 	 3c 	 10%
06:00Wed 	 3c 	 13%
07:00Wed 	 4c 	 16%
08:00Wed 	 4c 	 20%
09:00Wed 	 5c 	 24%
10:00Wed 	 6c 	 29%
11:00Wed 	 6c 	 31%
12:00Wed 	 7c 	 31%
13:00Wed 	 8c 	 35%
14:00Wed 	 8c 	 43%
15:00Wed 	 8c 	 48%
16:00Wed 	 8c 	 53%
17:00Wed 	 8c 	 58%
18:00Wed 	 8c 	 62%
19:00Wed 	 7c 	 65%
20:00Wed 	 7c 	 66%
21:00Wed 	 7c 	 67%
22:00Wed 	 7c 	 66%
23:00Wed 	 7c 	 64%


00:00Wed 	 3c 	 4%
01:00Wed 	 3c 	 4%
02:00Wed 	 3c 	 5%
03:00Wed 	 3c 	 7%
04:00Wed 	 3c 	 9%
05:00Wed 	 3c 	 10%
06:00Wed 	 3c 	 13%
07:00Wed 	 4c 	 16%
08:00Wed 	 4c 	 20%
09:00Wed 	 5c 	 24%
10:00Wed 	 6c 	 29%
11:00Wed 	 6c 	 31%
12:00Wed 	 7c 	 31%
13:00Wed 	 8c 	 35%
14:00Wed 	 8c 	 43%
15:00Wed 	 8c 	 48%
16:00Wed 	 8c 	 53%
17:00Wed 	 8c 	 58%
18:00Wed 	 8c 	 62%
19:00Wed 	 7c 	 65%
20:00Wed 	 7c 	 66%
21:00Wed 	 7c 	 67%
22:00Wed 	 7c 	 66%
23:00Wed 	 7c 	 64%


00:00Wed 	 3c 	 4%
01:00Wed 	 3c 	 4%
02:00Wed 	 3c 	 5%
03:00Wed 	 3c 	 7%
04:00Wed 	 3c 	 9%
05:00Wed 	 3c 	 10%
06:00Wed 	 3c 	 13%
07:00Wed 	 4c 	 16%
08:00Wed 	 4c 	 20%
09:00Wed 	 5c 	 24%
10:00Wed 	 6c 	 29%
11:00Wed 	 6c 	 31%
12:00Wed 	 7c 	 31%
13:00Wed 	 8c 	 35%
14:00Wed 	 8c 	 43%
15:00Wed 	 8c 	 48%
16:00Wed 	 8c 	 53%
17:00Wed 	 8c 	 58%
18:00Wed 	 8c 	 62%
19:00Wed 	 7c 	 65%
20:00Wed 	 7c 	 66%
21:00Wed 	 7c 	 67%
22:00Wed 	 7c 	 66%
23:00Wed 	 7c 	 64%


00:00Wed 	 3c 	 4%
01:00Wed 	 3c 	 4%
02:00Wed 	 3c 	 5%
03:00Wed 	 3c 	 7%
04:00Wed 	 3c 	 9%
05:00Wed 	 3c 	 10%
06:00Wed 	 3c 	 13%
07:00Wed 	 4c 	 16%
08:00Wed 	 4c 	 20%
09:00Wed 	 5c 	 24%
10:00Wed 	 6c 	 29%
11:00Wed 	 6c 	 31%
12:00Wed 	 7c 	 31%
13:00Wed 	 8c 	 35%
14:00Wed 	 8c 	 43%
15:00Wed 	 8c 	 48%
16:00Wed 	 8c 	 53%
17:00Wed 	 8c 	 58%
18:00Wed 	 8c 	 62%
19:00Wed 	 7c 	 65%
20:00Wed 	 7c 	 66%
21:00Wed 	 7c 	 67%
22:00Wed 	 7c 	 66%
23:00Wed 	 7c 	 64%


00:00Wed 	 3c 	 4%
01:00Wed 	 3c 	 4%
02:00Wed 	 3c 	 5%
03:00Wed 	 3c 	 7%
04:00Wed 	 3c 	 9%
05:00Wed 	 3c 	 10%
06:00Wed 	 3c 	 13%
07:00Wed 	 4c 	 16%
08:00Wed 	 4c 	 20%
09:00Wed 	 5c 	 24%
10:00Wed 	 6c 	 29%
11:00Wed 	 6c 	 31%
12:00Wed 	 7c 	 31%
13:00Wed 	 8c 	 35%
14:00Wed 	 8c 	 43%
15:00Wed 	 8c 	 48%
16:00Wed 	 8c 	 53%
17:00Wed 	 8c 	 58%
18:00Wed 	 8c 	 62%
19:00Wed 	 7c 	 65%
20:00Wed 	 7c 	 66%
21:00Wed 	 7c 	 67%
22:00Wed 	 7c 	 66%
23:00Wed 	 7c 	 64%


00:00Wed 	 4c 	 4%
01:00Wed 	 4c 	 4%
02:00Wed 	 3c 	 7%
03:00Wed 	 3c 	 9%
04:00Wed 	 3c 	 7%
05:00Wed 	 4c 	 6%
06:00Wed 	 4c 	 8%
07:00Wed 	 4c 	 15%
08:00Wed 	 5c 	 31%
09:00Wed 	 5c 	 45%
10:00Wed 	 6c 	 48%
11:00Wed 	 6c 	 50%
12:00Wed 	 7c 	 53%
13:00Wed 	 7c 	 55%
14:00Wed 	 7c 	 60%
15:00Wed 	 7c 	 65%
16:00Wed 	 7c 	 61%
17:00Wed 	 7c 	 58%
18:00Wed 	 7c 	 58%
19:00Wed 	 7c 	 54%
20:00Wed 	 7c 	 52%
21:00Wed 	 7c 	 55%
22:00Wed 	 7c 	 61%
23:00Wed 	 7c 	 62%


00:00Wed 	 4c 	 4%
01:00Wed 	 4c 	 4%
02:00Wed 	 3c 	 7%
03:00Wed 	 3c 	 9%
04:00Wed 	 3c 	 7%
05:00Wed 	 4c 	 6%
06:00Wed 	 4c 	 8%
07:00Wed 	 4c 	 15%
08:00Wed 	 5c 	 31%
09:00Wed 	 5c 	 45%
10:00Wed 	 6c 	 48%
11:00Wed 	 6c 	 50%
12:00Wed 	 7c 	 53%
13:00Wed 	 7c 	 55%
14:00Wed 	 7c 	 60%
15:00Wed 	 7c 	 65%
16:00Wed 	 7c 	 61%
17:00Wed 	 7c 	 58%
18:00Wed 	 7c 	 58%
19:00Wed 	 7c 	 54%
20:00Wed 	 7c 	 52%
21:00Wed 	 7c 	 55%
22:00Wed 	 7c 	 61%
23:00Wed 	 7c 	 62%


00:00Wed 	 4c 	 4%
01:00Wed 	 4c 	 4%
02:00Wed 	 3c 	 7%
03:00Wed 	 3c 	 9%
04:00Wed 	 3c 	 7%
05:00Wed 	 4c 	 6%
06:00Wed 	 4c 	 8%
07:00Wed 	 4c 	 15%
08:00Wed 	 5c 	 31%
09:00Wed 	 5c 	 45%
10:00Wed 	 6c 	 48%
11:00Wed 	 6c 	 50%
12:00Wed 	 7c 	 53%
13:00Wed 	 7c 	 55%
14:00Wed 	 7c 	 60%
15:00Wed 	 7c 	 65%
16:00Wed 	 7c 	 61%
17:00Wed 	 7c 	 58%
18:00Wed 	 7c 	 58%
19:00Wed 	 7c 	 54%
20:00Wed 	 7c 	 52%
21:00Wed 	 7c 	 55%
22:00Wed 	 7c 	 61%
23:00Wed 	 7c 	 62%


00:00Wed 	 4c 	 4%
01:00Wed 	 4c 	 4%
02:00Wed 	 3c 	 7%
03:00Wed 	 3c 	 9%
04:00Wed 	 3c 	 7%
05:00Wed 	 4c 	 6%
06:00Wed 	 4c 	 8%
07:00Wed 	 4c 	 15%
08:00Wed 	 5c 	 31%
09:00Wed 	 5c 	 45%
10:00Wed 	 6c 	 48%
11:00Wed 	 6c 	 50%
12:00Wed 	 7c 	 53%
13:00Wed 	 7c 	 55%
14:00Wed 	 7c 	 60%
15:00Wed 	 7c 	 65%
16:00Wed 	 7c 	 61%
17:00Wed 	 7c 	 58%
18:00Wed 	 7c 	 58%
19:00Wed 	 7c 	 54%
20:00Wed 	 7c 	 52%
21:00Wed 	 7c 	 55%
22:00Wed 	 7c 	 61%
23:00Wed 	 7c 	 62%


00:00Wed 	 4c 	 4%
01:00Wed 	 4c 	 4%
02:00Wed 	 3c 	 7%
03:00Wed 	 3c 	 9%
04:00Wed 	 3c 	 7%
05:00Wed 	 4c 	 6%
06:00Wed 	 4c 	 8%
07:00Wed 	 4c 	 15%
08:00Wed 	 5c 	 31%
09:00Wed 	 5c 	 45%
10:00Wed 	 6c 	 48%
11:00Wed 	 6c 	 50%
12:00Wed 	 7c 	 53%
13:00Wed 	 7c 	 55%
14:00Wed 	 7c 	 60%
15:00Wed 	 7c 	 65%
16:00Wed 	 7c 	 61%
17:00Wed 	 7c 	 58%
18:00Wed 	 7c 	 58%
19:00Wed 	 7c 	 54%
20:00Wed 	 7c 	 52%
21:00Wed 	 7c 	 55%
22:00Wed 	 7c 	 61%
23:00Wed 	 7c 	 62%


00:00Wed 	 4c 	 4%
01:00Wed 	 4c 	 4%
02:00Wed 	 3c 	 7%
03:00Wed 	 3c 	 9%
04:00Wed 	 3c 	 7%
05:00Wed 	 4c 	 6%
06:00Wed 	 4c 	 8%
07:00Wed 	 4c 	 15%
08:00Wed 	 5c 	 31%
09:00Wed 	 5c 	 45%
10:00Wed 	 6c 	 48%
11:00Wed 	 6c 	 50%
12:00Wed 	 7c 	 53%
13:00Wed 	 7c 	 55%
14:00Wed 	 7c 	 60%
15:00Wed 	 7c 	 65%
16:00Wed 	 7c 	 61%
17:00Wed 	 7c 	 58%
18:00Wed 	 7c 	 58%
19:00Wed 	 7c 	 54%
20:00Wed 	 7c 	 52%
21:00Wed 	 7c 	 55%
22:00Wed 	 7c 	 61%
23:00Wed 	 7c 	 62%


00:00Wed 	 4c 	 4%
01:00Wed 	 4c 	 4%
02:00Wed 	 3c 	 7%
03:00Wed 	 3c 	 9%
04:00Wed 	 3c 	 7%
05:00Wed 	 4c 	 6%
06:00Wed 	 4c 	 8%
07:00Wed 	 4c 	 15%
08:00Wed 	 5c 	 31%
09:00Wed 	 5c 	 45%
10:00Wed 	 6c 	 48%
11:00Wed 	 6c 	 50%
12:00Wed 	 7c 	 53%
13:00Wed 	 7c 	 55%
14:00Wed 	 7c 	 60%
15:00Wed 	 7c 	 65%
16:00Wed 	 7c 	 61%
17:00Wed 	 7c 	 58%
18:00Wed 	 7c 	 58%
19:00Wed 	 7c 	 54%
20:00Wed 	 7c 	 52%
21:00Wed 	 7c 	 55%
22:00Wed 	 7c 	 61%
23:00Wed 	 7c 	 62%


00:00Wed 	 4c 	 4%
01:00Wed 	 4c 	 4%
02:00Wed 	 3c 	 7%
03:00Wed 	 3c 	 9%
04:00Wed 	 3c 	 7%
05:00Wed 	 4c 	 6%
06:00Wed 	 4c 	 8%
07:00Wed 	 4c 	 15%
08:00Wed 	 5c 	 31%
09:00Wed 	 5c 	 45%
10:00Wed 	 6c 	 48%
11:00Wed 	 6c 	 50%
12:00Wed 	 7c 	 53%
13:00Wed 	 7c 	 55%
14:00Wed 	 7c 	 60%
15:00Wed 	 7c 	 65%
16:00Wed 	 7c 	 61%
17:00Wed 	 7c 	 58%
18:00Wed 	 7c 	 58%
19:00Wed 	 7c 	 54%
20:00Wed 	 7c 	 52%
21:00Wed 	 7c 	 55%
22:00Wed 	 7c 	 61%
23:00Wed 	 7c 	 62%


00:00Wed 	 4c 	 4%
01:00Wed 	 4c 	 4%
02:00Wed 	 4c 	 6%
03:00Wed 	 4c 	 8%
04:00Wed 	 3c 	 7%
05:00Wed 	 4c 	 5%
06:00Wed 	 4c 	 7%
07:00Wed 	 4c 	 13%
08:00Wed 	 5c 	 29%
09:00Wed 	 5c 	 44%
10:00Wed 	 6c 	 48%
11:00Wed 	 6c 	 51%
12:00Wed 	 7c 	 54%
13:00Wed 	 7c 	 57%
14:00Wed 	 7c 	 61%
15:00Wed 	 7c 	 64%
16:00Wed 	 7c 	 60%
17:00Wed 	 7c 	 57%
18:00Wed 	 6c 	 55%
19:00Wed 	 6c 	 47%
20:00Wed 	 5c 	 36%
21:00Wed 	 5c 	 29%
22:00Wed 	 5c 	 32%
23:00Wed 	 5c 	 38%


00:00Wed 	 4c 	 4%
01:00Wed 	 4c 	 4%
02:00Wed 	 4c 	 6%
03:00Wed 	 4c 	 8%
04:00Wed 	 3c 	 7%
05:00Wed 	 4c 	 5%
06:00Wed 	 4c 	 7%
07:00Wed 	 4c 	 13%
08:00Wed 	 5c 	 29%
09:00Wed 	 5c 	 44%
10:00Wed 	 6c 	 48%
11:00Wed 	 6c 	 51%
12:00Wed 	 7c 	 54%
13:00Wed 	 7c 	 57%
14:00Wed 	 7c 	 61%
15:00Wed 	 7c 	 64%
16:00Wed 	 7c 	 60%
17:00Wed 	 7c 	 57%
18:00Wed 	 6c 	 55%
19:00Wed 	 6c 	 47%
20:00Wed 	 5c 	 36%
21:00Wed 	 5c 	 29%
22:00Wed 	 5c 	 32%
23:00Wed 	 5c 	 38%


00:00Wed 	 4c 	 4%
01:00Wed 	 4c 	 4%
02:00Wed 	 4c 	 6%
03:00Wed 	 4c 	 8%
04:00Wed 	 3c 	 7%
05:00Wed 	 4c 	 5%
06:00Wed 	 4c 	 7%
07:00Wed 	 4c 	 13%
08:00Wed 	 5c 	 29%
09:00Wed 	 5c 	 44%
10:00Wed 	 6c 	 48%
11:00Wed 	 6c 	 51%
12:00Wed 	 7c 	 54%
13:00Wed 	 7c 	 57%
14:00Wed 	 7c 	 61%
15:00Wed 	 7c 	 64%
16:00Wed 	 7c 	 60%
17:00Wed 	 7c 	 57%
18:00Wed 	 6c 	 55%
19:00Wed 	 6c 	 47%
20:00Wed 	 5c 	 36%
21:00Wed 	 5c 	 29%
22:00Wed 	 5c 	 32%
23:00Wed 	 5c 	 38%


00:00Wed 	 4c 	 4%
01:00Wed 	 4c 	 4%
02:00Wed 	 4c 	 6%
03:00Wed 	 4c 	 8%
04:00Wed 	 3c 	 7%
05:00Wed 	 4c 	 5%
06:00Wed 	 4c 	 7%
07:00Wed 	 4c 	 13%
08:00Wed 	 5c 	 29%
09:00Wed 	 5c 	 44%
10:00Wed 	 6c 	 48%
11:00Wed 	 6c 	 51%
12:00Wed 	 7c 	 54%
13:00Wed 	 7c 	 57%
14:00Wed 	 7c 	 61%
15:00Wed 	 7c 	 64%
16:00Wed 	 7c 	 60%
17:00Wed 	 7c 	 57%
18:00Wed 	 6c 	 55%
19:00Wed 	 6c 	 47%
20:00Wed 	 5c 	 36%
21:00Wed 	 5c 	 29%
22:00Wed 	 5c 	 32%
23:00Wed 	 5c 	 38%


00:00Wed 	 4c 	 4%
01:00Wed 	 4c 	 4%
02:00Wed 	 4c 	 6%
03:00Wed 	 4c 	 8%
04:00Wed 	 3c 	 7%
05:00Wed 	 4c 	 5%
06:00Wed 	 3c 	 7%
07:00Wed 	 4c 	 13%
08:00Wed 	 4c 	 29%
09:00Wed 	 5c 	 44%
10:00Wed 	 6c 	 48%
11:00Wed 	 6c 	 51%
12:00Wed 	 7c 	 54%
13:00Wed 	 7c 	 57%
14:00Wed 	 7c 	 61%
15:00Wed 	 7c 	 64%
16:00Wed 	 7c 	 60%
17:00Wed 	 7c 	 57%
18:00Wed 	 6c 	 55%
19:00Wed 	 6c 	 47%
20:00Wed 	 5c 	 36%
21:00Wed 	 5c 	 29%
22:00Wed 	 5c 	 32%
23:00Wed 	 5c 	 38%


00:00Wed 	 4c 	 4%
01:00Wed 	 4c 	 4%
02:00Wed 	 4c 	 6%
03:00Wed 	 4c 	 8%
04:00Wed 	 3c 	 7%
05:00Wed 	 4c 	 5%
06:00Wed 	 3c 	 7%
07:00Wed 	 4c 	 13%
08:00Wed 	 4c 	 29%
09:00Wed 	 5c 	 44%
10:00Wed 	 6c 	 48%
11:00Wed 	 6c 	 51%
12:00Wed 	 7c 	 54%
13:00Wed 	 7c 	 57%
14:00Wed 	 7c 	 61%
15:00Wed 	 7c 	 64%
16:00Wed 	 7c 	 60%
17:00Wed 	 7c 	 57%
18:00Wed 	 6c 	 55%
19:00Wed 	 6c 	 47%
20:00Wed 	 5c 	 36%
21:00Wed 	 5c 	 29%
22:00Wed 	 5c 	 32%
23:00Wed 	 5c 	 38%


00:00Wed 	 4c 	 4%
01:00Wed 	 4c 	 4%
02:00Wed 	 4c 	 6%
03:00Wed 	 4c 	 8%
04:00Wed 	 3c 	 7%
05:00Wed 	 4c 	 5%
06:00Wed 	 3c 	 7%
07:00Wed 	 4c 	 13%
08:00Wed 	 4c 	 29%
09:00Wed 	 5c 	 44%
10:00Wed 	 6c 	 48%
11:00Wed 	 6c 	 51%
12:00Wed 	 7c 	 54%
13:00Wed 	 7c 	 57%
14:00Wed 	 7c 	 61%
15:00Wed 	 7c 	 64%
16:00Wed 	 7c 	 60%
17:00Wed 	 7c 	 57%
18:00Wed 	 6c 	 55%
19:00Wed 	 6c 	 47%
20:00Wed 	 5c 	 36%
21:00Wed 	 5c 	 29%
22:00Wed 	 5c 	 32%
23:00Wed 	 5c 	 38%


00:00Wed 	 4c 	 4%
01:00Wed 	 4c 	 4%
02:00Wed 	 4c 	 6%
03:00Wed 	 4c 	 8%
04:00Wed 	 3c 	 7%
05:00Wed 	 4c 	 5%
06:00Wed 	 3c 	 7%
07:00Wed 	 4c 	 13%
08:00Wed 	 4c 	 29%
09:00Wed 	 5c 	 44%
10:00Wed 	 6c 	 48%
11:00Wed 	 6c 	 51%
12:00Wed 	 7c 	 54%
13:00Wed 	 7c 	 57%
14:00Wed 	 7c 	 61%
15:00Wed 	 7c 	 64%
16:00Wed 	 7c 	 60%
17:00Wed 	 7c 	 57%
18:00Wed 	 6c 	 55%
19:00Wed 	 6c 	 47%
20:00Wed 	 5c 	 36%
21:00Wed 	 5c 	 29%
22:00Wed 	 5c 	 32%
23:00Wed 	 5c 	 38%


00:00Wed 	 4c 	 4%
01:00Wed 	 4c 	 4%
02:00Wed 	 4c 	 6%
03:00Wed 	 4c 	 8%
04:00Wed 	 3c 	 7%
05:00Wed 	 4c 	 5%
06:00Wed 	 3c 	 7%
07:00Wed 	 4c 	 13%
08:00Wed 	 4c 	 29%
09:00Wed 	 5c 	 44%
10:00Wed 	 6c 	 48%
11:00Wed 	 6c 	 51%
12:00Wed 	 7c 	 54%
13:00Wed 	 7c 	 57%
14:00Wed 	 7c 	 61%
15:00Wed 	 7c 	 64%
16:00Wed 	 7c 	 60%
17:00Wed 	 7c 	 57%
18:00Wed 	 6c 	 55%
19:00Wed 	 6c 	 46%
20:00Wed 	 5c 	 33%
21:00Wed 	 5c 	 24%
22:00Wed 	 5c 	 22%
23:00Wed 	 5c 	 21%


00:00Wed 	 4c 	 4%
01:00Wed 	 4c 	 4%
02:00Wed 	 4c 	 6%
03:00Wed 	 4c 	 8%
04:00Wed 	 3c 	 7%
05:00Wed 	 4c 	 5%
06:00Wed 	 3c 	 7%
07:00Wed 	 4c 	 13%
08:00Wed 	 4c 	 29%
09:00Wed 	 5c 	 44%
10:00Wed 	 6c 	 48%
11:00Wed 	 6c 	 51%
12:00Wed 	 7c 	 54%
13:00Wed 	 7c 	 57%
14:00Wed 	 7c 	 61%
15:00Wed 	 7c 	 64%
16:00Wed 	 7c 	 60%
17:00Wed 	 7c 	 57%
18:00Wed 	 6c 	 55%
19:00Wed 	 6c 	 46%
20:00Wed 	 5c 	 33%
21:00Wed 	 5c 	 24%
22:00Wed 	 5c 	 22%
23:00Wed 	 5c 	 21%


00:00Wed 	 4c 	 4%
01:00Wed 	 4c 	 4%
02:00Wed 	 4c 	 6%
03:00Wed 	 4c 	 8%
04:00Wed 	 3c 	 7%
05:00Wed 	 4c 	 5%
06:00Wed 	 3c 	 7%
07:00Wed 	 4c 	 13%
08:00Wed 	 4c 	 29%
09:00Wed 	 5c 	 44%
10:00Wed 	 6c 	 48%
11:00Wed 	 6c 	 51%
12:00Wed 	 7c 	 54%
13:00Wed 	 7c 	 57%
14:00Wed 	 7c 	 61%
15:00Wed 	 7c 	 64%
16:00Wed 	 7c 	 60%
17:00Wed 	 7c 	 57%
18:00Wed 	 6c 	 55%
19:00Wed 	 6c 	 46%
20:00Wed 	 5c 	 33%
21:00Wed 	 5c 	 24%
22:00Wed 	 5c 	 22%
23:00Wed 	 5c 	 21%


00:00Wed 	 4c 	 4%
01:00Wed 	 4c 	 4%
02:00Wed 	 4c 	 6%
03:00Wed 	 4c 	 8%
04:00Wed 	 3c 	 7%
05:00Wed 	 4c 	 5%
06:00Wed 	 3c 	 7%
07:00Wed 	 4c 	 13%
08:00Wed 	 4c 	 29%
09:00Wed 	 5c 	 44%
10:00Wed 	 6c 	 48%
11:00Wed 	 6c 	 51%
12:00Wed 	 7c 	 54%
13:00Wed 	 7c 	 57%
14:00Wed 	 7c 	 61%
15:00Wed 	 7c 	 64%
16:00Wed 	 7c 	 60%
17:00Wed 	 7c 	 57%
18:00Wed 	 6c 	 55%
19:00Wed 	 6c 	 46%
20:00Wed 	 5c 	 33%
21:00Wed 	 5c 	 24%
22:00Wed 	 5c 	 22%
23:00Wed 	 5c 	 21%


00:00Wed 	 4c 	 4%
01:00Wed 	 4c 	 4%
02:00Wed 	 4c 	 6%
03:00Wed 	 4c 	 8%
04:00Wed 	 3c 	 7%
05:00Wed 	 4c 	 5%
06:00Wed 	 3c 	 7%
07:00Wed 	 4c 	 13%
08:00Wed 	 4c 	 29%
09:00Wed 	 5c 	 44%
10:00Wed 	 6c 	 48%
11:00Wed 	 6c 	 51%
12:00Wed 	 7c 	 54%
13:00Wed 	 7c 	 57%
14:00Wed 	 7c 	 61%
15:00Wed 	 7c 	 64%
16:00Wed 	 7c 	 60%
17:00Wed 	 7c 	 57%
18:00Wed 	 6c 	 55%
19:00Wed 	 6c 	 46%
20:00Wed 	 5c 	 33%
21:00Wed 	 5c 	 24%
22:00Wed 	 5c 	 22%
23:00Wed 	 5c 	 21%


00:00Wed 	 4c 	 4%
01:00Wed 	 4c 	 4%
02:00Wed 	 4c 	 6%
03:00Wed 	 4c 	 8%
04:00Wed 	 3c 	 7%
05:00Wed 	 4c 	 5%
06:00Wed 	 3c 	 7%
07:00Wed 	 4c 	 13%
08:00Wed 	 4c 	 29%
09:00Wed 	 5c 	 44%
10:00Wed 	 6c 	 48%
11:00Wed 	 6c 	 51%
12:00Wed 	 7c 	 54%
13:00Wed 	 7c 	 57%
14:00Wed 	 7c 	 61%
15:00Wed 	 7c 	 64%
16:00Wed 	 7c 	 60%
17:00Wed 	 7c 	 57%
18:00Wed 	 6c 	 55%
19:00Wed 	 6c 	 46%
20:00Wed 	 5c 	 33%
21:00Wed 	 5c 	 24%
22:00Wed 	 5c 	 22%
23:00Wed 	 5c 	 21%


00:00Wed 	 4c 	 4%
01:00Wed 	 4c 	 4%
02:00Wed 	 4c 	 6%
03:00Wed 	 4c 	 8%
04:00Wed 	 3c 	 7%
05:00Wed 	 4c 	 5%
06:00Wed 	 3c 	 7%
07:00Wed 	 4c 	 13%
08:00Wed 	 4c 	 29%
09:00Wed 	 5c 	 44%
10:00Wed 	 6c 	 48%
11:00Wed 	 6c 	 51%
12:00Wed 	 7c 	 54%
13:00Wed 	 7c 	 57%
14:00Wed 	 7c 	 61%
15:00Wed 	 7c 	 64%
16:00Wed 	 7c 	 60%
17:00Wed 	 7c 	 57%
18:00Wed 	 6c 	 55%
19:00Wed 	 6c 	 46%
20:00Wed 	 5c 	 33%
21:00Wed 	 5c 	 24%
22:00Wed 	 5c 	 22%
23:00Wed 	 5c 	 21%


00:00Wed 	 4c 	 4%
01:00Wed 	 4c 	 4%
02:00Wed 	 4c 	 6%
03:00Wed 	 4c 	 8%
04:00Wed 	 3c 	 7%
05:00Wed 	 4c 	 5%
06:00Wed 	 3c 	 7%
07:00Wed 	 4c 	 13%
08:00Wed 	 4c 	 29%
09:00Wed 	 5c 	 44%
10:00Wed 	 6c 	 48%
11:00Wed 	 6c 	 51%
12:00Wed 	 7c 	 54%
13:00Wed 	 7c 	 57%
14:00Wed 	 7c 	 61%
15:00Wed 	 7c 	 64%
16:00Wed 	 7c 	 60%
17:00Wed 	 7c 	 57%
18:00Wed 	 6c 	 55%
19:00Wed 	 6c 	 46%
20:00Wed 	 5c 	 33%
21:00Wed 	 5c 	 24%
22:00Wed 	 5c 	 22%
23:00Wed 	 5c 	 21%


00:00Wed 	 4c 	 4%
01:00Wed 	 4c 	 4%
02:00Wed 	 4c 	 6%
03:00Wed 	 4c 	 8%
04:00Wed 	 3c 	 7%
05:00Wed 	 4c 	 5%
06:00Wed 	 3c 	 7%
07:00Wed 	 4c 	 13%
08:00Wed 	 4c 	 29%
09:00Wed 	 5c 	 44%
10:00Wed 	 6c 	 48%
11:00Wed 	 6c 	 51%
12:00Wed 	 7c 	 54%
13:00Wed 	 7c 	 57%
14:00Wed 	 7c 	 61%
15:00Wed 	 7c 	 64%
16:00Wed 	 7c 	 60%
17:00Wed 	 7c 	 57%
18:00Wed 	 6c 	 55%
19:00Wed 	 6c 	 46%
20:00Wed 	 5c 	 33%
21:00Wed 	 4c 	 24%
22:00Wed 	 4c 	 22%
23:00Wed 	 4c 	 21%


00:00Wed 	 4c 	 4%
01:00Wed 	 4c 	 4%
02:00Wed 	 4c 	 6%
03:00Wed 	 4c 	 8%
04:00Wed 	 3c 	 7%
05:00Wed 	 4c 	 5%
06:00Wed 	 3c 	 7%
07:00Wed 	 4c 	 13%
08:00Wed 	 4c 	 29%
09:00Wed 	 5c 	 44%
10:00Wed 	 6c 	 48%
11:00Wed 	 6c 	 51%
12:00Wed 	 7c 	 54%
13:00Wed 	 7c 	 57%
14:00Wed 	 7c 	 61%
15:00Wed 	 7c 	 64%
16:00Wed 	 7c 	 60%
17:00Wed 	 7c 	 57%
18:00Wed 	 6c 	 55%
19:00Wed 	 6c 	 46%
20:00Wed 	 5c 	 33%
21:00Wed 	 4c 	 24%
22:00Wed 	 4c 	 22%
23:00Wed 	 4c 	 21%


00:00Wed 	 4c 	 4%
01:00Wed 	 4c 	 4%
02:00Wed 	 4c 	 6%
03:00Wed 	 4c 	 8%
04:00Wed 	 3c 	 7%
05:00Wed 	 4c 	 5%
06:00Wed 	 3c 	 7%
07:00Wed 	 4c 	 13%
08:00Wed 	 4c 	 29%
09:00Wed 	 5c 	 44%
10:00Wed 	 6c 	 48%
11:00Wed 	 6c 	 51%
12:00Wed 	 7c 	 54%
13:00Wed 	 7c 	 57%
14:00Wed 	 7c 	 61%
15:00Wed 	 7c 	 64%
16:00Wed 	 7c 	 60%
17:00Wed 	 7c 	 57%
18:00Wed 	 6c 	 55%
19:00Wed 	 6c 	 46%
20:00Wed 	 5c 	 33%
21:00Wed 	 4c 	 24%
22:00Wed 	 4c 	 22%
23:00Wed 	 4c 	 21%


00:00Wed 	 4c 	 4%
01:00Wed 	 4c 	 4%
02:00Wed 	 4c 	 6%
03:00Wed 	 4c 	 8%
04:00Wed 	 3c 	 7%
05:00Wed 	 4c 	 5%
06:00Wed 	 3c 	 7%
07:00Wed 	 4c 	 13%
08:00Wed 	 4c 	 29%
09:00Wed 	 5c 	 44%
10:00Wed 	 6c 	 48%
11:00Wed 	 6c 	 51%
12:00Wed 	 7c 	 54%
13:00Wed 	 7c 	 57%
14:00Wed 	 7c 	 61%
15:00Wed 	 7c 	 64%
16:00Wed 	 7c 	 60%
17:00Wed 	 7c 	 57%
18:00Wed 	 6c 	 55%
19:00Wed 	 6c 	 46%
20:00Wed 	 5c 	 33%
21:00Wed 	 4c 	 24%
22:00Wed 	 4c 	 22%
23:00Wed 	 4c 	 21%


00:00Wed 	 4c 	 4%
01:00Wed 	 4c 	 4%
02:00Wed 	 4c 	 6%
03:00Wed 	 4c 	 8%
04:00Wed 	 3c 	 7%
05:00Wed 	 4c 	 5%
06:00Wed 	 3c 	 7%
07:00Wed 	 4c 	 13%
08:00Wed 	 4c 	 29%
09:00Wed 	 5c 	 44%
10:00Wed 	 6c 	 48%
11:00Wed 	 6c 	 51%
12:00Wed 	 7c 	 54%
13:00Wed 	 7c 	 57%
14:00Wed 	 7c 	 61%
15:00Wed 	 7c 	 64%
16:00Wed 	 7c 	 60%
17:00Wed 	 7c 	 57%
18:00Wed 	 6c 	 55%
19:00Wed 	 6c 	 46%
20:00Wed 	 5c 	 33%
21:00Wed 	 4c 	 24%
22:00Wed 	 4c 	 22%
23:00Wed 	 4c 	 21%


00:00Wed 	 4c 	 4%
01:00Wed 	 4c 	 4%
02:00Wed 	 4c 	 6%
03:00Wed 	 4c 	 8%
04:00Wed 	 3c 	 7%
05:00Wed 	 4c 	 5%
06:00Wed 	 3c 	 7%
07:00Wed 	 4c 	 13%
08:00Wed 	 4c 	 29%
09:00Wed 	 5c 	 44%
10:00Wed 	 6c 	 48%
11:00Wed 	 6c 	 51%
12:00Wed 	 7c 	 54%
13:00Wed 	 7c 	 57%
14:00Wed 	 7c 	 61%
15:00Wed 	 7c 	 64%
16:00Wed 	 7c 	 60%
17:00Wed 	 7c 	 57%
18:00Wed 	 6c 	 55%
19:00Wed 	 6c 	 46%
20:00Wed 	 5c 	 33%
21:00Wed 	 4c 	 24%
22:00Wed 	 4c 	 22%
23:00Wed 	 4c 	 21%


00:00Wed 	 4c 	 4%
01:00Wed 	 4c 	 4%
02:00Wed 	 4c 	 6%
03:00Wed 	 4c 	 8%
04:00Wed 	 3c 	 7%
05:00Wed 	 4c 	 5%
06:00Wed 	 3c 	 7%
07:00Wed 	 4c 	 13%
08:00Wed 	 4c 	 29%
09:00Wed 	 5c 	 44%
10:00Wed 	 6c 	 48%
11:00Wed 	 6c 	 51%
12:00Wed 	 7c 	 54%
13:00Wed 	 7c 	 57%
14:00Wed 	 7c 	 61%
15:00Wed 	 7c 	 64%
16:00Wed 	 7c 	 60%
17:00Wed 	 7c 	 57%
18:00Wed 	 6c 	 55%
19:00Wed 	 6c 	 46%
20:00Wed 	 5c 	 33%
21:00Wed 	 4c 	 24%
22:00Wed 	 4c 	 22%
23:00Wed 	 4c 	 21%


00:00Wed 	 4c 	 4%
01:00Wed 	 4c 	 4%
02:00Wed 	 4c 	 6%
03:00Wed 	 4c 	 8%
04:00Wed 	 3c 	 7%
05:00Wed 	 4c 	 5%
06:00Wed 	 3c 	 7%
07:00Wed 	 4c 	 13%
08:00Wed 	 4c 	 29%
09:00Wed 	 5c 	 44%
10:00Wed 	 6c 	 48%
11:00Wed 	 6c 	 51%
12:00Wed 	 7c 	 54%
13:00Wed 	 7c 	 57%
14:00Wed 	 7c 	 61%
15:00Wed 	 7c 	 64%
16:00Wed 	 7c 	 60%
17:00Wed 	 7c 	 57%
18:00Wed 	 6c 	 55%
19:00Wed 	 6c 	 46%
20:00Wed 	 5c 	 33%
21:00Wed 	 4c 	 24%
22:00Wed 	 4c 	 22%
23:00Wed 	 4c 	 21%


00:00Wed 	 4c 	 4%
01:00Wed 	 4c 	 4%
02:00Wed 	 4c 	 6%
03:00Wed 	 4c 	 8%
04:00Wed 	 3c 	 7%
05:00Wed 	 4c 	 5%
06:00Wed 	 3c 	 7%
07:00Wed 	 4c 	 13%
08:00Wed 	 4c 	 29%
09:00Wed 	 5c 	 44%
10:00Wed 	 6c 	 48%
11:00Wed 	 6c 	 51%
12:00Wed 	 7c 	 54%
13:00Wed 	 7c 	 57%
14:00Wed 	 7c 	 61%
15:00Wed 	 7c 	 64%
16:00Wed 	 7c 	 60%
17:00Wed 	 7c 	 57%
18:00Wed 	 6c 	 55%
19:00Wed 	 6c 	 46%
20:00Wed 	 5c 	 33%
21:00Wed 	 4c 	 24%
22:00Wed 	 4c 	 22%
23:00Wed 	 4c 	 21%


00:00Wed 	 4c 	 4%
01:00Wed 	 4c 	 4%
02:00Wed 	 4c 	 6%
03:00Wed 	 4c 	 8%
04:00Wed 	 3c 	 7%
05:00Wed 	 4c 	 5%
06:00Wed 	 3c 	 7%
07:00Wed 	 4c 	 13%
08:00Wed 	 4c 	 29%
09:00Wed 	 5c 	 44%
10:00Wed 	 6c 	 48%
11:00Wed 	 6c 	 51%
12:00Wed 	 7c 	 54%
13:00Wed 	 7c 	 57%
14:00Wed 	 7c 	 61%
15:00Wed 	 7c 	 64%
16:00Wed 	 7c 	 60%
17:00Wed 	 7c 	 57%
18:00Wed 	 6c 	 55%
19:00Wed 	 6c 	 46%
20:00Wed 	 5c 	 33%
21:00Wed 	 4c 	 24%
22:00Wed 	 4c 	 22%
23:00Wed 	 4c 	 21%


00:00Wed 	 4c 	 4%
01:00Wed 	 4c 	 4%
02:00Wed 	 4c 	 6%
03:00Wed 	 4c 	 8%
04:00Wed 	 3c 	 7%
05:00Wed 	 4c 	 5%
06:00Wed 	 3c 	 7%
07:00Wed 	 4c 	 13%
08:00Wed 	 4c 	 29%
09:00Wed 	 5c 	 44%
10:00Wed 	 6c 	 48%
11:00Wed 	 6c 	 51%
12:00Wed 	 7c 	 54%
13:00Wed 	 7c 	 57%
14:00Wed 	 7c 	 61%
15:00Wed 	 7c 	 64%
16:00Wed 	 7c 	 60%
17:00Wed 	 7c 	 57%
18:00Wed 	 6c 	 55%
19:00Wed 	 6c 	 46%
20:00Wed 	 5c 	 33%
21:00Wed 	 4c 	 24%
22:00Wed 	 4c 	 22%
23:00Wed 	 4c 	 21%


00:00Wed 	 4c 	 4%
01:00Wed 	 4c 	 4%
02:00Wed 	 4c 	 6%
03:00Wed 	 4c 	 8%
04:00Wed 	 3c 	 7%
05:00Wed 	 4c 	 5%
06:00Wed 	 3c 	 7%
07:00Wed 	 4c 	 13%
08:00Wed 	 4c 	 29%
09:00Wed 	 5c 	 44%
10:00Wed 	 6c 	 48%
11:00Wed 	 6c 	 51%
12:00Wed 	 7c 	 54%
13:00Wed 	 7c 	 57%
14:00Wed 	 7c 	 61%
15:00Wed 	 7c 	 64%
16:00Wed 	 7c 	 60%
17:00Wed 	 7c 	 57%
18:00Wed 	 6c 	 55%
19:00Wed 	 6c 	 46%
20:00Wed 	 5c 	 33%
21:00Wed 	 4c 	 24%
22:00Wed 	 4c 	 22%
23:00Wed 	 4c 	 21%


00:00Wed 	 4c 	 4%
01:00Wed 	 4c 	 4%
02:00Wed 	 4c 	 6%
03:00Wed 	 4c 	 8%
04:00Wed 	 3c 	 7%
05:00Wed 	 4c 	 5%
06:00Wed 	 3c 	 7%
07:00Wed 	 4c 	 13%
08:00Wed 	 4c 	 29%
09:00Wed 	 5c 	 44%
10:00Wed 	 6c 	 48%
11:00Wed 	 6c 	 51%
12:00Wed 	 7c 	 54%
13:00Wed 	 7c 	 57%
14:00Wed 	 7c 	 61%
15:00Wed 	 7c 	 64%
16:00Wed 	 7c 	 60%
17:00Wed 	 7c 	 57%
18:00Wed 	 6c 	 55%
19:00Wed 	 6c 	 46%
20:00Wed 	 5c 	 33%
21:00Wed 	 4c 	 24%
22:00Wed 	 4c 	 22%
23:00Wed 	 4c 	 21%


00:00Wed 	 4c 	 4%
01:00Wed 	 4c 	 4%
02:00Wed 	 4c 	 6%
03:00Wed 	 4c 	 8%
04:00Wed 	 3c 	 7%
05:00Wed 	 4c 	 5%
06:00Wed 	 3c 	 7%
07:00Wed 	 4c 	 13%
08:00Wed 	 4c 	 29%
09:00Wed 	 5c 	 44%
10:00Wed 	 6c 	 48%
11:00Wed 	 6c 	 51%
12:00Wed 	 7c 	 54%
13:00Wed 	 7c 	 57%
14:00Wed 	 7c 	 61%
15:00Wed 	 7c 	 64%
16:00Wed 	 7c 	 60%
17:00Wed 	 7c 	 57%
18:00Wed 	 6c 	 55%
19:00Wed 	 6c 	 46%
20:00Wed 	 5c 	 33%
21:00Wed 	 4c 	 24%
22:00Wed 	 4c 	 22%
23:00Wed 	 4c 	 21%


00:00Wed 	 4c 	 4%
01:00Wed 	 4c 	 4%
02:00Wed 	 4c 	 6%
03:00Wed 	 4c 	 8%
04:00Wed 	 3c 	 7%
05:00Wed 	 4c 	 5%
06:00Wed 	 3c 	 7%
07:00Wed 	 4c 	 13%
08:00Wed 	 4c 	 29%
09:00Wed 	 5c 	 44%
10:00Wed 	 6c 	 48%
11:00Wed 	 6c 	 51%
12:00Wed 	 7c 	 54%
13:00Wed 	 7c 	 57%
14:00Wed 	 7c 	 61%
15:00Wed 	 7c 	 64%
16:00Wed 	 7c 	 60%
17:00Wed 	 7c 	 57%
18:00Wed 	 6c 	 55%
19:00Wed 	 6c 	 46%
20:00Wed 	 5c 	 33%
21:00Wed 	 4c 	 24%
22:00Wed 	 4c 	 22%
23:00Wed 	 4c 	 21%


00:00Wed 	 4c 	 4%
01:00Wed 	 4c 	 4%
02:00Wed 	 4c 	 6%
03:00Wed 	 4c 	 8%
04:00Wed 	 3c 	 7%
05:00Wed 	 4c 	 5%
06:00Wed 	 3c 	 7%
07:00Wed 	 4c 	 13%
08:00Wed 	 4c 	 29%
09:00Wed 	 5c 	 44%
10:00Wed 	 6c 	 48%
11:00Wed 	 6c 	 51%
12:00Wed 	 7c 	 54%
13:00Wed 	 7c 	 57%
14:00Wed 	 7c 	 61%
15:00Wed 	 7c 	 64%
16:00Wed 	 7c 	 60%
17:00Wed 	 7c 	 57%
18:00Wed 	 6c 	 55%
19:00Wed 	 6c 	 46%
20:00Wed 	 5c 	 33%
21:00Wed 	 4c 	 24%
22:00Wed 	 4c 	 22%
23:00Wed 	 4c 	 21%


00:00Wed 	 4c 	 4%
01:00Wed 	 4c 	 4%
02:00Wed 	 4c 	 6%
03:00Wed 	 4c 	 8%
04:00Wed 	 3c 	 7%
05:00Wed 	 4c 	 5%
06:00Wed 	 3c 	 7%
07:00Wed 	 4c 	 13%
08:00Wed 	 4c 	 29%
09:00Wed 	 5c 	 44%
10:00Wed 	 6c 	 48%
11:00Wed 	 6c 	 51%
12:00Wed 	 7c 	 54%
13:00Wed 	 7c 	 57%
14:00Wed 	 7c 	 61%
15:00Wed 	 7c 	 64%
16:00Wed 	 7c 	 60%
17:00Wed 	 7c 	 57%
18:00Wed 	 6c 	 55%
19:00Wed 	 6c 	 46%
20:00Wed 	 5c 	 33%
21:00Wed 	 4c 	 24%
22:00Wed 	 4c 	 22%
23:00Wed 	 4c 	 21%


00:00Wed 	 4c 	 4%
01:00Wed 	 4c 	 4%
02:00Wed 	 4c 	 6%
03:00Wed 	 4c 	 8%
04:00Wed 	 3c 	 7%
05:00Wed 	 4c 	 5%
06:00Wed 	 3c 	 7%
07:00Wed 	 4c 	 13%
08:00Wed 	 4c 	 29%
09:00Wed 	 5c 	 44%
10:00Wed 	 6c 	 48%
11:00Wed 	 6c 	 51%
12:00Wed 	 7c 	 54%
13:00Wed 	 7c 	 57%
14:00Wed 	 7c 	 61%
15:00Wed 	 7c 	 64%
16:00Wed 	 7c 	 60%
17:00Wed 	 7c 	 57%
18:00Wed 	 6c 	 55%
19:00Wed 	 6c 	 46%
20:00Wed 	 5c 	 33%
21:00Wed 	 4c 	 24%
22:00Wed 	 4c 	 22%
23:00Wed 	 4c 	 21%


00:00Wed 	 4c 	 4%
01:00Wed 	 4c 	 4%
02:00Wed 	 4c 	 6%
03:00Wed 	 4c 	 8%
04:00Wed 	 3c 	 7%
05:00Wed 	 4c 	 5%
06:00Wed 	 3c 	 7%
07:00Wed 	 4c 	 13%
08:00Wed 	 4c 	 29%
09:00Wed 	 5c 	 44%
10:00Wed 	 6c 	 48%
11:00Wed 	 6c 	 51%
12:00Wed 	 7c 	 54%
13:00Wed 	 7c 	 57%
14:00Wed 	 7c 	 61%
15:00Wed 	 7c 	 64%
16:00Wed 	 7c 	 60%
17:00Wed 	 7c 	 57%
18:00Wed 	 6c 	 55%
19:00Wed 	 6c 	 46%
20:00Wed 	 5c 	 33%
21:00Wed 	 4c 	 24%
22:00Wed 	 4c 	 22%
23:00Wed 	 4c 	 21%


00:00Wed 	 4c 	 4%
01:00Wed 	 4c 	 4%
02:00Wed 	 4c 	 6%
03:00Wed 	 4c 	 8%
04:00Wed 	 3c 	 7%
05:00Wed 	 4c 	 5%
06:00Wed 	 3c 	 7%
07:00Wed 	 4c 	 13%
08:00Wed 	 4c 	 29%
09:00Wed 	 5c 	 44%
10:00Wed 	 6c 	 48%
11:00Wed 	 6c 	 51%
12:00Wed 	 7c 	 54%
13:00Wed 	 7c 	 57%
14:00Wed 	 7c 	 61%
15:00Wed 	 7c 	 64%
16:00Wed 	 7c 	 60%
17:00Wed 	 7c 	 57%
18:00Wed 	 6c 	 55%
19:00Wed 	 6c 	 46%
20:00Wed 	 5c 	 33%
21:00Wed 	 4c 	 24%
22:00Wed 	 4c 	 22%
23:00Wed 	 4c 	 21%


00:00Wed 	 4c 	 4%
01:00Wed 	 4c 	 4%
02:00Wed 	 4c 	 6%
03:00Wed 	 4c 	 8%
04:00Wed 	 3c 	 7%
05:00Wed 	 4c 	 5%
06:00Wed 	 3c 	 7%
07:00Wed 	 4c 	 13%
08:00Wed 	 4c 	 29%
09:00Wed 	 5c 	 44%
10:00Wed 	 6c 	 48%
11:00Wed 	 6c 	 51%
12:00Wed 	 7c 	 54%
13:00Wed 	 7c 	 57%
14:00Wed 	 7c 	 61%
15:00Wed 	 7c 	 64%
16:00Wed 	 7c 	 60%
17:00Wed 	 7c 	 57%
18:00Wed 	 6c 	 55%
19:00Wed 	 6c 	 46%
20:00Wed 	 5c 	 33%
21:00Wed 	 4c 	 24%
22:00Wed 	 4c 	 22%
23:00Wed 	 4c 	 21%


00:00Wed 	 4c 	 4%
01:00Wed 	 4c 	 4%
02:00Wed 	 4c 	 6%
03:00Wed 	 4c 	 8%
04:00Wed 	 3c 	 7%
05:00Wed 	 4c 	 5%
06:00Wed 	 3c 	 7%
07:00Wed 	 4c 	 13%
08:00Wed 	 4c 	 29%
09:00Wed 	 5c 	 44%
10:00Wed 	 6c 	 48%
11:00Wed 	 6c 	 51%
12:00Wed 	 7c 	 54%
13:00Wed 	 7c 	 57%
14:00Wed 	 7c 	 61%
15:00Wed 	 7c 	 64%
16:00Wed 	 7c 	 60%
17:00Wed 	 7c 	 57%
18:00Wed 	 6c 	 55%
19:00Wed 	 6c 	 46%
20:00Wed 	 5c 	 33%
21:00Wed 	 4c 	 24%
22:00Wed 	 4c 	 22%
23:00Wed 	 4c 	 21%


00:00Wed 	 4c 	 4%
01:00Wed 	 4c 	 4%
02:00Wed 	 4c 	 6%
03:00Wed 	 4c 	 8%
04:00Wed 	 3c 	 7%
05:00Wed 	 4c 	 5%
06:00Wed 	 3c 	 7%
07:00Wed 	 4c 	 13%
08:00Wed 	 4c 	 29%
09:00Wed 	 5c 	 44%
10:00Wed 	 6c 	 48%
11:00Wed 	 6c 	 51%
12:00Wed 	 7c 	 54%
13:00Wed 	 7c 	 57%
14:00Wed 	 7c 	 61%
15:00Wed 	 7c 	 64%
16:00Wed 	 7c 	 60%
17:00Wed 	 7c 	 57%
18:00Wed 	 6c 	 55%
19:00Wed 	 6c 	 46%
20:00Wed 	 5c 	 33%
21:00Wed 	 4c 	 24%
22:00Wed 	 4c 	 22%
23:00Wed 	 4c 	 21%


00:00Wed 	 4c 	 4%
01:00Wed 	 4c 	 4%
02:00Wed 	 4c 	 6%
03:00Wed 	 4c 	 8%
04:00Wed 	 3c 	 7%
05:00Wed 	 4c 	 5%
06:00Wed 	 3c 	 7%
07:00Wed 	 4c 	 13%
08:00Wed 	 4c 	 29%
09:00Wed 	 5c 	 44%
10:00Wed 	 6c 	 48%
11:00Wed 	 6c 	 51%
12:00Wed 	 7c 	 54%
13:00Wed 	 7c 	 57%
14:00Wed 	 7c 	 61%
15:00Wed 	 7c 	 64%
16:00Wed 	 7c 	 60%
17:00Wed 	 7c 	 57%
18:00Wed 	 6c 	 55%
19:00Wed 	 6c 	 46%
20:00Wed 	 5c 	 33%
21:00Wed 	 4c 	 24%
22:00Wed 	 4c 	 22%
23:00Wed 	 4c 	 21%


00:00Wed 	 4c 	 4%
01:00Wed 	 4c 	 4%
02:00Wed 	 4c 	 6%
03:00Wed 	 4c 	 8%
04:00Wed 	 3c 	 7%
05:00Wed 	 4c 	 5%
06:00Wed 	 3c 	 7%
07:00Wed 	 4c 	 13%
08:00Wed 	 4c 	 29%
09:00Wed 	 5c 	 44%
10:00Wed 	 6c 	 48%
11:00Wed 	 6c 	 51%
12:00Wed 	 7c 	 54%
13:00Wed 	 7c 	 57%
14:00Wed 	 7c 	 61%
15:00Wed 	 7c 	 64%
16:00Wed 	 7c 	 60%
17:00Wed 	 7c 	 57%
18:00Wed 	 6c 	 55%
19:00Wed 	 6c 	 46%
20:00Wed 	 5c 	 33%
21:00Wed 	 4c 	 24%
22:00Wed 	 4c 	 22%
23:00Wed 	 4c 	 21%


00:00Wed 	 4c 	 4%
01:00Wed 	 4c 	 4%
02:00Wed 	 4c 	 6%
03:00Wed 	 4c 	 8%
04:00Wed 	 3c 	 7%
05:00Wed 	 4c 	 5%
06:00Wed 	 3c 	 7%
07:00Wed 	 4c 	 13%
08:00Wed 	 4c 	 29%
09:00Wed 	 5c 	 44%
10:00Wed 	 6c 	 48%
11:00Wed 	 6c 	 51%
12:00Wed 	 7c 	 54%
13:00Wed 	 7c 	 57%
14:00Wed 	 7c 	 61%
15:00Wed 	 7c 	 64%
16:00Wed 	 7c 	 60%
17:00Wed 	 7c 	 57%
18:00Wed 	 6c 	 55%
19:00Wed 	 6c 	 46%
20:00Wed 	 5c 	 33%
21:00Wed 	 4c 	 24%
22:00Wed 	 4c 	 22%
23:00Wed 	 4c 	 21%


00:00Wed 	 4c 	 4%
01:00Wed 	 4c 	 4%
02:00Wed 	 4c 	 6%
03:00Wed 	 4c 	 8%
04:00Wed 	 3c 	 7%
05:00Wed 	 4c 	 5%
06:00Wed 	 3c 	 7%
07:00Wed 	 4c 	 13%
08:00Wed 	 4c 	 29%
09:00Wed 	 5c 	 44%
10:00Wed 	 6c 	 48%
11:00Wed 	 6c 	 51%
12:00Wed 	 7c 	 54%
13:00Wed 	 7c 	 57%
14:00Wed 	 7c 	 61%
15:00Wed 	 7c 	 64%
16:00Wed 	 7c 	 60%
17:00Wed 	 7c 	 57%
18:00Wed 	 6c 	 55%
19:00Wed 	 6c 	 46%
20:00Wed 	 5c 	 33%
21:00Wed 	 4c 	 24%
22:00Wed 	 4c 	 22%
23:00Wed 	 4c 	 21%


00:00Wed 	 4c 	 4%
01:00Wed 	 4c 	 4%
02:00Wed 	 4c 	 6%
03:00Wed 	 4c 	 8%
04:00Wed 	 3c 	 7%
05:00Wed 	 4c 	 5%
06:00Wed 	 3c 	 7%
07:00Wed 	 4c 	 13%
08:00Wed 	 4c 	 29%
09:00Wed 	 5c 	 44%
10:00Wed 	 6c 	 48%
11:00Wed 	 6c 	 51%
12:00Wed 	 7c 	 54%
13:00Wed 	 7c 	 57%
14:00Wed 	 7c 	 61%
15:00Wed 	 7c 	 64%
16:00Wed 	 7c 	 60%
17:00Wed 	 7c 	 57%
18:00Wed 	 6c 	 55%
19:00Wed 	 6c 	 46%
20:00Wed 	 5c 	 33%
21:00Wed 	 4c 	 24%
22:00Wed 	 4c 	 22%
23:00Wed 	 4c 	 21%


00:00Wed 	 4c 	 4%
01:00Wed 	 4c 	 4%
02:00Wed 	 4c 	 6%
03:00Wed 	 4c 	 8%
04:00Wed 	 3c 	 7%
05:00Wed 	 4c 	 5%
06:00Wed 	 3c 	 7%
07:00Wed 	 4c 	 13%
08:00Wed 	 4c 	 29%
09:00Wed 	 5c 	 44%
10:00Wed 	 6c 	 48%
11:00Wed 	 6c 	 51%
12:00Wed 	 7c 	 54%
13:00Wed 	 7c 	 57%
14:00Wed 	 7c 	 61%
15:00Wed 	 7c 	 64%
16:00Wed 	 7c 	 60%
17:00Wed 	 7c 	 57%
18:00Wed 	 6c 	 55%
19:00Wed 	 6c 	 46%
20:00Wed 	 5c 	 33%
21:00Wed 	 4c 	 24%
22:00Wed 	 4c 	 22%
23:00Wed 	 4c 	 21%


00:00Wed 	 4c 	 4%
01:00Wed 	 4c 	 4%
02:00Wed 	 4c 	 6%
03:00Wed 	 4c 	 8%
04:00Wed 	 3c 	 7%
05:00Wed 	 4c 	 5%
06:00Wed 	 3c 	 7%
07:00Wed 	 4c 	 13%
08:00Wed 	 4c 	 29%
09:00Wed 	 5c 	 44%
10:00Wed 	 6c 	 48%
11:00Wed 	 6c 	 51%
12:00Wed 	 7c 	 54%
13:00Wed 	 7c 	 57%
14:00Wed 	 7c 	 61%
15:00Wed 	 7c 	 64%
16:00Wed 	 7c 	 60%
17:00Wed 	 7c 	 57%
18:00Wed 	 6c 	 55%
19:00Wed 	 6c 	 46%
20:00Wed 	 5c 	 33%
21:00Wed 	 4c 	 24%
22:00Wed 	 4c 	 22%
23:00Wed 	 4c 	 21%


00:00Wed 	 4c 	 4%
01:00Wed 	 4c 	 4%
02:00Wed 	 4c 	 6%
03:00Wed 	 4c 	 8%
04:00Wed 	 3c 	 7%
05:00Wed 	 4c 	 5%
06:00Wed 	 3c 	 7%
07:00Wed 	 4c 	 13%
08:00Wed 	 4c 	 29%
09:00Wed 	 5c 	 44%
10:00Wed 	 6c 	 48%
11:00Wed 	 6c 	 51%
12:00Wed 	 7c 	 54%
13:00Wed 	 7c 	 57%
14:00Wed 	 7c 	 61%
15:00Wed 	 7c 	 64%
16:00Wed 	 7c 	 60%
17:00Wed 	 7c 	 57%
18:00Wed 	 6c 	 55%
19:00Wed 	 6c 	 46%
20:00Wed 	 5c 	 33%
21:00Wed 	 4c 	 24%
22:00Wed 	 4c 	 22%
23:00Wed 	 4c 	 21%


00:00Wed 	 4c 	 4%
01:00Wed 	 4c 	 4%
02:00Wed 	 4c 	 6%
03:00Wed 	 4c 	 8%
04:00Wed 	 3c 	 7%
05:00Wed 	 4c 	 5%
06:00Wed 	 3c 	 7%
07:00Wed 	 4c 	 13%
08:00Wed 	 4c 	 29%
09:00Wed 	 5c 	 44%
10:00Wed 	 6c 	 48%
11:00Wed 	 6c 	 51%
12:00Wed 	 7c 	 54%
13:00Wed 	 7c 	 57%
14:00Wed 	 7c 	 61%
15:00Wed 	 7c 	 64%
16:00Wed 	 7c 	 60%
17:00Wed 	 7c 	 57%
18:00Wed 	 6c 	 55%
19:00Wed 	 6c 	 46%
20:00Wed 	 5c 	 33%
21:00Wed 	 4c 	 24%
22:00Wed 	 4c 	 22%
23:00Wed 	 4c 	 21%


00:00Wed 	 4c 	 4%
01:00Wed 	 4c 	 4%
02:00Wed 	 4c 	 6%
03:00Wed 	 4c 	 8%
04:00Wed 	 3c 	 7%
05:00Wed 	 4c 	 5%
06:00Wed 	 3c 	 7%
07:00Wed 	 4c 	 13%
08:00Wed 	 4c 	 29%
09:00Wed 	 5c 	 44%
10:00Wed 	 6c 	 48%
11:00Wed 	 6c 	 51%
12:00Wed 	 7c 	 54%
13:00Wed 	 7c 	 57%
14:00Wed 	 7c 	 61%
15:00Wed 	 7c 	 64%
16:00Wed 	 7c 	 60%
17:00Wed 	 7c 	 57%
18:00Wed 	 6c 	 55%
19:00Wed 	 6c 	 45%
20:00Wed 	 6c 	 30%
21:00Wed 	 5c 	 19%
22:00Wed 	 5c 	 17%
23:00Wed 	 5c 	 20%


00:00Wed 	 4c 	 4%
01:00Wed 	 4c 	 4%
02:00Wed 	 4c 	 6%
03:00Wed 	 4c 	 8%
04:00Wed 	 3c 	 7%
05:00Wed 	 4c 	 5%
06:00Wed 	 3c 	 7%
07:00Wed 	 4c 	 13%
08:00Wed 	 4c 	 29%
09:00Wed 	 5c 	 44%
10:00Wed 	 6c 	 48%
11:00Wed 	 6c 	 51%
12:00Wed 	 7c 	 54%
13:00Wed 	 7c 	 57%
14:00Wed 	 7c 	 61%
15:00Wed 	 7c 	 64%
16:00Wed 	 7c 	 60%
17:00Wed 	 7c 	 57%
18:00Wed 	 6c 	 55%
19:00Wed 	 6c 	 45%
20:00Wed 	 6c 	 30%
21:00Wed 	 5c 	 19%
22:00Wed 	 5c 	 17%
23:00Wed 	 5c 	 20%


00:00Wed 	 4c 	 4%
01:00Wed 	 4c 	 4%
02:00Wed 	 4c 	 6%
03:00Wed 	 4c 	 8%
04:00Wed 	 3c 	 7%
05:00Wed 	 4c 	 5%
06:00Wed 	 3c 	 7%
07:00Wed 	 4c 	 13%
08:00Wed 	 4c 	 29%
09:00Wed 	 5c 	 44%
10:00Wed 	 6c 	 48%
11:00Wed 	 6c 	 51%
12:00Wed 	 7c 	 54%
13:00Wed 	 7c 	 57%
14:00Wed 	 7c 	 61%
15:00Wed 	 7c 	 64%
16:00Wed 	 7c 	 60%
17:00Wed 	 7c 	 57%
18:00Wed 	 6c 	 55%
19:00Wed 	 6c 	 45%
20:00Wed 	 6c 	 30%
21:00Wed 	 5c 	 19%
22:00Wed 	 5c 	 17%
23:00Wed 	 5c 	 20%


00:00Wed 	 4c 	 4%
01:00Wed 	 4c 	 4%
02:00Wed 	 4c 	 6%
03:00Wed 	 4c 	 8%
04:00Wed 	 3c 	 7%
05:00Wed 	 4c 	 5%
06:00Wed 	 3c 	 7%
07:00Wed 	 4c 	 13%
08:00Wed 	 4c 	 29%
09:00Wed 	 5c 	 44%
10:00Wed 	 6c 	 48%
11:00Wed 	 6c 	 51%
12:00Wed 	 7c 	 54%
13:00Wed 	 7c 	 57%
14:00Wed 	 7c 	 61%
15:00Wed 	 7c 	 64%
16:00Wed 	 7c 	 60%
17:00Wed 	 7c 	 57%
18:00Wed 	 6c 	 55%
19:00Wed 	 6c 	 45%
20:00Wed 	 6c 	 30%
21:00Wed 	 5c 	 19%
22:00Wed 	 5c 	 17%
23:00Wed 	 5c 	 20%


00:00Wed 	 4c 	 2%
01:00Wed 	 4c 	 4%
02:00Wed 	 4c 	 6%
03:00Wed 	 4c 	 8%
04:00Wed 	 3c 	 7%
05:00Wed 	 4c 	 5%
06:00Wed 	 3c 	 7%
07:00Wed 	 4c 	 13%
08:00Wed 	 4c 	 29%
09:00Wed 	 5c 	 44%
10:00Wed 	 6c 	 48%
11:00Wed 	 6c 	 51%
12:00Wed 	 7c 	 54%
13:00Wed 	 7c 	 57%
14:00Wed 	 7c 	 61%
15:00Wed 	 7c 	 64%
16:00Wed 	 7c 	 60%
17:00Wed 	 7c 	 57%
18:00Wed 	 6c 	 55%
19:00Wed 	 6c 	 45%
20:00Wed 	 6c 	 30%
21:00Wed 	 5c 	 19%
22:00Wed 	 5c 	 17%
23:00Wed 	 5c 	 20%


00:00Wed 	 4c 	 2%
01:00Wed 	 4c 	 4%
02:00Wed 	 4c 	 6%
03:00Wed 	 4c 	 8%
04:00Wed 	 3c 	 7%
05:00Wed 	 4c 	 5%
06:00Wed 	 3c 	 7%
07:00Wed 	 4c 	 13%
08:00Wed 	 4c 	 29%
09:00Wed 	 5c 	 44%
10:00Wed 	 6c 	 48%
11:00Wed 	 6c 	 51%
12:00Wed 	 7c 	 54%
13:00Wed 	 7c 	 57%
14:00Wed 	 7c 	 61%
15:00Wed 	 7c 	 64%
16:00Wed 	 7c 	 60%
17:00Wed 	 7c 	 57%
18:00Wed 	 6c 	 55%
19:00Wed 	 6c 	 45%
20:00Wed 	 6c 	 30%
21:00Wed 	 5c 	 19%
22:00Wed 	 5c 	 17%
23:00Wed 	 5c 	 20%


00:00Wed 	 4c 	 2%
01:00Wed 	 4c 	 4%
02:00Wed 	 4c 	 6%
03:00Wed 	 4c 	 8%
04:00Wed 	 3c 	 7%
05:00Wed 	 4c 	 5%
06:00Wed 	 3c 	 7%
07:00Wed 	 4c 	 13%
08:00Wed 	 4c 	 29%
09:00Wed 	 5c 	 44%
10:00Wed 	 6c 	 48%
11:00Wed 	 6c 	 51%
12:00Wed 	 7c 	 54%
13:00Wed 	 7c 	 57%
14:00Wed 	 7c 	 61%
15:00Wed 	 7c 	 64%
16:00Wed 	 7c 	 60%
17:00Wed 	 7c 	 57%
18:00Wed 	 6c 	 55%
19:00Wed 	 6c 	 45%
20:00Wed 	 6c 	 30%
21:00Wed 	 5c 	 19%
22:00Wed 	 5c 	 17%
23:00Wed 	 5c 	 20%


00:00Wed 	 4c 	 2%
01:00Wed 	 4c 	 4%
02:00Wed 	 4c 	 6%
03:00Wed 	 4c 	 8%
04:00Wed 	 3c 	 7%
05:00Wed 	 4c 	 5%
06:00Wed 	 3c 	 7%
07:00Wed 	 4c 	 13%
08:00Wed 	 4c 	 29%
09:00Wed 	 5c 	 44%
10:00Wed 	 6c 	 48%
11:00Wed 	 6c 	 51%
12:00Wed 	 7c 	 54%
13:00Wed 	 7c 	 57%
14:00Wed 	 7c 	 61%
15:00Wed 	 7c 	 64%
16:00Wed 	 7c 	 60%
17:00Wed 	 7c 	 57%
18:00Wed 	 6c 	 55%
19:00Wed 	 6c 	 45%
20:00Wed 	 6c 	 30%
21:00Wed 	 5c 	 19%
22:00Wed 	 5c 	 17%
23:00Wed 	 5c 	 20%


00:00Wed 	 4c 	 0%
01:00Wed 	 4c 	 2%
02:00Wed 	 4c 	 6%
03:00Wed 	 4c 	 8%
04:00Wed 	 4c 	 7%
05:00Wed 	 4c 	 5%
06:00Wed 	 3c 	 7%
07:00Wed 	 4c 	 13%
08:00Wed 	 4c 	 29%
09:00Wed 	 5c 	 44%
10:00Wed 	 6c 	 48%
11:00Wed 	 6c 	 51%
12:00Wed 	 7c 	 54%
13:00Wed 	 7c 	 57%
14:00Wed 	 7c 	 61%
15:00Wed 	 7c 	 64%
16:00Wed 	 7c 	 60%
17:00Wed 	 7c 	 57%
18:00Wed 	 6c 	 55%
19:00Wed 	 6c 	 43%
20:00Wed 	 6c 	 27%
21:00Wed 	 5c 	 16%
22:00Wed 	 6c 	 15%
23:00Wed 	 6c 	 18%


00:00Wed 	 4c 	 0%
01:00Wed 	 4c 	 2%
02:00Wed 	 4c 	 6%
03:00Wed 	 4c 	 8%
04:00Wed 	 4c 	 7%
05:00Wed 	 4c 	 5%
06:00Wed 	 3c 	 7%
07:00Wed 	 4c 	 13%
08:00Wed 	 4c 	 29%
09:00Wed 	 5c 	 44%
10:00Wed 	 6c 	 48%
11:00Wed 	 6c 	 51%
12:00Wed 	 7c 	 54%
13:00Wed 	 7c 	 57%
14:00Wed 	 7c 	 61%
15:00Wed 	 7c 	 64%
16:00Wed 	 7c 	 60%
17:00Wed 	 7c 	 57%
18:00Wed 	 6c 	 55%
19:00Wed 	 6c 	 43%
20:00Wed 	 6c 	 27%
21:00Wed 	 5c 	 16%
22:00Wed 	 6c 	 15%
23:00Wed 	 6c 	 18%


00:00Wed 	 4c 	 0%
01:00Wed 	 4c 	 2%
02:00Wed 	 4c 	 6%
03:00Wed 	 4c 	 8%
04:00Wed 	 4c 	 7%
05:00Wed 	 4c 	 5%
06:00Wed 	 3c 	 7%
07:00Wed 	 4c 	 13%
08:00Wed 	 4c 	 29%
09:00Wed 	 5c 	 44%
10:00Wed 	 6c 	 48%
11:00Wed 	 6c 	 51%
12:00Wed 	 7c 	 54%
13:00Wed 	 7c 	 57%
14:00Wed 	 7c 	 61%
15:00Wed 	 7c 	 64%
16:00Wed 	 7c 	 60%
17:00Wed 	 7c 	 57%
18:00Wed 	 6c 	 55%
19:00Wed 	 6c 	 43%
20:00Wed 	 6c 	 27%
21:00Wed 	 5c 	 16%
22:00Wed 	 6c 	 15%
23:00Wed 	 6c 	 18%


00:00Wed 	 4c 	 0%
01:00Wed 	 4c 	 2%
02:00Wed 	 4c 	 6%
03:00Wed 	 4c 	 8%
04:00Wed 	 4c 	 7%
05:00Wed 	 4c 	 5%
06:00Wed 	 3c 	 7%
07:00Wed 	 4c 	 13%
08:00Wed 	 4c 	 29%
09:00Wed 	 5c 	 44%
10:00Wed 	 6c 	 48%
11:00Wed 	 6c 	 51%
12:00Wed 	 7c 	 54%
13:00Wed 	 7c 	 57%
14:00Wed 	 7c 	 61%
15:00Wed 	 7c 	 64%
16:00Wed 	 7c 	 60%
17:00Wed 	 7c 	 57%
18:00Wed 	 6c 	 55%
19:00Wed 	 6c 	 43%
20:00Wed 	 6c 	 27%
21:00Wed 	 5c 	 16%
22:00Wed 	 6c 	 15%
23:00Wed 	 6c 	 18%


