00:00Fri 	 9c 	 88%

01:00Fri 	 9c 	 80%
01:00Fri 	 9c 	 80%
01:00Fri 	 9c 	 80%
01:00Fri 	 9c 	 57%
01:00Fri 	 9c 	 57%

02:00Fri 	 8c 	 66%
02:00Fri 	 8c 	 66%
02:00Fri 	 8c 	 66%
02:00Fri 	 8c 	 69%
02:00Fri 	 8c 	 69%
02:00Fri 	 8c 	 69%
02:00Fri 	 8c 	 69%
02:00Fri 	 9c 	 100%
02:00Fri 	 9c 	 100%

03:00Fri 	 8c 	 77%
03:00Fri 	 8c 	 77%
03:00Fri 	 8c 	 77%
03:00Fri 	 8c 	 71%
03:00Fri 	 8c 	 71%
03:00Fri 	 8c 	 71%
03:00Fri 	 8c 	 71%
03:00Fri 	 9c 	 97%
03:00Fri 	 9c 	 97%
03:00Fri 	 9c 	 97%
03:00Fri 	 9c 	 97%
03:00Fri 	 9c 	 95%
03:00Fri 	 9c 	 95%

04:00Fri 	 8c 	 90%
04:00Fri 	 8c 	 90%
04:00Fri 	 8c 	 90%
04:00Fri 	 8c 	 82%
04:00Fri 	 8c 	 82%
04:00Fri 	 8c 	 82%
04:00Fri 	 8c 	 82%
04:00Fri 	 8c 	 92%
04:00Fri 	 8c 	 92%
04:00Fri 	 8c 	 92%
04:00Fri 	 8c 	 92%
04:00Fri 	 8c 	 95%
04:00Fri 	 8c 	 95%
04:00Fri 	 8c 	 95%
04:00Fri 	 8c 	 95%
04:00Fri 	 8c 	 69%
04:00Fri 	 8c 	 69%

05:00Fri 	 8c 	 97%
05:00Fri 	 8c 	 97%
05:00Fri 	 8c 	 97%
05:00Fri 	 8c 	 92%
05:00Fri 	 8c 	 92%
05:00Fri 	 8c 	 92%
05:00Fri 	 8c 	 92%
05:00Fri 	 8c 	 93%
05:00Fri 	 8c 	 93%
05:00Fri 	 8c 	 93%
05:00Fri 	 8c 	 93%
05:00Fri 	 8c 	 95%
05:00Fri 	 8c 	 95%
05:00Fri 	 8c 	 95%
05:00Fri 	 8c 	 95%
05:00Fri 	 8c 	 98%
05:00Fri 	 8c 	 98%
05:00Fri 	 8c 	 98%
05:00Fri 	 8c 	 98%
05:00Fri 	 8c 	 8%
05:00Fri 	 8c 	 8%

06:00Fri 	 8c 	 16%
06:00Fri 	 8c 	 16%
06:00Fri 	 7c 	 96%
06:00Fri 	 7c 	 96%
06:00Fri 	 7c 	 96%
06:00Fri 	 7c 	 96%
06:00Fri 	 7c 	 96%
06:00Fri 	 7c 	 96%
06:00Fri 	 7c 	 96%
06:00Fri 	 8c 	 93%
06:00Fri 	 8c 	 93%
06:00Fri 	 8c 	 93%
06:00Fri 	 8c 	 93%
06:00Fri 	 8c 	 91%
06:00Fri 	 8c 	 91%
06:00Fri 	 8c 	 91%
06:00Fri 	 8c 	 91%
06:00Fri 	 8c 	 88%
06:00Fri 	 8c 	 88%
06:00Fri 	 8c 	 88%
06:00Fri 	 8c 	 88%
06:00Fri 	 8c 	 37%
06:00Fri 	 8c 	 37%
06:00Fri 	 8c 	 37%
06:00Fri 	 8c 	 37%

07:00Fri 	 7c 	 57%
07:00Fri 	 7c 	 57%
07:00Fri 	 7c 	 57%
07:00Fri 	 7c 	 57%
07:00Fri 	 7c 	 91%
07:00Fri 	 7c 	 91%
07:00Fri 	 7c 	 92%
07:00Fri 	 7c 	 92%
07:00Fri 	 7c 	 92%
07:00Fri 	 7c 	 92%
07:00Fri 	 7c 	 92%
07:00Fri 	 7c 	 92%
07:00Fri 	 7c 	 92%
07:00Fri 	 7c 	 92%
07:00Fri 	 7c 	 92%
07:00Fri 	 7c 	 92%
07:00Fri 	 7c 	 92%
07:00Fri 	 7c 	 89%
07:00Fri 	 7c 	 89%
07:00Fri 	 7c 	 89%
07:00Fri 	 7c 	 89%
07:00Fri 	 7c 	 82%
07:00Fri 	 7c 	 82%
07:00Fri 	 7c 	 82%
07:00Fri 	 7c 	 82%
07:00Fri 	 8c 	 79%
07:00Fri 	 8c 	 79%
07:00Fri 	 8c 	 79%
07:00Fri 	 8c 	 79%

08:00Fri 	 7c 	 72%
08:00Fri 	 7c 	 72%
08:00Fri 	 7c 	 72%
08:00Fri 	 7c 	 72%
08:00Fri 	 7c 	 86%
08:00Fri 	 7c 	 86%
08:00Fri 	 7c 	 86%
08:00Fri 	 7c 	 86%
08:00Fri 	 7c 	 100%
08:00Fri 	 7c 	 100%
08:00Fri 	 7c 	 84%
08:00Fri 	 7c 	 84%
08:00Fri 	 7c 	 84%
08:00Fri 	 7c 	 84%
08:00Fri 	 7c 	 84%
08:00Fri 	 7c 	 84%
08:00Fri 	 7c 	 84%
08:00Fri 	 7c 	 84%
08:00Fri 	 7c 	 84%
08:00Fri 	 7c 	 84%
08:00Fri 	 7c 	 84%
08:00Fri 	 7c 	 84%
08:00Fri 	 7c 	 84%
08:00Fri 	 7c 	 84%
08:00Fri 	 7c 	 84%
08:00Fri 	 7c 	 78%
08:00Fri 	 7c 	 78%
08:00Fri 	 7c 	 78%
08:00Fri 	 7c 	 78%
08:00Fri 	 7c 	 52%
08:00Fri 	 7c 	 52%
08:00Fri 	 7c 	 52%
08:00Fri 	 7c 	 52%

09:00Fri 	 7c 	 42%
09:00Fri 	 7c 	 42%
09:00Fri 	 7c 	 42%
09:00Fri 	 7c 	 42%
09:00Fri 	 7c 	 42%
09:00Fri 	 7c 	 42%
09:00Fri 	 7c 	 42%
09:00Fri 	 7c 	 42%
09:00Fri 	 8c 	 99%
09:00Fri 	 8c 	 99%
09:00Fri 	 8c 	 99%
09:00Fri 	 8c 	 99%
09:00Fri 	 8c 	 99%
09:00Fri 	 7c 	 79%
09:00Fri 	 7c 	 79%
09:00Fri 	 7c 	 79%
09:00Fri 	 7c 	 79%
09:00Fri 	 7c 	 79%
09:00Fri 	 7c 	 79%
09:00Fri 	 7c 	 79%
09:00Fri 	 7c 	 79%
09:00Fri 	 7c 	 79%
09:00Fri 	 7c 	 79%
09:00Fri 	 7c 	 79%
09:00Fri 	 7c 	 79%
09:00Fri 	 7c 	 79%
09:00Fri 	 7c 	 79%
09:00Fri 	 7c 	 79%
09:00Fri 	 7c 	 79%
09:00Fri 	 7c 	 79%
09:00Fri 	 7c 	 79%
09:00Fri 	 7c 	 79%
09:00Fri 	 7c 	 58%
09:00Fri 	 7c 	 58%
09:00Fri 	 7c 	 58%
09:00Fri 	 7c 	 58%

10:00Fri 	 7c 	 60%
10:00Fri 	 7c 	 60%
10:00Fri 	 7c 	 60%
10:00Fri 	 7c 	 60%
10:00Fri 	 7c 	 60%
10:00Fri 	 7c 	 60%
10:00Fri 	 7c 	 60%
10:00Fri 	 7c 	 60%
10:00Fri 	 8c 	 96%
10:00Fri 	 8c 	 96%
10:00Fri 	 8c 	 96%
10:00Fri 	 8c 	 96%
10:00Fri 	 8c 	 99%
10:00Fri 	 8c 	 99%
10:00Fri 	 8c 	 99%
10:00Fri 	 8c 	 99%
10:00Fri 	 8c 	 94%
10:00Fri 	 8c 	 94%
10:00Fri 	 7c 	 83%
10:00Fri 	 7c 	 83%
10:00Fri 	 7c 	 83%
10:00Fri 	 7c 	 83%
10:00Fri 	 7c 	 83%
10:00Fri 	 7c 	 83%
10:00Fri 	 7c 	 83%
10:00Fri 	 7c 	 83%
10:00Fri 	 7c 	 83%
10:00Fri 	 7c 	 83%
10:00Fri 	 7c 	 83%
10:00Fri 	 7c 	 83%
10:00Fri 	 7c 	 83%
10:00Fri 	 7c 	 83%
10:00Fri 	 7c 	 83%
10:00Fri 	 7c 	 83%
10:00Fri 	 7c 	 83%
10:00Fri 	 7c 	 83%
10:00Fri 	 7c 	 83%
10:00Fri 	 7c 	 76%
10:00Fri 	 7c 	 76%
10:00Fri 	 7c 	 76%
10:00Fri 	 7c 	 76%

11:00Fri 	 8c 	 75%
11:00Fri 	 8c 	 75%
11:00Fri 	 8c 	 75%
11:00Fri 	 8c 	 75%
11:00Fri 	 8c 	 75%
11:00Fri 	 8c 	 75%
11:00Fri 	 8c 	 75%
11:00Fri 	 8c 	 75%
11:00Fri 	 8c 	 93%
11:00Fri 	 8c 	 93%
11:00Fri 	 8c 	 93%
11:00Fri 	 8c 	 93%
11:00Fri 	 8c 	 98%
11:00Fri 	 8c 	 98%
11:00Fri 	 8c 	 98%
11:00Fri 	 8c 	 98%
11:00Fri 	 8c 	 71%
11:00Fri 	 8c 	 71%
11:00Fri 	 8c 	 71%
11:00Fri 	 8c 	 71%
11:00Fri 	 8c 	 97%
11:00Fri 	 8c 	 97%
11:00Fri 	 8c 	 84%
11:00Fri 	 8c 	 84%
11:00Fri 	 8c 	 84%
11:00Fri 	 8c 	 84%
11:00Fri 	 8c 	 84%
11:00Fri 	 8c 	 84%
11:00Fri 	 8c 	 84%
11:00Fri 	 8c 	 84%
11:00Fri 	 8c 	 84%
11:00Fri 	 8c 	 84%
11:00Fri 	 8c 	 84%
11:00Fri 	 8c 	 84%
11:00Fri 	 8c 	 84%
11:00Fri 	 8c 	 84%
11:00Fri 	 8c 	 84%
11:00Fri 	 8c 	 84%
11:00Fri 	 8c 	 84%
11:00Fri 	 8c 	 84%
11:00Fri 	 8c 	 84%
11:00Fri 	 8c 	 84%
11:00Fri 	 8c 	 84%
11:00Fri 	 8c 	 84%
11:00Fri 	 8c 	 84%

12:00Fri 	 8c 	 72%
12:00Fri 	 8c 	 72%
12:00Fri 	 8c 	 72%
12:00Fri 	 8c 	 72%
12:00Fri 	 8c 	 72%
12:00Fri 	 8c 	 72%
12:00Fri 	 8c 	 72%
12:00Fri 	 8c 	 72%
12:00Fri 	 8c 	 91%
12:00Fri 	 8c 	 91%
12:00Fri 	 8c 	 91%
12:00Fri 	 8c 	 91%
12:00Fri 	 8c 	 94%
12:00Fri 	 8c 	 94%
12:00Fri 	 8c 	 94%
12:00Fri 	 8c 	 94%
12:00Fri 	 8c 	 49%
12:00Fri 	 8c 	 49%
12:00Fri 	 8c 	 49%
12:00Fri 	 8c 	 49%
12:00Fri 	 8c 	 98%
12:00Fri 	 8c 	 98%
12:00Fri 	 8c 	 98%
12:00Fri 	 8c 	 98%
12:00Fri 	 8c 	 98%
12:00Fri 	 8c 	 98%
12:00Fri 	 8c 	 72%
12:00Fri 	 8c 	 72%
12:00Fri 	 8c 	 72%
12:00Fri 	 8c 	 72%
12:00Fri 	 8c 	 72%
12:00Fri 	 8c 	 72%
12:00Fri 	 8c 	 72%
12:00Fri 	 8c 	 72%
12:00Fri 	 8c 	 72%
12:00Fri 	 8c 	 72%
12:00Fri 	 8c 	 72%
12:00Fri 	 8c 	 72%
12:00Fri 	 8c 	 72%
12:00Fri 	 8c 	 72%
12:00Fri 	 8c 	 72%
12:00Fri 	 8c 	 72%
12:00Fri 	 8c 	 72%
12:00Fri 	 8c 	 72%
12:00Fri 	 8c 	 72%
12:00Fri 	 8c 	 72%
12:00Fri 	 8c 	 72%
12:00Fri 	 8c 	 72%
12:00Fri 	 8c 	 72%

13:00Fri 	 8c 	 55%
13:00Fri 	 8c 	 55%
13:00Fri 	 8c 	 55%
13:00Fri 	 8c 	 55%
13:00Fri 	 8c 	 55%
13:00Fri 	 8c 	 55%
13:00Fri 	 8c 	 55%
13:00Fri 	 8c 	 55%
13:00Fri 	 8c 	 85%
13:00Fri 	 8c 	 85%
13:00Fri 	 8c 	 85%
13:00Fri 	 8c 	 85%
13:00Fri 	 8c 	 88%
13:00Fri 	 8c 	 88%
13:00Fri 	 8c 	 88%
13:00Fri 	 8c 	 88%
13:00Fri 	 8c 	 88%
13:00Fri 	 8c 	 88%
13:00Fri 	 8c 	 88%
13:00Fri 	 8c 	 88%
13:00Fri 	 8c 	 94%
13:00Fri 	 8c 	 94%
13:00Fri 	 8c 	 94%
13:00Fri 	 8c 	 94%
13:00Fri 	 8c 	 96%
13:00Fri 	 8c 	 96%
13:00Fri 	 8c 	 96%
13:00Fri 	 8c 	 96%
13:00Fri 	 8c 	 99%
13:00Fri 	 8c 	 99%
13:00Fri 	 8c 	 55%
13:00Fri 	 8c 	 55%
13:00Fri 	 8c 	 55%
13:00Fri 	 8c 	 55%
13:00Fri 	 8c 	 55%
13:00Fri 	 8c 	 55%
13:00Fri 	 8c 	 55%
13:00Fri 	 8c 	 55%
13:00Fri 	 8c 	 55%
13:00Fri 	 8c 	 55%
13:00Fri 	 8c 	 55%
13:00Fri 	 8c 	 55%
13:00Fri 	 8c 	 55%
13:00Fri 	 8c 	 55%
13:00Fri 	 8c 	 55%
13:00Fri 	 8c 	 55%
13:00Fri 	 8c 	 55%
13:00Fri 	 8c 	 55%
13:00Fri 	 8c 	 55%
13:00Fri 	 8c 	 55%
13:00Fri 	 8c 	 55%
13:00Fri 	 8c 	 55%
13:00Fri 	 8c 	 55%

14:00Fri 	 9c 	 41%
14:00Fri 	 9c 	 41%
14:00Fri 	 9c 	 41%
14:00Fri 	 9c 	 41%
14:00Fri 	 9c 	 41%
14:00Fri 	 9c 	 41%
14:00Fri 	 9c 	 41%
14:00Fri 	 9c 	 41%
14:00Fri 	 8c 	 79%
14:00Fri 	 8c 	 79%
14:00Fri 	 8c 	 79%
14:00Fri 	 8c 	 79%
14:00Fri 	 7c 	 81%
14:00Fri 	 7c 	 81%
14:00Fri 	 7c 	 81%
14:00Fri 	 7c 	 81%
14:00Fri 	 7c 	 81%
14:00Fri 	 7c 	 81%
14:00Fri 	 7c 	 81%
14:00Fri 	 7c 	 81%
14:00Fri 	 8c 	 81%
14:00Fri 	 8c 	 81%
14:00Fri 	 8c 	 81%
14:00Fri 	 8c 	 81%
14:00Fri 	 8c 	 89%
14:00Fri 	 8c 	 89%
14:00Fri 	 8c 	 89%
14:00Fri 	 8c 	 89%
14:00Fri 	 8c 	 95%
14:00Fri 	 8c 	 95%
14:00Fri 	 8c 	 95%
14:00Fri 	 8c 	 95%
14:00Fri 	 7c 	 100%
14:00Fri 	 7c 	 100%
14:00Fri 	 9c 	 41%
14:00Fri 	 9c 	 41%
14:00Fri 	 9c 	 41%
14:00Fri 	 9c 	 41%
14:00Fri 	 9c 	 41%
14:00Fri 	 9c 	 41%
14:00Fri 	 9c 	 41%
14:00Fri 	 9c 	 41%
14:00Fri 	 9c 	 41%
14:00Fri 	 9c 	 41%
14:00Fri 	 9c 	 41%
14:00Fri 	 9c 	 41%
14:00Fri 	 9c 	 41%
14:00Fri 	 9c 	 41%
14:00Fri 	 9c 	 41%
14:00Fri 	 9c 	 41%
14:00Fri 	 9c 	 41%
14:00Fri 	 9c 	 41%
14:00Fri 	 9c 	 41%
14:00Fri 	 9c 	 41%
14:00Fri 	 9c 	 41%
14:00Fri 	 9c 	 41%
14:00Fri 	 9c 	 41%

15:00Fri 	 8c 	 30%
15:00Fri 	 8c 	 30%
15:00Fri 	 8c 	 30%
15:00Fri 	 8c 	 30%
15:00Fri 	 8c 	 30%
15:00Fri 	 8c 	 30%
15:00Fri 	 8c 	 30%
15:00Fri 	 8c 	 30%
15:00Fri 	 7c 	 68%
15:00Fri 	 7c 	 68%
15:00Fri 	 7c 	 68%
15:00Fri 	 7c 	 68%
15:00Fri 	 7c 	 70%
15:00Fri 	 7c 	 70%
15:00Fri 	 7c 	 70%
15:00Fri 	 7c 	 70%
15:00Fri 	 7c 	 70%
15:00Fri 	 7c 	 70%
15:00Fri 	 7c 	 70%
15:00Fri 	 7c 	 70%
15:00Fri 	 7c 	 70%
15:00Fri 	 7c 	 70%
15:00Fri 	 7c 	 70%
15:00Fri 	 7c 	 70%
15:00Fri 	 7c 	 69%
15:00Fri 	 7c 	 69%
15:00Fri 	 7c 	 69%
15:00Fri 	 7c 	 69%
15:00Fri 	 7c 	 69%
15:00Fri 	 7c 	 69%
15:00Fri 	 7c 	 69%
15:00Fri 	 7c 	 69%
15:00Fri 	 7c 	 98%
15:00Fri 	 7c 	 98%
15:00Fri 	 7c 	 98%
15:00Fri 	 7c 	 98%
15:00Fri 	 7c 	 77%
15:00Fri 	 7c 	 77%
15:00Fri 	 8c 	 30%
15:00Fri 	 8c 	 30%
15:00Fri 	 8c 	 30%
15:00Fri 	 8c 	 30%
15:00Fri 	 8c 	 30%
15:00Fri 	 8c 	 30%
15:00Fri 	 8c 	 30%
15:00Fri 	 8c 	 30%
15:00Fri 	 8c 	 30%
15:00Fri 	 8c 	 30%
15:00Fri 	 8c 	 30%
15:00Fri 	 8c 	 30%
15:00Fri 	 8c 	 30%
15:00Fri 	 8c 	 30%
15:00Fri 	 8c 	 30%
15:00Fri 	 8c 	 30%
15:00Fri 	 8c 	 30%
15:00Fri 	 8c 	 30%
15:00Fri 	 8c 	 30%
15:00Fri 	 8c 	 30%
15:00Fri 	 8c 	 30%
15:00Fri 	 8c 	 30%
15:00Fri 	 8c 	 30%

16:00Fri 	 8c 	 26%
16:00Fri 	 8c 	 26%
16:00Fri 	 8c 	 26%
16:00Fri 	 8c 	 26%
16:00Fri 	 8c 	 26%
16:00Fri 	 8c 	 26%
16:00Fri 	 8c 	 26%
16:00Fri 	 8c 	 26%
16:00Fri 	 7c 	 46%
16:00Fri 	 7c 	 46%
16:00Fri 	 7c 	 46%
16:00Fri 	 7c 	 46%
16:00Fri 	 7c 	 52%
16:00Fri 	 7c 	 52%
16:00Fri 	 7c 	 52%
16:00Fri 	 7c 	 52%
16:00Fri 	 7c 	 52%
16:00Fri 	 7c 	 52%
16:00Fri 	 7c 	 52%
16:00Fri 	 7c 	 52%
16:00Fri 	 7c 	 53%
16:00Fri 	 7c 	 53%
16:00Fri 	 7c 	 53%
16:00Fri 	 7c 	 53%
16:00Fri 	 7c 	 53%
16:00Fri 	 7c 	 53%
16:00Fri 	 7c 	 53%
16:00Fri 	 7c 	 53%
16:00Fri 	 7c 	 53%
16:00Fri 	 7c 	 53%
16:00Fri 	 7c 	 53%
16:00Fri 	 7c 	 53%
16:00Fri 	 7c 	 45%
16:00Fri 	 7c 	 45%
16:00Fri 	 7c 	 45%
16:00Fri 	 7c 	 45%
16:00Fri 	 7c 	 73%
16:00Fri 	 7c 	 73%
16:00Fri 	 7c 	 73%
16:00Fri 	 7c 	 73%
16:00Fri 	 7c 	 42%
16:00Fri 	 7c 	 42%
16:00Fri 	 8c 	 26%
16:00Fri 	 8c 	 26%
16:00Fri 	 8c 	 26%
16:00Fri 	 8c 	 26%
16:00Fri 	 8c 	 26%
16:00Fri 	 8c 	 26%
16:00Fri 	 8c 	 26%
16:00Fri 	 8c 	 26%
16:00Fri 	 8c 	 26%
16:00Fri 	 8c 	 26%
16:00Fri 	 8c 	 26%
16:00Fri 	 8c 	 26%
16:00Fri 	 8c 	 26%
16:00Fri 	 8c 	 26%
16:00Fri 	 8c 	 26%
16:00Fri 	 8c 	 26%
16:00Fri 	 8c 	 26%
16:00Fri 	 8c 	 26%
16:00Fri 	 8c 	 26%
16:00Fri 	 8c 	 26%
16:00Fri 	 8c 	 26%
16:00Fri 	 8c 	 26%
16:00Fri 	 8c 	 26%

17:00Fri 	 7c 	 26%
17:00Fri 	 7c 	 26%
17:00Fri 	 7c 	 26%
17:00Fri 	 7c 	 26%
17:00Fri 	 7c 	 26%
17:00Fri 	 7c 	 26%
17:00Fri 	 7c 	 26%
17:00Fri 	 7c 	 26%
17:00Fri 	 7c 	 24%
17:00Fri 	 7c 	 24%
17:00Fri 	 7c 	 24%
17:00Fri 	 7c 	 24%
17:00Fri 	 7c 	 32%
17:00Fri 	 7c 	 32%
17:00Fri 	 7c 	 32%
17:00Fri 	 7c 	 32%
17:00Fri 	 7c 	 32%
17:00Fri 	 7c 	 32%
17:00Fri 	 7c 	 32%
17:00Fri 	 7c 	 32%
17:00Fri 	 7c 	 32%
17:00Fri 	 7c 	 32%
17:00Fri 	 7c 	 32%
17:00Fri 	 7c 	 32%
17:00Fri 	 7c 	 33%
17:00Fri 	 7c 	 33%
17:00Fri 	 7c 	 33%
17:00Fri 	 7c 	 33%
17:00Fri 	 7c 	 33%
17:00Fri 	 7c 	 33%
17:00Fri 	 7c 	 33%
17:00Fri 	 7c 	 33%
17:00Fri 	 7c 	 33%
17:00Fri 	 7c 	 33%
17:00Fri 	 7c 	 33%
17:00Fri 	 7c 	 33%
17:00Fri 	 7c 	 52%
17:00Fri 	 7c 	 52%
17:00Fri 	 7c 	 52%
17:00Fri 	 7c 	 52%
17:00Fri 	 7c 	 48%
17:00Fri 	 7c 	 48%
17:00Fri 	 7c 	 48%
17:00Fri 	 7c 	 48%
17:00Fri 	 6c 	 70%
17:00Fri 	 6c 	 70%
17:00Fri 	 7c 	 26%
17:00Fri 	 7c 	 26%
17:00Fri 	 7c 	 26%
17:00Fri 	 7c 	 26%
17:00Fri 	 7c 	 26%
17:00Fri 	 7c 	 26%
17:00Fri 	 7c 	 26%
17:00Fri 	 7c 	 26%
17:00Fri 	 7c 	 26%
17:00Fri 	 7c 	 26%
17:00Fri 	 7c 	 26%
17:00Fri 	 7c 	 26%
17:00Fri 	 7c 	 26%
17:00Fri 	 7c 	 26%
17:00Fri 	 7c 	 26%
17:00Fri 	 7c 	 26%
17:00Fri 	 7c 	 26%
17:00Fri 	 7c 	 26%
17:00Fri 	 7c 	 26%
17:00Fri 	 7c 	 26%
17:00Fri 	 7c 	 26%
17:00Fri 	 7c 	 26%
17:00Fri 	 7c 	 26%

18:00Fri 	 7c 	 23%
18:00Fri 	 7c 	 23%
18:00Fri 	 7c 	 23%
18:00Fri 	 7c 	 23%
18:00Fri 	 7c 	 23%
18:00Fri 	 7c 	 23%
18:00Fri 	 7c 	 23%
18:00Fri 	 7c 	 23%
18:00Fri 	 6c 	 11%
18:00Fri 	 6c 	 11%
18:00Fri 	 6c 	 11%
18:00Fri 	 6c 	 11%
18:00Fri 	 7c 	 16%
18:00Fri 	 7c 	 16%
18:00Fri 	 7c 	 16%
18:00Fri 	 7c 	 16%
18:00Fri 	 7c 	 16%
18:00Fri 	 7c 	 16%
18:00Fri 	 7c 	 16%
18:00Fri 	 7c 	 16%
18:00Fri 	 7c 	 16%
18:00Fri 	 7c 	 16%
18:00Fri 	 7c 	 16%
18:00Fri 	 7c 	 16%
18:00Fri 	 7c 	 16%
18:00Fri 	 7c 	 16%
18:00Fri 	 7c 	 16%
18:00Fri 	 7c 	 16%
18:00Fri 	 7c 	 16%
18:00Fri 	 7c 	 16%
18:00Fri 	 7c 	 16%
18:00Fri 	 7c 	 16%
18:00Fri 	 7c 	 16%
18:00Fri 	 7c 	 16%
18:00Fri 	 7c 	 16%
18:00Fri 	 7c 	 16%
18:00Fri 	 6c 	 16%
18:00Fri 	 6c 	 16%
18:00Fri 	 6c 	 16%
18:00Fri 	 6c 	 16%
18:00Fri 	 7c 	 49%
18:00Fri 	 7c 	 49%
18:00Fri 	 7c 	 49%
18:00Fri 	 7c 	 49%
18:00Fri 	 6c 	 86%
18:00Fri 	 6c 	 86%
18:00Fri 	 6c 	 86%
18:00Fri 	 6c 	 86%
18:00Fri 	 6c 	 86%
18:00Fri 	 6c 	 42%
18:00Fri 	 7c 	 23%
18:00Fri 	 7c 	 23%
18:00Fri 	 7c 	 23%
18:00Fri 	 7c 	 23%
18:00Fri 	 7c 	 23%
18:00Fri 	 7c 	 23%
18:00Fri 	 7c 	 23%
18:00Fri 	 7c 	 23%
18:00Fri 	 7c 	 23%
18:00Fri 	 7c 	 23%
18:00Fri 	 7c 	 23%
18:00Fri 	 7c 	 23%
18:00Fri 	 7c 	 23%
18:00Fri 	 7c 	 23%
18:00Fri 	 7c 	 23%
18:00Fri 	 7c 	 23%
18:00Fri 	 7c 	 23%
18:00Fri 	 7c 	 23%
18:00Fri 	 7c 	 23%
18:00Fri 	 7c 	 23%
18:00Fri 	 7c 	 23%
18:00Fri 	 7c 	 23%
18:00Fri 	 7c 	 23%

19:00Fri 	 7c 	 20%
19:00Fri 	 7c 	 20%
19:00Fri 	 7c 	 20%
19:00Fri 	 7c 	 20%
19:00Fri 	 7c 	 20%
19:00Fri 	 7c 	 20%
19:00Fri 	 7c 	 20%
19:00Fri 	 7c 	 20%
19:00Fri 	 6c 	 6%
19:00Fri 	 6c 	 6%
19:00Fri 	 6c 	 6%
19:00Fri 	 6c 	 6%
19:00Fri 	 6c 	 12%
19:00Fri 	 6c 	 12%
19:00Fri 	 6c 	 12%
19:00Fri 	 6c 	 12%
19:00Fri 	 6c 	 12%
19:00Fri 	 6c 	 12%
19:00Fri 	 6c 	 12%
19:00Fri 	 6c 	 12%
19:00Fri 	 6c 	 12%
19:00Fri 	 6c 	 12%
19:00Fri 	 6c 	 12%
19:00Fri 	 6c 	 12%
19:00Fri 	 6c 	 12%
19:00Fri 	 6c 	 12%
19:00Fri 	 6c 	 12%
19:00Fri 	 6c 	 12%
19:00Fri 	 6c 	 12%
19:00Fri 	 6c 	 12%
19:00Fri 	 6c 	 12%
19:00Fri 	 6c 	 12%
19:00Fri 	 6c 	 12%
19:00Fri 	 6c 	 12%
19:00Fri 	 6c 	 12%
19:00Fri 	 6c 	 12%
19:00Fri 	 6c 	 12%
19:00Fri 	 6c 	 12%
19:00Fri 	 6c 	 12%
19:00Fri 	 6c 	 12%
19:00Fri 	 6c 	 12%
19:00Fri 	 6c 	 12%
19:00Fri 	 6c 	 12%
19:00Fri 	 6c 	 12%
19:00Fri 	 6c 	 53%
19:00Fri 	 6c 	 53%
19:00Fri 	 6c 	 53%
19:00Fri 	 6c 	 53%
19:00Fri 	 6c 	 53%
19:00Fri 	 6c 	 39%
19:00Fri 	 6c 	 39%
19:00Fri 	 6c 	 39%
19:00Fri 	 6c 	 3%
19:00Fri 	 6c 	 3%
19:00Fri 	 7c 	 20%
19:00Fri 	 7c 	 20%
19:00Fri 	 7c 	 20%
19:00Fri 	 7c 	 20%
19:00Fri 	 7c 	 20%
19:00Fri 	 7c 	 20%
19:00Fri 	 7c 	 20%
19:00Fri 	 7c 	 20%
19:00Fri 	 7c 	 20%
19:00Fri 	 7c 	 20%
19:00Fri 	 7c 	 20%
19:00Fri 	 7c 	 20%
19:00Fri 	 7c 	 20%
19:00Fri 	 7c 	 20%
19:00Fri 	 7c 	 20%
19:00Fri 	 7c 	 20%
19:00Fri 	 7c 	 20%
19:00Fri 	 7c 	 20%
19:00Fri 	 7c 	 20%
19:00Fri 	 7c 	 20%
19:00Fri 	 7c 	 20%
19:00Fri 	 7c 	 20%
19:00Fri 	 7c 	 20%

20:00Fri 	 6c 	 18%
20:00Fri 	 6c 	 18%
20:00Fri 	 6c 	 18%
20:00Fri 	 6c 	 18%
20:00Fri 	 6c 	 18%
20:00Fri 	 6c 	 18%
20:00Fri 	 6c 	 18%
20:00Fri 	 6c 	 18%
20:00Fri 	 6c 	 4%
20:00Fri 	 6c 	 4%
20:00Fri 	 6c 	 4%
20:00Fri 	 6c 	 4%
20:00Fri 	 6c 	 9%
20:00Fri 	 6c 	 9%
20:00Fri 	 6c 	 9%
20:00Fri 	 6c 	 9%
20:00Fri 	 6c 	 9%
20:00Fri 	 6c 	 9%
20:00Fri 	 6c 	 9%
20:00Fri 	 6c 	 9%
20:00Fri 	 6c 	 9%
20:00Fri 	 6c 	 9%
20:00Fri 	 6c 	 9%
20:00Fri 	 6c 	 9%
20:00Fri 	 6c 	 9%
20:00Fri 	 6c 	 9%
20:00Fri 	 6c 	 9%
20:00Fri 	 6c 	 9%
20:00Fri 	 6c 	 9%
20:00Fri 	 6c 	 9%
20:00Fri 	 6c 	 9%
20:00Fri 	 6c 	 9%
20:00Fri 	 6c 	 9%
20:00Fri 	 6c 	 9%
20:00Fri 	 6c 	 9%
20:00Fri 	 6c 	 9%
20:00Fri 	 6c 	 9%
20:00Fri 	 6c 	 9%
20:00Fri 	 6c 	 9%
20:00Fri 	 6c 	 9%
20:00Fri 	 6c 	 9%
20:00Fri 	 6c 	 9%
20:00Fri 	 6c 	 9%
20:00Fri 	 6c 	 9%
20:00Fri 	 6c 	 9%
20:00Fri 	 6c 	 9%
20:00Fri 	 6c 	 9%
20:00Fri 	 6c 	 9%
20:00Fri 	 6c 	 9%
20:00Fri 	 6c 	 5%
20:00Fri 	 6c 	 5%
20:00Fri 	 6c 	 5%
20:00Fri 	 6c 	 0%
20:00Fri 	 6c 	 0%
20:00Fri 	 6c 	 0%
20:00Fri 	 6c 	 0%
20:00Fri 	 6c 	 0%
20:00Fri 	 6c 	 0%
20:00Fri 	 6c 	 18%
20:00Fri 	 6c 	 18%
20:00Fri 	 6c 	 18%
20:00Fri 	 6c 	 18%
20:00Fri 	 6c 	 18%
20:00Fri 	 6c 	 18%
20:00Fri 	 6c 	 18%
20:00Fri 	 6c 	 18%
20:00Fri 	 6c 	 18%
20:00Fri 	 6c 	 18%
20:00Fri 	 6c 	 18%
20:00Fri 	 6c 	 18%
20:00Fri 	 6c 	 18%
20:00Fri 	 6c 	 18%
20:00Fri 	 6c 	 18%
20:00Fri 	 6c 	 18%
20:00Fri 	 6c 	 18%
20:00Fri 	 6c 	 18%
20:00Fri 	 6c 	 18%
20:00Fri 	 6c 	 18%
20:00Fri 	 6c 	 18%
20:00Fri 	 6c 	 18%
20:00Fri 	 6c 	 18%

21:00Fri 	 6c 	 15%
21:00Fri 	 6c 	 15%
21:00Fri 	 6c 	 15%
21:00Fri 	 6c 	 15%
21:00Fri 	 6c 	 15%
21:00Fri 	 6c 	 15%
21:00Fri 	 6c 	 15%
21:00Fri 	 6c 	 15%
21:00Fri 	 6c 	 4%
21:00Fri 	 6c 	 4%
21:00Fri 	 6c 	 4%
21:00Fri 	 6c 	 4%
21:00Fri 	 6c 	 8%
21:00Fri 	 6c 	 8%
21:00Fri 	 6c 	 8%
21:00Fri 	 6c 	 8%
21:00Fri 	 6c 	 8%
21:00Fri 	 6c 	 8%
21:00Fri 	 6c 	 8%
21:00Fri 	 6c 	 8%
21:00Fri 	 6c 	 8%
21:00Fri 	 6c 	 8%
21:00Fri 	 6c 	 8%
21:00Fri 	 6c 	 8%
21:00Fri 	 6c 	 8%
21:00Fri 	 6c 	 8%
21:00Fri 	 6c 	 8%
21:00Fri 	 6c 	 8%
21:00Fri 	 6c 	 8%
21:00Fri 	 6c 	 8%
21:00Fri 	 6c 	 8%
21:00Fri 	 6c 	 8%
21:00Fri 	 6c 	 8%
21:00Fri 	 6c 	 8%
21:00Fri 	 6c 	 8%
21:00Fri 	 6c 	 8%
21:00Fri 	 6c 	 8%
21:00Fri 	 6c 	 8%
21:00Fri 	 6c 	 8%
21:00Fri 	 6c 	 8%
21:00Fri 	 6c 	 8%
21:00Fri 	 6c 	 8%
21:00Fri 	 6c 	 8%
21:00Fri 	 6c 	 8%
21:00Fri 	 6c 	 8%
21:00Fri 	 6c 	 8%
21:00Fri 	 6c 	 8%
21:00Fri 	 6c 	 8%
21:00Fri 	 6c 	 8%
21:00Fri 	 6c 	 8%
21:00Fri 	 6c 	 8%
21:00Fri 	 6c 	 8%
21:00Fri 	 6c 	 4%
21:00Fri 	 6c 	 4%
21:00Fri 	 6c 	 4%
21:00Fri 	 6c 	 4%
21:00Fri 	 6c 	 4%
21:00Fri 	 6c 	 0%
21:00Fri 	 6c 	 0%
21:00Fri 	 6c 	 0%
21:00Fri 	 6c 	 1%
21:00Fri 	 6c 	 1%
21:00Fri 	 6c 	 15%
21:00Fri 	 6c 	 15%
21:00Fri 	 6c 	 15%
21:00Fri 	 6c 	 15%
21:00Fri 	 6c 	 15%
21:00Fri 	 6c 	 15%
21:00Fri 	 6c 	 15%
21:00Fri 	 6c 	 15%
21:00Fri 	 6c 	 15%
21:00Fri 	 6c 	 15%
21:00Fri 	 6c 	 15%
21:00Fri 	 6c 	 15%
21:00Fri 	 6c 	 15%
21:00Fri 	 6c 	 15%
21:00Fri 	 6c 	 15%
21:00Fri 	 6c 	 15%
21:00Fri 	 6c 	 15%
21:00Fri 	 6c 	 15%
21:00Fri 	 6c 	 15%
21:00Fri 	 6c 	 15%
21:00Fri 	 6c 	 15%
21:00Fri 	 6c 	 15%
21:00Fri 	 6c 	 15%

22:00Fri 	 6c 	 13%
22:00Fri 	 6c 	 13%
22:00Fri 	 6c 	 13%
22:00Fri 	 6c 	 13%
22:00Fri 	 6c 	 13%
22:00Fri 	 6c 	 13%
22:00Fri 	 6c 	 13%
22:00Fri 	 6c 	 13%
22:00Fri 	 6c 	 7%
22:00Fri 	 6c 	 7%
22:00Fri 	 6c 	 7%
22:00Fri 	 6c 	 7%
22:00Fri 	 6c 	 11%
22:00Fri 	 6c 	 11%
22:00Fri 	 6c 	 11%
22:00Fri 	 6c 	 11%
22:00Fri 	 6c 	 11%
22:00Fri 	 6c 	 11%
22:00Fri 	 6c 	 11%
22:00Fri 	 6c 	 11%
22:00Fri 	 6c 	 11%
22:00Fri 	 6c 	 11%
22:00Fri 	 6c 	 11%
22:00Fri 	 6c 	 11%
22:00Fri 	 6c 	 11%
22:00Fri 	 6c 	 11%
22:00Fri 	 6c 	 11%
22:00Fri 	 6c 	 11%
22:00Fri 	 6c 	 11%
22:00Fri 	 6c 	 11%
22:00Fri 	 6c 	 11%
22:00Fri 	 6c 	 11%
22:00Fri 	 6c 	 11%
22:00Fri 	 6c 	 11%
22:00Fri 	 6c 	 11%
22:00Fri 	 6c 	 11%
22:00Fri 	 6c 	 11%
22:00Fri 	 6c 	 11%
22:00Fri 	 6c 	 11%
22:00Fri 	 6c 	 11%
22:00Fri 	 6c 	 11%
22:00Fri 	 6c 	 11%
22:00Fri 	 6c 	 11%
22:00Fri 	 6c 	 11%
22:00Fri 	 6c 	 11%
22:00Fri 	 6c 	 11%
22:00Fri 	 6c 	 11%
22:00Fri 	 6c 	 11%
22:00Fri 	 6c 	 11%
22:00Fri 	 6c 	 11%
22:00Fri 	 6c 	 11%
22:00Fri 	 6c 	 11%
22:00Fri 	 6c 	 11%
22:00Fri 	 6c 	 11%
22:00Fri 	 6c 	 11%
22:00Fri 	 6c 	 11%
22:00Fri 	 6c 	 11%
22:00Fri 	 6c 	 6%
22:00Fri 	 6c 	 6%
22:00Fri 	 6c 	 6%
22:00Fri 	 6c 	 2%
22:00Fri 	 6c 	 2%
22:00Fri 	 6c 	 2%
22:00Fri 	 6c 	 2%
22:00Fri 	 6c 	 2%
22:00Fri 	 6c 	 3%
22:00Fri 	 6c 	 13%
22:00Fri 	 6c 	 13%
22:00Fri 	 6c 	 13%
22:00Fri 	 6c 	 13%
22:00Fri 	 6c 	 13%
22:00Fri 	 6c 	 13%
22:00Fri 	 6c 	 13%
22:00Fri 	 6c 	 13%
22:00Fri 	 6c 	 13%
22:00Fri 	 6c 	 13%
22:00Fri 	 6c 	 13%
22:00Fri 	 6c 	 13%
22:00Fri 	 6c 	 13%
22:00Fri 	 6c 	 13%
22:00Fri 	 6c 	 13%
22:00Fri 	 6c 	 13%
22:00Fri 	 6c 	 13%
22:00Fri 	 6c 	 13%
22:00Fri 	 6c 	 13%
22:00Fri 	 6c 	 13%
22:00Fri 	 6c 	 13%
22:00Fri 	 6c 	 13%
22:00Fri 	 6c 	 13%

23:00Fri 	 6c 	 13%
23:00Fri 	 6c 	 13%
23:00Fri 	 6c 	 13%
23:00Fri 	 6c 	 13%
23:00Fri 	 6c 	 13%
23:00Fri 	 6c 	 13%
23:00Fri 	 6c 	 13%
23:00Fri 	 6c 	 13%
23:00Fri 	 6c 	 10%
23:00Fri 	 6c 	 10%
23:00Fri 	 6c 	 10%
23:00Fri 	 6c 	 10%
23:00Fri 	 6c 	 16%
23:00Fri 	 6c 	 16%
23:00Fri 	 6c 	 16%
23:00Fri 	 6c 	 16%
23:00Fri 	 6c 	 16%
23:00Fri 	 6c 	 16%
23:00Fri 	 6c 	 16%
23:00Fri 	 6c 	 16%
23:00Fri 	 6c 	 16%
23:00Fri 	 6c 	 16%
23:00Fri 	 6c 	 16%
23:00Fri 	 6c 	 16%
23:00Fri 	 6c 	 16%
23:00Fri 	 6c 	 16%
23:00Fri 	 6c 	 16%
23:00Fri 	 6c 	 16%
23:00Fri 	 6c 	 16%
23:00Fri 	 6c 	 16%
23:00Fri 	 6c 	 16%
23:00Fri 	 6c 	 16%
23:00Fri 	 6c 	 16%
23:00Fri 	 6c 	 16%
23:00Fri 	 6c 	 16%
23:00Fri 	 6c 	 16%
23:00Fri 	 6c 	 16%
23:00Fri 	 6c 	 16%
23:00Fri 	 6c 	 16%
23:00Fri 	 6c 	 16%
23:00Fri 	 6c 	 16%
23:00Fri 	 6c 	 16%
23:00Fri 	 6c 	 16%
23:00Fri 	 6c 	 16%
23:00Fri 	 6c 	 16%
23:00Fri 	 6c 	 16%
23:00Fri 	 6c 	 16%
23:00Fri 	 6c 	 16%
23:00Fri 	 6c 	 16%
23:00Fri 	 6c 	 16%
23:00Fri 	 6c 	 16%
23:00Fri 	 6c 	 16%
23:00Fri 	 6c 	 16%
23:00Fri 	 6c 	 16%
23:00Fri 	 6c 	 16%
23:00Fri 	 6c 	 16%
23:00Fri 	 6c 	 16%
23:00Fri 	 6c 	 16%
23:00Fri 	 6c 	 16%
23:00Fri 	 6c 	 16%
23:00Fri 	 6c 	 55%
23:00Fri 	 6c 	 55%
23:00Fri 	 6c 	 55%
23:00Fri 	 6c 	 55%
23:00Fri 	 6c 	 55%
23:00Fri 	 6c 	 95%
23:00Fri 	 6c 	 95%
23:00Fri 	 6c 	 95%
23:00Fri 	 6c 	 95%
23:00Fri 	 6c 	 51%
23:00Fri 	 6c 	 13%
23:00Fri 	 6c 	 13%
23:00Fri 	 6c 	 13%
23:00Fri 	 6c 	 13%
23:00Fri 	 6c 	 13%
23:00Fri 	 6c 	 13%
23:00Fri 	 6c 	 13%
23:00Fri 	 6c 	 13%
23:00Fri 	 6c 	 13%
23:00Fri 	 6c 	 13%
23:00Fri 	 6c 	 13%
23:00Fri 	 6c 	 13%
23:00Fri 	 6c 	 13%
23:00Fri 	 6c 	 13%
23:00Fri 	 6c 	 13%
23:00Fri 	 6c 	 13%
23:00Fri 	 6c 	 13%
23:00Fri 	 6c 	 13%
23:00Fri 	 6c 	 13%
23:00Fri 	 6c 	 13%
23:00Fri 	 6c 	 13%
23:00Fri 	 6c 	 13%
23:00Fri 	 6c 	 13%

