00:00Wed 	 8c 	 25%
01:00Wed 	 8c 	 23%
02:00Wed 	 7c 	 19%
03:00Wed 	 7c 	 16%
04:00Wed 	 7c 	 19%
05:00Wed 	 7c 	 24%
00:00Wed 	 8c 	 25%
01:00Wed 	 8c 	 23%
02:00Wed 	 7c 	 19%
03:00Wed 	 7c 	 16%
04:00Wed 	 7c 	 19%
05:00Wed 	 7c 	 24%
00:00Wed 	 8c 	 25%
01:00Wed 	 8c 	 23%
02:00Wed 	 7c 	 19%
03:00Wed 	 7c 	 16%
04:00Wed 	 7c 	 19%
05:00Wed 	 7c 	 24%
00:00Wed 	 8c 	 25%
01:00Wed 	 8c 	 23%
02:00Wed 	 7c 	 19%
03:00Wed 	 7c 	 16%
04:00Wed 	 7c 	 19%
05:00Wed 	 7c 	 24%
00:00Wed 	 8c 	 25%
01:00Wed 	 8c 	 23%
02:00Wed 	 7c 	 19%
03:00Wed 	 7c 	 16%
04:00Wed 	 7c 	 19%
05:00Wed 	 7c 	 24%
00:00Wed 	 8c 	 25%
01:00Wed 	 8c 	 23%
02:00Wed 	 7c 	 19%
03:00Wed 	 7c 	 16%
04:00Wed 	 7c 	 19%
05:00Wed 	 7c 	 24%
00:00Wed 	 8c 	 25%
01:00Wed 	 8c 	 23%
02:00Wed 	 7c 	 19%
03:00Wed 	 7c 	 16%
04:00Wed 	 7c 	 19%
05:00Wed 	 7c 	 24%
00:00Wed 	 8c 	 25%
01:00Wed 	 8c 	 23%
02:00Wed 	 7c 	 19%
03:00Wed 	 7c 	 16%
04:00Wed 	 7c 	 19%
05:00Wed 	 7c 	 24%
00:00Wed 	 8c 	 25%
01:00Wed 	 8c 	 23%
02:00Wed 	 7c 	 19%
03:00Wed 	 7c 	 16%
04:00Wed 	 7c 	 19%
05:00Wed 	 7c 	 24%
00:00Wed 	 8c 	 25%
01:00Wed 	 8c 	 23%
02:00Wed 	 7c 	 19%
03:00Wed 	 7c 	 16%
04:00Wed 	 7c 	 19%
05:00Wed 	 7c 	 24%
00:00Wed 	 8c 	 25%
01:00Wed 	 8c 	 23%
02:00Wed 	 7c 	 19%
03:00Wed 	 7c 	 16%
04:00Wed 	 7c 	 19%
05:00Wed 	 7c 	 24%
00:00Wed 	 8c 	 25%
01:00Wed 	 8c 	 23%
02:00Wed 	 7c 	 19%
03:00Wed 	 7c 	 16%
04:00Wed 	 7c 	 19%
05:00Wed 	 7c 	 24%
00:00Wed 	 8c 	 25%
01:00Wed 	 8c 	 23%
02:00Wed 	 7c 	 19%
03:00Wed 	 7c 	 16%
04:00Wed 	 7c 	 19%
05:00Wed 	 7c 	 24%
00:00Wed 	 8c 	 25%
01:00Wed 	 8c 	 23%
02:00Wed 	 7c 	 19%
03:00Wed 	 7c 	 16%
04:00Wed 	 7c 	 19%
05:00Wed 	 7c 	 24%
00:00Wed 	 8c 	 25%
01:00Wed 	 8c 	 23%
02:00Wed 	 7c 	 19%
03:00Wed 	 7c 	 16%
04:00Wed 	 7c 	 19%
05:00Wed 	 7c 	 24%
00:00Wed 	 8c 	 25%
01:00Wed 	 8c 	 23%
02:00Wed 	 7c 	 19%
03:00Wed 	 7c 	 16%
04:00Wed 	 7c 	 19%
05:00Wed 	 7c 	 24%
00:00Wed 	 8c 	 25%
01:00Wed 	 8c 	 23%
02:00Wed 	 7c 	 19%
03:00Wed 	 7c 	 16%
04:00Wed 	 7c 	 19%
05:00Wed 	 7c 	 24%
00:00Wed 	 8c 	 25%
01:00Wed 	 8c 	 23%
02:00Wed 	 7c 	 19%
03:00Wed 	 7c 	 16%
04:00Wed 	 7c 	 19%
05:00Wed 	 7c 	 24%
00:00Wed 	 8c 	 25%
01:00Wed 	 8c 	 23%
02:00Wed 	 7c 	 19%
03:00Wed 	 7c 	 16%
04:00Wed 	 7c 	 19%
05:00Wed 	 7c 	 24%
00:00Wed 	 8c 	 25%
01:00Wed 	 8c 	 23%
02:00Wed 	 7c 	 19%
03:00Wed 	 7c 	 16%
04:00Wed 	 7c 	 19%
05:00Wed 	 7c 	 24%
00:00Wed 	 8c 	 25%
01:00Wed 	 8c 	 23%
02:00Wed 	 7c 	 19%
03:00Wed 	 7c 	 16%
04:00Wed 	 7c 	 19%
05:00Wed 	 7c 	 24%
00:00Wed 	 8c 	 25%
01:00Wed 	 8c 	 23%
02:00Wed 	 7c 	 19%
03:00Wed 	 7c 	 16%
04:00Wed 	 7c 	 19%
05:00Wed 	 7c 	 24%
06:00Wed 	 10c 	 86%
07:00Wed 	 10c 	 40%
08:00Wed 	 10c 	 38%
09:00Wed 	 10c 	 24%
10:00Wed 	 11c 	 29%
11:00Wed 	 11c 	 40%
12:00Wed 	 11c 	 42%
13:00Wed 	 11c 	 52%
14:00Wed 	 11c 	 67%
15:00Wed 	 11c 	 79%
16:00Wed 	 11c 	 78%
17:00Wed 	 11c 	 76%
18:00Wed 	 10c 	 77%
19:00Wed 	 9c 	 71%
20:00Wed 	 9c 	 61%
21:00Wed 	 9c 	 48%
22:00Wed 	 9c 	 39%
23:00Wed 	 8c 	 32%


00:00Wed 	 8c 	 25%
01:00Wed 	 8c 	 23%
02:00Wed 	 7c 	 19%
03:00Wed 	 7c 	 16%
04:00Wed 	 7c 	 19%
05:00Wed 	 7c 	 24%
00:00Wed 	 8c 	 25%
01:00Wed 	 8c 	 23%
02:00Wed 	 7c 	 19%
03:00Wed 	 7c 	 16%
04:00Wed 	 7c 	 19%
05:00Wed 	 7c 	 24%
06:00Wed 	 10c 	 86%
07:00Wed 	 10c 	 40%
08:00Wed 	 10c 	 38%
09:00Wed 	 10c 	 24%
10:00Wed 	 11c 	 29%
11:00Wed 	 11c 	 40%
12:00Wed 	 11c 	 42%
13:00Wed 	 11c 	 52%
14:00Wed 	 11c 	 67%
15:00Wed 	 11c 	 79%
16:00Wed 	 11c 	 78%
17:00Wed 	 11c 	 76%
18:00Wed 	 10c 	 77%
19:00Wed 	 9c 	 71%
20:00Wed 	 9c 	 61%
21:00Wed 	 9c 	 48%
22:00Wed 	 9c 	 39%
23:00Wed 	 8c 	 32%


00:00Wed 	 8c 	 25%
01:00Wed 	 8c 	 23%
02:00Wed 	 7c 	 19%
03:00Wed 	 7c 	 16%
04:00Wed 	 7c 	 19%
05:00Wed 	 7c 	 24%
00:00Wed 	 8c 	 25%
01:00Wed 	 8c 	 23%
02:00Wed 	 7c 	 19%
03:00Wed 	 7c 	 16%
04:00Wed 	 7c 	 19%
05:00Wed 	 7c 	 24%
06:00Wed 	 10c 	 86%
07:00Wed 	 10c 	 40%
08:00Wed 	 10c 	 38%
09:00Wed 	 10c 	 24%
10:00Wed 	 11c 	 29%
11:00Wed 	 11c 	 40%
12:00Wed 	 11c 	 42%
13:00Wed 	 11c 	 52%
14:00Wed 	 11c 	 67%
15:00Wed 	 11c 	 79%
16:00Wed 	 11c 	 78%
17:00Wed 	 11c 	 76%
18:00Wed 	 10c 	 77%
19:00Wed 	 9c 	 71%
20:00Wed 	 9c 	 61%
21:00Wed 	 9c 	 48%
22:00Wed 	 9c 	 39%
23:00Wed 	 8c 	 32%


00:00Wed 	 8c 	 25%
01:00Wed 	 8c 	 23%
02:00Wed 	 7c 	 19%
03:00Wed 	 7c 	 16%
04:00Wed 	 7c 	 19%
05:00Wed 	 7c 	 24%
00:00Wed 	 8c 	 25%
01:00Wed 	 8c 	 23%
02:00Wed 	 7c 	 19%
03:00Wed 	 7c 	 16%
04:00Wed 	 7c 	 19%
05:00Wed 	 7c 	 24%
06:00Wed 	 7c 	 29%
07:00Wed 	 6c 	 35%
08:00Wed 	 6c 	 39%
09:00Wed 	 7c 	 44%
10:00Wed 	 7c 	 50%
11:00Wed 	 8c 	 52%
12:00Wed 	 8c 	 50%
13:00Wed 	 9c 	 43%
14:00Wed 	 9c 	 38%
15:00Wed 	 9c 	 34%
16:00Wed 	 8c 	 31%
17:00Wed 	 8c 	 26%
18:00Wed 	 7c 	 20%
19:00Wed 	 7c 	 17%
20:00Wed 	 7c 	 16%
21:00Wed 	 7c 	 15%
22:00Wed 	 6c 	 16%
23:00Wed 	 6c 	 14%


00:00Wed 	 8c 	 25%
01:00Wed 	 8c 	 23%
02:00Wed 	 7c 	 19%
03:00Wed 	 7c 	 16%
04:00Wed 	 7c 	 19%
05:00Wed 	 7c 	 24%
06:00Wed 	 7c 	 29%
07:00Wed 	 6c 	 35%
08:00Wed 	 6c 	 39%
09:00Wed 	 7c 	 44%
10:00Wed 	 7c 	 50%
11:00Wed 	 8c 	 52%
12:00Wed 	 8c 	 50%
13:00Wed 	 9c 	 43%
14:00Wed 	 9c 	 38%
15:00Wed 	 9c 	 34%
16:00Wed 	 8c 	 31%
17:00Wed 	 8c 	 26%
18:00Wed 	 7c 	 20%
19:00Wed 	 7c 	 17%
20:00Wed 	 7c 	 16%
21:00Wed 	 7c 	 15%
22:00Wed 	 6c 	 16%
23:00Wed 	 6c 	 14%


00:00Wed 	 8c 	 25%
01:00Wed 	 8c 	 23%
02:00Wed 	 7c 	 19%
03:00Wed 	 7c 	 16%
04:00Wed 	 7c 	 19%
05:00Wed 	 7c 	 24%
06:00Wed 	 7c 	 29%
07:00Wed 	 6c 	 35%
08:00Wed 	 6c 	 39%
09:00Wed 	 7c 	 44%
10:00Wed 	 7c 	 50%
11:00Wed 	 8c 	 52%
12:00Wed 	 8c 	 50%
13:00Wed 	 9c 	 43%
14:00Wed 	 9c 	 38%
15:00Wed 	 9c 	 34%
16:00Wed 	 8c 	 31%
17:00Wed 	 8c 	 26%
18:00Wed 	 7c 	 20%
19:00Wed 	 7c 	 17%
20:00Wed 	 7c 	 16%
21:00Wed 	 7c 	 15%
22:00Wed 	 6c 	 16%
23:00Wed 	 6c 	 14%


00:00Wed 	 8c 	 25%
01:00Wed 	 8c 	 23%
02:00Wed 	 7c 	 19%
03:00Wed 	 7c 	 16%
04:00Wed 	 7c 	 19%
05:00Wed 	 7c 	 24%
06:00Wed 	 7c 	 29%
07:00Wed 	 6c 	 35%
08:00Wed 	 6c 	 39%
09:00Wed 	 7c 	 44%
10:00Wed 	 7c 	 50%
11:00Wed 	 8c 	 52%
12:00Wed 	 8c 	 50%
13:00Wed 	 9c 	 43%
14:00Wed 	 9c 	 38%
15:00Wed 	 9c 	 34%
16:00Wed 	 8c 	 31%
17:00Wed 	 8c 	 26%
18:00Wed 	 7c 	 20%
19:00Wed 	 7c 	 17%
20:00Wed 	 7c 	 16%
21:00Wed 	 7c 	 15%
22:00Wed 	 6c 	 16%
23:00Wed 	 6c 	 14%


00:00Wed 	 8c 	 22%
01:00Wed 	 8c 	 21%
02:00Wed 	 7c 	 20%
03:00Wed 	 7c 	 17%
04:00Wed 	 7c 	 25%
05:00Wed 	 7c 	 35%
06:00Wed 	 7c 	 37%
07:00Wed 	 7c 	 35%
08:00Wed 	 7c 	 29%
09:00Wed 	 7c 	 26%
10:00Wed 	 7c 	 35%
11:00Wed 	 8c 	 41%
12:00Wed 	 8c 	 35%
13:00Wed 	 9c 	 26%
14:00Wed 	 9c 	 17%
15:00Wed 	 9c 	 10%
16:00Wed 	 9c 	 7%
17:00Wed 	 8c 	 8%
18:00Wed 	 7c 	 10%
19:00Wed 	 7c 	 11%
20:00Wed 	 7c 	 11%
21:00Wed 	 7c 	 12%
22:00Wed 	 6c 	 14%
23:00Wed 	 6c 	 14%


00:00Wed 	 8c 	 22%
01:00Wed 	 8c 	 21%
02:00Wed 	 7c 	 20%
03:00Wed 	 7c 	 17%
04:00Wed 	 7c 	 25%
05:00Wed 	 7c 	 35%
06:00Wed 	 7c 	 37%
07:00Wed 	 7c 	 35%
08:00Wed 	 7c 	 29%
09:00Wed 	 7c 	 26%
10:00Wed 	 7c 	 35%
11:00Wed 	 8c 	 41%
12:00Wed 	 8c 	 35%
13:00Wed 	 9c 	 26%
14:00Wed 	 9c 	 17%
15:00Wed 	 9c 	 10%
16:00Wed 	 9c 	 7%
17:00Wed 	 8c 	 8%
18:00Wed 	 7c 	 10%
19:00Wed 	 7c 	 11%
20:00Wed 	 7c 	 11%
21:00Wed 	 7c 	 12%
22:00Wed 	 6c 	 14%
23:00Wed 	 6c 	 14%


00:00Wed 	 8c 	 22%
01:00Wed 	 8c 	 21%
02:00Wed 	 7c 	 20%
03:00Wed 	 7c 	 17%
04:00Wed 	 7c 	 25%
05:00Wed 	 7c 	 35%
06:00Wed 	 7c 	 37%
07:00Wed 	 7c 	 35%
08:00Wed 	 7c 	 29%
09:00Wed 	 7c 	 26%
10:00Wed 	 7c 	 35%
11:00Wed 	 8c 	 41%
12:00Wed 	 8c 	 35%
13:00Wed 	 9c 	 26%
14:00Wed 	 9c 	 17%
15:00Wed 	 9c 	 10%
16:00Wed 	 9c 	 7%
17:00Wed 	 8c 	 8%
18:00Wed 	 7c 	 10%
19:00Wed 	 7c 	 11%
20:00Wed 	 7c 	 11%
21:00Wed 	 7c 	 12%
22:00Wed 	 6c 	 14%
23:00Wed 	 6c 	 14%


00:00Wed 	 8c 	 22%
01:00Wed 	 8c 	 21%
02:00Wed 	 7c 	 20%
03:00Wed 	 7c 	 17%
04:00Wed 	 7c 	 25%
05:00Wed 	 7c 	 35%
06:00Wed 	 7c 	 37%
07:00Wed 	 7c 	 35%
08:00Wed 	 7c 	 29%
09:00Wed 	 7c 	 26%
10:00Wed 	 7c 	 35%
11:00Wed 	 8c 	 41%
12:00Wed 	 8c 	 35%
13:00Wed 	 9c 	 26%
14:00Wed 	 9c 	 17%
15:00Wed 	 9c 	 10%
16:00Wed 	 9c 	 7%
17:00Wed 	 8c 	 8%
18:00Wed 	 7c 	 10%
19:00Wed 	 7c 	 11%
20:00Wed 	 7c 	 11%
21:00Wed 	 7c 	 12%
22:00Wed 	 6c 	 14%
23:00Wed 	 6c 	 14%


00:00Wed 	 8c 	 22%
01:00Wed 	 8c 	 21%
02:00Wed 	 7c 	 20%
03:00Wed 	 7c 	 17%
04:00Wed 	 7c 	 25%
05:00Wed 	 7c 	 35%
06:00Wed 	 7c 	 37%
07:00Wed 	 7c 	 35%
08:00Wed 	 7c 	 29%
09:00Wed 	 7c 	 26%
10:00Wed 	 7c 	 35%
11:00Wed 	 8c 	 41%
12:00Wed 	 8c 	 35%
13:00Wed 	 9c 	 26%
14:00Wed 	 9c 	 17%
15:00Wed 	 9c 	 10%
16:00Wed 	 9c 	 7%
17:00Wed 	 8c 	 8%
18:00Wed 	 7c 	 10%
19:00Wed 	 7c 	 11%
20:00Wed 	 7c 	 11%
21:00Wed 	 7c 	 12%
22:00Wed 	 6c 	 14%
23:00Wed 	 6c 	 14%


00:00Wed 	 8c 	 22%
01:00Wed 	 8c 	 21%
02:00Wed 	 7c 	 20%
03:00Wed 	 7c 	 17%
04:00Wed 	 7c 	 25%
05:00Wed 	 7c 	 35%
06:00Wed 	 7c 	 37%
07:00Wed 	 7c 	 35%
08:00Wed 	 7c 	 29%
09:00Wed 	 7c 	 26%
10:00Wed 	 7c 	 35%
11:00Wed 	 8c 	 41%
12:00Wed 	 8c 	 35%
13:00Wed 	 9c 	 26%
14:00Wed 	 9c 	 17%
15:00Wed 	 9c 	 10%
16:00Wed 	 9c 	 7%
17:00Wed 	 8c 	 8%
18:00Wed 	 7c 	 10%
19:00Wed 	 7c 	 11%
20:00Wed 	 7c 	 11%
21:00Wed 	 7c 	 12%
22:00Wed 	 6c 	 14%
23:00Wed 	 6c 	 14%


00:00Wed 	 8c 	 22%
01:00Wed 	 8c 	 21%
02:00Wed 	 7c 	 20%
03:00Wed 	 7c 	 17%
04:00Wed 	 7c 	 25%
05:00Wed 	 7c 	 35%
06:00Wed 	 7c 	 37%
07:00Wed 	 7c 	 35%
08:00Wed 	 7c 	 29%
09:00Wed 	 7c 	 26%
10:00Wed 	 7c 	 35%
11:00Wed 	 8c 	 41%
12:00Wed 	 8c 	 35%
13:00Wed 	 9c 	 26%
14:00Wed 	 9c 	 17%
15:00Wed 	 9c 	 10%
16:00Wed 	 9c 	 7%
17:00Wed 	 8c 	 8%
18:00Wed 	 7c 	 10%
19:00Wed 	 7c 	 11%
20:00Wed 	 7c 	 11%
21:00Wed 	 7c 	 12%
22:00Wed 	 6c 	 14%
23:00Wed 	 6c 	 14%


00:00Wed 	 8c 	 22%
01:00Wed 	 8c 	 22%
02:00Wed 	 7c 	 20%
03:00Wed 	 7c 	 18%
04:00Wed 	 7c 	 25%
05:00Wed 	 7c 	 35%
06:00Wed 	 7c 	 37%
07:00Wed 	 7c 	 35%
08:00Wed 	 7c 	 29%
09:00Wed 	 7c 	 25%
10:00Wed 	 7c 	 33%
11:00Wed 	 8c 	 40%
12:00Wed 	 8c 	 34%
13:00Wed 	 9c 	 23%
14:00Wed 	 9c 	 15%
15:00Wed 	 9c 	 8%
16:00Wed 	 9c 	 4%
17:00Wed 	 8c 	 6%
18:00Wed 	 7c 	 10%
19:00Wed 	 7c 	 11%
20:00Wed 	 6c 	 11%
21:00Wed 	 6c 	 12%
22:00Wed 	 6c 	 12%
23:00Wed 	 6c 	 11%


00:00Wed 	 8c 	 22%
01:00Wed 	 8c 	 22%
02:00Wed 	 7c 	 20%
03:00Wed 	 7c 	 18%
04:00Wed 	 7c 	 25%
05:00Wed 	 7c 	 35%
06:00Wed 	 7c 	 37%
07:00Wed 	 7c 	 35%
08:00Wed 	 7c 	 29%
09:00Wed 	 7c 	 25%
10:00Wed 	 7c 	 33%
11:00Wed 	 8c 	 40%
12:00Wed 	 8c 	 34%
13:00Wed 	 9c 	 23%
14:00Wed 	 9c 	 15%
15:00Wed 	 9c 	 8%
16:00Wed 	 9c 	 4%
17:00Wed 	 8c 	 6%
18:00Wed 	 7c 	 10%
19:00Wed 	 7c 	 11%
20:00Wed 	 6c 	 11%
21:00Wed 	 6c 	 12%
22:00Wed 	 6c 	 12%
23:00Wed 	 6c 	 11%


00:00Wed 	 8c 	 22%
01:00Wed 	 8c 	 22%
02:00Wed 	 7c 	 20%
03:00Wed 	 7c 	 18%
04:00Wed 	 7c 	 25%
05:00Wed 	 7c 	 35%
06:00Wed 	 7c 	 37%
07:00Wed 	 7c 	 35%
08:00Wed 	 7c 	 29%
09:00Wed 	 7c 	 25%
10:00Wed 	 7c 	 33%
11:00Wed 	 8c 	 40%
12:00Wed 	 8c 	 34%
13:00Wed 	 9c 	 23%
14:00Wed 	 9c 	 15%
15:00Wed 	 9c 	 8%
16:00Wed 	 9c 	 4%
17:00Wed 	 8c 	 6%
18:00Wed 	 7c 	 10%
19:00Wed 	 7c 	 11%
20:00Wed 	 6c 	 11%
21:00Wed 	 6c 	 12%
22:00Wed 	 6c 	 12%
23:00Wed 	 6c 	 11%


00:00Wed 	 8c 	 22%
01:00Wed 	 8c 	 22%
02:00Wed 	 7c 	 20%
03:00Wed 	 7c 	 18%
04:00Wed 	 7c 	 25%
05:00Wed 	 7c 	 35%
06:00Wed 	 7c 	 37%
07:00Wed 	 7c 	 35%
08:00Wed 	 7c 	 29%
09:00Wed 	 7c 	 25%
10:00Wed 	 7c 	 33%
11:00Wed 	 8c 	 40%
12:00Wed 	 8c 	 34%
13:00Wed 	 9c 	 23%
14:00Wed 	 9c 	 15%
15:00Wed 	 9c 	 8%
16:00Wed 	 9c 	 4%
17:00Wed 	 8c 	 6%
18:00Wed 	 7c 	 10%
19:00Wed 	 7c 	 11%
20:00Wed 	 6c 	 11%
21:00Wed 	 6c 	 12%
22:00Wed 	 6c 	 12%
23:00Wed 	 6c 	 11%


00:00Wed 	 8c 	 22%
01:00Wed 	 8c 	 22%
02:00Wed 	 7c 	 20%
03:00Wed 	 7c 	 18%
04:00Wed 	 7c 	 25%
05:00Wed 	 7c 	 35%
06:00Wed 	 7c 	 37%
07:00Wed 	 7c 	 35%
08:00Wed 	 7c 	 29%
09:00Wed 	 7c 	 25%
10:00Wed 	 7c 	 33%
11:00Wed 	 8c 	 40%
12:00Wed 	 8c 	 34%
13:00Wed 	 9c 	 23%
14:00Wed 	 9c 	 15%
15:00Wed 	 9c 	 8%
16:00Wed 	 9c 	 4%
17:00Wed 	 8c 	 6%
18:00Wed 	 7c 	 10%
19:00Wed 	 7c 	 11%
20:00Wed 	 6c 	 11%
21:00Wed 	 6c 	 12%
22:00Wed 	 6c 	 12%
23:00Wed 	 6c 	 11%


00:00Wed 	 8c 	 22%
01:00Wed 	 7c 	 22%
02:00Wed 	 7c 	 20%
03:00Wed 	 7c 	 18%
04:00Wed 	 6c 	 25%
05:00Wed 	 7c 	 35%
06:00Wed 	 7c 	 37%
07:00Wed 	 7c 	 35%
08:00Wed 	 7c 	 29%
09:00Wed 	 7c 	 25%
10:00Wed 	 7c 	 33%
11:00Wed 	 8c 	 40%
12:00Wed 	 8c 	 34%
13:00Wed 	 9c 	 23%
14:00Wed 	 9c 	 15%
15:00Wed 	 9c 	 8%
16:00Wed 	 9c 	 4%
17:00Wed 	 8c 	 6%
18:00Wed 	 7c 	 10%
19:00Wed 	 7c 	 11%
20:00Wed 	 6c 	 11%
21:00Wed 	 6c 	 12%
22:00Wed 	 6c 	 12%
23:00Wed 	 6c 	 11%


00:00Wed 	 8c 	 22%
01:00Wed 	 7c 	 22%
02:00Wed 	 7c 	 20%
03:00Wed 	 7c 	 18%
04:00Wed 	 6c 	 25%
05:00Wed 	 7c 	 35%
06:00Wed 	 7c 	 37%
07:00Wed 	 7c 	 35%
08:00Wed 	 7c 	 29%
09:00Wed 	 7c 	 25%
10:00Wed 	 7c 	 33%
11:00Wed 	 8c 	 40%
12:00Wed 	 8c 	 34%
13:00Wed 	 9c 	 23%
14:00Wed 	 9c 	 15%
15:00Wed 	 9c 	 8%
16:00Wed 	 9c 	 4%
17:00Wed 	 8c 	 6%
18:00Wed 	 7c 	 10%
19:00Wed 	 7c 	 11%
20:00Wed 	 6c 	 11%
21:00Wed 	 6c 	 12%
22:00Wed 	 6c 	 12%
23:00Wed 	 6c 	 11%


00:00Wed 	 8c 	 22%
01:00Wed 	 7c 	 22%
02:00Wed 	 7c 	 20%
03:00Wed 	 7c 	 18%
04:00Wed 	 6c 	 25%
05:00Wed 	 7c 	 35%
06:00Wed 	 7c 	 37%
07:00Wed 	 7c 	 35%
08:00Wed 	 7c 	 29%
09:00Wed 	 7c 	 25%
10:00Wed 	 7c 	 33%
11:00Wed 	 8c 	 40%
12:00Wed 	 8c 	 34%
13:00Wed 	 9c 	 23%
14:00Wed 	 9c 	 15%
15:00Wed 	 9c 	 8%
16:00Wed 	 9c 	 4%
17:00Wed 	 8c 	 6%
18:00Wed 	 7c 	 10%
19:00Wed 	 7c 	 11%
20:00Wed 	 6c 	 11%
21:00Wed 	 6c 	 12%
22:00Wed 	 6c 	 12%
23:00Wed 	 6c 	 11%


00:00Wed 	 8c 	 22%
01:00Wed 	 7c 	 22%
02:00Wed 	 7c 	 20%
03:00Wed 	 7c 	 18%
04:00Wed 	 6c 	 25%
05:00Wed 	 7c 	 35%
06:00Wed 	 7c 	 37%
07:00Wed 	 7c 	 35%
08:00Wed 	 7c 	 29%
09:00Wed 	 7c 	 25%
10:00Wed 	 7c 	 33%
11:00Wed 	 8c 	 40%
12:00Wed 	 8c 	 34%
13:00Wed 	 9c 	 23%
14:00Wed 	 9c 	 15%
15:00Wed 	 9c 	 8%
16:00Wed 	 9c 	 4%
17:00Wed 	 8c 	 6%
18:00Wed 	 7c 	 10%
19:00Wed 	 7c 	 11%
20:00Wed 	 6c 	 11%
21:00Wed 	 6c 	 12%
22:00Wed 	 6c 	 12%
23:00Wed 	 6c 	 11%


00:00Wed 	 8c 	 22%
01:00Wed 	 7c 	 22%
02:00Wed 	 7c 	 20%
03:00Wed 	 7c 	 18%
04:00Wed 	 6c 	 25%
05:00Wed 	 7c 	 35%
06:00Wed 	 7c 	 37%
07:00Wed 	 7c 	 35%
08:00Wed 	 7c 	 29%
09:00Wed 	 7c 	 25%
10:00Wed 	 7c 	 33%
11:00Wed 	 8c 	 40%
12:00Wed 	 8c 	 34%
13:00Wed 	 9c 	 23%
14:00Wed 	 9c 	 15%
15:00Wed 	 9c 	 8%
16:00Wed 	 9c 	 4%
17:00Wed 	 8c 	 6%
18:00Wed 	 7c 	 10%
19:00Wed 	 7c 	 11%
20:00Wed 	 6c 	 13%
21:00Wed 	 6c 	 14%
22:00Wed 	 6c 	 14%
23:00Wed 	 6c 	 11%


00:00Wed 	 8c 	 22%
01:00Wed 	 7c 	 22%
02:00Wed 	 7c 	 20%
03:00Wed 	 7c 	 18%
04:00Wed 	 6c 	 25%
05:00Wed 	 7c 	 35%
06:00Wed 	 7c 	 37%
07:00Wed 	 7c 	 35%
08:00Wed 	 7c 	 29%
09:00Wed 	 7c 	 25%
10:00Wed 	 7c 	 33%
11:00Wed 	 8c 	 40%
12:00Wed 	 8c 	 34%
13:00Wed 	 9c 	 23%
14:00Wed 	 9c 	 15%
15:00Wed 	 9c 	 8%
16:00Wed 	 9c 	 4%
17:00Wed 	 8c 	 6%
18:00Wed 	 7c 	 10%
19:00Wed 	 7c 	 11%
20:00Wed 	 6c 	 13%
21:00Wed 	 6c 	 14%
22:00Wed 	 6c 	 14%
23:00Wed 	 6c 	 11%


00:00Wed 	 8c 	 22%
01:00Wed 	 7c 	 22%
02:00Wed 	 7c 	 20%
03:00Wed 	 7c 	 18%
04:00Wed 	 6c 	 25%
05:00Wed 	 7c 	 35%
06:00Wed 	 7c 	 37%
07:00Wed 	 7c 	 35%
08:00Wed 	 7c 	 29%
09:00Wed 	 7c 	 25%
10:00Wed 	 7c 	 33%
11:00Wed 	 8c 	 40%
12:00Wed 	 8c 	 34%
13:00Wed 	 9c 	 23%
14:00Wed 	 9c 	 15%
15:00Wed 	 9c 	 8%
16:00Wed 	 9c 	 4%
17:00Wed 	 8c 	 6%
18:00Wed 	 7c 	 10%
19:00Wed 	 7c 	 11%
20:00Wed 	 6c 	 13%
21:00Wed 	 6c 	 14%
22:00Wed 	 6c 	 14%
23:00Wed 	 6c 	 11%


00:00Wed 	 8c 	 22%
01:00Wed 	 7c 	 22%
02:00Wed 	 7c 	 20%
03:00Wed 	 7c 	 18%
04:00Wed 	 6c 	 25%
05:00Wed 	 7c 	 35%
06:00Wed 	 7c 	 37%
07:00Wed 	 7c 	 35%
08:00Wed 	 7c 	 29%
09:00Wed 	 7c 	 25%
10:00Wed 	 7c 	 33%
11:00Wed 	 8c 	 40%
12:00Wed 	 8c 	 34%
13:00Wed 	 9c 	 23%
14:00Wed 	 9c 	 15%
15:00Wed 	 9c 	 8%
16:00Wed 	 9c 	 4%
17:00Wed 	 8c 	 6%
18:00Wed 	 7c 	 10%
19:00Wed 	 7c 	 11%
20:00Wed 	 6c 	 13%
21:00Wed 	 6c 	 14%
22:00Wed 	 6c 	 14%
23:00Wed 	 6c 	 11%


00:00Wed 	 8c 	 22%
01:00Wed 	 7c 	 22%
02:00Wed 	 7c 	 20%
03:00Wed 	 7c 	 18%
04:00Wed 	 6c 	 25%
05:00Wed 	 7c 	 35%
06:00Wed 	 7c 	 37%
07:00Wed 	 7c 	 35%
08:00Wed 	 7c 	 29%
09:00Wed 	 7c 	 25%
10:00Wed 	 7c 	 33%
11:00Wed 	 8c 	 40%
12:00Wed 	 8c 	 34%
13:00Wed 	 9c 	 23%
14:00Wed 	 9c 	 15%
15:00Wed 	 9c 	 8%
16:00Wed 	 9c 	 4%
17:00Wed 	 8c 	 6%
18:00Wed 	 7c 	 10%
19:00Wed 	 7c 	 11%
20:00Wed 	 6c 	 13%
21:00Wed 	 6c 	 14%
22:00Wed 	 6c 	 14%
23:00Wed 	 6c 	 11%


00:00Wed 	 8c 	 22%
01:00Wed 	 7c 	 22%
02:00Wed 	 7c 	 20%
03:00Wed 	 7c 	 18%
04:00Wed 	 6c 	 25%
05:00Wed 	 7c 	 35%
06:00Wed 	 7c 	 37%
07:00Wed 	 7c 	 35%
08:00Wed 	 7c 	 29%
09:00Wed 	 7c 	 25%
10:00Wed 	 7c 	 33%
11:00Wed 	 8c 	 40%
12:00Wed 	 8c 	 34%
13:00Wed 	 9c 	 23%
14:00Wed 	 9c 	 15%
15:00Wed 	 9c 	 8%
16:00Wed 	 9c 	 4%
17:00Wed 	 8c 	 6%
18:00Wed 	 7c 	 10%
19:00Wed 	 7c 	 11%
20:00Wed 	 6c 	 13%
21:00Wed 	 6c 	 14%
22:00Wed 	 6c 	 14%
23:00Wed 	 6c 	 11%


00:00Wed 	 8c 	 22%
01:00Wed 	 7c 	 22%
02:00Wed 	 7c 	 20%
03:00Wed 	 7c 	 18%
04:00Wed 	 6c 	 25%
05:00Wed 	 7c 	 35%
06:00Wed 	 7c 	 37%
07:00Wed 	 7c 	 35%
08:00Wed 	 7c 	 29%
09:00Wed 	 7c 	 25%
10:00Wed 	 7c 	 33%
11:00Wed 	 8c 	 40%
12:00Wed 	 8c 	 34%
13:00Wed 	 9c 	 23%
14:00Wed 	 9c 	 15%
15:00Wed 	 9c 	 8%
16:00Wed 	 9c 	 4%
17:00Wed 	 8c 	 6%
18:00Wed 	 7c 	 10%
19:00Wed 	 7c 	 11%
20:00Wed 	 6c 	 13%
21:00Wed 	 6c 	 14%
22:00Wed 	 6c 	 14%
23:00Wed 	 6c 	 11%


00:00Wed 	 8c 	 22%
01:00Wed 	 7c 	 22%
02:00Wed 	 7c 	 20%
03:00Wed 	 7c 	 18%
04:00Wed 	 6c 	 25%
05:00Wed 	 7c 	 35%
06:00Wed 	 7c 	 37%
07:00Wed 	 7c 	 35%
08:00Wed 	 7c 	 29%
09:00Wed 	 7c 	 25%
10:00Wed 	 7c 	 33%
11:00Wed 	 8c 	 40%
12:00Wed 	 8c 	 34%
13:00Wed 	 9c 	 23%
14:00Wed 	 9c 	 15%
15:00Wed 	 9c 	 8%
16:00Wed 	 9c 	 4%
17:00Wed 	 8c 	 6%
18:00Wed 	 7c 	 10%
19:00Wed 	 7c 	 11%
20:00Wed 	 6c 	 13%
21:00Wed 	 6c 	 14%
22:00Wed 	 6c 	 14%
23:00Wed 	 6c 	 11%


00:00Wed 	 8c 	 22%
01:00Wed 	 7c 	 22%
02:00Wed 	 7c 	 20%
03:00Wed 	 7c 	 18%
04:00Wed 	 6c 	 25%
05:00Wed 	 7c 	 35%
06:00Wed 	 7c 	 37%
07:00Wed 	 7c 	 35%
08:00Wed 	 7c 	 29%
09:00Wed 	 7c 	 25%
10:00Wed 	 7c 	 33%
11:00Wed 	 8c 	 40%
12:00Wed 	 8c 	 34%
13:00Wed 	 9c 	 23%
14:00Wed 	 9c 	 15%
15:00Wed 	 9c 	 8%
16:00Wed 	 9c 	 4%
17:00Wed 	 8c 	 6%
18:00Wed 	 7c 	 10%
19:00Wed 	 7c 	 11%
20:00Wed 	 6c 	 13%
21:00Wed 	 6c 	 14%
22:00Wed 	 6c 	 14%
23:00Wed 	 6c 	 11%


00:00Wed 	 8c 	 22%
01:00Wed 	 7c 	 22%
02:00Wed 	 7c 	 20%
03:00Wed 	 7c 	 18%
04:00Wed 	 6c 	 25%
05:00Wed 	 7c 	 35%
06:00Wed 	 7c 	 37%
07:00Wed 	 7c 	 35%
08:00Wed 	 7c 	 29%
09:00Wed 	 7c 	 25%
10:00Wed 	 7c 	 33%
11:00Wed 	 8c 	 40%
12:00Wed 	 8c 	 34%
13:00Wed 	 9c 	 23%
14:00Wed 	 9c 	 15%
15:00Wed 	 9c 	 8%
16:00Wed 	 9c 	 4%
17:00Wed 	 8c 	 6%
18:00Wed 	 7c 	 10%
19:00Wed 	 7c 	 11%
20:00Wed 	 6c 	 13%
21:00Wed 	 6c 	 14%
22:00Wed 	 6c 	 14%
23:00Wed 	 6c 	 11%


00:00Wed 	 8c 	 22%
01:00Wed 	 7c 	 22%
02:00Wed 	 7c 	 20%
03:00Wed 	 7c 	 18%
04:00Wed 	 6c 	 25%
05:00Wed 	 7c 	 35%
06:00Wed 	 7c 	 37%
07:00Wed 	 7c 	 35%
08:00Wed 	 7c 	 29%
09:00Wed 	 7c 	 25%
10:00Wed 	 7c 	 33%
11:00Wed 	 8c 	 40%
12:00Wed 	 8c 	 34%
13:00Wed 	 9c 	 23%
14:00Wed 	 9c 	 15%
15:00Wed 	 9c 	 8%
16:00Wed 	 9c 	 4%
17:00Wed 	 8c 	 6%
18:00Wed 	 7c 	 10%
19:00Wed 	 7c 	 11%
20:00Wed 	 6c 	 13%
21:00Wed 	 6c 	 14%
22:00Wed 	 6c 	 14%
23:00Wed 	 6c 	 11%


00:00Wed 	 8c 	 22%
01:00Wed 	 7c 	 22%
02:00Wed 	 7c 	 20%
03:00Wed 	 7c 	 18%
04:00Wed 	 6c 	 25%
05:00Wed 	 7c 	 35%
06:00Wed 	 7c 	 37%
07:00Wed 	 7c 	 35%
08:00Wed 	 7c 	 29%
09:00Wed 	 7c 	 25%
10:00Wed 	 7c 	 33%
11:00Wed 	 8c 	 40%
12:00Wed 	 8c 	 34%
13:00Wed 	 9c 	 23%
14:00Wed 	 9c 	 15%
15:00Wed 	 9c 	 8%
16:00Wed 	 9c 	 4%
17:00Wed 	 8c 	 6%
18:00Wed 	 7c 	 10%
19:00Wed 	 7c 	 11%
20:00Wed 	 6c 	 13%
21:00Wed 	 6c 	 14%
22:00Wed 	 6c 	 14%
23:00Wed 	 6c 	 11%


00:00Wed 	 8c 	 22%
01:00Wed 	 7c 	 22%
02:00Wed 	 7c 	 20%
03:00Wed 	 7c 	 18%
04:00Wed 	 6c 	 25%
05:00Wed 	 7c 	 35%
06:00Wed 	 7c 	 37%
07:00Wed 	 7c 	 35%
08:00Wed 	 7c 	 29%
09:00Wed 	 7c 	 25%
10:00Wed 	 7c 	 33%
11:00Wed 	 8c 	 40%
12:00Wed 	 8c 	 34%
13:00Wed 	 9c 	 23%
14:00Wed 	 9c 	 15%
15:00Wed 	 9c 	 8%
16:00Wed 	 9c 	 4%
17:00Wed 	 8c 	 6%
18:00Wed 	 7c 	 10%
19:00Wed 	 7c 	 11%
20:00Wed 	 6c 	 13%
21:00Wed 	 6c 	 14%
22:00Wed 	 6c 	 14%
23:00Wed 	 6c 	 11%


00:00Wed 	 8c 	 22%
01:00Wed 	 7c 	 22%
02:00Wed 	 7c 	 20%
03:00Wed 	 7c 	 18%
04:00Wed 	 6c 	 25%
05:00Wed 	 7c 	 35%
06:00Wed 	 7c 	 37%
07:00Wed 	 7c 	 35%
08:00Wed 	 7c 	 29%
09:00Wed 	 7c 	 25%
10:00Wed 	 7c 	 33%
11:00Wed 	 8c 	 40%
12:00Wed 	 8c 	 34%
13:00Wed 	 9c 	 23%
14:00Wed 	 9c 	 15%
15:00Wed 	 9c 	 8%
16:00Wed 	 9c 	 4%
17:00Wed 	 8c 	 6%
18:00Wed 	 7c 	 10%
19:00Wed 	 7c 	 11%
20:00Wed 	 6c 	 13%
21:00Wed 	 6c 	 14%
22:00Wed 	 6c 	 14%
23:00Wed 	 6c 	 11%


00:00Wed 	 8c 	 22%
01:00Wed 	 7c 	 22%
02:00Wed 	 7c 	 20%
03:00Wed 	 7c 	 18%
04:00Wed 	 6c 	 25%
05:00Wed 	 7c 	 35%
06:00Wed 	 7c 	 37%
07:00Wed 	 7c 	 35%
08:00Wed 	 7c 	 29%
09:00Wed 	 7c 	 25%
10:00Wed 	 7c 	 33%
11:00Wed 	 8c 	 40%
12:00Wed 	 8c 	 34%
13:00Wed 	 9c 	 23%
14:00Wed 	 9c 	 15%
15:00Wed 	 9c 	 8%
16:00Wed 	 9c 	 4%
17:00Wed 	 8c 	 6%
18:00Wed 	 7c 	 10%
19:00Wed 	 7c 	 11%
20:00Wed 	 6c 	 13%
21:00Wed 	 6c 	 14%
22:00Wed 	 6c 	 14%
23:00Wed 	 6c 	 11%


00:00Wed 	 8c 	 22%
01:00Wed 	 7c 	 22%
02:00Wed 	 7c 	 20%
03:00Wed 	 7c 	 18%
04:00Wed 	 6c 	 25%
05:00Wed 	 7c 	 35%
06:00Wed 	 7c 	 37%
07:00Wed 	 7c 	 35%
08:00Wed 	 7c 	 29%
09:00Wed 	 7c 	 25%
10:00Wed 	 7c 	 33%
11:00Wed 	 8c 	 40%
12:00Wed 	 8c 	 34%
13:00Wed 	 9c 	 23%
14:00Wed 	 9c 	 15%
15:00Wed 	 9c 	 8%
16:00Wed 	 9c 	 4%
17:00Wed 	 8c 	 6%
18:00Wed 	 7c 	 10%
19:00Wed 	 7c 	 11%
20:00Wed 	 6c 	 13%
21:00Wed 	 6c 	 14%
22:00Wed 	 6c 	 14%
23:00Wed 	 6c 	 11%


00:00Wed 	 8c 	 22%
01:00Wed 	 7c 	 22%
02:00Wed 	 7c 	 20%
03:00Wed 	 7c 	 18%
04:00Wed 	 6c 	 25%
05:00Wed 	 7c 	 35%
06:00Wed 	 7c 	 37%
07:00Wed 	 7c 	 35%
08:00Wed 	 7c 	 29%
09:00Wed 	 7c 	 25%
10:00Wed 	 7c 	 33%
11:00Wed 	 8c 	 40%
12:00Wed 	 8c 	 34%
13:00Wed 	 9c 	 23%
14:00Wed 	 9c 	 15%
15:00Wed 	 9c 	 8%
16:00Wed 	 9c 	 4%
17:00Wed 	 8c 	 6%
18:00Wed 	 7c 	 10%
19:00Wed 	 7c 	 11%
20:00Wed 	 6c 	 13%
21:00Wed 	 6c 	 14%
22:00Wed 	 6c 	 14%
23:00Wed 	 6c 	 11%


00:00Wed 	 8c 	 22%
01:00Wed 	 7c 	 22%
02:00Wed 	 7c 	 20%
03:00Wed 	 7c 	 18%
04:00Wed 	 6c 	 25%
05:00Wed 	 7c 	 35%
06:00Wed 	 7c 	 37%
07:00Wed 	 7c 	 35%
08:00Wed 	 7c 	 29%
09:00Wed 	 7c 	 25%
10:00Wed 	 7c 	 33%
11:00Wed 	 8c 	 40%
12:00Wed 	 8c 	 34%
13:00Wed 	 9c 	 23%
14:00Wed 	 9c 	 15%
15:00Wed 	 9c 	 8%
16:00Wed 	 9c 	 4%
17:00Wed 	 8c 	 6%
18:00Wed 	 7c 	 10%
19:00Wed 	 7c 	 11%
20:00Wed 	 6c 	 13%
21:00Wed 	 6c 	 14%
22:00Wed 	 6c 	 14%
23:00Wed 	 6c 	 11%


00:00Wed 	 8c 	 22%
01:00Wed 	 7c 	 22%
02:00Wed 	 7c 	 20%
03:00Wed 	 7c 	 18%
04:00Wed 	 6c 	 25%
05:00Wed 	 7c 	 35%
06:00Wed 	 7c 	 37%
07:00Wed 	 7c 	 35%
08:00Wed 	 7c 	 29%
09:00Wed 	 7c 	 25%
10:00Wed 	 7c 	 33%
11:00Wed 	 8c 	 40%
12:00Wed 	 8c 	 34%
13:00Wed 	 9c 	 23%
14:00Wed 	 9c 	 15%
15:00Wed 	 9c 	 8%
16:00Wed 	 9c 	 4%
17:00Wed 	 8c 	 6%
18:00Wed 	 7c 	 10%
19:00Wed 	 7c 	 11%
20:00Wed 	 6c 	 13%
21:00Wed 	 6c 	 14%
22:00Wed 	 6c 	 14%
23:00Wed 	 6c 	 11%


00:00Wed 	 8c 	 22%
01:00Wed 	 7c 	 22%
02:00Wed 	 7c 	 20%
03:00Wed 	 7c 	 18%
04:00Wed 	 6c 	 25%
05:00Wed 	 7c 	 35%
06:00Wed 	 7c 	 37%
07:00Wed 	 7c 	 35%
08:00Wed 	 7c 	 29%
09:00Wed 	 7c 	 25%
10:00Wed 	 7c 	 33%
11:00Wed 	 8c 	 40%
12:00Wed 	 8c 	 34%
13:00Wed 	 9c 	 23%
14:00Wed 	 9c 	 15%
15:00Wed 	 9c 	 8%
16:00Wed 	 9c 	 4%
17:00Wed 	 8c 	 6%
18:00Wed 	 7c 	 10%
19:00Wed 	 7c 	 11%
20:00Wed 	 6c 	 13%
21:00Wed 	 6c 	 14%
22:00Wed 	 6c 	 14%
23:00Wed 	 6c 	 11%


00:00Wed 	 8c 	 22%
01:00Wed 	 7c 	 22%
02:00Wed 	 7c 	 20%
03:00Wed 	 7c 	 18%
04:00Wed 	 6c 	 25%
05:00Wed 	 7c 	 35%
06:00Wed 	 7c 	 37%
07:00Wed 	 7c 	 35%
08:00Wed 	 7c 	 29%
09:00Wed 	 7c 	 25%
10:00Wed 	 7c 	 33%
11:00Wed 	 8c 	 40%
12:00Wed 	 8c 	 34%
13:00Wed 	 9c 	 23%
14:00Wed 	 9c 	 15%
15:00Wed 	 9c 	 8%
16:00Wed 	 9c 	 4%
17:00Wed 	 8c 	 6%
18:00Wed 	 7c 	 10%
19:00Wed 	 7c 	 11%
20:00Wed 	 6c 	 13%
21:00Wed 	 6c 	 14%
22:00Wed 	 6c 	 14%
23:00Wed 	 6c 	 11%


00:00Wed 	 8c 	 22%
01:00Wed 	 7c 	 22%
02:00Wed 	 7c 	 20%
03:00Wed 	 7c 	 18%
04:00Wed 	 6c 	 25%
05:00Wed 	 7c 	 35%
06:00Wed 	 7c 	 37%
07:00Wed 	 7c 	 35%
08:00Wed 	 7c 	 29%
09:00Wed 	 7c 	 25%
10:00Wed 	 7c 	 33%
11:00Wed 	 8c 	 40%
12:00Wed 	 8c 	 34%
13:00Wed 	 9c 	 23%
14:00Wed 	 9c 	 15%
15:00Wed 	 9c 	 8%
16:00Wed 	 9c 	 4%
17:00Wed 	 8c 	 6%
18:00Wed 	 7c 	 10%
19:00Wed 	 7c 	 11%
20:00Wed 	 6c 	 13%
21:00Wed 	 6c 	 14%
22:00Wed 	 6c 	 14%
23:00Wed 	 6c 	 11%


00:00Wed 	 8c 	 22%
01:00Wed 	 7c 	 22%
02:00Wed 	 7c 	 20%
03:00Wed 	 7c 	 18%
04:00Wed 	 6c 	 25%
05:00Wed 	 7c 	 35%
06:00Wed 	 7c 	 37%
07:00Wed 	 7c 	 35%
08:00Wed 	 7c 	 29%
09:00Wed 	 7c 	 25%
10:00Wed 	 7c 	 33%
11:00Wed 	 8c 	 40%
12:00Wed 	 8c 	 34%
13:00Wed 	 9c 	 23%
14:00Wed 	 9c 	 15%
15:00Wed 	 9c 	 8%
16:00Wed 	 9c 	 4%
17:00Wed 	 8c 	 6%
18:00Wed 	 7c 	 10%
19:00Wed 	 7c 	 11%
20:00Wed 	 6c 	 13%
21:00Wed 	 6c 	 14%
22:00Wed 	 6c 	 14%
23:00Wed 	 6c 	 11%


00:00Wed 	 8c 	 22%
01:00Wed 	 7c 	 22%
02:00Wed 	 7c 	 20%
03:00Wed 	 7c 	 18%
04:00Wed 	 6c 	 25%
05:00Wed 	 7c 	 35%
06:00Wed 	 7c 	 37%
07:00Wed 	 7c 	 35%
08:00Wed 	 7c 	 29%
09:00Wed 	 7c 	 25%
10:00Wed 	 7c 	 33%
11:00Wed 	 8c 	 40%
12:00Wed 	 8c 	 34%
13:00Wed 	 9c 	 23%
14:00Wed 	 9c 	 15%
15:00Wed 	 9c 	 8%
16:00Wed 	 9c 	 4%
17:00Wed 	 8c 	 6%
18:00Wed 	 7c 	 10%
19:00Wed 	 7c 	 11%
20:00Wed 	 6c 	 13%
21:00Wed 	 6c 	 14%
22:00Wed 	 6c 	 14%
23:00Wed 	 6c 	 11%


00:00Wed 	 8c 	 22%
01:00Wed 	 7c 	 22%
02:00Wed 	 7c 	 20%
03:00Wed 	 7c 	 18%
04:00Wed 	 6c 	 25%
05:00Wed 	 7c 	 35%
06:00Wed 	 7c 	 37%
07:00Wed 	 7c 	 35%
08:00Wed 	 7c 	 29%
09:00Wed 	 7c 	 25%
10:00Wed 	 7c 	 33%
11:00Wed 	 8c 	 40%
12:00Wed 	 8c 	 34%
13:00Wed 	 9c 	 23%
14:00Wed 	 9c 	 15%
15:00Wed 	 9c 	 8%
16:00Wed 	 9c 	 4%
17:00Wed 	 8c 	 6%
18:00Wed 	 7c 	 10%
19:00Wed 	 7c 	 11%
20:00Wed 	 6c 	 13%
21:00Wed 	 6c 	 14%
22:00Wed 	 6c 	 14%
23:00Wed 	 6c 	 11%


00:00Wed 	 8c 	 22%
01:00Wed 	 7c 	 22%
02:00Wed 	 7c 	 20%
03:00Wed 	 7c 	 18%
04:00Wed 	 6c 	 25%
05:00Wed 	 7c 	 35%
06:00Wed 	 7c 	 37%
07:00Wed 	 7c 	 35%
08:00Wed 	 7c 	 29%
09:00Wed 	 7c 	 25%
10:00Wed 	 7c 	 33%
11:00Wed 	 8c 	 40%
12:00Wed 	 8c 	 34%
13:00Wed 	 9c 	 23%
14:00Wed 	 9c 	 15%
15:00Wed 	 9c 	 8%
16:00Wed 	 9c 	 4%
17:00Wed 	 8c 	 6%
18:00Wed 	 7c 	 10%
19:00Wed 	 7c 	 11%
20:00Wed 	 6c 	 13%
21:00Wed 	 6c 	 14%
22:00Wed 	 6c 	 14%
23:00Wed 	 6c 	 11%


00:00Wed 	 8c 	 22%
01:00Wed 	 7c 	 22%
02:00Wed 	 7c 	 20%
03:00Wed 	 7c 	 18%
04:00Wed 	 6c 	 25%
05:00Wed 	 7c 	 35%
06:00Wed 	 7c 	 37%
07:00Wed 	 7c 	 35%
08:00Wed 	 7c 	 29%
09:00Wed 	 7c 	 25%
10:00Wed 	 7c 	 33%
11:00Wed 	 8c 	 40%
12:00Wed 	 8c 	 34%
13:00Wed 	 9c 	 23%
14:00Wed 	 9c 	 15%
15:00Wed 	 9c 	 8%
16:00Wed 	 9c 	 4%
17:00Wed 	 8c 	 6%
18:00Wed 	 7c 	 10%
19:00Wed 	 7c 	 11%
20:00Wed 	 6c 	 13%
21:00Wed 	 6c 	 14%
22:00Wed 	 6c 	 14%
23:00Wed 	 6c 	 11%


00:00Wed 	 8c 	 22%
01:00Wed 	 7c 	 22%
02:00Wed 	 7c 	 20%
03:00Wed 	 7c 	 18%
04:00Wed 	 6c 	 25%
05:00Wed 	 7c 	 35%
06:00Wed 	 7c 	 37%
07:00Wed 	 7c 	 35%
08:00Wed 	 7c 	 29%
09:00Wed 	 7c 	 25%
10:00Wed 	 7c 	 33%
11:00Wed 	 8c 	 40%
12:00Wed 	 8c 	 34%
13:00Wed 	 9c 	 23%
14:00Wed 	 9c 	 15%
15:00Wed 	 9c 	 8%
16:00Wed 	 9c 	 4%
17:00Wed 	 8c 	 6%
18:00Wed 	 7c 	 10%
19:00Wed 	 7c 	 11%
20:00Wed 	 6c 	 13%
21:00Wed 	 6c 	 14%
22:00Wed 	 6c 	 14%
23:00Wed 	 6c 	 11%


00:00Wed 	 8c 	 22%
01:00Wed 	 7c 	 22%
02:00Wed 	 7c 	 20%
03:00Wed 	 7c 	 18%
04:00Wed 	 6c 	 25%
05:00Wed 	 7c 	 35%
06:00Wed 	 7c 	 37%
07:00Wed 	 7c 	 35%
08:00Wed 	 7c 	 29%
09:00Wed 	 7c 	 25%
10:00Wed 	 7c 	 33%
11:00Wed 	 8c 	 40%
12:00Wed 	 8c 	 34%
13:00Wed 	 9c 	 23%
14:00Wed 	 9c 	 15%
15:00Wed 	 9c 	 8%
16:00Wed 	 9c 	 4%
17:00Wed 	 8c 	 6%
18:00Wed 	 7c 	 10%
19:00Wed 	 7c 	 11%
20:00Wed 	 6c 	 13%
21:00Wed 	 6c 	 14%
22:00Wed 	 6c 	 14%
23:00Wed 	 6c 	 11%


00:00Wed 	 8c 	 22%
01:00Wed 	 7c 	 22%
02:00Wed 	 7c 	 20%
03:00Wed 	 7c 	 18%
04:00Wed 	 6c 	 25%
05:00Wed 	 7c 	 35%
06:00Wed 	 7c 	 37%
07:00Wed 	 7c 	 35%
08:00Wed 	 7c 	 29%
09:00Wed 	 7c 	 25%
10:00Wed 	 7c 	 33%
11:00Wed 	 8c 	 40%
12:00Wed 	 8c 	 34%
13:00Wed 	 9c 	 23%
14:00Wed 	 9c 	 15%
15:00Wed 	 9c 	 8%
16:00Wed 	 9c 	 4%
17:00Wed 	 8c 	 6%
18:00Wed 	 7c 	 10%
19:00Wed 	 7c 	 11%
20:00Wed 	 6c 	 13%
21:00Wed 	 6c 	 14%
22:00Wed 	 6c 	 14%
23:00Wed 	 6c 	 11%


00:00Wed 	 8c 	 22%
01:00Wed 	 7c 	 22%
02:00Wed 	 7c 	 20%
03:00Wed 	 7c 	 18%
04:00Wed 	 6c 	 25%
05:00Wed 	 7c 	 35%
06:00Wed 	 7c 	 37%
07:00Wed 	 7c 	 35%
08:00Wed 	 7c 	 29%
09:00Wed 	 7c 	 25%
10:00Wed 	 7c 	 33%
11:00Wed 	 8c 	 40%
12:00Wed 	 8c 	 34%
13:00Wed 	 9c 	 23%
14:00Wed 	 9c 	 15%
15:00Wed 	 9c 	 8%
16:00Wed 	 9c 	 4%
17:00Wed 	 8c 	 6%
18:00Wed 	 7c 	 10%
19:00Wed 	 7c 	 11%
20:00Wed 	 6c 	 13%
21:00Wed 	 6c 	 14%
22:00Wed 	 6c 	 14%
23:00Wed 	 6c 	 11%


00:00Wed 	 8c 	 22%
01:00Wed 	 7c 	 22%
02:00Wed 	 7c 	 20%
03:00Wed 	 7c 	 18%
04:00Wed 	 6c 	 25%
05:00Wed 	 7c 	 35%
06:00Wed 	 7c 	 37%
07:00Wed 	 7c 	 35%
08:00Wed 	 7c 	 29%
09:00Wed 	 7c 	 25%
10:00Wed 	 7c 	 33%
11:00Wed 	 8c 	 40%
12:00Wed 	 8c 	 34%
13:00Wed 	 9c 	 23%
14:00Wed 	 9c 	 15%
15:00Wed 	 9c 	 8%
16:00Wed 	 9c 	 4%
17:00Wed 	 8c 	 6%
18:00Wed 	 7c 	 10%
19:00Wed 	 7c 	 11%
20:00Wed 	 6c 	 13%
21:00Wed 	 6c 	 14%
22:00Wed 	 6c 	 14%
23:00Wed 	 6c 	 11%


00:00Wed 	 8c 	 22%
01:00Wed 	 7c 	 22%
02:00Wed 	 7c 	 20%
03:00Wed 	 7c 	 18%
04:00Wed 	 6c 	 25%
05:00Wed 	 7c 	 35%
06:00Wed 	 7c 	 37%
07:00Wed 	 7c 	 35%
08:00Wed 	 7c 	 29%
09:00Wed 	 7c 	 25%
10:00Wed 	 7c 	 33%
11:00Wed 	 8c 	 40%
12:00Wed 	 8c 	 34%
13:00Wed 	 9c 	 23%
14:00Wed 	 9c 	 15%
15:00Wed 	 9c 	 8%
16:00Wed 	 9c 	 4%
17:00Wed 	 8c 	 6%
18:00Wed 	 7c 	 10%
19:00Wed 	 7c 	 11%
20:00Wed 	 6c 	 13%
21:00Wed 	 6c 	 14%
22:00Wed 	 6c 	 14%
23:00Wed 	 6c 	 11%


00:00Wed 	 8c 	 22%
01:00Wed 	 7c 	 22%
02:00Wed 	 7c 	 20%
03:00Wed 	 7c 	 18%
04:00Wed 	 6c 	 25%
05:00Wed 	 7c 	 35%
06:00Wed 	 7c 	 37%
07:00Wed 	 7c 	 35%
08:00Wed 	 7c 	 29%
09:00Wed 	 7c 	 25%
10:00Wed 	 7c 	 33%
11:00Wed 	 8c 	 40%
12:00Wed 	 8c 	 34%
13:00Wed 	 9c 	 23%
14:00Wed 	 9c 	 15%
15:00Wed 	 9c 	 8%
16:00Wed 	 9c 	 4%
17:00Wed 	 8c 	 6%
18:00Wed 	 7c 	 10%
19:00Wed 	 7c 	 11%
20:00Wed 	 6c 	 13%
21:00Wed 	 6c 	 14%
22:00Wed 	 6c 	 14%
23:00Wed 	 6c 	 11%


00:00Wed 	 8c 	 22%
01:00Wed 	 7c 	 22%
02:00Wed 	 7c 	 20%
03:00Wed 	 7c 	 18%
04:00Wed 	 6c 	 25%
05:00Wed 	 7c 	 35%
06:00Wed 	 7c 	 37%
07:00Wed 	 7c 	 35%
08:00Wed 	 7c 	 29%
09:00Wed 	 7c 	 25%
10:00Wed 	 7c 	 33%
11:00Wed 	 8c 	 40%
12:00Wed 	 8c 	 34%
13:00Wed 	 9c 	 23%
14:00Wed 	 9c 	 15%
15:00Wed 	 9c 	 8%
16:00Wed 	 9c 	 4%
17:00Wed 	 8c 	 6%
18:00Wed 	 7c 	 10%
19:00Wed 	 7c 	 11%
20:00Wed 	 6c 	 13%
21:00Wed 	 6c 	 14%
22:00Wed 	 6c 	 14%
23:00Wed 	 6c 	 11%


00:00Wed 	 8c 	 22%
01:00Wed 	 7c 	 22%
02:00Wed 	 7c 	 20%
03:00Wed 	 7c 	 18%
04:00Wed 	 6c 	 25%
05:00Wed 	 7c 	 35%
06:00Wed 	 7c 	 37%
07:00Wed 	 7c 	 35%
08:00Wed 	 7c 	 29%
09:00Wed 	 7c 	 25%
10:00Wed 	 7c 	 33%
11:00Wed 	 8c 	 40%
12:00Wed 	 8c 	 34%
13:00Wed 	 9c 	 23%
14:00Wed 	 9c 	 15%
15:00Wed 	 9c 	 8%
16:00Wed 	 9c 	 4%
17:00Wed 	 8c 	 6%
18:00Wed 	 7c 	 10%
19:00Wed 	 7c 	 11%
20:00Wed 	 6c 	 13%
21:00Wed 	 6c 	 14%
22:00Wed 	 6c 	 14%
23:00Wed 	 6c 	 11%


00:00Wed 	 8c 	 22%
01:00Wed 	 7c 	 22%
02:00Wed 	 7c 	 20%
03:00Wed 	 7c 	 18%
04:00Wed 	 6c 	 25%
05:00Wed 	 7c 	 35%
06:00Wed 	 7c 	 37%
07:00Wed 	 7c 	 35%
08:00Wed 	 7c 	 29%
09:00Wed 	 7c 	 25%
10:00Wed 	 7c 	 33%
11:00Wed 	 8c 	 40%
12:00Wed 	 8c 	 34%
13:00Wed 	 9c 	 23%
14:00Wed 	 9c 	 15%
15:00Wed 	 9c 	 8%
16:00Wed 	 9c 	 4%
17:00Wed 	 8c 	 6%
18:00Wed 	 7c 	 10%
19:00Wed 	 7c 	 11%
20:00Wed 	 6c 	 13%
21:00Wed 	 6c 	 14%
22:00Wed 	 6c 	 14%
23:00Wed 	 6c 	 11%


00:00Wed 	 8c 	 22%
01:00Wed 	 7c 	 22%
02:00Wed 	 7c 	 20%
03:00Wed 	 7c 	 18%
04:00Wed 	 6c 	 25%
05:00Wed 	 7c 	 35%
06:00Wed 	 7c 	 37%
07:00Wed 	 7c 	 35%
08:00Wed 	 7c 	 29%
09:00Wed 	 7c 	 25%
10:00Wed 	 7c 	 33%
11:00Wed 	 8c 	 40%
12:00Wed 	 8c 	 34%
13:00Wed 	 9c 	 23%
14:00Wed 	 9c 	 15%
15:00Wed 	 9c 	 8%
16:00Wed 	 9c 	 4%
17:00Wed 	 8c 	 6%
18:00Wed 	 7c 	 10%
19:00Wed 	 7c 	 11%
20:00Wed 	 6c 	 13%
21:00Wed 	 6c 	 14%
22:00Wed 	 6c 	 14%
23:00Wed 	 6c 	 11%


00:00Wed 	 8c 	 22%
01:00Wed 	 7c 	 22%
02:00Wed 	 7c 	 20%
03:00Wed 	 7c 	 18%
04:00Wed 	 6c 	 25%
05:00Wed 	 7c 	 35%
06:00Wed 	 7c 	 37%
07:00Wed 	 7c 	 35%
08:00Wed 	 7c 	 29%
09:00Wed 	 7c 	 25%
10:00Wed 	 7c 	 33%
11:00Wed 	 8c 	 40%
12:00Wed 	 8c 	 34%
13:00Wed 	 9c 	 23%
14:00Wed 	 9c 	 15%
15:00Wed 	 9c 	 8%
16:00Wed 	 9c 	 4%
17:00Wed 	 8c 	 6%
18:00Wed 	 7c 	 10%
19:00Wed 	 7c 	 11%
20:00Wed 	 6c 	 13%
21:00Wed 	 6c 	 14%
22:00Wed 	 6c 	 14%
23:00Wed 	 6c 	 11%


00:00Wed 	 8c 	 22%
01:00Wed 	 7c 	 22%
02:00Wed 	 7c 	 20%
03:00Wed 	 7c 	 18%
04:00Wed 	 6c 	 25%
05:00Wed 	 7c 	 35%
06:00Wed 	 7c 	 37%
07:00Wed 	 7c 	 35%
08:00Wed 	 7c 	 29%
09:00Wed 	 7c 	 25%
10:00Wed 	 7c 	 33%
11:00Wed 	 8c 	 40%
12:00Wed 	 8c 	 34%
13:00Wed 	 9c 	 23%
14:00Wed 	 9c 	 15%
15:00Wed 	 9c 	 8%
16:00Wed 	 9c 	 4%
17:00Wed 	 8c 	 6%
18:00Wed 	 7c 	 10%
19:00Wed 	 7c 	 11%
20:00Wed 	 6c 	 13%
21:00Wed 	 6c 	 14%
22:00Wed 	 6c 	 14%
23:00Wed 	 6c 	 11%


00:00Wed 	 9c 	 22%
01:00Wed 	 8c 	 22%
02:00Wed 	 7c 	 20%
03:00Wed 	 7c 	 18%
04:00Wed 	 6c 	 25%
05:00Wed 	 7c 	 35%
06:00Wed 	 7c 	 37%
07:00Wed 	 7c 	 35%
08:00Wed 	 7c 	 29%
09:00Wed 	 7c 	 25%
10:00Wed 	 7c 	 33%
11:00Wed 	 8c 	 40%
12:00Wed 	 8c 	 34%
13:00Wed 	 9c 	 23%
14:00Wed 	 9c 	 15%
15:00Wed 	 9c 	 8%
16:00Wed 	 9c 	 4%
17:00Wed 	 8c 	 6%
18:00Wed 	 7c 	 10%
19:00Wed 	 7c 	 11%
20:00Wed 	 6c 	 12%
21:00Wed 	 6c 	 13%
22:00Wed 	 6c 	 12%
23:00Wed 	 6c 	 9%


00:00Wed 	 9c 	 22%
01:00Wed 	 8c 	 22%
02:00Wed 	 7c 	 20%
03:00Wed 	 7c 	 18%
04:00Wed 	 6c 	 25%
05:00Wed 	 7c 	 35%
06:00Wed 	 7c 	 37%
07:00Wed 	 7c 	 35%
08:00Wed 	 7c 	 29%
09:00Wed 	 7c 	 25%
10:00Wed 	 7c 	 33%
11:00Wed 	 8c 	 40%
12:00Wed 	 8c 	 34%
13:00Wed 	 9c 	 23%
14:00Wed 	 9c 	 15%
15:00Wed 	 9c 	 8%
16:00Wed 	 9c 	 4%
17:00Wed 	 8c 	 6%
18:00Wed 	 7c 	 10%
19:00Wed 	 7c 	 11%
20:00Wed 	 6c 	 12%
21:00Wed 	 6c 	 13%
22:00Wed 	 6c 	 12%
23:00Wed 	 6c 	 9%


00:00Wed 	 9c 	 22%
01:00Wed 	 8c 	 22%
02:00Wed 	 7c 	 20%
03:00Wed 	 7c 	 18%
04:00Wed 	 6c 	 25%
05:00Wed 	 7c 	 35%
06:00Wed 	 7c 	 37%
07:00Wed 	 7c 	 35%
08:00Wed 	 7c 	 29%
09:00Wed 	 7c 	 25%
10:00Wed 	 7c 	 33%
11:00Wed 	 8c 	 40%
12:00Wed 	 8c 	 34%
13:00Wed 	 9c 	 23%
14:00Wed 	 9c 	 15%
15:00Wed 	 9c 	 8%
16:00Wed 	 9c 	 4%
17:00Wed 	 8c 	 6%
18:00Wed 	 7c 	 10%
19:00Wed 	 7c 	 11%
20:00Wed 	 6c 	 12%
21:00Wed 	 6c 	 13%
22:00Wed 	 6c 	 12%
23:00Wed 	 6c 	 9%


00:00Wed 	 9c 	 22%
01:00Wed 	 8c 	 22%
02:00Wed 	 7c 	 20%
03:00Wed 	 7c 	 18%
04:00Wed 	 6c 	 25%
05:00Wed 	 7c 	 35%
06:00Wed 	 7c 	 37%
07:00Wed 	 7c 	 35%
08:00Wed 	 7c 	 29%
09:00Wed 	 7c 	 25%
10:00Wed 	 7c 	 33%
11:00Wed 	 8c 	 40%
12:00Wed 	 8c 	 34%
13:00Wed 	 9c 	 23%
14:00Wed 	 9c 	 15%
15:00Wed 	 9c 	 8%
16:00Wed 	 9c 	 4%
17:00Wed 	 8c 	 6%
18:00Wed 	 7c 	 10%
19:00Wed 	 7c 	 11%
20:00Wed 	 6c 	 12%
21:00Wed 	 6c 	 13%
22:00Wed 	 6c 	 12%
23:00Wed 	 6c 	 9%


00:00Wed 	 9c 	 11%
01:00Wed 	 8c 	 22%
02:00Wed 	 7c 	 20%
03:00Wed 	 7c 	 18%
04:00Wed 	 6c 	 25%
05:00Wed 	 7c 	 35%
06:00Wed 	 7c 	 37%
07:00Wed 	 7c 	 35%
08:00Wed 	 7c 	 29%
09:00Wed 	 7c 	 25%
10:00Wed 	 7c 	 33%
11:00Wed 	 8c 	 40%
12:00Wed 	 8c 	 34%
13:00Wed 	 9c 	 23%
14:00Wed 	 9c 	 15%
15:00Wed 	 9c 	 8%
16:00Wed 	 9c 	 4%
17:00Wed 	 8c 	 6%
18:00Wed 	 7c 	 10%
19:00Wed 	 7c 	 11%
20:00Wed 	 6c 	 12%
21:00Wed 	 6c 	 13%
22:00Wed 	 6c 	 12%
23:00Wed 	 6c 	 9%


00:00Wed 	 9c 	 11%
01:00Wed 	 8c 	 22%
02:00Wed 	 7c 	 20%
03:00Wed 	 7c 	 18%
04:00Wed 	 6c 	 25%
05:00Wed 	 7c 	 35%
06:00Wed 	 7c 	 37%
07:00Wed 	 7c 	 35%
08:00Wed 	 7c 	 29%
09:00Wed 	 7c 	 25%
10:00Wed 	 7c 	 33%
11:00Wed 	 8c 	 40%
12:00Wed 	 8c 	 34%
13:00Wed 	 9c 	 23%
14:00Wed 	 9c 	 15%
15:00Wed 	 9c 	 8%
16:00Wed 	 9c 	 4%
17:00Wed 	 8c 	 6%
18:00Wed 	 7c 	 10%
19:00Wed 	 7c 	 11%
20:00Wed 	 6c 	 12%
21:00Wed 	 6c 	 13%
22:00Wed 	 6c 	 12%
23:00Wed 	 6c 	 9%


00:00Wed 	 9c 	 11%
01:00Wed 	 8c 	 22%
02:00Wed 	 7c 	 20%
03:00Wed 	 7c 	 18%
04:00Wed 	 6c 	 25%
05:00Wed 	 7c 	 35%
06:00Wed 	 7c 	 37%
07:00Wed 	 7c 	 35%
08:00Wed 	 7c 	 29%
09:00Wed 	 7c 	 25%
10:00Wed 	 7c 	 33%
11:00Wed 	 8c 	 40%
12:00Wed 	 8c 	 34%
13:00Wed 	 9c 	 23%
14:00Wed 	 9c 	 15%
15:00Wed 	 9c 	 8%
16:00Wed 	 9c 	 4%
17:00Wed 	 8c 	 6%
18:00Wed 	 7c 	 10%
19:00Wed 	 7c 	 11%
20:00Wed 	 6c 	 12%
21:00Wed 	 6c 	 13%
22:00Wed 	 6c 	 12%
23:00Wed 	 6c 	 9%


00:00Wed 	 9c 	 11%
01:00Wed 	 8c 	 22%
02:00Wed 	 7c 	 20%
03:00Wed 	 7c 	 18%
04:00Wed 	 6c 	 25%
05:00Wed 	 7c 	 35%
06:00Wed 	 7c 	 37%
07:00Wed 	 7c 	 35%
08:00Wed 	 7c 	 29%
09:00Wed 	 7c 	 25%
10:00Wed 	 7c 	 33%
11:00Wed 	 8c 	 40%
12:00Wed 	 8c 	 34%
13:00Wed 	 9c 	 23%
14:00Wed 	 9c 	 15%
15:00Wed 	 9c 	 8%
16:00Wed 	 9c 	 4%
17:00Wed 	 8c 	 6%
18:00Wed 	 7c 	 10%
19:00Wed 	 7c 	 11%
20:00Wed 	 6c 	 12%
21:00Wed 	 6c 	 13%
22:00Wed 	 6c 	 12%
23:00Wed 	 6c 	 9%


00:00Wed 	 9c 	 4%
01:00Wed 	 9c 	 55%
02:00Wed 	 8c 	 20%
03:00Wed 	 7c 	 18%
04:00Wed 	 7c 	 25%
05:00Wed 	 7c 	 35%
06:00Wed 	 7c 	 37%
07:00Wed 	 7c 	 35%
08:00Wed 	 7c 	 29%
09:00Wed 	 7c 	 25%
10:00Wed 	 7c 	 33%
11:00Wed 	 8c 	 40%
12:00Wed 	 8c 	 34%
13:00Wed 	 9c 	 23%
14:00Wed 	 9c 	 15%
15:00Wed 	 9c 	 8%
16:00Wed 	 9c 	 4%
17:00Wed 	 8c 	 6%
18:00Wed 	 7c 	 10%
19:00Wed 	 7c 	 11%
20:00Wed 	 6c 	 12%
21:00Wed 	 6c 	 13%
22:00Wed 	 6c 	 12%
23:00Wed 	 6c 	 9%


00:00Wed 	 9c 	 4%
01:00Wed 	 9c 	 55%
02:00Wed 	 8c 	 20%
03:00Wed 	 7c 	 18%
04:00Wed 	 7c 	 25%
05:00Wed 	 7c 	 35%
06:00Wed 	 7c 	 37%
07:00Wed 	 7c 	 35%
08:00Wed 	 7c 	 29%
09:00Wed 	 7c 	 25%
10:00Wed 	 7c 	 33%
11:00Wed 	 8c 	 40%
12:00Wed 	 8c 	 34%
13:00Wed 	 9c 	 23%
14:00Wed 	 9c 	 15%
15:00Wed 	 9c 	 8%
16:00Wed 	 9c 	 4%
17:00Wed 	 8c 	 6%
18:00Wed 	 7c 	 10%
19:00Wed 	 7c 	 11%
20:00Wed 	 6c 	 12%
21:00Wed 	 6c 	 13%
22:00Wed 	 6c 	 12%
23:00Wed 	 6c 	 9%


00:00Wed 	 9c 	 4%
01:00Wed 	 9c 	 55%
02:00Wed 	 8c 	 20%
03:00Wed 	 7c 	 18%
04:00Wed 	 7c 	 25%
05:00Wed 	 7c 	 35%
06:00Wed 	 7c 	 37%
07:00Wed 	 7c 	 35%
08:00Wed 	 7c 	 29%
09:00Wed 	 7c 	 25%
10:00Wed 	 7c 	 33%
11:00Wed 	 8c 	 40%
12:00Wed 	 8c 	 34%
13:00Wed 	 9c 	 23%
14:00Wed 	 9c 	 15%
15:00Wed 	 9c 	 8%
16:00Wed 	 9c 	 4%
17:00Wed 	 8c 	 6%
18:00Wed 	 7c 	 10%
19:00Wed 	 7c 	 11%
20:00Wed 	 6c 	 12%
21:00Wed 	 6c 	 13%
22:00Wed 	 6c 	 12%
23:00Wed 	 6c 	 9%


00:00Wed 	 9c 	 4%
01:00Wed 	 9c 	 55%
02:00Wed 	 8c 	 20%
03:00Wed 	 7c 	 18%
04:00Wed 	 7c 	 25%
05:00Wed 	 7c 	 35%
06:00Wed 	 7c 	 37%
07:00Wed 	 7c 	 35%
08:00Wed 	 7c 	 29%
09:00Wed 	 7c 	 25%
10:00Wed 	 7c 	 33%
11:00Wed 	 8c 	 40%
12:00Wed 	 8c 	 34%
13:00Wed 	 9c 	 23%
14:00Wed 	 9c 	 15%
15:00Wed 	 9c 	 8%
16:00Wed 	 9c 	 4%
17:00Wed 	 8c 	 6%
18:00Wed 	 7c 	 10%
19:00Wed 	 7c 	 11%
20:00Wed 	 6c 	 12%
21:00Wed 	 6c 	 13%
22:00Wed 	 6c 	 12%
23:00Wed 	 6c 	 9%


