00:00Sat 	 3c 	 7%
01:00Sat 	 3c 	 6%
02:00Sat 	 3c 	 7%
03:00Sat 	 3c 	 8%
04:00Sat 	 3c 	 7%
05:00Sat 	 3c 	 5%
00:00Sat 	 3c 	 7%
01:00Sat 	 3c 	 6%
02:00Sat 	 3c 	 7%
03:00Sat 	 3c 	 8%
04:00Sat 	 3c 	 7%
05:00Sat 	 3c 	 5%
00:00Sat 	 3c 	 7%
01:00Sat 	 3c 	 6%
02:00Sat 	 3c 	 7%
03:00Sat 	 3c 	 8%
04:00Sat 	 3c 	 7%
05:00Sat 	 3c 	 5%
00:00Sat 	 3c 	 7%
01:00Sat 	 3c 	 6%
02:00Sat 	 3c 	 7%
03:00Sat 	 3c 	 8%
04:00Sat 	 3c 	 7%
05:00Sat 	 3c 	 5%
00:00Sat 	 3c 	 7%
01:00Sat 	 3c 	 6%
02:00Sat 	 3c 	 7%
03:00Sat 	 3c 	 8%
04:00Sat 	 3c 	 7%
05:00Sat 	 3c 	 5%
00:00Sat 	 3c 	 7%
01:00Sat 	 3c 	 6%
02:00Sat 	 3c 	 7%
03:00Sat 	 3c 	 8%
04:00Sat 	 3c 	 7%
05:00Sat 	 3c 	 5%
00:00Sat 	 3c 	 7%
01:00Sat 	 3c 	 6%
02:00Sat 	 3c 	 7%
03:00Sat 	 3c 	 8%
04:00Sat 	 3c 	 7%
05:00Sat 	 3c 	 5%
00:00Sat 	 3c 	 7%
01:00Sat 	 3c 	 6%
02:00Sat 	 3c 	 7%
03:00Sat 	 3c 	 8%
04:00Sat 	 3c 	 7%
05:00Sat 	 3c 	 5%
00:00Sat 	 3c 	 7%
01:00Sat 	 3c 	 6%
02:00Sat 	 3c 	 7%
03:00Sat 	 3c 	 8%
04:00Sat 	 3c 	 7%
05:00Sat 	 3c 	 5%
00:00Sat 	 3c 	 7%
01:00Sat 	 3c 	 6%
02:00Sat 	 3c 	 7%
03:00Sat 	 3c 	 8%
04:00Sat 	 3c 	 7%
05:00Sat 	 3c 	 5%
00:00Sat 	 3c 	 7%
01:00Sat 	 3c 	 6%
02:00Sat 	 3c 	 7%
03:00Sat 	 3c 	 8%
04:00Sat 	 3c 	 7%
05:00Sat 	 3c 	 5%
00:00Sat 	 3c 	 7%
01:00Sat 	 3c 	 6%
02:00Sat 	 3c 	 7%
03:00Sat 	 3c 	 8%
04:00Sat 	 3c 	 7%
05:00Sat 	 3c 	 5%
00:00Sat 	 3c 	 7%
01:00Sat 	 3c 	 6%
02:00Sat 	 3c 	 7%
03:00Sat 	 3c 	 8%
04:00Sat 	 3c 	 7%
05:00Sat 	 3c 	 5%
00:00Sat 	 3c 	 7%
01:00Sat 	 3c 	 6%
02:00Sat 	 3c 	 7%
03:00Sat 	 3c 	 8%
04:00Sat 	 3c 	 7%
05:00Sat 	 3c 	 5%
00:00Sat 	 3c 	 7%
01:00Sat 	 3c 	 6%
02:00Sat 	 3c 	 7%
03:00Sat 	 3c 	 8%
04:00Sat 	 3c 	 7%
05:00Sat 	 3c 	 5%
00:00Sat 	 3c 	 4%
01:00Sat 	 3c 	 3%
02:00Sat 	 3c 	 3%
03:00Sat 	 3c 	 4%
04:00Sat 	 3c 	 3%
05:00Sat 	 3c 	 3%
00:00Sat 	 3c 	 4%
01:00Sat 	 3c 	 3%
02:00Sat 	 3c 	 3%
03:00Sat 	 3c 	 4%
04:00Sat 	 3c 	 3%
05:00Sat 	 3c 	 3%
00:00Sat 	 3c 	 4%
01:00Sat 	 3c 	 3%
02:00Sat 	 3c 	 3%
03:00Sat 	 3c 	 4%
04:00Sat 	 3c 	 3%
05:00Sat 	 3c 	 3%
00:00Sat 	 3c 	 4%
01:00Sat 	 3c 	 3%
02:00Sat 	 3c 	 3%
03:00Sat 	 3c 	 4%
04:00Sat 	 3c 	 3%
05:00Sat 	 3c 	 3%
00:00Sat 	 3c 	 4%
01:00Sat 	 3c 	 3%
02:00Sat 	 3c 	 3%
03:00Sat 	 3c 	 4%
04:00Sat 	 3c 	 3%
05:00Sat 	 3c 	 3%
00:00Sat 	 3c 	 4%
01:00Sat 	 3c 	 3%
02:00Sat 	 3c 	 3%
03:00Sat 	 3c 	 4%
04:00Sat 	 3c 	 3%
05:00Sat 	 3c 	 3%
00:00Sat 	 3c 	 4%
01:00Sat 	 3c 	 3%
02:00Sat 	 3c 	 3%
03:00Sat 	 3c 	 4%
04:00Sat 	 3c 	 3%
05:00Sat 	 3c 	 3%
00:00Sat 	 3c 	 4%
01:00Sat 	 3c 	 3%
02:00Sat 	 3c 	 3%
03:00Sat 	 3c 	 4%
04:00Sat 	 3c 	 3%
05:00Sat 	 3c 	 3%
00:00Sat 	 3c 	 4%
01:00Sat 	 3c 	 3%
02:00Sat 	 3c 	 3%
03:00Sat 	 3c 	 4%
04:00Sat 	 3c 	 3%
05:00Sat 	 3c 	 2%
00:00Sat 	 3c 	 4%
01:00Sat 	 3c 	 3%
02:00Sat 	 3c 	 3%
03:00Sat 	 3c 	 4%
04:00Sat 	 3c 	 3%
05:00Sat 	 3c 	 2%
00:00Sat 	 3c 	 4%
01:00Sat 	 3c 	 3%
02:00Sat 	 3c 	 3%
03:00Sat 	 3c 	 4%
04:00Sat 	 3c 	 3%
05:00Sat 	 3c 	 2%
00:00Sat 	 3c 	 4%
01:00Sat 	 3c 	 3%
02:00Sat 	 3c 	 3%
03:00Sat 	 3c 	 4%
04:00Sat 	 3c 	 3%
05:00Sat 	 3c 	 2%
00:00Sat 	 3c 	 4%
01:00Sat 	 3c 	 3%
02:00Sat 	 3c 	 3%
03:00Sat 	 3c 	 4%
04:00Sat 	 3c 	 3%
05:00Sat 	 3c 	 2%
00:00Sat 	 3c 	 4%
01:00Sat 	 3c 	 3%
02:00Sat 	 3c 	 3%
03:00Sat 	 3c 	 4%
04:00Sat 	 3c 	 3%
05:00Sat 	 3c 	 2%
00:00Sat 	 3c 	 4%
01:00Sat 	 3c 	 3%
02:00Sat 	 3c 	 3%
03:00Sat 	 3c 	 4%
04:00Sat 	 3c 	 3%
05:00Sat 	 3c 	 2%
00:00Sat 	 3c 	 4%
01:00Sat 	 3c 	 3%
02:00Sat 	 3c 	 3%
03:00Sat 	 3c 	 4%
04:00Sat 	 3c 	 3%
05:00Sat 	 3c 	 2%
00:00Sat 	 3c 	 4%
01:00Sat 	 3c 	 3%
02:00Sat 	 3c 	 3%
03:00Sat 	 3c 	 4%
04:00Sat 	 3c 	 3%
05:00Sat 	 3c 	 2%
00:00Sat 	 3c 	 4%
01:00Sat 	 3c 	 3%
02:00Sat 	 3c 	 3%
03:00Sat 	 3c 	 4%
04:00Sat 	 3c 	 3%
05:00Sat 	 3c 	 2%
00:00Sat 	 3c 	 4%
01:00Sat 	 3c 	 3%
02:00Sat 	 3c 	 3%
03:00Sat 	 3c 	 4%
04:00Sat 	 3c 	 3%
05:00Sat 	 3c 	 2%
00:00Sat 	 3c 	 4%
01:00Sat 	 3c 	 3%
02:00Sat 	 3c 	 3%
03:00Sat 	 3c 	 4%
04:00Sat 	 3c 	 3%
05:00Sat 	 3c 	 2%
00:00Sat 	 3c 	 4%
01:00Sat 	 3c 	 3%
02:00Sat 	 3c 	 3%
03:00Sat 	 3c 	 4%
04:00Sat 	 3c 	 3%
05:00Sat 	 3c 	 2%
00:00Sat 	 3c 	 4%
01:00Sat 	 3c 	 3%
02:00Sat 	 3c 	 3%
03:00Sat 	 3c 	 4%
04:00Sat 	 3c 	 3%
05:00Sat 	 3c 	 2%
00:00Sat 	 3c 	 4%
01:00Sat 	 3c 	 3%
02:00Sat 	 3c 	 3%
03:00Sat 	 3c 	 4%
04:00Sat 	 3c 	 3%
05:00Sat 	 3c 	 2%
00:00Sat 	 3c 	 4%
01:00Sat 	 3c 	 3%
02:00Sat 	 3c 	 3%
03:00Sat 	 3c 	 4%
04:00Sat 	 3c 	 3%
05:00Sat 	 3c 	 2%
00:00Sat 	 3c 	 4%
01:00Sat 	 3c 	 3%
02:00Sat 	 3c 	 3%
03:00Sat 	 3c 	 4%
04:00Sat 	 3c 	 3%
05:00Sat 	 3c 	 2%
00:00Sat 	 3c 	 4%
01:00Sat 	 3c 	 3%
02:00Sat 	 3c 	 3%
03:00Sat 	 3c 	 4%
04:00Sat 	 3c 	 3%
05:00Sat 	 3c 	 2%
00:00Sat 	 3c 	 4%
01:00Sat 	 3c 	 3%
02:00Sat 	 3c 	 3%
03:00Sat 	 3c 	 4%
04:00Sat 	 3c 	 3%
05:00Sat 	 3c 	 2%
00:00Sat 	 3c 	 4%
01:00Sat 	 3c 	 3%
02:00Sat 	 3c 	 3%
03:00Sat 	 3c 	 4%
04:00Sat 	 3c 	 3%
05:00Sat 	 3c 	 2%
00:00Sat 	 3c 	 4%
01:00Sat 	 3c 	 3%
02:00Sat 	 3c 	 3%
03:00Sat 	 3c 	 4%
04:00Sat 	 3c 	 3%
05:00Sat 	 3c 	 2%
00:00Sat 	 3c 	 4%
01:00Sat 	 3c 	 3%
02:00Sat 	 3c 	 3%
03:00Sat 	 3c 	 4%
04:00Sat 	 3c 	 3%
05:00Sat 	 3c 	 2%
00:00Sat 	 3c 	 4%
01:00Sat 	 3c 	 3%
02:00Sat 	 3c 	 3%
03:00Sat 	 3c 	 4%
04:00Sat 	 3c 	 3%
05:00Sat 	 3c 	 2%
00:00Sat 	 3c 	 4%
01:00Sat 	 3c 	 3%
02:00Sat 	 3c 	 3%
03:00Sat 	 3c 	 4%
04:00Sat 	 3c 	 3%
05:00Sat 	 3c 	 2%
00:00Sat 	 3c 	 4%
01:00Sat 	 3c 	 3%
02:00Sat 	 3c 	 3%
03:00Sat 	 3c 	 4%
04:00Sat 	 3c 	 3%
05:00Sat 	 3c 	 2%
00:00Sat 	 3c 	 4%
01:00Sat 	 3c 	 3%
02:00Sat 	 3c 	 3%
03:00Sat 	 3c 	 4%
04:00Sat 	 3c 	 3%
05:00Sat 	 3c 	 2%
00:00Sat 	 3c 	 4%
01:00Sat 	 3c 	 3%
02:00Sat 	 3c 	 3%
03:00Sat 	 3c 	 4%
04:00Sat 	 3c 	 3%
05:00Sat 	 3c 	 2%
00:00Sat 	 3c 	 4%
01:00Sat 	 3c 	 3%
02:00Sat 	 3c 	 3%
03:00Sat 	 3c 	 4%
04:00Sat 	 3c 	 3%
05:00Sat 	 3c 	 2%
00:00Sat 	 3c 	 4%
01:00Sat 	 3c 	 3%
02:00Sat 	 3c 	 3%
03:00Sat 	 3c 	 4%
04:00Sat 	 3c 	 3%
05:00Sat 	 3c 	 2%
00:00Sat 	 3c 	 4%
01:00Sat 	 3c 	 3%
02:00Sat 	 3c 	 3%
03:00Sat 	 3c 	 4%
04:00Sat 	 3c 	 3%
05:00Sat 	 3c 	 2%
00:00Sat 	 3c 	 4%
01:00Sat 	 3c 	 3%
02:00Sat 	 3c 	 3%
03:00Sat 	 3c 	 4%
04:00Sat 	 3c 	 3%
05:00Sat 	 3c 	 2%
00:00Sat 	 3c 	 4%
01:00Sat 	 3c 	 3%
02:00Sat 	 3c 	 3%
03:00Sat 	 3c 	 4%
04:00Sat 	 3c 	 3%
05:00Sat 	 3c 	 2%
00:00Sat 	 3c 	 4%
01:00Sat 	 3c 	 3%
02:00Sat 	 3c 	 3%
03:00Sat 	 3c 	 4%
04:00Sat 	 3c 	 3%
05:00Sat 	 3c 	 2%
00:00Sat 	 3c 	 4%
01:00Sat 	 3c 	 3%
02:00Sat 	 3c 	 3%
03:00Sat 	 3c 	 4%
04:00Sat 	 3c 	 3%
05:00Sat 	 3c 	 2%
00:00Sat 	 3c 	 4%
01:00Sat 	 3c 	 3%
02:00Sat 	 3c 	 3%
03:00Sat 	 3c 	 4%
04:00Sat 	 3c 	 3%
05:00Sat 	 3c 	 2%
00:00Sat 	 3c 	 4%
01:00Sat 	 3c 	 3%
02:00Sat 	 3c 	 3%
03:00Sat 	 3c 	 4%
04:00Sat 	 3c 	 3%
05:00Sat 	 3c 	 2%
00:00Sat 	 3c 	 4%
01:00Sat 	 3c 	 3%
02:00Sat 	 3c 	 3%
03:00Sat 	 3c 	 4%
04:00Sat 	 3c 	 3%
05:00Sat 	 3c 	 2%
00:00Sat 	 3c 	 4%
01:00Sat 	 3c 	 3%
02:00Sat 	 3c 	 3%
03:00Sat 	 3c 	 4%
04:00Sat 	 3c 	 3%
05:00Sat 	 3c 	 2%
00:00Sat 	 3c 	 4%
01:00Sat 	 3c 	 3%
02:00Sat 	 3c 	 3%
03:00Sat 	 3c 	 4%
04:00Sat 	 3c 	 3%
05:00Sat 	 3c 	 2%
00:00Sat 	 3c 	 4%
01:00Sat 	 3c 	 3%
02:00Sat 	 3c 	 3%
03:00Sat 	 3c 	 4%
04:00Sat 	 3c 	 3%
05:00Sat 	 3c 	 2%
00:00Sat 	 4c 	 4%
01:00Sat 	 4c 	 3%
02:00Sat 	 3c 	 2%
03:00Sat 	 3c 	 2%
04:00Sat 	 3c 	 2%
05:00Sat 	 3c 	 2%
00:00Sat 	 4c 	 4%
01:00Sat 	 4c 	 3%
02:00Sat 	 3c 	 2%
03:00Sat 	 3c 	 2%
04:00Sat 	 3c 	 2%
05:00Sat 	 3c 	 2%
00:00Sat 	 4c 	 4%
01:00Sat 	 4c 	 3%
02:00Sat 	 3c 	 2%
03:00Sat 	 3c 	 2%
04:00Sat 	 3c 	 2%
05:00Sat 	 3c 	 2%
00:00Sat 	 4c 	 4%
01:00Sat 	 4c 	 3%
02:00Sat 	 3c 	 2%
03:00Sat 	 3c 	 2%
04:00Sat 	 3c 	 2%
05:00Sat 	 3c 	 2%
00:00Sat 	 4c 	 4%
01:00Sat 	 4c 	 3%
02:00Sat 	 3c 	 2%
03:00Sat 	 3c 	 2%
04:00Sat 	 3c 	 2%
05:00Sat 	 3c 	 2%
00:00Sat 	 4c 	 4%
01:00Sat 	 4c 	 3%
02:00Sat 	 3c 	 2%
03:00Sat 	 3c 	 2%
04:00Sat 	 3c 	 2%
05:00Sat 	 3c 	 2%
00:00Sat 	 4c 	 4%
01:00Sat 	 4c 	 3%
02:00Sat 	 3c 	 2%
03:00Sat 	 3c 	 2%
04:00Sat 	 3c 	 2%
05:00Sat 	 3c 	 2%
00:00Sat 	 4c 	 4%
01:00Sat 	 4c 	 3%
02:00Sat 	 3c 	 2%
03:00Sat 	 3c 	 2%
04:00Sat 	 3c 	 2%
05:00Sat 	 3c 	 2%
00:00Sat 	 4c 	 3%
01:00Sat 	 4c 	 2%
02:00Sat 	 3c 	 2%
03:00Sat 	 3c 	 2%
04:00Sat 	 3c 	 1%
05:00Sat 	 3c 	 1%
00:00Sat 	 4c 	 3%
01:00Sat 	 4c 	 2%
02:00Sat 	 3c 	 2%
03:00Sat 	 3c 	 2%
04:00Sat 	 3c 	 1%
05:00Sat 	 3c 	 1%
00:00Sat 	 4c 	 3%
01:00Sat 	 4c 	 2%
02:00Sat 	 3c 	 2%
03:00Sat 	 3c 	 2%
04:00Sat 	 3c 	 1%
05:00Sat 	 3c 	 1%
00:00Sat 	 4c 	 3%
01:00Sat 	 4c 	 2%
02:00Sat 	 3c 	 2%
03:00Sat 	 3c 	 2%
04:00Sat 	 3c 	 1%
05:00Sat 	 3c 	 1%
