# /home/pi/Documents/bbc-weather-predictions/data/Oct13Sun/bbcweather_Saturday12thOctober_2019-10-13_0000.txt
# /home/pi/Documents/bbc-weather-predictions/data/Oct13Sun/bbcweather_Saturday12thOctober_2019-10-13_0015.txt
# /home/pi/Documents/bbc-weather-predictions/data/Oct13Sun/bbcweather_Saturday12thOctober_2019-10-13_0030.txt
# /home/pi/Documents/bbc-weather-predictions/data/Oct13Sun/bbcweather_Saturday12thOctober_2019-10-13_0045.txt
# /home/pi/Documents/bbc-weather-predictions/data/Oct13Sun/bbcweather_Saturday12thOctober_2019-10-13_0100.txt
# /home/pi/Documents/bbc-weather-predictions/data/Oct13Sun/bbcweather_Saturday12thOctober_2019-10-13_0115.txt
# /home/pi/Documents/bbc-weather-predictions/data/Oct13Sun/bbcweather_Saturday12thOctober_2019-10-13_0130.txt
# /home/pi/Documents/bbc-weather-predictions/data/Oct13Sun/bbcweather_Saturday12thOctober_2019-10-13_0145.txt
# /home/pi/Documents/bbc-weather-predictions/data/Oct13Sun/bbcweather_Saturday12thOctober_2019-10-13_0200.txt
# /home/pi/Documents/bbc-weather-predictions/data/Oct13Sun/bbcweather_Saturday12thOctober_2019-10-13_0215.txt
# /home/pi/Documents/bbc-weather-predictions/data/Oct13Sun/bbcweather_Saturday12thOctober_2019-10-13_0230.txt
# /home/pi/Documents/bbc-weather-predictions/data/Oct13Sun/bbcweather_Saturday12thOctober_2019-10-13_0245.txt
# /home/pi/Documents/bbc-weather-predictions/data/Oct13Sun/bbcweather_Saturday12thOctober_2019-10-13_0300.txt
# /home/pi/Documents/bbc-weather-predictions/data/Oct13Sun/bbcweather_Saturday12thOctober_2019-10-13_0315.txt
# /home/pi/Documents/bbc-weather-predictions/data/Oct13Sun/bbcweather_Saturday12thOctober_2019-10-13_0330.txt
# /home/pi/Documents/bbc-weather-predictions/data/Oct13Sun/bbcweather_Saturday12thOctober_2019-10-13_0345.txt
# /home/pi/Documents/bbc-weather-predictions/data/Oct13Sun/bbcweather_Saturday12thOctober_2019-10-13_0400.txt
# /home/pi/Documents/bbc-weather-predictions/data/Oct13Sun/bbcweather_Saturday12thOctober_2019-10-13_0415.txt
# /home/pi/Documents/bbc-weather-predictions/data/Oct13Sun/bbcweather_Saturday12thOctober_2019-10-13_0430.txt
# /home/pi/Documents/bbc-weather-predictions/data/Oct13Sun/bbcweather_Saturday12thOctober_2019-10-13_0445.txt
# /home/pi/Documents/bbc-weather-predictions/data/Oct13Sun/bbcweather_Saturday12thOctober_2019-10-13_0500.txt
