00:00Mon 	 7c 	 99%

01:00Mon 	 7c 	 88%
01:00Mon 	 7c 	 88%
01:00Mon 	 7c 	 88%
01:00Mon 	 7c 	 88%
01:00Mon 	 7c 	 100%

02:00Mon 	 7c 	 69%
02:00Mon 	 7c 	 69%
02:00Mon 	 7c 	 69%
02:00Mon 	 7c 	 69%
02:00Mon 	 7c 	 92%
02:00Mon 	 7c 	 92%
02:00Mon 	 7c 	 92%
02:00Mon 	 8c 	 100%
02:00Mon 	 8c 	 100%

03:00Mon 	 8c 	 87%
03:00Mon 	 8c 	 87%
03:00Mon 	 8c 	 87%
03:00Mon 	 8c 	 87%
03:00Mon 	 7c 	 87%
03:00Mon 	 7c 	 87%
03:00Mon 	 7c 	 87%
03:00Mon 	 8c 	 100%
03:00Mon 	 8c 	 100%
03:00Mon 	 8c 	 100%
03:00Mon 	 8c 	 100%
03:00Mon 	 8c 	 100%
03:00Mon 	 7c 	 100%

04:00Mon 	 7c 	 92%
04:00Mon 	 7c 	 92%
04:00Mon 	 7c 	 92%
04:00Mon 	 7c 	 92%
04:00Mon 	 7c 	 92%
04:00Mon 	 7c 	 92%
04:00Mon 	 7c 	 92%
04:00Mon 	 7c 	 96%
04:00Mon 	 7c 	 96%
04:00Mon 	 7c 	 96%
04:00Mon 	 7c 	 96%
04:00Mon 	 7c 	 96%
04:00Mon 	 7c 	 98%
04:00Mon 	 7c 	 98%
04:00Mon 	 7c 	 98%
04:00Mon 	 7c 	 98%
04:00Mon 	 7c 	 100%

05:00Mon 	 7c 	 89%
05:00Mon 	 7c 	 89%
05:00Mon 	 7c 	 89%
05:00Mon 	 7c 	 89%
05:00Mon 	 7c 	 89%
05:00Mon 	 7c 	 89%
05:00Mon 	 7c 	 89%
05:00Mon 	 7c 	 85%
05:00Mon 	 7c 	 85%
05:00Mon 	 7c 	 85%
05:00Mon 	 7c 	 85%
05:00Mon 	 7c 	 85%
05:00Mon 	 7c 	 42%
05:00Mon 	 7c 	 42%
05:00Mon 	 7c 	 42%
05:00Mon 	 7c 	 42%
05:00Mon 	 7c 	 54%
05:00Mon 	 7c 	 54%
05:00Mon 	 7c 	 54%
05:00Mon 	 7c 	 35%
05:00Mon 	 7c 	 35%

06:00Mon 	 7c 	 94%
06:00Mon 	 7c 	 94%
06:00Mon 	 6c 	 8%
06:00Mon 	 6c 	 8%
06:00Mon 	 7c 	 83%
06:00Mon 	 7c 	 83%
06:00Mon 	 7c 	 83%
06:00Mon 	 7c 	 83%
06:00Mon 	 7c 	 83%
06:00Mon 	 7c 	 83%
06:00Mon 	 7c 	 83%
06:00Mon 	 7c 	 77%
06:00Mon 	 7c 	 77%
06:00Mon 	 7c 	 77%
06:00Mon 	 7c 	 77%
06:00Mon 	 7c 	 75%
06:00Mon 	 7c 	 75%
06:00Mon 	 7c 	 75%
06:00Mon 	 7c 	 75%
06:00Mon 	 7c 	 76%
06:00Mon 	 7c 	 76%
06:00Mon 	 7c 	 76%
06:00Mon 	 7c 	 76%
06:00Mon 	 7c 	 94%
06:00Mon 	 7c 	 94%

07:00Mon 	 6c 	 69%
07:00Mon 	 6c 	 69%
07:00Mon 	 6c 	 92%
07:00Mon 	 6c 	 92%
07:00Mon 	 6c 	 92%
07:00Mon 	 6c 	 92%
07:00Mon 	 6c 	 92%
07:00Mon 	 6c 	 98%
07:00Mon 	 7c 	 69%
07:00Mon 	 7c 	 69%
07:00Mon 	 7c 	 69%
07:00Mon 	 7c 	 69%
07:00Mon 	 7c 	 69%
07:00Mon 	 7c 	 69%
07:00Mon 	 7c 	 69%
07:00Mon 	 6c 	 66%
07:00Mon 	 6c 	 66%
07:00Mon 	 6c 	 66%
07:00Mon 	 6c 	 66%
07:00Mon 	 6c 	 62%
07:00Mon 	 6c 	 62%
07:00Mon 	 6c 	 62%
07:00Mon 	 6c 	 62%
07:00Mon 	 6c 	 57%
07:00Mon 	 6c 	 57%
07:00Mon 	 6c 	 57%
07:00Mon 	 6c 	 57%
07:00Mon 	 6c 	 69%
07:00Mon 	 6c 	 69%

08:00Mon 	 6c 	 36%
08:00Mon 	 6c 	 36%
08:00Mon 	 6c 	 46%
08:00Mon 	 6c 	 46%
08:00Mon 	 6c 	 46%
08:00Mon 	 6c 	 46%
08:00Mon 	 6c 	 46%
08:00Mon 	 6c 	 70%
08:00Mon 	 6c 	 70%
08:00Mon 	 6c 	 70%
08:00Mon 	 6c 	 70%
08:00Mon 	 6c 	 28%
08:00Mon 	 7c 	 46%
08:00Mon 	 7c 	 46%
08:00Mon 	 7c 	 46%
08:00Mon 	 7c 	 46%
08:00Mon 	 7c 	 46%
08:00Mon 	 7c 	 46%
08:00Mon 	 7c 	 46%
08:00Mon 	 7c 	 46%
08:00Mon 	 7c 	 46%
08:00Mon 	 7c 	 46%
08:00Mon 	 7c 	 46%
08:00Mon 	 7c 	 44%
08:00Mon 	 7c 	 44%
08:00Mon 	 7c 	 44%
08:00Mon 	 7c 	 44%
08:00Mon 	 6c 	 40%
08:00Mon 	 6c 	 40%
08:00Mon 	 6c 	 40%
08:00Mon 	 6c 	 40%
08:00Mon 	 6c 	 36%
08:00Mon 	 6c 	 36%

09:00Mon 	 7c 	 23%
09:00Mon 	 7c 	 23%
09:00Mon 	 7c 	 26%
09:00Mon 	 7c 	 26%
09:00Mon 	 7c 	 26%
09:00Mon 	 7c 	 26%
09:00Mon 	 7c 	 26%
09:00Mon 	 7c 	 26%
09:00Mon 	 7c 	 26%
09:00Mon 	 7c 	 26%
09:00Mon 	 7c 	 26%
09:00Mon 	 6c 	 10%
09:00Mon 	 6c 	 10%
09:00Mon 	 6c 	 10%
09:00Mon 	 6c 	 10%
09:00Mon 	 6c 	 21%
09:00Mon 	 7c 	 27%
09:00Mon 	 7c 	 27%
09:00Mon 	 7c 	 27%
09:00Mon 	 7c 	 27%
09:00Mon 	 7c 	 27%
09:00Mon 	 7c 	 27%
09:00Mon 	 7c 	 27%
09:00Mon 	 7c 	 27%
09:00Mon 	 7c 	 27%
09:00Mon 	 7c 	 27%
09:00Mon 	 7c 	 27%
09:00Mon 	 7c 	 27%
09:00Mon 	 7c 	 27%
09:00Mon 	 7c 	 27%
09:00Mon 	 7c 	 27%
09:00Mon 	 7c 	 26%
09:00Mon 	 7c 	 26%
09:00Mon 	 7c 	 26%
09:00Mon 	 7c 	 26%
09:00Mon 	 7c 	 23%
09:00Mon 	 7c 	 23%

10:00Mon 	 7c 	 26%
10:00Mon 	 7c 	 26%
10:00Mon 	 7c 	 28%
10:00Mon 	 7c 	 28%
10:00Mon 	 7c 	 28%
10:00Mon 	 7c 	 28%
10:00Mon 	 7c 	 28%
10:00Mon 	 7c 	 28%
10:00Mon 	 7c 	 28%
10:00Mon 	 7c 	 28%
10:00Mon 	 7c 	 28%
10:00Mon 	 7c 	 23%
10:00Mon 	 7c 	 23%
10:00Mon 	 7c 	 23%
10:00Mon 	 7c 	 23%
10:00Mon 	 7c 	 20%
10:00Mon 	 7c 	 20%
10:00Mon 	 7c 	 20%
10:00Mon 	 7c 	 20%
10:00Mon 	 7c 	 29%
10:00Mon 	 7c 	 27%
10:00Mon 	 7c 	 27%
10:00Mon 	 7c 	 27%
10:00Mon 	 7c 	 27%
10:00Mon 	 7c 	 27%
10:00Mon 	 7c 	 27%
10:00Mon 	 7c 	 27%
10:00Mon 	 7c 	 27%
10:00Mon 	 7c 	 27%
10:00Mon 	 7c 	 27%
10:00Mon 	 7c 	 27%
10:00Mon 	 7c 	 27%
10:00Mon 	 7c 	 27%
10:00Mon 	 7c 	 27%
10:00Mon 	 7c 	 27%
10:00Mon 	 7c 	 27%
10:00Mon 	 7c 	 27%
10:00Mon 	 7c 	 27%
10:00Mon 	 7c 	 27%
10:00Mon 	 7c 	 26%
10:00Mon 	 7c 	 26%

11:00Mon 	 8c 	 29%
11:00Mon 	 8c 	 29%
11:00Mon 	 8c 	 30%
11:00Mon 	 8c 	 30%
11:00Mon 	 8c 	 30%
11:00Mon 	 8c 	 30%
11:00Mon 	 8c 	 30%
11:00Mon 	 8c 	 30%
11:00Mon 	 8c 	 30%
11:00Mon 	 8c 	 30%
11:00Mon 	 8c 	 30%
11:00Mon 	 7c 	 41%
11:00Mon 	 7c 	 41%
11:00Mon 	 7c 	 41%
11:00Mon 	 7c 	 41%
11:00Mon 	 8c 	 27%
11:00Mon 	 8c 	 27%
11:00Mon 	 8c 	 27%
11:00Mon 	 8c 	 27%
11:00Mon 	 8c 	 93%
11:00Mon 	 8c 	 93%
11:00Mon 	 8c 	 93%
11:00Mon 	 8c 	 93%
11:00Mon 	 8c 	 2%
11:00Mon 	 8c 	 29%
11:00Mon 	 8c 	 29%
11:00Mon 	 8c 	 29%
11:00Mon 	 8c 	 29%
11:00Mon 	 8c 	 29%
11:00Mon 	 8c 	 29%
11:00Mon 	 8c 	 29%
11:00Mon 	 8c 	 29%
11:00Mon 	 8c 	 29%
11:00Mon 	 8c 	 29%
11:00Mon 	 8c 	 29%
11:00Mon 	 8c 	 29%
11:00Mon 	 8c 	 29%
11:00Mon 	 8c 	 29%
11:00Mon 	 8c 	 29%
11:00Mon 	 8c 	 29%
11:00Mon 	 8c 	 29%
11:00Mon 	 8c 	 29%
11:00Mon 	 8c 	 29%
11:00Mon 	 8c 	 29%
11:00Mon 	 8c 	 29%

12:00Mon 	 9c 	 24%
12:00Mon 	 9c 	 24%
12:00Mon 	 9c 	 24%
12:00Mon 	 9c 	 24%
12:00Mon 	 9c 	 24%
12:00Mon 	 9c 	 24%
12:00Mon 	 9c 	 24%
12:00Mon 	 9c 	 24%
12:00Mon 	 9c 	 24%
12:00Mon 	 9c 	 24%
12:00Mon 	 9c 	 24%
12:00Mon 	 8c 	 32%
12:00Mon 	 8c 	 32%
12:00Mon 	 8c 	 32%
12:00Mon 	 8c 	 32%
12:00Mon 	 8c 	 26%
12:00Mon 	 8c 	 26%
12:00Mon 	 8c 	 26%
12:00Mon 	 8c 	 26%
12:00Mon 	 8c 	 18%
12:00Mon 	 8c 	 18%
12:00Mon 	 8c 	 18%
12:00Mon 	 8c 	 18%
12:00Mon 	 8c 	 54%
12:00Mon 	 8c 	 54%
12:00Mon 	 8c 	 54%
12:00Mon 	 8c 	 54%
12:00Mon 	 8c 	 1%
12:00Mon 	 9c 	 24%
12:00Mon 	 9c 	 24%
12:00Mon 	 9c 	 24%
12:00Mon 	 9c 	 24%
12:00Mon 	 9c 	 24%
12:00Mon 	 9c 	 24%
12:00Mon 	 9c 	 24%
12:00Mon 	 9c 	 24%
12:00Mon 	 9c 	 24%
12:00Mon 	 9c 	 24%
12:00Mon 	 9c 	 24%
12:00Mon 	 9c 	 24%
12:00Mon 	 9c 	 24%
12:00Mon 	 9c 	 24%
12:00Mon 	 9c 	 24%
12:00Mon 	 9c 	 24%
12:00Mon 	 9c 	 24%
12:00Mon 	 9c 	 24%
12:00Mon 	 9c 	 24%
12:00Mon 	 9c 	 24%
12:00Mon 	 9c 	 24%

13:00Mon 	 9c 	 20%
13:00Mon 	 9c 	 20%
13:00Mon 	 9c 	 20%
13:00Mon 	 9c 	 20%
13:00Mon 	 9c 	 20%
13:00Mon 	 9c 	 20%
13:00Mon 	 9c 	 20%
13:00Mon 	 9c 	 20%
13:00Mon 	 9c 	 20%
13:00Mon 	 9c 	 20%
13:00Mon 	 9c 	 20%
13:00Mon 	 8c 	 29%
13:00Mon 	 8c 	 29%
13:00Mon 	 8c 	 29%
13:00Mon 	 8c 	 29%
13:00Mon 	 8c 	 19%
13:00Mon 	 8c 	 19%
13:00Mon 	 8c 	 19%
13:00Mon 	 8c 	 19%
13:00Mon 	 8c 	 19%
13:00Mon 	 8c 	 19%
13:00Mon 	 8c 	 19%
13:00Mon 	 8c 	 19%
13:00Mon 	 8c 	 41%
13:00Mon 	 8c 	 41%
13:00Mon 	 8c 	 41%
13:00Mon 	 8c 	 41%
13:00Mon 	 8c 	 77%
13:00Mon 	 8c 	 77%
13:00Mon 	 8c 	 77%
13:00Mon 	 8c 	 77%
13:00Mon 	 8c 	 6%
13:00Mon 	 9c 	 20%
13:00Mon 	 9c 	 20%
13:00Mon 	 9c 	 20%
13:00Mon 	 9c 	 20%
13:00Mon 	 9c 	 20%
13:00Mon 	 9c 	 20%
13:00Mon 	 9c 	 20%
13:00Mon 	 9c 	 20%
13:00Mon 	 9c 	 20%
13:00Mon 	 9c 	 20%
13:00Mon 	 9c 	 20%
13:00Mon 	 9c 	 20%
13:00Mon 	 9c 	 20%
13:00Mon 	 9c 	 20%
13:00Mon 	 9c 	 20%
13:00Mon 	 9c 	 20%
13:00Mon 	 9c 	 20%
13:00Mon 	 9c 	 20%
13:00Mon 	 9c 	 20%
13:00Mon 	 9c 	 20%
13:00Mon 	 9c 	 20%

14:00Mon 	 9c 	 18%
14:00Mon 	 9c 	 18%
14:00Mon 	 9c 	 18%
14:00Mon 	 9c 	 18%
14:00Mon 	 9c 	 18%
14:00Mon 	 9c 	 18%
14:00Mon 	 9c 	 18%
14:00Mon 	 9c 	 18%
14:00Mon 	 9c 	 18%
14:00Mon 	 9c 	 18%
14:00Mon 	 9c 	 18%
14:00Mon 	 9c 	 24%
14:00Mon 	 9c 	 24%
14:00Mon 	 9c 	 24%
14:00Mon 	 9c 	 24%
14:00Mon 	 9c 	 15%
14:00Mon 	 9c 	 15%
14:00Mon 	 9c 	 15%
14:00Mon 	 9c 	 15%
14:00Mon 	 9c 	 15%
14:00Mon 	 9c 	 15%
14:00Mon 	 9c 	 15%
14:00Mon 	 9c 	 15%
14:00Mon 	 9c 	 15%
14:00Mon 	 9c 	 15%
14:00Mon 	 9c 	 15%
14:00Mon 	 9c 	 15%
14:00Mon 	 9c 	 30%
14:00Mon 	 9c 	 30%
14:00Mon 	 9c 	 30%
14:00Mon 	 9c 	 30%
14:00Mon 	 8c 	 34%
14:00Mon 	 8c 	 34%
14:00Mon 	 8c 	 34%
14:00Mon 	 8c 	 34%
14:00Mon 	 9c 	 22%
14:00Mon 	 9c 	 18%
14:00Mon 	 9c 	 18%
14:00Mon 	 9c 	 18%
14:00Mon 	 9c 	 18%
14:00Mon 	 9c 	 18%
14:00Mon 	 9c 	 18%
14:00Mon 	 9c 	 18%
14:00Mon 	 9c 	 18%
14:00Mon 	 9c 	 18%
14:00Mon 	 9c 	 18%
14:00Mon 	 9c 	 18%
14:00Mon 	 9c 	 18%
14:00Mon 	 9c 	 18%
14:00Mon 	 9c 	 18%
14:00Mon 	 9c 	 18%
14:00Mon 	 9c 	 18%
14:00Mon 	 9c 	 18%
14:00Mon 	 9c 	 18%
14:00Mon 	 9c 	 18%
14:00Mon 	 9c 	 18%
14:00Mon 	 9c 	 18%

15:00Mon 	 8c 	 14%
15:00Mon 	 8c 	 14%
15:00Mon 	 8c 	 14%
15:00Mon 	 8c 	 14%
15:00Mon 	 8c 	 14%
15:00Mon 	 8c 	 14%
15:00Mon 	 8c 	 14%
15:00Mon 	 8c 	 14%
15:00Mon 	 8c 	 14%
15:00Mon 	 8c 	 14%
15:00Mon 	 8c 	 14%
15:00Mon 	 9c 	 17%
15:00Mon 	 9c 	 17%
15:00Mon 	 9c 	 17%
15:00Mon 	 9c 	 17%
15:00Mon 	 9c 	 13%
15:00Mon 	 9c 	 13%
15:00Mon 	 9c 	 13%
15:00Mon 	 9c 	 13%
15:00Mon 	 9c 	 13%
15:00Mon 	 9c 	 13%
15:00Mon 	 9c 	 13%
15:00Mon 	 9c 	 13%
15:00Mon 	 9c 	 13%
15:00Mon 	 9c 	 13%
15:00Mon 	 9c 	 13%
15:00Mon 	 9c 	 13%
15:00Mon 	 9c 	 13%
15:00Mon 	 9c 	 13%
15:00Mon 	 9c 	 13%
15:00Mon 	 9c 	 13%
15:00Mon 	 8c 	 47%
15:00Mon 	 8c 	 47%
15:00Mon 	 8c 	 47%
15:00Mon 	 8c 	 47%
15:00Mon 	 8c 	 78%
15:00Mon 	 8c 	 78%
15:00Mon 	 8c 	 78%
15:00Mon 	 8c 	 78%
15:00Mon 	 8c 	 12%
15:00Mon 	 8c 	 14%
15:00Mon 	 8c 	 14%
15:00Mon 	 8c 	 14%
15:00Mon 	 8c 	 14%
15:00Mon 	 8c 	 14%
15:00Mon 	 8c 	 14%
15:00Mon 	 8c 	 14%
15:00Mon 	 8c 	 14%
15:00Mon 	 8c 	 14%
15:00Mon 	 8c 	 14%
15:00Mon 	 8c 	 14%
15:00Mon 	 8c 	 14%
15:00Mon 	 8c 	 14%
15:00Mon 	 8c 	 14%
15:00Mon 	 8c 	 14%
15:00Mon 	 8c 	 14%
15:00Mon 	 8c 	 14%
15:00Mon 	 8c 	 14%
15:00Mon 	 8c 	 14%
15:00Mon 	 8c 	 14%
15:00Mon 	 8c 	 14%

16:00Mon 	 8c 	 13%
16:00Mon 	 8c 	 13%
16:00Mon 	 8c 	 13%
16:00Mon 	 8c 	 13%
16:00Mon 	 8c 	 13%
16:00Mon 	 8c 	 13%
16:00Mon 	 8c 	 13%
16:00Mon 	 8c 	 13%
16:00Mon 	 8c 	 13%
16:00Mon 	 8c 	 13%
16:00Mon 	 8c 	 13%
16:00Mon 	 8c 	 15%
16:00Mon 	 8c 	 15%
16:00Mon 	 8c 	 15%
16:00Mon 	 8c 	 15%
16:00Mon 	 8c 	 14%
16:00Mon 	 8c 	 14%
16:00Mon 	 8c 	 14%
16:00Mon 	 8c 	 14%
16:00Mon 	 8c 	 14%
16:00Mon 	 8c 	 14%
16:00Mon 	 8c 	 14%
16:00Mon 	 8c 	 14%
16:00Mon 	 8c 	 14%
16:00Mon 	 8c 	 14%
16:00Mon 	 8c 	 14%
16:00Mon 	 8c 	 14%
16:00Mon 	 8c 	 14%
16:00Mon 	 8c 	 14%
16:00Mon 	 8c 	 14%
16:00Mon 	 8c 	 14%
16:00Mon 	 8c 	 14%
16:00Mon 	 8c 	 14%
16:00Mon 	 8c 	 14%
16:00Mon 	 8c 	 14%
16:00Mon 	 8c 	 20%
16:00Mon 	 8c 	 20%
16:00Mon 	 8c 	 20%
16:00Mon 	 8c 	 20%
16:00Mon 	 8c 	 91%
16:00Mon 	 8c 	 91%
16:00Mon 	 8c 	 91%
16:00Mon 	 8c 	 91%
16:00Mon 	 8c 	 19%
16:00Mon 	 8c 	 13%
16:00Mon 	 8c 	 13%
16:00Mon 	 8c 	 13%
16:00Mon 	 8c 	 13%
16:00Mon 	 8c 	 13%
16:00Mon 	 8c 	 13%
16:00Mon 	 8c 	 13%
16:00Mon 	 8c 	 13%
16:00Mon 	 8c 	 13%
16:00Mon 	 8c 	 13%
16:00Mon 	 8c 	 13%
16:00Mon 	 8c 	 13%
16:00Mon 	 8c 	 13%
16:00Mon 	 8c 	 13%
16:00Mon 	 8c 	 13%
16:00Mon 	 8c 	 13%
16:00Mon 	 8c 	 13%
16:00Mon 	 8c 	 13%
16:00Mon 	 8c 	 13%
16:00Mon 	 8c 	 13%
16:00Mon 	 8c 	 13%

17:00Mon 	 7c 	 12%
17:00Mon 	 7c 	 12%
17:00Mon 	 7c 	 12%
17:00Mon 	 7c 	 12%
17:00Mon 	 7c 	 12%
17:00Mon 	 7c 	 12%
17:00Mon 	 7c 	 12%
17:00Mon 	 7c 	 12%
17:00Mon 	 7c 	 12%
17:00Mon 	 7c 	 12%
17:00Mon 	 7c 	 12%
17:00Mon 	 7c 	 13%
17:00Mon 	 7c 	 13%
17:00Mon 	 7c 	 13%
17:00Mon 	 7c 	 13%
17:00Mon 	 7c 	 15%
17:00Mon 	 7c 	 15%
17:00Mon 	 7c 	 15%
17:00Mon 	 7c 	 15%
17:00Mon 	 7c 	 15%
17:00Mon 	 7c 	 15%
17:00Mon 	 7c 	 15%
17:00Mon 	 7c 	 15%
17:00Mon 	 7c 	 15%
17:00Mon 	 7c 	 15%
17:00Mon 	 7c 	 15%
17:00Mon 	 7c 	 15%
17:00Mon 	 7c 	 15%
17:00Mon 	 7c 	 15%
17:00Mon 	 7c 	 15%
17:00Mon 	 7c 	 15%
17:00Mon 	 7c 	 15%
17:00Mon 	 7c 	 15%
17:00Mon 	 7c 	 15%
17:00Mon 	 7c 	 15%
17:00Mon 	 7c 	 15%
17:00Mon 	 7c 	 15%
17:00Mon 	 7c 	 15%
17:00Mon 	 7c 	 15%
17:00Mon 	 7c 	 55%
17:00Mon 	 7c 	 55%
17:00Mon 	 7c 	 55%
17:00Mon 	 7c 	 55%
17:00Mon 	 7c 	 95%
17:00Mon 	 7c 	 95%
17:00Mon 	 7c 	 95%
17:00Mon 	 7c 	 95%
17:00Mon 	 7c 	 24%
17:00Mon 	 7c 	 12%
17:00Mon 	 7c 	 12%
17:00Mon 	 7c 	 12%
17:00Mon 	 7c 	 12%
17:00Mon 	 7c 	 12%
17:00Mon 	 7c 	 12%
17:00Mon 	 7c 	 12%
17:00Mon 	 7c 	 12%
17:00Mon 	 7c 	 12%
17:00Mon 	 7c 	 12%
17:00Mon 	 7c 	 12%
17:00Mon 	 7c 	 12%
17:00Mon 	 7c 	 12%
17:00Mon 	 7c 	 12%
17:00Mon 	 7c 	 12%
17:00Mon 	 7c 	 12%
17:00Mon 	 7c 	 12%
17:00Mon 	 7c 	 12%
17:00Mon 	 7c 	 12%
17:00Mon 	 7c 	 12%
17:00Mon 	 7c 	 12%

18:00Mon 	 6c 	 11%
18:00Mon 	 6c 	 11%
18:00Mon 	 6c 	 11%
18:00Mon 	 6c 	 11%
18:00Mon 	 6c 	 11%
18:00Mon 	 6c 	 11%
18:00Mon 	 6c 	 11%
18:00Mon 	 6c 	 11%
18:00Mon 	 6c 	 11%
18:00Mon 	 6c 	 11%
18:00Mon 	 6c 	 11%
18:00Mon 	 6c 	 10%
18:00Mon 	 6c 	 10%
18:00Mon 	 6c 	 10%
18:00Mon 	 6c 	 10%
18:00Mon 	 6c 	 11%
18:00Mon 	 6c 	 11%
18:00Mon 	 6c 	 11%
18:00Mon 	 6c 	 11%
18:00Mon 	 6c 	 11%
18:00Mon 	 6c 	 11%
18:00Mon 	 6c 	 11%
18:00Mon 	 6c 	 11%
18:00Mon 	 6c 	 11%
18:00Mon 	 6c 	 11%
18:00Mon 	 6c 	 11%
18:00Mon 	 6c 	 11%
18:00Mon 	 6c 	 11%
18:00Mon 	 6c 	 11%
18:00Mon 	 6c 	 11%
18:00Mon 	 6c 	 11%
18:00Mon 	 6c 	 11%
18:00Mon 	 6c 	 11%
18:00Mon 	 6c 	 11%
18:00Mon 	 6c 	 11%
18:00Mon 	 7c 	 11%
18:00Mon 	 7c 	 11%
18:00Mon 	 7c 	 11%
18:00Mon 	 7c 	 11%
18:00Mon 	 7c 	 11%
18:00Mon 	 7c 	 11%
18:00Mon 	 7c 	 11%
18:00Mon 	 7c 	 11%
18:00Mon 	 7c 	 45%
18:00Mon 	 7c 	 45%
18:00Mon 	 7c 	 45%
18:00Mon 	 7c 	 45%
18:00Mon 	 7c 	 54%
18:00Mon 	 7c 	 54%
18:00Mon 	 7c 	 54%
18:00Mon 	 7c 	 54%
18:00Mon 	 5c 	 4%
18:00Mon 	 6c 	 11%
18:00Mon 	 6c 	 11%
18:00Mon 	 6c 	 11%
18:00Mon 	 6c 	 11%
18:00Mon 	 6c 	 11%
18:00Mon 	 6c 	 11%
18:00Mon 	 6c 	 11%
18:00Mon 	 6c 	 11%
18:00Mon 	 6c 	 11%
18:00Mon 	 6c 	 11%
18:00Mon 	 6c 	 11%
18:00Mon 	 6c 	 11%
18:00Mon 	 6c 	 11%
18:00Mon 	 6c 	 11%
18:00Mon 	 6c 	 11%
18:00Mon 	 6c 	 11%
18:00Mon 	 6c 	 11%
18:00Mon 	 6c 	 11%
18:00Mon 	 6c 	 11%
18:00Mon 	 6c 	 11%
18:00Mon 	 6c 	 11%

19:00Mon 	 6c 	 11%
19:00Mon 	 6c 	 11%
19:00Mon 	 6c 	 11%
19:00Mon 	 6c 	 11%
19:00Mon 	 6c 	 11%
19:00Mon 	 6c 	 11%
19:00Mon 	 6c 	 11%
19:00Mon 	 6c 	 11%
19:00Mon 	 6c 	 11%
19:00Mon 	 6c 	 11%
19:00Mon 	 6c 	 11%
19:00Mon 	 6c 	 8%
19:00Mon 	 6c 	 8%
19:00Mon 	 6c 	 8%
19:00Mon 	 6c 	 8%
19:00Mon 	 6c 	 9%
19:00Mon 	 6c 	 9%
19:00Mon 	 6c 	 9%
19:00Mon 	 6c 	 9%
19:00Mon 	 6c 	 9%
19:00Mon 	 6c 	 9%
19:00Mon 	 6c 	 9%
19:00Mon 	 6c 	 9%
19:00Mon 	 6c 	 9%
19:00Mon 	 6c 	 9%
19:00Mon 	 6c 	 9%
19:00Mon 	 6c 	 9%
19:00Mon 	 6c 	 9%
19:00Mon 	 6c 	 9%
19:00Mon 	 6c 	 9%
19:00Mon 	 6c 	 9%
19:00Mon 	 6c 	 9%
19:00Mon 	 6c 	 9%
19:00Mon 	 6c 	 9%
19:00Mon 	 6c 	 9%
19:00Mon 	 6c 	 9%
19:00Mon 	 6c 	 9%
19:00Mon 	 6c 	 9%
19:00Mon 	 6c 	 9%
19:00Mon 	 6c 	 9%
19:00Mon 	 6c 	 9%
19:00Mon 	 6c 	 9%
19:00Mon 	 6c 	 9%
19:00Mon 	 6c 	 9%
19:00Mon 	 6c 	 9%
19:00Mon 	 6c 	 9%
19:00Mon 	 6c 	 9%
19:00Mon 	 6c 	 39%
19:00Mon 	 6c 	 39%
19:00Mon 	 6c 	 39%
19:00Mon 	 6c 	 39%
19:00Mon 	 5c 	 81%
19:00Mon 	 5c 	 81%
19:00Mon 	 5c 	 81%
19:00Mon 	 5c 	 81%
19:00Mon 	 6c 	 9%
19:00Mon 	 6c 	 11%
19:00Mon 	 6c 	 11%
19:00Mon 	 6c 	 11%
19:00Mon 	 6c 	 11%
19:00Mon 	 6c 	 11%
19:00Mon 	 6c 	 11%
19:00Mon 	 6c 	 11%
19:00Mon 	 6c 	 11%
19:00Mon 	 6c 	 11%
19:00Mon 	 6c 	 11%
19:00Mon 	 6c 	 11%
19:00Mon 	 6c 	 11%
19:00Mon 	 6c 	 11%
19:00Mon 	 6c 	 11%
19:00Mon 	 6c 	 11%
19:00Mon 	 6c 	 11%
19:00Mon 	 6c 	 11%
19:00Mon 	 6c 	 11%
19:00Mon 	 6c 	 11%
19:00Mon 	 6c 	 11%
19:00Mon 	 6c 	 11%

20:00Mon 	 6c 	 13%
20:00Mon 	 6c 	 13%
20:00Mon 	 6c 	 13%
20:00Mon 	 6c 	 13%
20:00Mon 	 6c 	 13%
20:00Mon 	 6c 	 13%
20:00Mon 	 6c 	 13%
20:00Mon 	 6c 	 13%
20:00Mon 	 6c 	 13%
20:00Mon 	 6c 	 13%
20:00Mon 	 6c 	 13%
20:00Mon 	 6c 	 8%
20:00Mon 	 6c 	 8%
20:00Mon 	 6c 	 8%
20:00Mon 	 6c 	 8%
20:00Mon 	 5c 	 10%
20:00Mon 	 5c 	 10%
20:00Mon 	 5c 	 10%
20:00Mon 	 5c 	 10%
20:00Mon 	 5c 	 10%
20:00Mon 	 5c 	 10%
20:00Mon 	 5c 	 10%
20:00Mon 	 5c 	 10%
20:00Mon 	 5c 	 10%
20:00Mon 	 5c 	 10%
20:00Mon 	 5c 	 10%
20:00Mon 	 5c 	 10%
20:00Mon 	 5c 	 10%
20:00Mon 	 5c 	 10%
20:00Mon 	 5c 	 10%
20:00Mon 	 5c 	 10%
20:00Mon 	 5c 	 10%
20:00Mon 	 5c 	 10%
20:00Mon 	 5c 	 10%
20:00Mon 	 5c 	 10%
20:00Mon 	 5c 	 10%
20:00Mon 	 5c 	 10%
20:00Mon 	 5c 	 10%
20:00Mon 	 5c 	 10%
20:00Mon 	 5c 	 10%
20:00Mon 	 5c 	 10%
20:00Mon 	 5c 	 10%
20:00Mon 	 5c 	 10%
20:00Mon 	 6c 	 10%
20:00Mon 	 6c 	 10%
20:00Mon 	 6c 	 10%
20:00Mon 	 6c 	 10%
20:00Mon 	 6c 	 10%
20:00Mon 	 6c 	 10%
20:00Mon 	 6c 	 10%
20:00Mon 	 6c 	 10%
20:00Mon 	 6c 	 48%
20:00Mon 	 6c 	 48%
20:00Mon 	 6c 	 48%
20:00Mon 	 6c 	 48%
20:00Mon 	 6c 	 66%
20:00Mon 	 6c 	 66%
20:00Mon 	 6c 	 66%
20:00Mon 	 6c 	 66%
20:00Mon 	 6c 	 14%
20:00Mon 	 6c 	 13%
20:00Mon 	 6c 	 13%
20:00Mon 	 6c 	 13%
20:00Mon 	 6c 	 13%
20:00Mon 	 6c 	 13%
20:00Mon 	 6c 	 13%
20:00Mon 	 6c 	 13%
20:00Mon 	 6c 	 13%
20:00Mon 	 6c 	 13%
20:00Mon 	 6c 	 13%
20:00Mon 	 6c 	 13%
20:00Mon 	 6c 	 13%
20:00Mon 	 6c 	 13%
20:00Mon 	 6c 	 13%
20:00Mon 	 6c 	 13%
20:00Mon 	 6c 	 13%
20:00Mon 	 6c 	 13%
20:00Mon 	 6c 	 13%
20:00Mon 	 6c 	 13%
20:00Mon 	 6c 	 13%
20:00Mon 	 6c 	 13%

21:00Mon 	 6c 	 13%
21:00Mon 	 6c 	 13%
21:00Mon 	 6c 	 13%
21:00Mon 	 6c 	 13%
21:00Mon 	 6c 	 13%
21:00Mon 	 6c 	 13%
21:00Mon 	 6c 	 13%
21:00Mon 	 6c 	 13%
21:00Mon 	 6c 	 13%
21:00Mon 	 6c 	 13%
21:00Mon 	 6c 	 13%
21:00Mon 	 5c 	 8%
21:00Mon 	 5c 	 8%
21:00Mon 	 5c 	 8%
21:00Mon 	 5c 	 8%
21:00Mon 	 5c 	 9%
21:00Mon 	 5c 	 9%
21:00Mon 	 5c 	 9%
21:00Mon 	 5c 	 9%
21:00Mon 	 5c 	 9%
21:00Mon 	 5c 	 9%
21:00Mon 	 5c 	 9%
21:00Mon 	 5c 	 9%
21:00Mon 	 5c 	 9%
21:00Mon 	 5c 	 9%
21:00Mon 	 5c 	 9%
21:00Mon 	 5c 	 9%
21:00Mon 	 5c 	 9%
21:00Mon 	 5c 	 9%
21:00Mon 	 5c 	 9%
21:00Mon 	 5c 	 9%
21:00Mon 	 5c 	 9%
21:00Mon 	 5c 	 9%
21:00Mon 	 5c 	 9%
21:00Mon 	 5c 	 9%
21:00Mon 	 5c 	 9%
21:00Mon 	 5c 	 9%
21:00Mon 	 5c 	 9%
21:00Mon 	 5c 	 9%
21:00Mon 	 5c 	 9%
21:00Mon 	 5c 	 9%
21:00Mon 	 5c 	 9%
21:00Mon 	 5c 	 9%
21:00Mon 	 5c 	 9%
21:00Mon 	 5c 	 9%
21:00Mon 	 5c 	 9%
21:00Mon 	 5c 	 9%
21:00Mon 	 5c 	 9%
21:00Mon 	 5c 	 9%
21:00Mon 	 5c 	 9%
21:00Mon 	 5c 	 9%
21:00Mon 	 5c 	 9%
21:00Mon 	 5c 	 9%
21:00Mon 	 5c 	 9%
21:00Mon 	 5c 	 9%
21:00Mon 	 5c 	 54%
21:00Mon 	 5c 	 54%
21:00Mon 	 5c 	 54%
21:00Mon 	 5c 	 54%
21:00Mon 	 5c 	 90%
21:00Mon 	 5c 	 90%
21:00Mon 	 5c 	 90%
21:00Mon 	 5c 	 90%
21:00Mon 	 5c 	 10%
21:00Mon 	 6c 	 13%
21:00Mon 	 6c 	 13%
21:00Mon 	 6c 	 13%
21:00Mon 	 6c 	 13%
21:00Mon 	 6c 	 13%
21:00Mon 	 6c 	 13%
21:00Mon 	 6c 	 13%
21:00Mon 	 6c 	 13%
21:00Mon 	 6c 	 13%
21:00Mon 	 6c 	 13%
21:00Mon 	 6c 	 13%
21:00Mon 	 6c 	 13%
21:00Mon 	 6c 	 13%
21:00Mon 	 6c 	 13%
21:00Mon 	 6c 	 13%
21:00Mon 	 6c 	 13%
21:00Mon 	 6c 	 13%
21:00Mon 	 6c 	 13%
21:00Mon 	 6c 	 13%
21:00Mon 	 6c 	 13%
21:00Mon 	 6c 	 13%

22:00Mon 	 5c 	 9%
22:00Mon 	 5c 	 9%
22:00Mon 	 5c 	 9%
22:00Mon 	 5c 	 9%
22:00Mon 	 5c 	 9%
22:00Mon 	 5c 	 9%
22:00Mon 	 5c 	 9%
22:00Mon 	 5c 	 9%
22:00Mon 	 5c 	 9%
22:00Mon 	 5c 	 9%
22:00Mon 	 5c 	 9%
22:00Mon 	 5c 	 7%
22:00Mon 	 5c 	 7%
22:00Mon 	 5c 	 7%
22:00Mon 	 5c 	 7%
22:00Mon 	 5c 	 7%
22:00Mon 	 5c 	 7%
22:00Mon 	 5c 	 7%
22:00Mon 	 5c 	 7%
22:00Mon 	 5c 	 7%
22:00Mon 	 5c 	 7%
22:00Mon 	 5c 	 7%
22:00Mon 	 5c 	 7%
22:00Mon 	 5c 	 7%
22:00Mon 	 5c 	 7%
22:00Mon 	 5c 	 7%
22:00Mon 	 5c 	 7%
22:00Mon 	 5c 	 7%
22:00Mon 	 5c 	 7%
22:00Mon 	 5c 	 7%
22:00Mon 	 5c 	 7%
22:00Mon 	 5c 	 7%
22:00Mon 	 5c 	 7%
22:00Mon 	 5c 	 7%
22:00Mon 	 5c 	 7%
22:00Mon 	 5c 	 7%
22:00Mon 	 5c 	 7%
22:00Mon 	 5c 	 7%
22:00Mon 	 5c 	 7%
22:00Mon 	 5c 	 7%
22:00Mon 	 5c 	 7%
22:00Mon 	 5c 	 7%
22:00Mon 	 5c 	 7%
22:00Mon 	 5c 	 7%
22:00Mon 	 5c 	 7%
22:00Mon 	 5c 	 7%
22:00Mon 	 5c 	 7%
22:00Mon 	 5c 	 7%
22:00Mon 	 5c 	 7%
22:00Mon 	 5c 	 7%
22:00Mon 	 5c 	 7%
22:00Mon 	 5c 	 7%
22:00Mon 	 5c 	 7%
22:00Mon 	 5c 	 7%
22:00Mon 	 5c 	 7%
22:00Mon 	 5c 	 7%
22:00Mon 	 5c 	 7%
22:00Mon 	 5c 	 7%
22:00Mon 	 5c 	 7%
22:00Mon 	 5c 	 15%
22:00Mon 	 5c 	 15%
22:00Mon 	 5c 	 15%
22:00Mon 	 5c 	 15%
22:00Mon 	 5c 	 14%
22:00Mon 	 5c 	 14%
22:00Mon 	 5c 	 14%
22:00Mon 	 5c 	 14%
22:00Mon 	 5c 	 2%
22:00Mon 	 5c 	 9%
22:00Mon 	 5c 	 9%
22:00Mon 	 5c 	 9%
22:00Mon 	 5c 	 9%
22:00Mon 	 5c 	 9%
22:00Mon 	 5c 	 9%
22:00Mon 	 5c 	 9%
22:00Mon 	 5c 	 9%
22:00Mon 	 5c 	 9%
22:00Mon 	 5c 	 9%
22:00Mon 	 5c 	 9%
22:00Mon 	 5c 	 9%
22:00Mon 	 5c 	 9%
22:00Mon 	 5c 	 9%
22:00Mon 	 5c 	 9%
22:00Mon 	 5c 	 9%
22:00Mon 	 5c 	 9%
22:00Mon 	 5c 	 9%
22:00Mon 	 5c 	 9%
22:00Mon 	 5c 	 9%
22:00Mon 	 5c 	 9%

23:00Mon 	 5c 	 6%
23:00Mon 	 5c 	 6%
23:00Mon 	 5c 	 6%
23:00Mon 	 5c 	 6%
23:00Mon 	 5c 	 6%
23:00Mon 	 5c 	 6%
23:00Mon 	 5c 	 6%
23:00Mon 	 5c 	 6%
23:00Mon 	 5c 	 6%
23:00Mon 	 5c 	 6%
23:00Mon 	 5c 	 6%
23:00Mon 	 5c 	 6%
23:00Mon 	 5c 	 6%
23:00Mon 	 5c 	 6%
23:00Mon 	 5c 	 6%
23:00Mon 	 5c 	 5%
23:00Mon 	 5c 	 5%
23:00Mon 	 5c 	 5%
23:00Mon 	 5c 	 5%
23:00Mon 	 5c 	 5%
23:00Mon 	 5c 	 5%
23:00Mon 	 5c 	 5%
23:00Mon 	 5c 	 5%
23:00Mon 	 5c 	 5%
23:00Mon 	 5c 	 5%
23:00Mon 	 5c 	 5%
23:00Mon 	 5c 	 5%
23:00Mon 	 5c 	 5%
23:00Mon 	 5c 	 5%
23:00Mon 	 5c 	 5%
23:00Mon 	 5c 	 5%
23:00Mon 	 5c 	 5%
23:00Mon 	 5c 	 5%
23:00Mon 	 5c 	 5%
23:00Mon 	 5c 	 5%
23:00Mon 	 5c 	 5%
23:00Mon 	 5c 	 5%
23:00Mon 	 5c 	 5%
23:00Mon 	 5c 	 5%
23:00Mon 	 5c 	 5%
23:00Mon 	 5c 	 5%
23:00Mon 	 5c 	 5%
23:00Mon 	 5c 	 5%
23:00Mon 	 5c 	 5%
23:00Mon 	 5c 	 5%
23:00Mon 	 5c 	 5%
23:00Mon 	 5c 	 5%
23:00Mon 	 5c 	 5%
23:00Mon 	 5c 	 5%
23:00Mon 	 5c 	 5%
23:00Mon 	 5c 	 5%
23:00Mon 	 5c 	 5%
23:00Mon 	 5c 	 5%
23:00Mon 	 5c 	 5%
23:00Mon 	 5c 	 5%
23:00Mon 	 5c 	 5%
23:00Mon 	 5c 	 5%
23:00Mon 	 5c 	 5%
23:00Mon 	 5c 	 5%
23:00Mon 	 5c 	 5%
23:00Mon 	 5c 	 5%
23:00Mon 	 5c 	 5%
23:00Mon 	 5c 	 5%
23:00Mon 	 5c 	 45%
23:00Mon 	 5c 	 45%
23:00Mon 	 5c 	 45%
23:00Mon 	 5c 	 45%
23:00Mon 	 5c 	 91%
23:00Mon 	 5c 	 91%
23:00Mon 	 5c 	 91%
23:00Mon 	 5c 	 91%
23:00Mon 	 5c 	 8%
23:00Mon 	 5c 	 6%
23:00Mon 	 5c 	 6%
23:00Mon 	 5c 	 6%
23:00Mon 	 5c 	 6%
23:00Mon 	 5c 	 6%
23:00Mon 	 5c 	 6%
23:00Mon 	 5c 	 6%
23:00Mon 	 5c 	 6%
23:00Mon 	 5c 	 6%
23:00Mon 	 5c 	 6%
23:00Mon 	 5c 	 6%
23:00Mon 	 5c 	 6%
23:00Mon 	 5c 	 6%
23:00Mon 	 5c 	 6%
23:00Mon 	 5c 	 6%
23:00Mon 	 5c 	 6%
23:00Mon 	 5c 	 6%
23:00Mon 	 5c 	 6%
23:00Mon 	 5c 	 6%
23:00Mon 	 5c 	 6%
23:00Mon 	 5c 	 6%

