
# /home/pi/Documents/bbc-weather-predictions/data/Sep23Wed/bbcweather_Tuesday22ndSeptember_2020-09-23_0000.txt
# time 	 temp 	 rain
00:00Wed 	 15c 	 12%
01:00Wed 	 15c 	 10%
02:00Wed 	 15c 	 27%
03:00Wed 	 14c 	 34%
04:00Wed 	 14c 	 41%
05:00Wed 	 14c 	 46%
06:00Wed 	 14c 	 51%
07:00Wed 	 14c 	 60%
08:00Wed 	 14c 	 72%
09:00Wed 	 14c 	 78%
10:00Wed 	 14c 	 79%
11:00Wed 	 14c 	 75%
12:00Wed 	 15c 	 66%
13:00Wed 	 15c 	 52%
14:00Wed 	 15c 	 40%
15:00Wed 	 15c 	 33%
16:00Wed 	 15c 	 26%
17:00Wed 	 14c 	 27%
18:00Wed 	 13c 	 35%
19:00Wed 	 12c 	 44%
20:00Wed 	 11c 	 56%
21:00Wed 	 11c 	 66%
22:00Wed 	 10c 	 68%
23:00Wed 	 10c 	 54%
00:00Thu 	 9c 	 35%
01:00Thu 	 9c 	 25%
02:00Thu 	 9c 	 33%
03:00Thu 	 10c 	 55%
04:00Thu 	 10c 	 72%
05:00Thu 	 10c 	 73%

# /home/pi/Documents/bbc-weather-predictions/data/Sep23Wed/bbcweather_Tuesday22ndSeptember_2020-09-23_0015.txt
# time 	 temp 	 rain
01:00Wed 	 15c 	 10%
02:00Wed 	 15c 	 27%
03:00Wed 	 14c 	 34%
04:00Wed 	 14c 	 41%
05:00Wed 	 14c 	 46%
06:00Wed 	 14c 	 51%
07:00Wed 	 14c 	 60%
08:00Wed 	 14c 	 72%
09:00Wed 	 14c 	 78%
10:00Wed 	 14c 	 79%
11:00Wed 	 14c 	 75%
12:00Wed 	 15c 	 66%
13:00Wed 	 15c 	 52%
14:00Wed 	 15c 	 40%
15:00Wed 	 15c 	 33%
16:00Wed 	 15c 	 26%
17:00Wed 	 14c 	 27%
18:00Wed 	 13c 	 35%
19:00Wed 	 12c 	 44%
20:00Wed 	 11c 	 56%
21:00Wed 	 11c 	 66%
22:00Wed 	 10c 	 68%
23:00Wed 	 10c 	 54%
00:00Thu 	 9c 	 35%
01:00Thu 	 9c 	 25%
02:00Thu 	 9c 	 33%
03:00Thu 	 10c 	 55%
04:00Thu 	 10c 	 72%
05:00Thu 	 10c 	 73%

# /home/pi/Documents/bbc-weather-predictions/data/Sep23Wed/bbcweather_Tuesday22ndSeptember_2020-09-23_0030.txt
# time 	 temp 	 rain
01:00Wed 	 15c 	 43%
02:00Wed 	 14c 	 52%
03:00Wed 	 14c 	 33%
04:00Wed 	 14c 	 40%
05:00Wed 	 14c 	 46%
06:00Wed 	 14c 	 51%
07:00Wed 	 14c 	 60%
08:00Wed 	 14c 	 72%
09:00Wed 	 14c 	 78%
10:00Wed 	 14c 	 79%
11:00Wed 	 14c 	 75%
12:00Wed 	 15c 	 66%
13:00Wed 	 15c 	 52%
14:00Wed 	 15c 	 40%
15:00Wed 	 15c 	 33%
16:00Wed 	 15c 	 26%
17:00Wed 	 14c 	 27%
18:00Wed 	 13c 	 35%
19:00Wed 	 12c 	 44%
20:00Wed 	 11c 	 56%
21:00Wed 	 11c 	 66%
22:00Wed 	 10c 	 68%
23:00Wed 	 10c 	 54%
00:00Thu 	 9c 	 35%
01:00Thu 	 9c 	 25%
02:00Thu 	 9c 	 33%
03:00Thu 	 10c 	 55%
04:00Thu 	 10c 	 72%
05:00Thu 	 10c 	 73%

# /home/pi/Documents/bbc-weather-predictions/data/Sep23Wed/bbcweather_Tuesday22ndSeptember_2020-09-23_0045.txt
# time 	 temp 	 rain
01:00Wed 	 15c 	 43%
02:00Wed 	 14c 	 52%
03:00Wed 	 14c 	 33%
04:00Wed 	 14c 	 40%
05:00Wed 	 14c 	 46%
06:00Wed 	 14c 	 51%
07:00Wed 	 14c 	 60%
08:00Wed 	 14c 	 72%
09:00Wed 	 14c 	 78%
10:00Wed 	 14c 	 79%
11:00Wed 	 14c 	 75%
12:00Wed 	 15c 	 66%
13:00Wed 	 15c 	 52%
14:00Wed 	 15c 	 40%
15:00Wed 	 15c 	 33%
16:00Wed 	 15c 	 26%
17:00Wed 	 14c 	 27%
18:00Wed 	 13c 	 35%
19:00Wed 	 12c 	 44%
20:00Wed 	 11c 	 56%
21:00Wed 	 11c 	 66%
22:00Wed 	 10c 	 68%
23:00Wed 	 10c 	 54%
00:00Thu 	 9c 	 35%
01:00Thu 	 9c 	 25%
02:00Thu 	 9c 	 33%
03:00Thu 	 10c 	 55%
04:00Thu 	 10c 	 72%
05:00Thu 	 10c 	 73%

# /home/pi/Documents/bbc-weather-predictions/data/Sep23Wed/bbcweather_Tuesday22ndSeptember_2020-09-23_0100.txt
# time 	 temp 	 rain
01:00Wed 	 15c 	 43%
02:00Wed 	 14c 	 52%
03:00Wed 	 14c 	 33%
04:00Wed 	 14c 	 40%
05:00Wed 	 14c 	 46%
06:00Wed 	 14c 	 51%
07:00Wed 	 14c 	 60%
08:00Wed 	 14c 	 72%
09:00Wed 	 14c 	 78%
10:00Wed 	 14c 	 79%
11:00Wed 	 14c 	 75%
12:00Wed 	 15c 	 66%
13:00Wed 	 15c 	 52%
14:00Wed 	 15c 	 40%
15:00Wed 	 15c 	 33%
16:00Wed 	 15c 	 26%
17:00Wed 	 14c 	 27%
18:00Wed 	 13c 	 35%
19:00Wed 	 12c 	 44%
20:00Wed 	 11c 	 56%
21:00Wed 	 11c 	 66%
22:00Wed 	 10c 	 68%
23:00Wed 	 10c 	 54%
00:00Thu 	 9c 	 35%
01:00Thu 	 9c 	 25%
02:00Thu 	 9c 	 33%
03:00Thu 	 10c 	 55%
04:00Thu 	 10c 	 72%
05:00Thu 	 10c 	 73%

# /home/pi/Documents/bbc-weather-predictions/data/Sep23Wed/bbcweather_Tuesday22ndSeptember_2020-09-23_0115.txt
# time 	 temp 	 rain
02:00Wed 	 14c 	 52%
03:00Wed 	 14c 	 33%
04:00Wed 	 14c 	 40%
05:00Wed 	 14c 	 46%
06:00Wed 	 14c 	 51%
07:00Wed 	 14c 	 60%
08:00Wed 	 14c 	 72%
09:00Wed 	 14c 	 78%
10:00Wed 	 14c 	 79%
11:00Wed 	 14c 	 75%
12:00Wed 	 15c 	 66%
13:00Wed 	 15c 	 52%
14:00Wed 	 15c 	 40%
15:00Wed 	 15c 	 33%
16:00Wed 	 15c 	 26%
17:00Wed 	 14c 	 27%
18:00Wed 	 13c 	 35%
19:00Wed 	 12c 	 44%
20:00Wed 	 11c 	 56%
21:00Wed 	 11c 	 66%
22:00Wed 	 10c 	 68%
23:00Wed 	 10c 	 54%
00:00Thu 	 9c 	 35%
01:00Thu 	 9c 	 25%
02:00Thu 	 9c 	 33%
03:00Thu 	 10c 	 55%
04:00Thu 	 10c 	 72%
05:00Thu 	 10c 	 73%

# /home/pi/Documents/bbc-weather-predictions/data/Sep23Wed/bbcweather_Tuesday22ndSeptember_2020-09-23_0130.txt
# time 	 temp 	 rain
02:00Wed 	 15c 	 62%
03:00Wed 	 15c 	 25%
04:00Wed 	 14c 	 39%
05:00Wed 	 14c 	 44%
06:00Wed 	 14c 	 50%
07:00Wed 	 14c 	 60%
08:00Wed 	 14c 	 72%
09:00Wed 	 14c 	 78%
10:00Wed 	 14c 	 79%
11:00Wed 	 14c 	 75%
12:00Wed 	 15c 	 66%
13:00Wed 	 15c 	 52%
14:00Wed 	 15c 	 40%
15:00Wed 	 15c 	 33%
16:00Wed 	 15c 	 26%
17:00Wed 	 14c 	 27%
18:00Wed 	 13c 	 35%
19:00Wed 	 12c 	 44%
20:00Wed 	 11c 	 56%
21:00Wed 	 11c 	 66%
22:00Wed 	 10c 	 68%
23:00Wed 	 10c 	 54%
00:00Thu 	 9c 	 35%
01:00Thu 	 9c 	 25%
02:00Thu 	 9c 	 33%
03:00Thu 	 10c 	 55%
04:00Thu 	 10c 	 72%
05:00Thu 	 10c 	 73%

# /home/pi/Documents/bbc-weather-predictions/data/Sep23Wed/bbcweather_Tuesday22ndSeptember_2020-09-23_0145.txt
# time 	 temp 	 rain
02:00Wed 	 15c 	 62%
03:00Wed 	 15c 	 25%
04:00Wed 	 14c 	 39%
05:00Wed 	 14c 	 44%
06:00Wed 	 14c 	 50%
07:00Wed 	 14c 	 60%
08:00Wed 	 14c 	 72%
09:00Wed 	 14c 	 78%
10:00Wed 	 14c 	 79%
11:00Wed 	 14c 	 75%
12:00Wed 	 15c 	 66%
13:00Wed 	 15c 	 52%
14:00Wed 	 15c 	 40%
15:00Wed 	 15c 	 33%
16:00Wed 	 15c 	 26%
17:00Wed 	 14c 	 27%
18:00Wed 	 13c 	 35%
19:00Wed 	 12c 	 44%
20:00Wed 	 11c 	 56%
21:00Wed 	 11c 	 66%
22:00Wed 	 10c 	 68%
23:00Wed 	 10c 	 54%
00:00Thu 	 9c 	 35%
01:00Thu 	 9c 	 25%
02:00Thu 	 9c 	 33%
03:00Thu 	 10c 	 55%
04:00Thu 	 10c 	 72%
05:00Thu 	 10c 	 73%

# /home/pi/Documents/bbc-weather-predictions/data/Sep23Wed/bbcweather_Tuesday22ndSeptember_2020-09-23_0200.txt
# time 	 temp 	 rain
03:00Wed 	 15c 	 25%
04:00Wed 	 14c 	 39%
05:00Wed 	 14c 	 44%
06:00Wed 	 14c 	 50%
07:00Wed 	 14c 	 60%
08:00Wed 	 14c 	 72%
09:00Wed 	 14c 	 78%
10:00Wed 	 14c 	 79%
11:00Wed 	 14c 	 75%
12:00Wed 	 15c 	 66%
13:00Wed 	 15c 	 52%
14:00Wed 	 15c 	 40%
15:00Wed 	 15c 	 33%
16:00Wed 	 15c 	 26%
17:00Wed 	 14c 	 27%
18:00Wed 	 13c 	 35%
19:00Wed 	 12c 	 44%
20:00Wed 	 11c 	 56%
21:00Wed 	 11c 	 66%
22:00Wed 	 10c 	 68%
23:00Wed 	 10c 	 54%
00:00Thu 	 9c 	 35%
01:00Thu 	 9c 	 25%
02:00Thu 	 9c 	 33%
03:00Thu 	 10c 	 55%
04:00Thu 	 10c 	 72%
05:00Thu 	 10c 	 73%

# /home/pi/Documents/bbc-weather-predictions/data/Sep23Wed/bbcweather_Tuesday22ndSeptember_2020-09-23_0215.txt
# time 	 temp 	 rain
03:00Wed 	 15c 	 25%
04:00Wed 	 14c 	 39%
05:00Wed 	 14c 	 44%
06:00Wed 	 14c 	 50%
07:00Wed 	 14c 	 60%
08:00Wed 	 14c 	 72%
09:00Wed 	 14c 	 78%
10:00Wed 	 14c 	 79%
11:00Wed 	 14c 	 75%
12:00Wed 	 15c 	 66%
13:00Wed 	 15c 	 52%
14:00Wed 	 15c 	 40%
15:00Wed 	 15c 	 33%
16:00Wed 	 15c 	 26%
17:00Wed 	 14c 	 27%
18:00Wed 	 13c 	 35%
19:00Wed 	 12c 	 44%
20:00Wed 	 11c 	 56%
21:00Wed 	 11c 	 66%
22:00Wed 	 10c 	 68%
23:00Wed 	 10c 	 54%
00:00Thu 	 9c 	 35%
01:00Thu 	 9c 	 25%
02:00Thu 	 9c 	 33%
03:00Thu 	 10c 	 55%
04:00Thu 	 10c 	 72%
05:00Thu 	 10c 	 73%

# /home/pi/Documents/bbc-weather-predictions/data/Sep23Wed/bbcweather_Tuesday22ndSeptember_2020-09-23_0230.txt
# time 	 temp 	 rain
03:00Wed 	 15c 	 24%
04:00Wed 	 15c 	 86%
05:00Wed 	 14c 	 52%
06:00Wed 	 14c 	 52%
07:00Wed 	 14c 	 58%
08:00Wed 	 14c 	 72%
09:00Wed 	 14c 	 78%
10:00Wed 	 14c 	 79%
11:00Wed 	 14c 	 75%
12:00Wed 	 15c 	 66%
13:00Wed 	 15c 	 52%
14:00Wed 	 15c 	 40%
15:00Wed 	 15c 	 33%
16:00Wed 	 15c 	 26%
17:00Wed 	 14c 	 27%
18:00Wed 	 13c 	 35%
19:00Wed 	 12c 	 44%
20:00Wed 	 11c 	 56%
21:00Wed 	 11c 	 66%
22:00Wed 	 10c 	 68%
23:00Wed 	 10c 	 54%
00:00Thu 	 9c 	 35%
01:00Thu 	 9c 	 25%
02:00Thu 	 9c 	 33%
03:00Thu 	 10c 	 55%
04:00Thu 	 10c 	 72%
05:00Thu 	 10c 	 73%

# /home/pi/Documents/bbc-weather-predictions/data/Sep23Wed/bbcweather_Tuesday22ndSeptember_2020-09-23_0245.txt
# time 	 temp 	 rain
03:00Wed 	 15c 	 24%
04:00Wed 	 15c 	 86%
05:00Wed 	 14c 	 52%
06:00Wed 	 14c 	 52%
07:00Wed 	 14c 	 58%
08:00Wed 	 14c 	 72%
09:00Wed 	 14c 	 78%
10:00Wed 	 14c 	 79%
11:00Wed 	 14c 	 75%
12:00Wed 	 15c 	 66%
13:00Wed 	 15c 	 52%
14:00Wed 	 15c 	 40%
15:00Wed 	 15c 	 33%
16:00Wed 	 15c 	 26%
17:00Wed 	 14c 	 27%
18:00Wed 	 13c 	 35%
19:00Wed 	 12c 	 44%
20:00Wed 	 11c 	 56%
21:00Wed 	 11c 	 66%
22:00Wed 	 10c 	 68%
23:00Wed 	 10c 	 54%
00:00Thu 	 9c 	 35%
01:00Thu 	 9c 	 25%
02:00Thu 	 9c 	 33%
03:00Thu 	 10c 	 55%
04:00Thu 	 10c 	 72%
05:00Thu 	 10c 	 73%

# /home/pi/Documents/bbc-weather-predictions/data/Sep23Wed/bbcweather_Tuesday22ndSeptember_2020-09-23_0300.txt
# time 	 temp 	 rain
03:00Wed 	 15c 	 24%
04:00Wed 	 15c 	 86%
05:00Wed 	 14c 	 52%
06:00Wed 	 14c 	 52%
07:00Wed 	 14c 	 58%
08:00Wed 	 14c 	 72%
09:00Wed 	 14c 	 78%
10:00Wed 	 14c 	 79%
11:00Wed 	 14c 	 75%
12:00Wed 	 15c 	 66%
13:00Wed 	 15c 	 52%
14:00Wed 	 15c 	 40%
15:00Wed 	 15c 	 33%
16:00Wed 	 15c 	 26%
17:00Wed 	 14c 	 27%
18:00Wed 	 13c 	 35%
19:00Wed 	 12c 	 44%
20:00Wed 	 11c 	 56%
21:00Wed 	 11c 	 66%
22:00Wed 	 10c 	 68%
23:00Wed 	 10c 	 54%
00:00Thu 	 9c 	 35%
01:00Thu 	 9c 	 25%
02:00Thu 	 9c 	 33%
03:00Thu 	 10c 	 55%
04:00Thu 	 10c 	 72%
05:00Thu 	 10c 	 73%

# /home/pi/Documents/bbc-weather-predictions/data/Sep23Wed/bbcweather_Tuesday22ndSeptember_2020-09-23_0315.txt
# time 	 temp 	 rain
04:00Wed 	 15c 	 86%
05:00Wed 	 14c 	 52%
06:00Wed 	 14c 	 52%
07:00Wed 	 14c 	 58%
08:00Wed 	 14c 	 72%
09:00Wed 	 14c 	 78%
10:00Wed 	 14c 	 79%
11:00Wed 	 14c 	 75%
12:00Wed 	 15c 	 66%
13:00Wed 	 15c 	 52%
14:00Wed 	 15c 	 40%
15:00Wed 	 15c 	 33%
16:00Wed 	 15c 	 26%
17:00Wed 	 14c 	 27%
18:00Wed 	 13c 	 35%
19:00Wed 	 12c 	 44%
20:00Wed 	 11c 	 56%
21:00Wed 	 11c 	 66%
22:00Wed 	 10c 	 68%
23:00Wed 	 10c 	 54%
00:00Thu 	 9c 	 35%
01:00Thu 	 9c 	 25%
02:00Thu 	 9c 	 33%
03:00Thu 	 10c 	 55%
04:00Thu 	 10c 	 72%
05:00Thu 	 10c 	 73%

# /home/pi/Documents/bbc-weather-predictions/data/Sep23Wed/bbcweather_Tuesday22ndSeptember_2020-09-23_0330.txt
# time 	 temp 	 rain
04:00Wed 	 15c 	 98%
05:00Wed 	 14c 	 22%
06:00Wed 	 14c 	 51%
07:00Wed 	 14c 	 56%
08:00Wed 	 14c 	 70%
09:00Wed 	 14c 	 78%
10:00Wed 	 14c 	 79%
11:00Wed 	 14c 	 75%
12:00Wed 	 15c 	 66%
13:00Wed 	 15c 	 52%
14:00Wed 	 15c 	 40%
15:00Wed 	 15c 	 33%
16:00Wed 	 15c 	 26%
17:00Wed 	 14c 	 27%
18:00Wed 	 13c 	 35%
19:00Wed 	 12c 	 44%
20:00Wed 	 11c 	 56%
21:00Wed 	 11c 	 66%
22:00Wed 	 10c 	 68%
23:00Wed 	 10c 	 54%
00:00Thu 	 9c 	 35%
01:00Thu 	 9c 	 25%
02:00Thu 	 9c 	 33%
03:00Thu 	 10c 	 55%
04:00Thu 	 10c 	 72%
05:00Thu 	 10c 	 73%

# /home/pi/Documents/bbc-weather-predictions/data/Sep23Wed/bbcweather_Tuesday22ndSeptember_2020-09-23_0345.txt
# time 	 temp 	 rain
04:00Wed 	 15c 	 98%
05:00Wed 	 14c 	 22%
06:00Wed 	 14c 	 51%
07:00Wed 	 14c 	 56%
08:00Wed 	 14c 	 70%
09:00Wed 	 14c 	 78%
10:00Wed 	 14c 	 79%
11:00Wed 	 14c 	 75%
12:00Wed 	 15c 	 66%
13:00Wed 	 15c 	 52%
14:00Wed 	 15c 	 40%
15:00Wed 	 15c 	 33%
16:00Wed 	 15c 	 26%
17:00Wed 	 14c 	 27%
18:00Wed 	 13c 	 35%
19:00Wed 	 12c 	 44%
20:00Wed 	 11c 	 56%
21:00Wed 	 11c 	 66%
22:00Wed 	 10c 	 68%
23:00Wed 	 10c 	 54%
00:00Thu 	 9c 	 35%
01:00Thu 	 9c 	 25%
02:00Thu 	 9c 	 33%
03:00Thu 	 10c 	 55%
04:00Thu 	 10c 	 72%
05:00Thu 	 10c 	 73%

# /home/pi/Documents/bbc-weather-predictions/data/Sep23Wed/bbcweather_Tuesday22ndSeptember_2020-09-23_0400.txt
# time 	 temp 	 rain
04:00Wed 	 15c 	 98%
05:00Wed 	 14c 	 22%
06:00Wed 	 14c 	 51%
07:00Wed 	 14c 	 56%
08:00Wed 	 14c 	 70%
09:00Wed 	 14c 	 78%
10:00Wed 	 14c 	 79%
11:00Wed 	 14c 	 75%
12:00Wed 	 15c 	 66%
13:00Wed 	 15c 	 52%
14:00Wed 	 15c 	 40%
15:00Wed 	 15c 	 33%
16:00Wed 	 15c 	 26%
17:00Wed 	 14c 	 27%
18:00Wed 	 13c 	 35%
19:00Wed 	 12c 	 44%
20:00Wed 	 11c 	 56%
21:00Wed 	 11c 	 66%
22:00Wed 	 10c 	 68%
23:00Wed 	 10c 	 54%
00:00Thu 	 9c 	 35%
01:00Thu 	 9c 	 25%
02:00Thu 	 9c 	 33%
03:00Thu 	 10c 	 55%
04:00Thu 	 10c 	 72%
05:00Thu 	 10c 	 73%

# /home/pi/Documents/bbc-weather-predictions/data/Sep23Wed/bbcweather_Tuesday22ndSeptember_2020-09-23_0415.txt
# time 	 temp 	 rain
05:00Wed 	 14c 	 22%
06:00Wed 	 14c 	 51%
07:00Wed 	 14c 	 56%
08:00Wed 	 14c 	 70%
09:00Wed 	 14c 	 78%
10:00Wed 	 14c 	 79%
11:00Wed 	 14c 	 75%
12:00Wed 	 15c 	 66%
13:00Wed 	 15c 	 52%
14:00Wed 	 15c 	 40%
15:00Wed 	 15c 	 33%
16:00Wed 	 15c 	 26%
17:00Wed 	 14c 	 27%
18:00Wed 	 13c 	 35%
19:00Wed 	 12c 	 44%
20:00Wed 	 11c 	 56%
21:00Wed 	 11c 	 66%
22:00Wed 	 10c 	 68%
23:00Wed 	 10c 	 54%
00:00Thu 	 9c 	 35%
01:00Thu 	 9c 	 25%
02:00Thu 	 9c 	 33%
03:00Thu 	 10c 	 55%
04:00Thu 	 10c 	 72%
05:00Thu 	 10c 	 73%

# /home/pi/Documents/bbc-weather-predictions/data/Sep23Wed/bbcweather_Tuesday22ndSeptember_2020-09-23_0430.txt
# time 	 temp 	 rain
05:00Wed 	 14c 	 78%
06:00Wed 	 14c 	 15%
07:00Wed 	 14c 	 53%
08:00Wed 	 14c 	 61%
09:00Wed 	 14c 	 74%
10:00Wed 	 14c 	 79%
11:00Wed 	 14c 	 75%
12:00Wed 	 15c 	 66%
13:00Wed 	 15c 	 52%
14:00Wed 	 15c 	 40%
15:00Wed 	 15c 	 33%
16:00Wed 	 15c 	 26%
17:00Wed 	 14c 	 27%
18:00Wed 	 13c 	 35%
19:00Wed 	 12c 	 44%
20:00Wed 	 11c 	 56%
21:00Wed 	 11c 	 66%
22:00Wed 	 10c 	 68%
23:00Wed 	 10c 	 54%
00:00Thu 	 9c 	 35%
01:00Thu 	 9c 	 25%
02:00Thu 	 9c 	 33%
03:00Thu 	 10c 	 55%
04:00Thu 	 10c 	 72%
05:00Thu 	 10c 	 73%

# /home/pi/Documents/bbc-weather-predictions/data/Sep23Wed/bbcweather_Tuesday22ndSeptember_2020-09-23_0445.txt
# time 	 temp 	 rain
05:00Wed 	 14c 	 78%
06:00Wed 	 14c 	 15%
07:00Wed 	 14c 	 53%
08:00Wed 	 14c 	 61%
09:00Wed 	 14c 	 74%
10:00Wed 	 14c 	 79%
11:00Wed 	 14c 	 75%
12:00Wed 	 15c 	 66%
13:00Wed 	 15c 	 52%
14:00Wed 	 15c 	 40%
15:00Wed 	 15c 	 33%
16:00Wed 	 15c 	 26%
17:00Wed 	 14c 	 27%
18:00Wed 	 13c 	 35%
19:00Wed 	 12c 	 44%
20:00Wed 	 11c 	 56%
21:00Wed 	 11c 	 66%
22:00Wed 	 10c 	 68%
23:00Wed 	 10c 	 54%
00:00Thu 	 9c 	 35%
01:00Thu 	 9c 	 25%
02:00Thu 	 9c 	 33%
03:00Thu 	 10c 	 55%
04:00Thu 	 10c 	 72%
05:00Thu 	 10c 	 73%

# /home/pi/Documents/bbc-weather-predictions/data/Sep23Wed/bbcweather_Tuesday22ndSeptember_2020-09-23_0500.txt
# time 	 temp 	 rain
05:00Wed 	 14c 	 78%
06:00Wed 	 14c 	 15%
07:00Wed 	 14c 	 53%
08:00Wed 	 14c 	 61%
09:00Wed 	 14c 	 74%
10:00Wed 	 14c 	 79%
11:00Wed 	 14c 	 75%
12:00Wed 	 15c 	 66%
13:00Wed 	 15c 	 52%
14:00Wed 	 15c 	 40%
15:00Wed 	 15c 	 33%
16:00Wed 	 15c 	 26%
17:00Wed 	 14c 	 27%
18:00Wed 	 13c 	 35%
19:00Wed 	 12c 	 44%
20:00Wed 	 11c 	 56%
21:00Wed 	 11c 	 66%
22:00Wed 	 10c 	 68%
23:00Wed 	 10c 	 54%
00:00Thu 	 9c 	 35%
01:00Thu 	 9c 	 25%
02:00Thu 	 9c 	 33%
03:00Thu 	 10c 	 55%
04:00Thu 	 10c 	 72%
05:00Thu 	 10c 	 73%

# /home/pi/Documents/bbc-weather-predictions/data/Sep23Wed/bbcweather_Wednesday23rdSeptember_2020-09-23_0515.txt
# time 	 temp 	 rain
06:00Wed 	 14c 	 15%
07:00Wed 	 14c 	 53%
08:00Wed 	 14c 	 61%
09:00Wed 	 14c 	 74%
10:00Wed 	 14c 	 79%
11:00Wed 	 14c 	 75%
12:00Wed 	 15c 	 66%
13:00Wed 	 15c 	 52%
14:00Wed 	 15c 	 40%
15:00Wed 	 15c 	 33%
16:00Wed 	 15c 	 26%
17:00Wed 	 14c 	 27%
18:00Wed 	 13c 	 35%
19:00Wed 	 12c 	 44%
20:00Wed 	 11c 	 56%
21:00Wed 	 11c 	 66%
22:00Wed 	 10c 	 68%
23:00Wed 	 10c 	 54%
00:00Thu 	 9c 	 35%
01:00Thu 	 9c 	 25%
02:00Thu 	 9c 	 33%
03:00Thu 	 10c 	 55%
04:00Thu 	 10c 	 72%
05:00Thu 	 10c 	 73%
06:00Thu 	 10c 	 67%
07:00Thu 	 10c 	 65%
08:00Thu 	 10c 	 65%
09:00Thu 	 10c 	 62%
10:00Thu 	 11c 	 58%
11:00Thu 	 11c 	 56%
12:00Thu 	 12c 	 52%
13:00Thu 	 13c 	 45%
14:00Thu 	 13c 	 41%
15:00Thu 	 13c 	 40%
16:00Thu 	 12c 	 38%
17:00Thu 	 12c 	 37%
18:00Thu 	 11c 	 36%
19:00Thu 	 10c 	 35%
20:00Thu 	 9c 	 36%
21:00Thu 	 9c 	 36%
22:00Thu 	 9c 	 34%
23:00Thu 	 8c 	 31%
00:00Fri 	 8c 	 30%
01:00Fri 	 8c 	 29%
02:00Fri 	 8c 	 25%
03:00Fri 	 7c 	 22%
04:00Fri 	 7c 	 18%
05:00Fri 	 7c 	 13%

# /home/pi/Documents/bbc-weather-predictions/data/Sep23Wed/bbcweather_Wednesday23rdSeptember_2020-09-23_0530.txt
# time 	 temp 	 rain
06:00Wed 	 14c 	 3%
07:00Wed 	 14c 	 17%
08:00Wed 	 14c 	 66%
09:00Wed 	 14c 	 75%
10:00Wed 	 14c 	 78%
11:00Wed 	 14c 	 75%
12:00Wed 	 15c 	 66%
13:00Wed 	 15c 	 52%
14:00Wed 	 15c 	 40%
15:00Wed 	 15c 	 33%
16:00Wed 	 15c 	 26%
17:00Wed 	 14c 	 27%
18:00Wed 	 13c 	 35%
19:00Wed 	 12c 	 44%
20:00Wed 	 11c 	 56%
21:00Wed 	 11c 	 66%
22:00Wed 	 10c 	 68%
23:00Wed 	 10c 	 54%
00:00Thu 	 9c 	 35%
01:00Thu 	 9c 	 25%
02:00Thu 	 9c 	 33%
03:00Thu 	 10c 	 55%
04:00Thu 	 10c 	 72%
05:00Thu 	 10c 	 73%
06:00Thu 	 10c 	 67%
07:00Thu 	 10c 	 65%
08:00Thu 	 10c 	 65%
09:00Thu 	 10c 	 62%
10:00Thu 	 11c 	 58%
11:00Thu 	 11c 	 56%
12:00Thu 	 12c 	 52%
13:00Thu 	 13c 	 45%
14:00Thu 	 13c 	 41%
15:00Thu 	 13c 	 40%
16:00Thu 	 12c 	 38%
17:00Thu 	 12c 	 37%
18:00Thu 	 11c 	 36%
19:00Thu 	 10c 	 35%
20:00Thu 	 9c 	 36%
21:00Thu 	 9c 	 36%
22:00Thu 	 9c 	 34%
23:00Thu 	 8c 	 31%
00:00Fri 	 8c 	 30%
01:00Fri 	 8c 	 29%
02:00Fri 	 8c 	 25%
03:00Fri 	 7c 	 22%
04:00Fri 	 7c 	 18%
05:00Fri 	 7c 	 13%

# /home/pi/Documents/bbc-weather-predictions/data/Sep23Wed/bbcweather_Wednesday23rdSeptember_2020-09-23_0545.txt
# time 	 temp 	 rain
06:00Wed 	 14c 	 3%
07:00Wed 	 14c 	 17%
08:00Wed 	 14c 	 66%
09:00Wed 	 14c 	 75%
10:00Wed 	 14c 	 78%
11:00Wed 	 14c 	 75%
12:00Wed 	 15c 	 66%
13:00Wed 	 15c 	 52%
14:00Wed 	 15c 	 40%
15:00Wed 	 15c 	 33%
16:00Wed 	 15c 	 26%
17:00Wed 	 14c 	 27%
18:00Wed 	 13c 	 35%
19:00Wed 	 12c 	 44%
20:00Wed 	 11c 	 56%
21:00Wed 	 11c 	 66%
22:00Wed 	 10c 	 68%
23:00Wed 	 10c 	 54%
00:00Thu 	 9c 	 35%
01:00Thu 	 9c 	 25%
02:00Thu 	 9c 	 33%
03:00Thu 	 10c 	 55%
04:00Thu 	 10c 	 72%
05:00Thu 	 10c 	 73%
06:00Thu 	 10c 	 67%
07:00Thu 	 10c 	 65%
08:00Thu 	 10c 	 65%
09:00Thu 	 10c 	 62%
10:00Thu 	 11c 	 58%
11:00Thu 	 11c 	 56%
12:00Thu 	 12c 	 52%
13:00Thu 	 13c 	 45%
14:00Thu 	 13c 	 41%
15:00Thu 	 13c 	 40%
16:00Thu 	 12c 	 38%
17:00Thu 	 12c 	 37%
18:00Thu 	 11c 	 36%
19:00Thu 	 10c 	 35%
20:00Thu 	 9c 	 36%
21:00Thu 	 9c 	 36%
22:00Thu 	 9c 	 34%
23:00Thu 	 8c 	 31%
00:00Fri 	 8c 	 30%
01:00Fri 	 8c 	 29%
02:00Fri 	 8c 	 25%
03:00Fri 	 7c 	 22%
04:00Fri 	 7c 	 18%
05:00Fri 	 7c 	 13%

# /home/pi/Documents/bbc-weather-predictions/data/Sep23Wed/bbcweather_Wednesday23rdSeptember_2020-09-23_0600.txt
# time 	 temp 	 rain
06:00Wed 	 14c 	 3%
07:00Wed 	 14c 	 17%
08:00Wed 	 14c 	 66%
09:00Wed 	 14c 	 75%
10:00Wed 	 14c 	 78%
11:00Wed 	 14c 	 75%
12:00Wed 	 15c 	 66%
13:00Wed 	 15c 	 52%
14:00Wed 	 15c 	 40%
15:00Wed 	 15c 	 33%
16:00Wed 	 15c 	 26%
17:00Wed 	 14c 	 27%
18:00Wed 	 13c 	 35%
19:00Wed 	 12c 	 44%
20:00Wed 	 11c 	 56%
21:00Wed 	 11c 	 66%
22:00Wed 	 10c 	 68%
23:00Wed 	 10c 	 54%
00:00Thu 	 9c 	 35%
01:00Thu 	 9c 	 25%
02:00Thu 	 9c 	 33%
03:00Thu 	 10c 	 55%
04:00Thu 	 10c 	 72%
05:00Thu 	 10c 	 73%
06:00Thu 	 10c 	 67%
07:00Thu 	 10c 	 65%
08:00Thu 	 10c 	 65%
09:00Thu 	 10c 	 62%
10:00Thu 	 11c 	 58%
11:00Thu 	 11c 	 56%
12:00Thu 	 12c 	 52%
13:00Thu 	 13c 	 45%
14:00Thu 	 13c 	 41%
15:00Thu 	 13c 	 40%
16:00Thu 	 12c 	 38%
17:00Thu 	 12c 	 37%
18:00Thu 	 11c 	 36%
19:00Thu 	 10c 	 35%
20:00Thu 	 9c 	 36%
21:00Thu 	 9c 	 36%
22:00Thu 	 9c 	 34%
23:00Thu 	 8c 	 31%
00:00Fri 	 8c 	 30%
01:00Fri 	 8c 	 29%
02:00Fri 	 8c 	 25%
03:00Fri 	 7c 	 22%
04:00Fri 	 7c 	 18%
05:00Fri 	 7c 	 13%

# /home/pi/Documents/bbc-weather-predictions/data/Sep23Wed/bbcweather_Wednesday23rdSeptember_2020-09-23_0615.txt
# time 	 temp 	 rain
07:00Wed 	 14c 	 17%
08:00Wed 	 14c 	 66%
09:00Wed 	 14c 	 75%
10:00Wed 	 14c 	 78%
11:00Wed 	 14c 	 75%
12:00Wed 	 15c 	 66%
13:00Wed 	 15c 	 52%
14:00Wed 	 15c 	 40%
15:00Wed 	 15c 	 33%
16:00Wed 	 15c 	 26%
17:00Wed 	 14c 	 27%
18:00Wed 	 13c 	 35%
19:00Wed 	 12c 	 44%
20:00Wed 	 11c 	 56%
21:00Wed 	 11c 	 66%
22:00Wed 	 10c 	 68%
23:00Wed 	 10c 	 54%
00:00Thu 	 9c 	 35%
01:00Thu 	 9c 	 25%
02:00Thu 	 9c 	 33%
03:00Thu 	 10c 	 55%
04:00Thu 	 10c 	 72%
05:00Thu 	 10c 	 73%
06:00Thu 	 10c 	 67%
07:00Thu 	 10c 	 65%
08:00Thu 	 10c 	 65%
09:00Thu 	 10c 	 62%
10:00Thu 	 11c 	 58%
11:00Thu 	 11c 	 56%
12:00Thu 	 12c 	 52%
13:00Thu 	 13c 	 45%
14:00Thu 	 13c 	 41%
15:00Thu 	 13c 	 40%
16:00Thu 	 12c 	 38%
17:00Thu 	 12c 	 37%
18:00Thu 	 11c 	 36%
19:00Thu 	 10c 	 35%
20:00Thu 	 9c 	 36%
21:00Thu 	 9c 	 36%
22:00Thu 	 9c 	 34%
23:00Thu 	 8c 	 31%
00:00Fri 	 8c 	 30%
01:00Fri 	 8c 	 29%
02:00Fri 	 8c 	 25%
03:00Fri 	 7c 	 22%
04:00Fri 	 7c 	 18%
05:00Fri 	 7c 	 13%

# /home/pi/Documents/bbc-weather-predictions/data/Sep23Wed/bbcweather_Wednesday23rdSeptember_2020-09-23_0630.txt
# time 	 temp 	 rain
07:00Wed 	 14c 	 10%
08:00Wed 	 14c 	 86%
09:00Wed 	 14c 	 60%
10:00Wed 	 14c 	 72%
11:00Wed 	 14c 	 70%
12:00Wed 	 15c 	 66%
13:00Wed 	 15c 	 52%
14:00Wed 	 15c 	 40%
15:00Wed 	 15c 	 33%
16:00Wed 	 15c 	 26%
17:00Wed 	 14c 	 27%
18:00Wed 	 13c 	 35%
19:00Wed 	 12c 	 44%
20:00Wed 	 11c 	 56%
21:00Wed 	 11c 	 66%
22:00Wed 	 10c 	 68%
23:00Wed 	 10c 	 54%
00:00Thu 	 9c 	 35%
01:00Thu 	 9c 	 25%
02:00Thu 	 9c 	 33%
03:00Thu 	 10c 	 55%
04:00Thu 	 10c 	 72%
05:00Thu 	 10c 	 73%
06:00Thu 	 10c 	 67%
07:00Thu 	 10c 	 65%
08:00Thu 	 10c 	 65%
09:00Thu 	 10c 	 62%
10:00Thu 	 11c 	 58%
11:00Thu 	 11c 	 56%
12:00Thu 	 12c 	 52%
13:00Thu 	 13c 	 45%
14:00Thu 	 13c 	 41%
15:00Thu 	 13c 	 40%
16:00Thu 	 12c 	 38%
17:00Thu 	 12c 	 37%
18:00Thu 	 11c 	 36%
19:00Thu 	 10c 	 35%
20:00Thu 	 9c 	 36%
21:00Thu 	 9c 	 36%
22:00Thu 	 9c 	 34%
23:00Thu 	 8c 	 31%
00:00Fri 	 8c 	 30%
01:00Fri 	 8c 	 29%
02:00Fri 	 8c 	 25%
03:00Fri 	 7c 	 22%
04:00Fri 	 7c 	 18%
05:00Fri 	 7c 	 13%

# /home/pi/Documents/bbc-weather-predictions/data/Sep23Wed/bbcweather_Wednesday23rdSeptember_2020-09-23_0645.txt
# time 	 temp 	 rain
07:00Wed 	 14c 	 10%
08:00Wed 	 14c 	 86%
09:00Wed 	 14c 	 60%
10:00Wed 	 14c 	 72%
11:00Wed 	 14c 	 70%
12:00Wed 	 15c 	 66%
13:00Wed 	 15c 	 52%
14:00Wed 	 15c 	 40%
15:00Wed 	 15c 	 33%
16:00Wed 	 15c 	 26%
17:00Wed 	 14c 	 27%
18:00Wed 	 13c 	 35%
19:00Wed 	 12c 	 44%
20:00Wed 	 11c 	 56%
21:00Wed 	 11c 	 66%
22:00Wed 	 10c 	 68%
23:00Wed 	 10c 	 54%
00:00Thu 	 9c 	 35%
01:00Thu 	 9c 	 25%
02:00Thu 	 9c 	 33%
03:00Thu 	 10c 	 55%
04:00Thu 	 10c 	 72%
05:00Thu 	 10c 	 73%
06:00Thu 	 10c 	 67%
07:00Thu 	 10c 	 65%
08:00Thu 	 10c 	 65%
09:00Thu 	 10c 	 62%
10:00Thu 	 11c 	 58%
11:00Thu 	 11c 	 56%
12:00Thu 	 12c 	 52%
13:00Thu 	 13c 	 45%
14:00Thu 	 13c 	 41%
15:00Thu 	 13c 	 40%
16:00Thu 	 12c 	 38%
17:00Thu 	 12c 	 37%
18:00Thu 	 11c 	 36%
19:00Thu 	 10c 	 35%
20:00Thu 	 9c 	 36%
21:00Thu 	 9c 	 36%
22:00Thu 	 9c 	 34%
23:00Thu 	 8c 	 31%
00:00Fri 	 8c 	 30%
01:00Fri 	 8c 	 29%
02:00Fri 	 8c 	 25%
03:00Fri 	 7c 	 22%
04:00Fri 	 7c 	 18%
05:00Fri 	 7c 	 13%

# /home/pi/Documents/bbc-weather-predictions/data/Sep23Wed/bbcweather_Wednesday23rdSeptember_2020-09-23_0700.txt
# time 	 temp 	 rain
07:00Wed 	 14c 	 10%
08:00Wed 	 14c 	 86%
09:00Wed 	 14c 	 60%
10:00Wed 	 14c 	 72%
11:00Wed 	 14c 	 70%
12:00Wed 	 15c 	 66%
13:00Wed 	 15c 	 52%
14:00Wed 	 15c 	 40%
15:00Wed 	 15c 	 33%
16:00Wed 	 15c 	 26%
17:00Wed 	 14c 	 27%
18:00Wed 	 13c 	 35%
19:00Wed 	 12c 	 44%
20:00Wed 	 11c 	 56%
21:00Wed 	 11c 	 66%
22:00Wed 	 10c 	 68%
23:00Wed 	 10c 	 54%
00:00Thu 	 9c 	 35%
01:00Thu 	 9c 	 25%
02:00Thu 	 9c 	 33%
03:00Thu 	 10c 	 55%
04:00Thu 	 10c 	 72%
05:00Thu 	 10c 	 73%
06:00Thu 	 10c 	 67%
07:00Thu 	 10c 	 65%
08:00Thu 	 10c 	 65%
09:00Thu 	 10c 	 62%
10:00Thu 	 11c 	 58%
11:00Thu 	 11c 	 56%
12:00Thu 	 12c 	 52%
13:00Thu 	 13c 	 45%
14:00Thu 	 13c 	 41%
15:00Thu 	 13c 	 40%
16:00Thu 	 12c 	 38%
17:00Thu 	 12c 	 37%
18:00Thu 	 11c 	 36%
19:00Thu 	 10c 	 35%
20:00Thu 	 9c 	 36%
21:00Thu 	 9c 	 36%
22:00Thu 	 9c 	 34%
23:00Thu 	 8c 	 31%
00:00Fri 	 8c 	 30%
01:00Fri 	 8c 	 29%
02:00Fri 	 8c 	 25%
03:00Fri 	 7c 	 22%
04:00Fri 	 7c 	 18%
05:00Fri 	 7c 	 13%

# /home/pi/Documents/bbc-weather-predictions/data/Sep23Wed/bbcweather_Wednesday23rdSeptember_2020-09-23_0715.txt
# time 	 temp 	 rain
08:00Wed 	 14c 	 86%
09:00Wed 	 14c 	 60%
10:00Wed 	 14c 	 72%
11:00Wed 	 14c 	 70%
12:00Wed 	 15c 	 66%
13:00Wed 	 15c 	 52%
14:00Wed 	 15c 	 40%
15:00Wed 	 15c 	 33%
16:00Wed 	 15c 	 26%
17:00Wed 	 14c 	 27%
18:00Wed 	 13c 	 35%
19:00Wed 	 12c 	 44%
20:00Wed 	 11c 	 56%
21:00Wed 	 11c 	 66%
22:00Wed 	 10c 	 68%
23:00Wed 	 10c 	 54%
00:00Thu 	 9c 	 35%
01:00Thu 	 9c 	 25%
02:00Thu 	 9c 	 33%
03:00Thu 	 10c 	 55%
04:00Thu 	 10c 	 72%
05:00Thu 	 10c 	 73%
06:00Thu 	 10c 	 67%
07:00Thu 	 10c 	 65%
08:00Thu 	 10c 	 65%
09:00Thu 	 10c 	 62%
10:00Thu 	 11c 	 58%
11:00Thu 	 11c 	 56%
12:00Thu 	 12c 	 52%
13:00Thu 	 13c 	 45%
14:00Thu 	 13c 	 41%
15:00Thu 	 13c 	 40%
16:00Thu 	 12c 	 38%
17:00Thu 	 12c 	 37%
18:00Thu 	 11c 	 36%
19:00Thu 	 10c 	 35%
20:00Thu 	 9c 	 36%
21:00Thu 	 9c 	 36%
22:00Thu 	 9c 	 34%
23:00Thu 	 8c 	 31%
00:00Fri 	 8c 	 30%
01:00Fri 	 8c 	 29%
02:00Fri 	 8c 	 25%
03:00Fri 	 7c 	 22%
04:00Fri 	 7c 	 18%
05:00Fri 	 7c 	 13%

# /home/pi/Documents/bbc-weather-predictions/data/Sep23Wed/bbcweather_Wednesday23rdSeptember_2020-09-23_0730.txt
# time 	 temp 	 rain
08:00Wed 	 14c 	 86%
09:00Wed 	 14c 	 60%
10:00Wed 	 14c 	 72%
11:00Wed 	 14c 	 70%
12:00Wed 	 15c 	 66%
13:00Wed 	 15c 	 52%
14:00Wed 	 15c 	 40%
15:00Wed 	 15c 	 33%
16:00Wed 	 15c 	 26%
17:00Wed 	 14c 	 27%
18:00Wed 	 13c 	 35%
19:00Wed 	 12c 	 44%
20:00Wed 	 11c 	 56%
21:00Wed 	 11c 	 66%
22:00Wed 	 10c 	 68%
23:00Wed 	 10c 	 54%
00:00Thu 	 9c 	 35%
01:00Thu 	 9c 	 25%
02:00Thu 	 9c 	 33%
03:00Thu 	 10c 	 55%
04:00Thu 	 10c 	 72%
05:00Thu 	 10c 	 73%
06:00Thu 	 10c 	 67%
07:00Thu 	 10c 	 65%
08:00Thu 	 10c 	 65%
09:00Thu 	 10c 	 62%
10:00Thu 	 11c 	 58%
11:00Thu 	 11c 	 56%
12:00Thu 	 12c 	 52%
13:00Thu 	 13c 	 45%
14:00Thu 	 13c 	 41%
15:00Thu 	 13c 	 40%
16:00Thu 	 12c 	 38%
17:00Thu 	 12c 	 37%
18:00Thu 	 11c 	 36%
19:00Thu 	 10c 	 35%
20:00Thu 	 9c 	 36%
21:00Thu 	 9c 	 36%
22:00Thu 	 9c 	 34%
23:00Thu 	 8c 	 31%
00:00Fri 	 8c 	 30%
01:00Fri 	 8c 	 29%
02:00Fri 	 8c 	 25%
03:00Fri 	 7c 	 22%
04:00Fri 	 7c 	 18%
05:00Fri 	 7c 	 13%

# /home/pi/Documents/bbc-weather-predictions/data/Sep23Wed/bbcweather_Wednesday23rdSeptember_2020-09-23_0745.txt
# time 	 temp 	 rain
08:00Wed 	 14c 	 98%
09:00Wed 	 14c 	 91%
10:00Wed 	 14c 	 69%
11:00Wed 	 15c 	 65%
12:00Wed 	 15c 	 62%
13:00Wed 	 15c 	 52%
14:00Wed 	 15c 	 40%
15:00Wed 	 15c 	 33%
16:00Wed 	 15c 	 26%
17:00Wed 	 14c 	 27%
18:00Wed 	 13c 	 35%
19:00Wed 	 12c 	 44%
20:00Wed 	 11c 	 56%
21:00Wed 	 11c 	 66%
22:00Wed 	 10c 	 68%
23:00Wed 	 10c 	 54%
00:00Thu 	 9c 	 35%
01:00Thu 	 9c 	 25%
02:00Thu 	 9c 	 33%
03:00Thu 	 10c 	 55%
04:00Thu 	 10c 	 72%
05:00Thu 	 10c 	 73%
06:00Thu 	 10c 	 67%
07:00Thu 	 10c 	 65%
08:00Thu 	 10c 	 65%
09:00Thu 	 10c 	 62%
10:00Thu 	 11c 	 58%
11:00Thu 	 11c 	 56%
12:00Thu 	 12c 	 52%
13:00Thu 	 13c 	 45%
14:00Thu 	 13c 	 41%
15:00Thu 	 13c 	 40%
16:00Thu 	 12c 	 38%
17:00Thu 	 12c 	 37%
18:00Thu 	 11c 	 36%
19:00Thu 	 10c 	 35%
20:00Thu 	 9c 	 36%
21:00Thu 	 9c 	 36%
22:00Thu 	 9c 	 34%
23:00Thu 	 8c 	 31%
00:00Fri 	 8c 	 30%
01:00Fri 	 8c 	 29%
02:00Fri 	 8c 	 25%
03:00Fri 	 7c 	 22%
04:00Fri 	 7c 	 18%
05:00Fri 	 7c 	 13%

# /home/pi/Documents/bbc-weather-predictions/data/Sep23Wed/bbcweather_Wednesday23rdSeptember_2020-09-23_0800.txt
# time 	 temp 	 rain
08:00Wed 	 14c 	 98%
09:00Wed 	 14c 	 91%
10:00Wed 	 14c 	 69%
11:00Wed 	 15c 	 65%
12:00Wed 	 15c 	 62%
13:00Wed 	 15c 	 52%
14:00Wed 	 15c 	 40%
15:00Wed 	 15c 	 33%
16:00Wed 	 15c 	 26%
17:00Wed 	 14c 	 27%
18:00Wed 	 13c 	 35%
19:00Wed 	 12c 	 44%
20:00Wed 	 11c 	 56%
21:00Wed 	 11c 	 66%
22:00Wed 	 10c 	 68%
23:00Wed 	 10c 	 54%
00:00Thu 	 9c 	 35%
01:00Thu 	 9c 	 25%
02:00Thu 	 9c 	 33%
03:00Thu 	 10c 	 55%
04:00Thu 	 10c 	 72%
05:00Thu 	 10c 	 73%
06:00Thu 	 10c 	 67%
07:00Thu 	 10c 	 65%
08:00Thu 	 10c 	 65%
09:00Thu 	 10c 	 62%
10:00Thu 	 11c 	 58%
11:00Thu 	 11c 	 56%
12:00Thu 	 12c 	 52%
13:00Thu 	 13c 	 45%
14:00Thu 	 13c 	 41%
15:00Thu 	 13c 	 40%
16:00Thu 	 12c 	 38%
17:00Thu 	 12c 	 37%
18:00Thu 	 11c 	 36%
19:00Thu 	 10c 	 35%
20:00Thu 	 9c 	 36%
21:00Thu 	 9c 	 36%
22:00Thu 	 9c 	 34%
23:00Thu 	 8c 	 31%
00:00Fri 	 8c 	 30%
01:00Fri 	 8c 	 29%
02:00Fri 	 8c 	 25%
03:00Fri 	 7c 	 22%
04:00Fri 	 7c 	 18%
05:00Fri 	 7c 	 13%

# /home/pi/Documents/bbc-weather-predictions/data/Sep23Wed/bbcweather_Wednesday23rdSeptember_2020-09-23_0815.txt
# time 	 temp 	 rain
09:00Wed 	 14c 	 91%
10:00Wed 	 14c 	 69%
11:00Wed 	 15c 	 65%
12:00Wed 	 15c 	 62%
13:00Wed 	 15c 	 52%
14:00Wed 	 15c 	 40%
15:00Wed 	 15c 	 33%
16:00Wed 	 15c 	 26%
17:00Wed 	 14c 	 27%
18:00Wed 	 13c 	 35%
19:00Wed 	 12c 	 44%
20:00Wed 	 11c 	 56%
21:00Wed 	 11c 	 66%
22:00Wed 	 10c 	 68%
23:00Wed 	 10c 	 54%
00:00Thu 	 9c 	 35%
01:00Thu 	 9c 	 25%
02:00Thu 	 9c 	 33%
03:00Thu 	 10c 	 55%
04:00Thu 	 10c 	 72%
05:00Thu 	 10c 	 73%
06:00Thu 	 10c 	 67%
07:00Thu 	 10c 	 65%
08:00Thu 	 10c 	 65%
09:00Thu 	 10c 	 62%
10:00Thu 	 11c 	 58%
11:00Thu 	 11c 	 56%
12:00Thu 	 12c 	 52%
13:00Thu 	 13c 	 45%
14:00Thu 	 13c 	 41%
15:00Thu 	 13c 	 40%
16:00Thu 	 12c 	 38%
17:00Thu 	 12c 	 37%
18:00Thu 	 11c 	 36%
19:00Thu 	 10c 	 35%
20:00Thu 	 9c 	 36%
21:00Thu 	 9c 	 36%
22:00Thu 	 9c 	 34%
23:00Thu 	 8c 	 31%
00:00Fri 	 8c 	 30%
01:00Fri 	 8c 	 29%
02:00Fri 	 8c 	 25%
03:00Fri 	 7c 	 22%
04:00Fri 	 7c 	 18%
05:00Fri 	 7c 	 13%

# /home/pi/Documents/bbc-weather-predictions/data/Sep23Wed/bbcweather_Wednesday23rdSeptember_2020-09-23_0830.txt
# time 	 temp 	 rain
09:00Wed 	 14c 	 100%
10:00Wed 	 15c 	 99%
11:00Wed 	 15c 	 84%
12:00Wed 	 15c 	 54%
13:00Wed 	 15c 	 42%
14:00Wed 	 15c 	 34%
15:00Wed 	 16c 	 27%
16:00Wed 	 16c 	 21%
17:00Wed 	 15c 	 24%
18:00Wed 	 14c 	 29%
19:00Wed 	 12c 	 29%
20:00Wed 	 12c 	 27%
21:00Wed 	 11c 	 25%
22:00Wed 	 10c 	 24%
23:00Wed 	 10c 	 25%
00:00Thu 	 10c 	 24%
01:00Thu 	 10c 	 24%
02:00Thu 	 10c 	 35%
03:00Thu 	 10c 	 57%
04:00Thu 	 10c 	 80%
05:00Thu 	 10c 	 91%
06:00Thu 	 10c 	 91%
07:00Thu 	 10c 	 85%
08:00Thu 	 10c 	 74%
09:00Thu 	 10c 	 57%
10:00Thu 	 11c 	 43%
11:00Thu 	 11c 	 39%
12:00Thu 	 12c 	 37%
13:00Thu 	 13c 	 35%
14:00Thu 	 13c 	 40%
15:00Thu 	 13c 	 43%
16:00Thu 	 13c 	 43%
17:00Thu 	 12c 	 51%
18:00Thu 	 11c 	 56%
19:00Thu 	 10c 	 53%
20:00Thu 	 10c 	 47%
21:00Thu 	 9c 	 42%
22:00Thu 	 9c 	 37%
23:00Thu 	 8c 	 33%
00:00Fri 	 8c 	 31%
01:00Fri 	 8c 	 29%
02:00Fri 	 8c 	 25%
03:00Fri 	 7c 	 22%
04:00Fri 	 7c 	 18%
05:00Fri 	 7c 	 13%

# /home/pi/Documents/bbc-weather-predictions/data/Sep23Wed/bbcweather_Wednesday23rdSeptember_2020-09-23_0845.txt
# time 	 temp 	 rain
09:00Wed 	 14c 	 100%
10:00Wed 	 15c 	 99%
11:00Wed 	 15c 	 84%
12:00Wed 	 15c 	 54%
13:00Wed 	 15c 	 42%
14:00Wed 	 15c 	 34%
15:00Wed 	 16c 	 27%
16:00Wed 	 16c 	 21%
17:00Wed 	 15c 	 24%
18:00Wed 	 14c 	 29%
19:00Wed 	 12c 	 29%
20:00Wed 	 12c 	 27%
21:00Wed 	 11c 	 25%
22:00Wed 	 10c 	 24%
23:00Wed 	 10c 	 25%
00:00Thu 	 10c 	 24%
01:00Thu 	 10c 	 24%
02:00Thu 	 10c 	 35%
03:00Thu 	 10c 	 57%
04:00Thu 	 10c 	 80%
05:00Thu 	 10c 	 91%
06:00Thu 	 10c 	 91%
07:00Thu 	 10c 	 85%
08:00Thu 	 10c 	 74%
09:00Thu 	 10c 	 57%
10:00Thu 	 11c 	 43%
11:00Thu 	 11c 	 39%
12:00Thu 	 12c 	 37%
13:00Thu 	 13c 	 35%
14:00Thu 	 13c 	 40%
15:00Thu 	 13c 	 43%
16:00Thu 	 13c 	 43%
17:00Thu 	 12c 	 51%
18:00Thu 	 11c 	 56%
19:00Thu 	 10c 	 53%
20:00Thu 	 10c 	 47%
21:00Thu 	 9c 	 42%
22:00Thu 	 9c 	 37%
23:00Thu 	 8c 	 33%
00:00Fri 	 8c 	 31%
01:00Fri 	 8c 	 29%
02:00Fri 	 8c 	 25%
03:00Fri 	 7c 	 22%
04:00Fri 	 7c 	 18%
05:00Fri 	 7c 	 13%

# /home/pi/Documents/bbc-weather-predictions/data/Sep23Wed/bbcweather_Wednesday23rdSeptember_2020-09-23_0900.txt
# time 	 temp 	 rain
09:00Wed 	 14c 	 100%
10:00Wed 	 15c 	 99%
11:00Wed 	 15c 	 84%
12:00Wed 	 15c 	 54%
13:00Wed 	 15c 	 42%
14:00Wed 	 15c 	 34%
15:00Wed 	 16c 	 27%
16:00Wed 	 16c 	 21%
17:00Wed 	 15c 	 24%
18:00Wed 	 14c 	 29%
19:00Wed 	 12c 	 29%
20:00Wed 	 12c 	 27%
21:00Wed 	 11c 	 25%
22:00Wed 	 10c 	 24%
23:00Wed 	 10c 	 25%
00:00Thu 	 10c 	 24%
01:00Thu 	 10c 	 24%
02:00Thu 	 10c 	 35%
03:00Thu 	 10c 	 57%
04:00Thu 	 10c 	 80%
05:00Thu 	 10c 	 91%
06:00Thu 	 10c 	 91%
07:00Thu 	 10c 	 85%
08:00Thu 	 10c 	 74%
09:00Thu 	 10c 	 57%
10:00Thu 	 11c 	 43%
11:00Thu 	 11c 	 39%
12:00Thu 	 12c 	 37%
13:00Thu 	 13c 	 35%
14:00Thu 	 13c 	 40%
15:00Thu 	 13c 	 43%
16:00Thu 	 13c 	 43%
17:00Thu 	 12c 	 51%
18:00Thu 	 11c 	 56%
19:00Thu 	 10c 	 53%
20:00Thu 	 10c 	 47%
21:00Thu 	 9c 	 42%
22:00Thu 	 9c 	 37%
23:00Thu 	 8c 	 33%
00:00Fri 	 8c 	 31%
01:00Fri 	 8c 	 29%
02:00Fri 	 8c 	 25%
03:00Fri 	 7c 	 22%
04:00Fri 	 7c 	 18%
05:00Fri 	 7c 	 13%

# /home/pi/Documents/bbc-weather-predictions/data/Sep23Wed/bbcweather_Wednesday23rdSeptember_2020-09-23_0915.txt
# time 	 temp 	 rain
10:00Wed 	 15c 	 99%
11:00Wed 	 15c 	 84%
12:00Wed 	 15c 	 54%
13:00Wed 	 15c 	 42%
14:00Wed 	 15c 	 34%
15:00Wed 	 16c 	 27%
16:00Wed 	 16c 	 21%
17:00Wed 	 15c 	 24%
18:00Wed 	 14c 	 29%
19:00Wed 	 12c 	 29%
20:00Wed 	 12c 	 27%
21:00Wed 	 11c 	 25%
22:00Wed 	 10c 	 24%
23:00Wed 	 10c 	 25%
00:00Thu 	 10c 	 24%
01:00Thu 	 10c 	 24%
02:00Thu 	 10c 	 35%
03:00Thu 	 10c 	 57%
04:00Thu 	 10c 	 80%
05:00Thu 	 10c 	 91%
06:00Thu 	 10c 	 91%
07:00Thu 	 10c 	 85%
08:00Thu 	 10c 	 74%
09:00Thu 	 10c 	 57%
10:00Thu 	 11c 	 43%
11:00Thu 	 11c 	 39%
12:00Thu 	 12c 	 37%
13:00Thu 	 13c 	 35%
14:00Thu 	 13c 	 40%
15:00Thu 	 13c 	 43%
16:00Thu 	 13c 	 43%
17:00Thu 	 12c 	 51%
18:00Thu 	 11c 	 56%
19:00Thu 	 10c 	 53%
20:00Thu 	 10c 	 47%
21:00Thu 	 9c 	 42%
22:00Thu 	 9c 	 37%
23:00Thu 	 8c 	 33%
00:00Fri 	 8c 	 31%
01:00Fri 	 8c 	 29%
02:00Fri 	 8c 	 25%
03:00Fri 	 7c 	 22%
04:00Fri 	 7c 	 18%
05:00Fri 	 7c 	 13%

# /home/pi/Documents/bbc-weather-predictions/data/Sep23Wed/bbcweather_Wednesday23rdSeptember_2020-09-23_0930.txt
# time 	 temp 	 rain
10:00Wed 	 15c 	 99%
11:00Wed 	 15c 	 84%
12:00Wed 	 15c 	 54%
13:00Wed 	 15c 	 42%
14:00Wed 	 15c 	 34%
15:00Wed 	 16c 	 27%
16:00Wed 	 16c 	 21%
17:00Wed 	 15c 	 24%
18:00Wed 	 14c 	 29%
19:00Wed 	 12c 	 29%
20:00Wed 	 12c 	 27%
21:00Wed 	 11c 	 25%
22:00Wed 	 10c 	 24%
23:00Wed 	 10c 	 25%
00:00Thu 	 10c 	 24%
01:00Thu 	 10c 	 24%
02:00Thu 	 10c 	 35%
03:00Thu 	 10c 	 57%
04:00Thu 	 10c 	 80%
05:00Thu 	 10c 	 91%
06:00Thu 	 10c 	 91%
07:00Thu 	 10c 	 85%
08:00Thu 	 10c 	 74%
09:00Thu 	 10c 	 57%
10:00Thu 	 11c 	 43%
11:00Thu 	 11c 	 39%
12:00Thu 	 12c 	 37%
13:00Thu 	 13c 	 35%
14:00Thu 	 13c 	 40%
15:00Thu 	 13c 	 43%
16:00Thu 	 13c 	 43%
17:00Thu 	 12c 	 51%
18:00Thu 	 11c 	 56%
19:00Thu 	 10c 	 53%
20:00Thu 	 10c 	 47%
21:00Thu 	 9c 	 42%
22:00Thu 	 9c 	 37%
23:00Thu 	 8c 	 33%
00:00Fri 	 8c 	 31%
01:00Fri 	 8c 	 29%
02:00Fri 	 8c 	 25%
03:00Fri 	 7c 	 22%
04:00Fri 	 7c 	 18%
05:00Fri 	 7c 	 13%

# /home/pi/Documents/bbc-weather-predictions/data/Sep23Wed/bbcweather_Wednesday23rdSeptember_2020-09-23_0945.txt
# time 	 temp 	 rain
10:00Wed 	 15c 	 96%
11:00Wed 	 15c 	 84%
12:00Wed 	 15c 	 54%
13:00Wed 	 15c 	 40%
14:00Wed 	 15c 	 30%
15:00Wed 	 16c 	 23%
16:00Wed 	 16c 	 19%
17:00Wed 	 15c 	 22%
18:00Wed 	 14c 	 28%
19:00Wed 	 12c 	 27%
20:00Wed 	 12c 	 24%
21:00Wed 	 11c 	 22%
22:00Wed 	 10c 	 19%
23:00Wed 	 10c 	 17%
00:00Thu 	 10c 	 19%
01:00Thu 	 10c 	 21%
02:00Thu 	 10c 	 32%
03:00Thu 	 10c 	 56%
04:00Thu 	 10c 	 80%
05:00Thu 	 10c 	 88%
06:00Thu 	 10c 	 86%
07:00Thu 	 10c 	 79%
08:00Thu 	 10c 	 67%
09:00Thu 	 10c 	 53%
10:00Thu 	 11c 	 41%
11:00Thu 	 11c 	 36%
12:00Thu 	 12c 	 34%
13:00Thu 	 13c 	 30%
14:00Thu 	 13c 	 31%
15:00Thu 	 13c 	 36%
16:00Thu 	 13c 	 38%
17:00Thu 	 12c 	 41%
18:00Thu 	 11c 	 47%
19:00Thu 	 10c 	 48%
20:00Thu 	 10c 	 40%
21:00Thu 	 9c 	 31%
22:00Thu 	 9c 	 22%
23:00Thu 	 8c 	 17%
00:00Fri 	 8c 	 18%
01:00Fri 	 8c 	 18%
02:00Fri 	 8c 	 16%
03:00Fri 	 8c 	 14%
04:00Fri 	 8c 	 12%
05:00Fri 	 8c 	 11%

# /home/pi/Documents/bbc-weather-predictions/data/Sep23Wed/bbcweather_Wednesday23rdSeptember_2020-09-23_1000.txt
# time 	 temp 	 rain
10:00Wed 	 15c 	 96%
11:00Wed 	 15c 	 84%
12:00Wed 	 15c 	 54%
13:00Wed 	 15c 	 40%
14:00Wed 	 15c 	 30%
15:00Wed 	 16c 	 23%
16:00Wed 	 16c 	 19%
17:00Wed 	 15c 	 22%
18:00Wed 	 14c 	 28%
19:00Wed 	 12c 	 27%
20:00Wed 	 12c 	 24%
21:00Wed 	 11c 	 22%
22:00Wed 	 10c 	 19%
23:00Wed 	 10c 	 17%
00:00Thu 	 10c 	 19%
01:00Thu 	 10c 	 21%
02:00Thu 	 10c 	 32%
03:00Thu 	 10c 	 56%
04:00Thu 	 10c 	 80%
05:00Thu 	 10c 	 88%
06:00Thu 	 10c 	 86%
07:00Thu 	 10c 	 79%
08:00Thu 	 10c 	 67%
09:00Thu 	 10c 	 53%
10:00Thu 	 11c 	 41%
11:00Thu 	 11c 	 36%
12:00Thu 	 12c 	 34%
13:00Thu 	 13c 	 30%
14:00Thu 	 13c 	 31%
15:00Thu 	 13c 	 36%
16:00Thu 	 13c 	 38%
17:00Thu 	 12c 	 41%
18:00Thu 	 11c 	 47%
19:00Thu 	 10c 	 48%
20:00Thu 	 10c 	 40%
21:00Thu 	 9c 	 31%
22:00Thu 	 9c 	 22%
23:00Thu 	 8c 	 17%
00:00Fri 	 8c 	 18%
01:00Fri 	 8c 	 18%
02:00Fri 	 8c 	 16%
03:00Fri 	 8c 	 14%
04:00Fri 	 8c 	 12%
05:00Fri 	 8c 	 11%

# /home/pi/Documents/bbc-weather-predictions/data/Sep23Wed/bbcweather_Wednesday23rdSeptember_2020-09-23_1015.txt
# time 	 temp 	 rain
11:00Wed 	 15c 	 84%
12:00Wed 	 15c 	 54%
13:00Wed 	 15c 	 40%
14:00Wed 	 15c 	 30%
15:00Wed 	 16c 	 23%
16:00Wed 	 16c 	 19%
17:00Wed 	 15c 	 22%
18:00Wed 	 14c 	 28%
19:00Wed 	 12c 	 27%
20:00Wed 	 12c 	 24%
21:00Wed 	 11c 	 22%
22:00Wed 	 10c 	 19%
23:00Wed 	 10c 	 17%
00:00Thu 	 10c 	 19%
01:00Thu 	 10c 	 21%
02:00Thu 	 10c 	 32%
03:00Thu 	 10c 	 56%
04:00Thu 	 10c 	 80%
05:00Thu 	 10c 	 88%
06:00Thu 	 10c 	 86%
07:00Thu 	 10c 	 79%
08:00Thu 	 10c 	 67%
09:00Thu 	 10c 	 53%
10:00Thu 	 11c 	 41%
11:00Thu 	 11c 	 36%
12:00Thu 	 12c 	 34%
13:00Thu 	 13c 	 30%
14:00Thu 	 13c 	 31%
15:00Thu 	 13c 	 36%
16:00Thu 	 13c 	 38%
17:00Thu 	 12c 	 41%
18:00Thu 	 11c 	 47%
19:00Thu 	 10c 	 48%
20:00Thu 	 10c 	 40%
21:00Thu 	 9c 	 31%
22:00Thu 	 9c 	 22%
23:00Thu 	 8c 	 17%
00:00Fri 	 8c 	 18%
01:00Fri 	 8c 	 18%
02:00Fri 	 8c 	 16%
03:00Fri 	 8c 	 14%
04:00Fri 	 8c 	 12%
05:00Fri 	 8c 	 11%

# /home/pi/Documents/bbc-weather-predictions/data/Sep23Wed/bbcweather_Wednesday23rdSeptember_2020-09-23_1030.txt
# time 	 temp 	 rain
11:00Wed 	 15c 	 100%
12:00Wed 	 15c 	 97%
13:00Wed 	 15c 	 70%
14:00Wed 	 15c 	 30%
15:00Wed 	 16c 	 24%
16:00Wed 	 16c 	 19%
17:00Wed 	 15c 	 22%
18:00Wed 	 14c 	 28%
19:00Wed 	 12c 	 27%
20:00Wed 	 12c 	 24%
21:00Wed 	 11c 	 22%
22:00Wed 	 10c 	 19%
23:00Wed 	 10c 	 17%
00:00Thu 	 10c 	 19%
01:00Thu 	 10c 	 21%
02:00Thu 	 10c 	 32%
03:00Thu 	 10c 	 56%
04:00Thu 	 10c 	 80%
05:00Thu 	 10c 	 88%
06:00Thu 	 10c 	 86%
07:00Thu 	 10c 	 79%
08:00Thu 	 10c 	 67%
09:00Thu 	 10c 	 53%
10:00Thu 	 11c 	 41%
11:00Thu 	 11c 	 36%
12:00Thu 	 12c 	 34%
13:00Thu 	 13c 	 30%
14:00Thu 	 13c 	 31%
15:00Thu 	 13c 	 36%
16:00Thu 	 13c 	 38%
17:00Thu 	 12c 	 41%
18:00Thu 	 11c 	 47%
19:00Thu 	 10c 	 48%
20:00Thu 	 10c 	 40%
21:00Thu 	 9c 	 31%
22:00Thu 	 9c 	 22%
23:00Thu 	 8c 	 17%
00:00Fri 	 8c 	 18%
01:00Fri 	 8c 	 18%
02:00Fri 	 8c 	 16%
03:00Fri 	 8c 	 14%
04:00Fri 	 8c 	 12%
05:00Fri 	 8c 	 11%

# /home/pi/Documents/bbc-weather-predictions/data/Sep23Wed/bbcweather_Wednesday23rdSeptember_2020-09-23_1045.txt
# time 	 temp 	 rain
11:00Wed 	 15c 	 100%
12:00Wed 	 15c 	 97%
13:00Wed 	 15c 	 70%
14:00Wed 	 15c 	 30%
15:00Wed 	 16c 	 24%
16:00Wed 	 16c 	 19%
17:00Wed 	 15c 	 22%
18:00Wed 	 14c 	 28%
19:00Wed 	 12c 	 27%
20:00Wed 	 12c 	 24%
21:00Wed 	 11c 	 22%
22:00Wed 	 10c 	 19%
23:00Wed 	 10c 	 17%
00:00Thu 	 10c 	 19%
01:00Thu 	 10c 	 21%
02:00Thu 	 10c 	 32%
03:00Thu 	 10c 	 56%
04:00Thu 	 10c 	 80%
05:00Thu 	 10c 	 88%
06:00Thu 	 10c 	 86%
07:00Thu 	 10c 	 79%
08:00Thu 	 10c 	 67%
09:00Thu 	 10c 	 53%
10:00Thu 	 11c 	 41%
11:00Thu 	 11c 	 36%
12:00Thu 	 12c 	 34%
13:00Thu 	 13c 	 30%
14:00Thu 	 13c 	 31%
15:00Thu 	 13c 	 36%
16:00Thu 	 13c 	 38%
17:00Thu 	 12c 	 41%
18:00Thu 	 11c 	 47%
19:00Thu 	 10c 	 48%
20:00Thu 	 10c 	 40%
21:00Thu 	 9c 	 31%
22:00Thu 	 9c 	 22%
23:00Thu 	 8c 	 17%
00:00Fri 	 8c 	 18%
01:00Fri 	 8c 	 18%
02:00Fri 	 8c 	 16%
03:00Fri 	 8c 	 14%
04:00Fri 	 8c 	 12%
05:00Fri 	 8c 	 11%

# /home/pi/Documents/bbc-weather-predictions/data/Sep23Wed/bbcweather_Wednesday23rdSeptember_2020-09-23_1100.txt
# time 	 temp 	 rain
11:00Wed 	 15c 	 100%
12:00Wed 	 15c 	 97%
13:00Wed 	 15c 	 70%
14:00Wed 	 15c 	 30%
15:00Wed 	 16c 	 24%
16:00Wed 	 16c 	 19%
17:00Wed 	 15c 	 22%
18:00Wed 	 14c 	 28%
19:00Wed 	 12c 	 27%
20:00Wed 	 12c 	 24%
21:00Wed 	 11c 	 22%
22:00Wed 	 10c 	 19%
23:00Wed 	 10c 	 17%
00:00Thu 	 10c 	 19%
01:00Thu 	 10c 	 21%
02:00Thu 	 10c 	 32%
03:00Thu 	 10c 	 56%
04:00Thu 	 10c 	 80%
05:00Thu 	 10c 	 88%
06:00Thu 	 10c 	 86%
07:00Thu 	 10c 	 79%
08:00Thu 	 10c 	 67%
09:00Thu 	 10c 	 53%
10:00Thu 	 11c 	 41%
11:00Thu 	 11c 	 36%
12:00Thu 	 12c 	 34%
13:00Thu 	 13c 	 30%
14:00Thu 	 13c 	 31%
15:00Thu 	 13c 	 36%
16:00Thu 	 13c 	 38%
17:00Thu 	 12c 	 41%
18:00Thu 	 11c 	 47%
19:00Thu 	 10c 	 48%
20:00Thu 	 10c 	 40%
21:00Thu 	 9c 	 31%
22:00Thu 	 9c 	 22%
23:00Thu 	 8c 	 17%
00:00Fri 	 8c 	 18%
01:00Fri 	 8c 	 18%
02:00Fri 	 8c 	 16%
03:00Fri 	 8c 	 14%
04:00Fri 	 8c 	 12%
05:00Fri 	 8c 	 11%

# /home/pi/Documents/bbc-weather-predictions/data/Sep23Wed/bbcweather_Wednesday23rdSeptember_2020-09-23_1115.txt
# time 	 temp 	 rain
12:00Wed 	 15c 	 97%
13:00Wed 	 15c 	 70%
14:00Wed 	 15c 	 30%
15:00Wed 	 16c 	 24%
16:00Wed 	 16c 	 19%
17:00Wed 	 15c 	 22%
18:00Wed 	 14c 	 28%
19:00Wed 	 12c 	 27%
20:00Wed 	 12c 	 24%
21:00Wed 	 11c 	 22%
22:00Wed 	 10c 	 19%
23:00Wed 	 10c 	 17%
00:00Thu 	 10c 	 19%
01:00Thu 	 10c 	 21%
02:00Thu 	 10c 	 32%
03:00Thu 	 10c 	 56%
04:00Thu 	 10c 	 80%
05:00Thu 	 10c 	 88%
06:00Thu 	 10c 	 86%
07:00Thu 	 10c 	 79%
08:00Thu 	 10c 	 67%
09:00Thu 	 10c 	 53%
10:00Thu 	 11c 	 41%
11:00Thu 	 11c 	 36%
12:00Thu 	 12c 	 34%
13:00Thu 	 13c 	 30%
14:00Thu 	 13c 	 31%
15:00Thu 	 13c 	 36%
16:00Thu 	 13c 	 38%
17:00Thu 	 12c 	 41%
18:00Thu 	 11c 	 47%
19:00Thu 	 10c 	 48%
20:00Thu 	 10c 	 40%
21:00Thu 	 9c 	 31%
22:00Thu 	 9c 	 22%
23:00Thu 	 8c 	 17%
00:00Fri 	 8c 	 18%
01:00Fri 	 8c 	 18%
02:00Fri 	 8c 	 16%
03:00Fri 	 8c 	 14%
04:00Fri 	 8c 	 12%
05:00Fri 	 8c 	 11%

# /home/pi/Documents/bbc-weather-predictions/data/Sep23Wed/bbcweather_Wednesday23rdSeptember_2020-09-23_1130.txt
# time 	 temp 	 rain
12:00Wed 	 15c 	 97%
13:00Wed 	 15c 	 70%
14:00Wed 	 15c 	 30%
15:00Wed 	 16c 	 24%
16:00Wed 	 16c 	 19%
17:00Wed 	 15c 	 22%
18:00Wed 	 14c 	 28%
19:00Wed 	 12c 	 27%
20:00Wed 	 12c 	 24%
21:00Wed 	 11c 	 22%
22:00Wed 	 10c 	 19%
23:00Wed 	 10c 	 17%
00:00Thu 	 10c 	 19%
01:00Thu 	 10c 	 21%
02:00Thu 	 10c 	 32%
03:00Thu 	 10c 	 56%
04:00Thu 	 10c 	 80%
05:00Thu 	 10c 	 88%
06:00Thu 	 10c 	 86%
07:00Thu 	 10c 	 79%
08:00Thu 	 10c 	 67%
09:00Thu 	 10c 	 53%
10:00Thu 	 11c 	 41%
11:00Thu 	 11c 	 36%
12:00Thu 	 12c 	 34%
13:00Thu 	 13c 	 30%
14:00Thu 	 13c 	 31%
15:00Thu 	 13c 	 36%
16:00Thu 	 13c 	 38%
17:00Thu 	 12c 	 41%
18:00Thu 	 11c 	 47%
19:00Thu 	 10c 	 48%
20:00Thu 	 10c 	 40%
21:00Thu 	 9c 	 31%
22:00Thu 	 9c 	 22%
23:00Thu 	 8c 	 17%
00:00Fri 	 8c 	 18%
01:00Fri 	 8c 	 18%
02:00Fri 	 8c 	 16%
03:00Fri 	 8c 	 14%
04:00Fri 	 8c 	 12%
05:00Fri 	 8c 	 11%

# /home/pi/Documents/bbc-weather-predictions/data/Sep23Wed/bbcweather_Wednesday23rdSeptember_2020-09-23_1145.txt
# time 	 temp 	 rain
12:00Wed 	 15c 	 89%
13:00Wed 	 15c 	 73%
14:00Wed 	 15c 	 30%
15:00Wed 	 16c 	 23%
16:00Wed 	 16c 	 19%
17:00Wed 	 15c 	 22%
18:00Wed 	 14c 	 28%
19:00Wed 	 12c 	 27%
20:00Wed 	 12c 	 24%
21:00Wed 	 11c 	 22%
22:00Wed 	 10c 	 19%
23:00Wed 	 10c 	 17%
00:00Thu 	 10c 	 19%
01:00Thu 	 10c 	 21%
02:00Thu 	 10c 	 32%
03:00Thu 	 10c 	 56%
04:00Thu 	 10c 	 80%
05:00Thu 	 10c 	 88%
06:00Thu 	 10c 	 86%
07:00Thu 	 10c 	 79%
08:00Thu 	 10c 	 67%
09:00Thu 	 10c 	 53%
10:00Thu 	 11c 	 41%
11:00Thu 	 11c 	 36%
12:00Thu 	 12c 	 34%
13:00Thu 	 13c 	 30%
14:00Thu 	 13c 	 31%
15:00Thu 	 13c 	 36%
16:00Thu 	 13c 	 38%
17:00Thu 	 12c 	 41%
18:00Thu 	 11c 	 47%
19:00Thu 	 10c 	 48%
20:00Thu 	 10c 	 39%
21:00Thu 	 9c 	 29%
22:00Thu 	 9c 	 21%
23:00Thu 	 8c 	 16%
00:00Fri 	 8c 	 16%
01:00Fri 	 8c 	 16%
02:00Fri 	 8c 	 14%
03:00Fri 	 8c 	 12%
04:00Fri 	 8c 	 11%
05:00Fri 	 8c 	 10%

# /home/pi/Documents/bbc-weather-predictions/data/Sep23Wed/bbcweather_Wednesday23rdSeptember_2020-09-23_1200.txt
# time 	 temp 	 rain
12:00Wed 	 15c 	 89%
13:00Wed 	 15c 	 73%
14:00Wed 	 15c 	 30%
15:00Wed 	 16c 	 23%
16:00Wed 	 16c 	 19%
17:00Wed 	 15c 	 22%
18:00Wed 	 14c 	 28%
19:00Wed 	 12c 	 27%
20:00Wed 	 12c 	 24%
21:00Wed 	 11c 	 22%
22:00Wed 	 10c 	 19%
23:00Wed 	 10c 	 17%
00:00Thu 	 10c 	 19%
01:00Thu 	 10c 	 21%
02:00Thu 	 10c 	 32%
03:00Thu 	 10c 	 56%
04:00Thu 	 10c 	 80%
05:00Thu 	 10c 	 88%
06:00Thu 	 10c 	 86%
07:00Thu 	 10c 	 79%
08:00Thu 	 10c 	 67%
09:00Thu 	 10c 	 53%
10:00Thu 	 11c 	 41%
11:00Thu 	 11c 	 36%
12:00Thu 	 12c 	 34%
13:00Thu 	 13c 	 30%
14:00Thu 	 13c 	 31%
15:00Thu 	 13c 	 36%
16:00Thu 	 13c 	 38%
17:00Thu 	 12c 	 41%
18:00Thu 	 11c 	 47%
19:00Thu 	 10c 	 48%
20:00Thu 	 10c 	 39%
21:00Thu 	 9c 	 29%
22:00Thu 	 9c 	 21%
23:00Thu 	 8c 	 16%
00:00Fri 	 8c 	 16%
01:00Fri 	 8c 	 16%
02:00Fri 	 8c 	 14%
03:00Fri 	 8c 	 12%
04:00Fri 	 8c 	 11%
05:00Fri 	 8c 	 10%

# /home/pi/Documents/bbc-weather-predictions/data/Sep23Wed/bbcweather_Wednesday23rdSeptember_2020-09-23_1215.txt
# time 	 temp 	 rain
13:00Wed 	 15c 	 73%
14:00Wed 	 15c 	 30%
15:00Wed 	 16c 	 23%
16:00Wed 	 16c 	 19%
17:00Wed 	 15c 	 22%
18:00Wed 	 14c 	 28%
19:00Wed 	 12c 	 27%
20:00Wed 	 12c 	 24%
21:00Wed 	 11c 	 22%
22:00Wed 	 10c 	 19%
23:00Wed 	 10c 	 17%
00:00Thu 	 10c 	 19%
01:00Thu 	 10c 	 21%
02:00Thu 	 10c 	 32%
03:00Thu 	 10c 	 56%
04:00Thu 	 10c 	 80%
05:00Thu 	 10c 	 88%
06:00Thu 	 10c 	 86%
07:00Thu 	 10c 	 79%
08:00Thu 	 10c 	 67%
09:00Thu 	 10c 	 53%
10:00Thu 	 11c 	 41%
11:00Thu 	 11c 	 36%
12:00Thu 	 12c 	 34%
13:00Thu 	 13c 	 30%
14:00Thu 	 13c 	 31%
15:00Thu 	 13c 	 36%
16:00Thu 	 13c 	 38%
17:00Thu 	 12c 	 41%
18:00Thu 	 11c 	 47%
19:00Thu 	 10c 	 48%
20:00Thu 	 10c 	 39%
21:00Thu 	 9c 	 29%
22:00Thu 	 9c 	 21%
23:00Thu 	 8c 	 16%
00:00Fri 	 8c 	 16%
01:00Fri 	 8c 	 16%
02:00Fri 	 8c 	 14%
03:00Fri 	 8c 	 12%
04:00Fri 	 8c 	 11%
05:00Fri 	 8c 	 10%

# /home/pi/Documents/bbc-weather-predictions/data/Sep23Wed/bbcweather_Wednesday23rdSeptember_2020-09-23_1230.txt
# time 	 temp 	 rain
13:00Wed 	 15c 	 73%
14:00Wed 	 15c 	 30%
15:00Wed 	 16c 	 23%
16:00Wed 	 16c 	 19%
17:00Wed 	 15c 	 22%
18:00Wed 	 14c 	 28%
19:00Wed 	 12c 	 27%
20:00Wed 	 12c 	 24%
21:00Wed 	 11c 	 22%
22:00Wed 	 10c 	 19%
23:00Wed 	 10c 	 17%
00:00Thu 	 10c 	 19%
01:00Thu 	 10c 	 21%
02:00Thu 	 10c 	 32%
03:00Thu 	 10c 	 56%
04:00Thu 	 10c 	 80%
05:00Thu 	 10c 	 88%
06:00Thu 	 10c 	 86%
07:00Thu 	 10c 	 79%
08:00Thu 	 10c 	 67%
09:00Thu 	 10c 	 53%
10:00Thu 	 11c 	 41%
11:00Thu 	 11c 	 36%
12:00Thu 	 12c 	 34%
13:00Thu 	 13c 	 30%
14:00Thu 	 13c 	 31%
15:00Thu 	 13c 	 36%
16:00Thu 	 13c 	 38%
17:00Thu 	 12c 	 41%
18:00Thu 	 11c 	 47%
19:00Thu 	 10c 	 48%
20:00Thu 	 10c 	 39%
21:00Thu 	 9c 	 29%
22:00Thu 	 9c 	 21%
23:00Thu 	 8c 	 16%
00:00Fri 	 8c 	 16%
01:00Fri 	 8c 	 16%
02:00Fri 	 8c 	 14%
03:00Fri 	 8c 	 12%
04:00Fri 	 8c 	 11%
05:00Fri 	 8c 	 10%

# /home/pi/Documents/bbc-weather-predictions/data/Sep23Wed/bbcweather_Wednesday23rdSeptember_2020-09-23_1245.txt
# time 	 temp 	 rain
13:00Wed 	 15c 	 98%
14:00Wed 	 15c 	 65%
15:00Wed 	 16c 	 23%
16:00Wed 	 16c 	 19%
17:00Wed 	 15c 	 22%
18:00Wed 	 14c 	 28%
19:00Wed 	 12c 	 27%
20:00Wed 	 12c 	 24%
21:00Wed 	 11c 	 22%
22:00Wed 	 10c 	 19%
23:00Wed 	 10c 	 17%
00:00Thu 	 10c 	 19%
01:00Thu 	 10c 	 21%
02:00Thu 	 10c 	 32%
03:00Thu 	 10c 	 56%
04:00Thu 	 10c 	 80%
05:00Thu 	 10c 	 88%
06:00Thu 	 10c 	 86%
07:00Thu 	 10c 	 79%
08:00Thu 	 10c 	 67%
09:00Thu 	 10c 	 53%
10:00Thu 	 11c 	 41%
11:00Thu 	 11c 	 36%
12:00Thu 	 12c 	 34%
13:00Thu 	 13c 	 30%
14:00Thu 	 13c 	 31%
15:00Thu 	 13c 	 36%
16:00Thu 	 13c 	 38%
17:00Thu 	 12c 	 41%
18:00Thu 	 11c 	 47%
19:00Thu 	 10c 	 48%
20:00Thu 	 10c 	 39%
21:00Thu 	 9c 	 29%
22:00Thu 	 9c 	 21%
23:00Thu 	 8c 	 16%
00:00Fri 	 8c 	 16%
01:00Fri 	 8c 	 16%
02:00Fri 	 8c 	 14%
03:00Fri 	 8c 	 12%
04:00Fri 	 8c 	 11%
05:00Fri 	 8c 	 10%

# /home/pi/Documents/bbc-weather-predictions/data/Sep23Wed/bbcweather_Wednesday23rdSeptember_2020-09-23_1300.txt
# time 	 temp 	 rain
13:00Wed 	 15c 	 98%
14:00Wed 	 15c 	 65%
15:00Wed 	 16c 	 23%
16:00Wed 	 16c 	 19%
17:00Wed 	 15c 	 22%
18:00Wed 	 14c 	 28%
19:00Wed 	 12c 	 27%
20:00Wed 	 12c 	 24%
21:00Wed 	 11c 	 22%
22:00Wed 	 10c 	 19%
23:00Wed 	 10c 	 17%
00:00Thu 	 10c 	 19%
01:00Thu 	 10c 	 21%
02:00Thu 	 10c 	 32%
03:00Thu 	 10c 	 56%
04:00Thu 	 10c 	 80%
05:00Thu 	 10c 	 88%
06:00Thu 	 10c 	 86%
07:00Thu 	 10c 	 79%
08:00Thu 	 10c 	 67%
09:00Thu 	 10c 	 53%
10:00Thu 	 11c 	 41%
11:00Thu 	 11c 	 36%
12:00Thu 	 12c 	 34%
13:00Thu 	 13c 	 30%
14:00Thu 	 13c 	 31%
15:00Thu 	 13c 	 36%
16:00Thu 	 13c 	 38%
17:00Thu 	 12c 	 41%
18:00Thu 	 11c 	 47%
19:00Thu 	 10c 	 48%
20:00Thu 	 10c 	 39%
21:00Thu 	 9c 	 29%
22:00Thu 	 9c 	 21%
23:00Thu 	 8c 	 16%
00:00Fri 	 8c 	 16%
01:00Fri 	 8c 	 16%
02:00Fri 	 8c 	 14%
03:00Fri 	 8c 	 12%
04:00Fri 	 8c 	 11%
05:00Fri 	 8c 	 10%

# /home/pi/Documents/bbc-weather-predictions/data/Sep23Wed/bbcweather_Wednesday23rdSeptember_2020-09-23_1315.txt
# time 	 temp 	 rain
14:00Wed 	 15c 	 65%
15:00Wed 	 16c 	 23%
16:00Wed 	 16c 	 19%
17:00Wed 	 15c 	 22%
18:00Wed 	 14c 	 28%
19:00Wed 	 12c 	 27%
20:00Wed 	 12c 	 24%
21:00Wed 	 11c 	 22%
22:00Wed 	 10c 	 19%
23:00Wed 	 10c 	 17%
00:00Thu 	 10c 	 19%
01:00Thu 	 10c 	 21%
02:00Thu 	 10c 	 32%
03:00Thu 	 10c 	 56%
04:00Thu 	 10c 	 80%
05:00Thu 	 10c 	 88%
06:00Thu 	 10c 	 86%
07:00Thu 	 10c 	 79%
08:00Thu 	 10c 	 67%
09:00Thu 	 10c 	 53%
10:00Thu 	 11c 	 41%
11:00Thu 	 11c 	 36%
12:00Thu 	 12c 	 34%
13:00Thu 	 13c 	 30%
14:00Thu 	 13c 	 31%
15:00Thu 	 13c 	 36%
16:00Thu 	 13c 	 38%
17:00Thu 	 12c 	 41%
18:00Thu 	 11c 	 47%
19:00Thu 	 10c 	 48%
20:00Thu 	 10c 	 39%
21:00Thu 	 9c 	 29%
22:00Thu 	 9c 	 21%
23:00Thu 	 8c 	 16%
00:00Fri 	 8c 	 16%
01:00Fri 	 8c 	 16%
02:00Fri 	 8c 	 14%
03:00Fri 	 8c 	 12%
04:00Fri 	 8c 	 11%
05:00Fri 	 8c 	 10%

# /home/pi/Documents/bbc-weather-predictions/data/Sep23Wed/bbcweather_Wednesday23rdSeptember_2020-09-23_1330.txt
# time 	 temp 	 rain
14:00Wed 	 15c 	 90%
15:00Wed 	 15c 	 81%
16:00Wed 	 16c 	 19%
17:00Wed 	 15c 	 21%
18:00Wed 	 14c 	 27%
19:00Wed 	 12c 	 27%
20:00Wed 	 12c 	 24%
21:00Wed 	 11c 	 22%
22:00Wed 	 10c 	 19%
23:00Wed 	 10c 	 17%
00:00Thu 	 10c 	 19%
01:00Thu 	 10c 	 21%
02:00Thu 	 10c 	 32%
03:00Thu 	 10c 	 56%
04:00Thu 	 10c 	 80%
05:00Thu 	 10c 	 88%
06:00Thu 	 10c 	 86%
07:00Thu 	 10c 	 79%
08:00Thu 	 10c 	 67%
09:00Thu 	 10c 	 53%
10:00Thu 	 11c 	 41%
11:00Thu 	 11c 	 36%
12:00Thu 	 12c 	 34%
13:00Thu 	 13c 	 30%
14:00Thu 	 13c 	 31%
15:00Thu 	 13c 	 36%
16:00Thu 	 13c 	 38%
17:00Thu 	 12c 	 41%
18:00Thu 	 11c 	 47%
19:00Thu 	 10c 	 48%
20:00Thu 	 10c 	 39%
21:00Thu 	 9c 	 29%
22:00Thu 	 9c 	 21%
23:00Thu 	 8c 	 16%
00:00Fri 	 8c 	 16%
01:00Fri 	 8c 	 16%
02:00Fri 	 8c 	 14%
03:00Fri 	 8c 	 12%
04:00Fri 	 8c 	 11%
05:00Fri 	 8c 	 10%

# /home/pi/Documents/bbc-weather-predictions/data/Sep23Wed/bbcweather_Wednesday23rdSeptember_2020-09-23_1345.txt
# time 	 temp 	 rain
14:00Wed 	 15c 	 90%
15:00Wed 	 15c 	 81%
16:00Wed 	 16c 	 19%
17:00Wed 	 15c 	 21%
18:00Wed 	 14c 	 27%
19:00Wed 	 12c 	 27%
20:00Wed 	 12c 	 24%
21:00Wed 	 11c 	 22%
22:00Wed 	 10c 	 19%
23:00Wed 	 10c 	 17%
00:00Thu 	 10c 	 19%
01:00Thu 	 10c 	 21%
02:00Thu 	 10c 	 32%
03:00Thu 	 10c 	 56%
04:00Thu 	 10c 	 80%
05:00Thu 	 10c 	 88%
06:00Thu 	 10c 	 86%
07:00Thu 	 10c 	 79%
08:00Thu 	 10c 	 67%
09:00Thu 	 10c 	 53%
10:00Thu 	 11c 	 41%
11:00Thu 	 11c 	 36%
12:00Thu 	 12c 	 34%
13:00Thu 	 13c 	 30%
14:00Thu 	 13c 	 31%
15:00Thu 	 13c 	 36%
16:00Thu 	 13c 	 38%
17:00Thu 	 12c 	 41%
18:00Thu 	 11c 	 47%
19:00Thu 	 10c 	 48%
20:00Thu 	 10c 	 39%
21:00Thu 	 9c 	 29%
22:00Thu 	 9c 	 21%
23:00Thu 	 8c 	 16%
00:00Fri 	 8c 	 16%
01:00Fri 	 8c 	 16%
02:00Fri 	 8c 	 14%
03:00Fri 	 8c 	 12%
04:00Fri 	 8c 	 11%
05:00Fri 	 8c 	 10%

# /home/pi/Documents/bbc-weather-predictions/data/Sep23Wed/bbcweather_Wednesday23rdSeptember_2020-09-23_1400.txt
# time 	 temp 	 rain
14:00Wed 	 15c 	 90%
15:00Wed 	 15c 	 81%
16:00Wed 	 16c 	 19%
17:00Wed 	 15c 	 21%
18:00Wed 	 14c 	 27%
19:00Wed 	 12c 	 27%
20:00Wed 	 12c 	 24%
21:00Wed 	 11c 	 22%
22:00Wed 	 10c 	 19%
23:00Wed 	 10c 	 17%
00:00Thu 	 10c 	 19%
01:00Thu 	 10c 	 21%
02:00Thu 	 10c 	 32%
03:00Thu 	 10c 	 56%
04:00Thu 	 10c 	 80%
05:00Thu 	 10c 	 88%
06:00Thu 	 10c 	 86%
07:00Thu 	 10c 	 79%
08:00Thu 	 10c 	 67%
09:00Thu 	 10c 	 53%
10:00Thu 	 11c 	 41%
11:00Thu 	 11c 	 36%
12:00Thu 	 12c 	 34%
13:00Thu 	 13c 	 30%
14:00Thu 	 13c 	 31%
15:00Thu 	 13c 	 36%
16:00Thu 	 13c 	 38%
17:00Thu 	 12c 	 41%
18:00Thu 	 11c 	 47%
19:00Thu 	 10c 	 48%
20:00Thu 	 10c 	 39%
21:00Thu 	 9c 	 29%
22:00Thu 	 9c 	 21%
23:00Thu 	 8c 	 16%
00:00Fri 	 8c 	 16%
01:00Fri 	 8c 	 16%
02:00Fri 	 8c 	 14%
03:00Fri 	 8c 	 12%
04:00Fri 	 8c 	 11%
05:00Fri 	 8c 	 10%

# /home/pi/Documents/bbc-weather-predictions/data/Sep23Wed/bbcweather_Wednesday23rdSeptember_2020-09-23_1415.txt
# time 	 temp 	 rain
15:00Wed 	 15c 	 81%
16:00Wed 	 16c 	 19%
17:00Wed 	 15c 	 21%
18:00Wed 	 14c 	 27%
19:00Wed 	 12c 	 27%
20:00Wed 	 12c 	 24%
21:00Wed 	 11c 	 22%
22:00Wed 	 10c 	 19%
23:00Wed 	 10c 	 17%
00:00Thu 	 10c 	 19%
01:00Thu 	 10c 	 21%
02:00Thu 	 10c 	 32%
03:00Thu 	 10c 	 56%
04:00Thu 	 10c 	 80%
05:00Thu 	 10c 	 88%
06:00Thu 	 10c 	 86%
07:00Thu 	 10c 	 79%
08:00Thu 	 10c 	 67%
09:00Thu 	 10c 	 53%
10:00Thu 	 11c 	 41%
11:00Thu 	 11c 	 36%
12:00Thu 	 12c 	 34%
13:00Thu 	 13c 	 30%
14:00Thu 	 13c 	 31%
15:00Thu 	 13c 	 36%
16:00Thu 	 13c 	 38%
17:00Thu 	 12c 	 41%
18:00Thu 	 11c 	 47%
19:00Thu 	 10c 	 48%
20:00Thu 	 10c 	 39%
21:00Thu 	 9c 	 29%
22:00Thu 	 9c 	 21%
23:00Thu 	 8c 	 16%
00:00Fri 	 8c 	 16%
01:00Fri 	 8c 	 16%
02:00Fri 	 8c 	 14%
03:00Fri 	 8c 	 12%
04:00Fri 	 8c 	 11%
05:00Fri 	 8c 	 10%

# /home/pi/Documents/bbc-weather-predictions/data/Sep23Wed/bbcweather_Wednesday23rdSeptember_2020-09-23_1430.txt
# time 	 temp 	 rain
15:00Wed 	 15c 	 80%
16:00Wed 	 15c 	 54%
17:00Wed 	 15c 	 28%
18:00Wed 	 13c 	 30%
19:00Wed 	 12c 	 27%
20:00Wed 	 12c 	 24%
21:00Wed 	 11c 	 22%
22:00Wed 	 10c 	 19%
23:00Wed 	 10c 	 17%
00:00Thu 	 10c 	 19%
01:00Thu 	 10c 	 21%
02:00Thu 	 10c 	 32%
03:00Thu 	 10c 	 56%
04:00Thu 	 10c 	 80%
05:00Thu 	 10c 	 88%
06:00Thu 	 10c 	 86%
07:00Thu 	 10c 	 79%
08:00Thu 	 10c 	 67%
09:00Thu 	 10c 	 53%
10:00Thu 	 11c 	 41%
11:00Thu 	 11c 	 36%
12:00Thu 	 12c 	 34%
13:00Thu 	 13c 	 30%
14:00Thu 	 13c 	 31%
15:00Thu 	 13c 	 36%
16:00Thu 	 13c 	 38%
17:00Thu 	 12c 	 41%
18:00Thu 	 11c 	 47%
19:00Thu 	 10c 	 48%
20:00Thu 	 10c 	 39%
21:00Thu 	 9c 	 29%
22:00Thu 	 9c 	 21%
23:00Thu 	 8c 	 16%
00:00Fri 	 8c 	 16%
01:00Fri 	 8c 	 16%
02:00Fri 	 8c 	 14%
03:00Fri 	 8c 	 12%
04:00Fri 	 8c 	 11%
05:00Fri 	 8c 	 10%

# /home/pi/Documents/bbc-weather-predictions/data/Sep23Wed/bbcweather_Wednesday23rdSeptember_2020-09-23_1445.txt
# time 	 temp 	 rain
15:00Wed 	 15c 	 80%
16:00Wed 	 15c 	 54%
17:00Wed 	 15c 	 28%
18:00Wed 	 13c 	 30%
19:00Wed 	 12c 	 27%
20:00Wed 	 12c 	 24%
21:00Wed 	 11c 	 22%
22:00Wed 	 10c 	 19%
23:00Wed 	 10c 	 17%
00:00Thu 	 10c 	 19%
01:00Thu 	 10c 	 21%
02:00Thu 	 10c 	 32%
03:00Thu 	 10c 	 56%
04:00Thu 	 10c 	 80%
05:00Thu 	 10c 	 88%
06:00Thu 	 10c 	 86%
07:00Thu 	 10c 	 79%
08:00Thu 	 10c 	 67%
09:00Thu 	 10c 	 53%
10:00Thu 	 11c 	 41%
11:00Thu 	 11c 	 36%
12:00Thu 	 12c 	 34%
13:00Thu 	 13c 	 30%
14:00Thu 	 13c 	 31%
15:00Thu 	 13c 	 36%
16:00Thu 	 13c 	 38%
17:00Thu 	 12c 	 41%
18:00Thu 	 11c 	 47%
19:00Thu 	 10c 	 48%
20:00Thu 	 10c 	 39%
21:00Thu 	 9c 	 29%
22:00Thu 	 9c 	 21%
23:00Thu 	 8c 	 16%
00:00Fri 	 8c 	 16%
01:00Fri 	 8c 	 16%
02:00Fri 	 8c 	 14%
03:00Fri 	 8c 	 12%
04:00Fri 	 8c 	 11%
05:00Fri 	 8c 	 10%

# /home/pi/Documents/bbc-weather-predictions/data/Sep23Wed/bbcweather_Wednesday23rdSeptember_2020-09-23_1500.txt
# time 	 temp 	 rain
15:00Wed 	 15c 	 80%
16:00Wed 	 15c 	 54%
17:00Wed 	 15c 	 28%
18:00Wed 	 13c 	 30%
19:00Wed 	 12c 	 27%
20:00Wed 	 12c 	 24%
21:00Wed 	 11c 	 22%
22:00Wed 	 10c 	 19%
23:00Wed 	 10c 	 17%
00:00Thu 	 10c 	 19%
01:00Thu 	 10c 	 21%
02:00Thu 	 10c 	 32%
03:00Thu 	 10c 	 56%
04:00Thu 	 10c 	 80%
05:00Thu 	 10c 	 88%
06:00Thu 	 10c 	 86%
07:00Thu 	 10c 	 79%
08:00Thu 	 10c 	 67%
09:00Thu 	 10c 	 53%
10:00Thu 	 11c 	 41%
11:00Thu 	 11c 	 36%
12:00Thu 	 12c 	 34%
13:00Thu 	 13c 	 30%
14:00Thu 	 13c 	 31%
15:00Thu 	 13c 	 36%
16:00Thu 	 13c 	 38%
17:00Thu 	 12c 	 41%
18:00Thu 	 11c 	 47%
19:00Thu 	 10c 	 48%
20:00Thu 	 10c 	 39%
21:00Thu 	 9c 	 29%
22:00Thu 	 9c 	 21%
23:00Thu 	 8c 	 16%
00:00Fri 	 8c 	 16%
01:00Fri 	 8c 	 16%
02:00Fri 	 8c 	 14%
03:00Fri 	 8c 	 12%
04:00Fri 	 8c 	 11%
05:00Fri 	 8c 	 10%

# /home/pi/Documents/bbc-weather-predictions/data/Sep23Wed/bbcweather_Wednesday23rdSeptember_2020-09-23_1515.txt
# time 	 temp 	 rain
16:00Wed 	 15c 	 54%
17:00Wed 	 15c 	 28%
18:00Wed 	 13c 	 30%
19:00Wed 	 12c 	 27%
20:00Wed 	 12c 	 24%
21:00Wed 	 11c 	 22%
22:00Wed 	 10c 	 19%
23:00Wed 	 10c 	 17%
00:00Thu 	 10c 	 19%
01:00Thu 	 10c 	 21%
02:00Thu 	 10c 	 32%
03:00Thu 	 10c 	 56%
04:00Thu 	 10c 	 80%
05:00Thu 	 10c 	 88%
06:00Thu 	 10c 	 86%
07:00Thu 	 10c 	 79%
08:00Thu 	 10c 	 67%
09:00Thu 	 10c 	 53%
10:00Thu 	 11c 	 41%
11:00Thu 	 11c 	 36%
12:00Thu 	 12c 	 34%
13:00Thu 	 13c 	 30%
14:00Thu 	 13c 	 31%
15:00Thu 	 13c 	 36%
16:00Thu 	 13c 	 38%
17:00Thu 	 12c 	 41%
18:00Thu 	 11c 	 47%
19:00Thu 	 10c 	 48%
20:00Thu 	 10c 	 39%
21:00Thu 	 9c 	 29%
22:00Thu 	 9c 	 21%
23:00Thu 	 8c 	 16%
00:00Fri 	 8c 	 16%
01:00Fri 	 8c 	 16%
02:00Fri 	 8c 	 14%
03:00Fri 	 8c 	 12%
04:00Fri 	 8c 	 11%
05:00Fri 	 8c 	 10%

# /home/pi/Documents/bbc-weather-predictions/data/Sep23Wed/bbcweather_Wednesday23rdSeptember_2020-09-23_1530.txt
# time 	 temp 	 rain
16:00Wed 	 15c 	 28%
17:00Wed 	 14c 	 7%
18:00Wed 	 13c 	 29%
19:00Wed 	 12c 	 26%
20:00Wed 	 11c 	 24%
21:00Wed 	 11c 	 22%
22:00Wed 	 10c 	 19%
23:00Wed 	 10c 	 17%
00:00Thu 	 10c 	 19%
01:00Thu 	 10c 	 21%
02:00Thu 	 10c 	 32%
03:00Thu 	 10c 	 56%
04:00Thu 	 10c 	 80%
05:00Thu 	 10c 	 88%
06:00Thu 	 10c 	 86%
07:00Thu 	 10c 	 79%
08:00Thu 	 10c 	 67%
09:00Thu 	 10c 	 53%
10:00Thu 	 11c 	 41%
11:00Thu 	 11c 	 36%
12:00Thu 	 12c 	 34%
13:00Thu 	 13c 	 30%
14:00Thu 	 13c 	 31%
15:00Thu 	 13c 	 36%
16:00Thu 	 13c 	 38%
17:00Thu 	 12c 	 41%
18:00Thu 	 11c 	 47%
19:00Thu 	 10c 	 48%
20:00Thu 	 10c 	 39%
21:00Thu 	 9c 	 29%
22:00Thu 	 9c 	 21%
23:00Thu 	 8c 	 16%
00:00Fri 	 8c 	 16%
01:00Fri 	 8c 	 16%
02:00Fri 	 8c 	 14%
03:00Fri 	 8c 	 12%
04:00Fri 	 8c 	 11%
05:00Fri 	 8c 	 10%

# /home/pi/Documents/bbc-weather-predictions/data/Sep23Wed/bbcweather_Wednesday23rdSeptember_2020-09-23_1545.txt
# time 	 temp 	 rain
16:00Wed 	 15c 	 28%
17:00Wed 	 14c 	 7%
18:00Wed 	 13c 	 29%
19:00Wed 	 12c 	 26%
20:00Wed 	 11c 	 24%
21:00Wed 	 11c 	 22%
22:00Wed 	 10c 	 19%
23:00Wed 	 10c 	 17%
00:00Thu 	 10c 	 19%
01:00Thu 	 10c 	 21%
02:00Thu 	 10c 	 32%
03:00Thu 	 10c 	 56%
04:00Thu 	 10c 	 80%
05:00Thu 	 10c 	 88%
06:00Thu 	 10c 	 86%
07:00Thu 	 10c 	 79%
08:00Thu 	 10c 	 67%
09:00Thu 	 10c 	 53%
10:00Thu 	 11c 	 41%
11:00Thu 	 11c 	 36%
12:00Thu 	 12c 	 34%
13:00Thu 	 13c 	 30%
14:00Thu 	 13c 	 31%
15:00Thu 	 13c 	 36%
16:00Thu 	 13c 	 38%
17:00Thu 	 12c 	 41%
18:00Thu 	 11c 	 47%
19:00Thu 	 10c 	 48%
20:00Thu 	 10c 	 39%
21:00Thu 	 9c 	 29%
22:00Thu 	 9c 	 21%
23:00Thu 	 8c 	 16%
00:00Fri 	 8c 	 16%
01:00Fri 	 8c 	 16%
02:00Fri 	 8c 	 14%
03:00Fri 	 8c 	 12%
04:00Fri 	 8c 	 11%
05:00Fri 	 8c 	 10%

# /home/pi/Documents/bbc-weather-predictions/data/Sep23Wed/bbcweather_Wednesday23rdSeptember_2020-09-23_1600.txt
# time 	 temp 	 rain
16:00Wed 	 15c 	 28%
17:00Wed 	 14c 	 7%
18:00Wed 	 13c 	 29%
19:00Wed 	 12c 	 26%
20:00Wed 	 11c 	 24%
21:00Wed 	 11c 	 22%
22:00Wed 	 10c 	 19%
23:00Wed 	 10c 	 17%
00:00Thu 	 10c 	 19%
01:00Thu 	 10c 	 21%
02:00Thu 	 10c 	 32%
03:00Thu 	 10c 	 56%
04:00Thu 	 10c 	 80%
05:00Thu 	 10c 	 88%
06:00Thu 	 10c 	 86%
07:00Thu 	 10c 	 79%
08:00Thu 	 10c 	 67%
09:00Thu 	 10c 	 53%
10:00Thu 	 11c 	 41%
11:00Thu 	 11c 	 36%
12:00Thu 	 12c 	 34%
13:00Thu 	 13c 	 30%
14:00Thu 	 13c 	 31%
15:00Thu 	 13c 	 36%
16:00Thu 	 13c 	 38%
17:00Thu 	 12c 	 41%
18:00Thu 	 11c 	 47%
19:00Thu 	 10c 	 48%
20:00Thu 	 10c 	 39%
21:00Thu 	 9c 	 29%
22:00Thu 	 9c 	 21%
23:00Thu 	 8c 	 16%
00:00Fri 	 8c 	 16%
01:00Fri 	 8c 	 16%
02:00Fri 	 8c 	 14%
03:00Fri 	 8c 	 12%
04:00Fri 	 8c 	 11%
05:00Fri 	 8c 	 10%

# /home/pi/Documents/bbc-weather-predictions/data/Sep23Wed/bbcweather_Wednesday23rdSeptember_2020-09-23_1615.txt
# time 	 temp 	 rain
17:00Wed 	 14c 	 7%
18:00Wed 	 13c 	 29%
19:00Wed 	 12c 	 26%
20:00Wed 	 11c 	 24%
21:00Wed 	 11c 	 22%
22:00Wed 	 10c 	 19%
23:00Wed 	 10c 	 17%
00:00Thu 	 10c 	 19%
01:00Thu 	 10c 	 21%
02:00Thu 	 10c 	 32%
03:00Thu 	 10c 	 56%
04:00Thu 	 10c 	 80%
05:00Thu 	 10c 	 88%
06:00Thu 	 10c 	 86%
07:00Thu 	 10c 	 79%
08:00Thu 	 10c 	 67%
09:00Thu 	 10c 	 53%
10:00Thu 	 11c 	 41%
11:00Thu 	 11c 	 36%
12:00Thu 	 12c 	 34%
13:00Thu 	 13c 	 30%
14:00Thu 	 13c 	 31%
15:00Thu 	 13c 	 36%
16:00Thu 	 13c 	 38%
17:00Thu 	 12c 	 41%
18:00Thu 	 11c 	 47%
19:00Thu 	 10c 	 48%
20:00Thu 	 10c 	 39%
21:00Thu 	 9c 	 29%
22:00Thu 	 9c 	 21%
23:00Thu 	 8c 	 16%
00:00Fri 	 8c 	 16%
01:00Fri 	 8c 	 16%
02:00Fri 	 8c 	 14%
03:00Fri 	 8c 	 12%
04:00Fri 	 8c 	 11%
05:00Fri 	 8c 	 10%

# /home/pi/Documents/bbc-weather-predictions/data/Sep23Wed/bbcweather_Wednesday23rdSeptember_2020-09-23_1630.txt
# time 	 temp 	 rain
17:00Wed 	 14c 	 4%
18:00Wed 	 13c 	 7%
19:00Wed 	 12c 	 25%
20:00Wed 	 11c 	 23%
21:00Wed 	 11c 	 22%
22:00Wed 	 10c 	 19%
23:00Wed 	 10c 	 17%
00:00Thu 	 10c 	 19%
01:00Thu 	 10c 	 21%
02:00Thu 	 10c 	 32%
03:00Thu 	 10c 	 56%
04:00Thu 	 10c 	 80%
05:00Thu 	 10c 	 88%
06:00Thu 	 10c 	 86%
07:00Thu 	 10c 	 79%
08:00Thu 	 10c 	 67%
09:00Thu 	 10c 	 53%
10:00Thu 	 11c 	 41%
11:00Thu 	 11c 	 36%
12:00Thu 	 12c 	 34%
13:00Thu 	 13c 	 30%
14:00Thu 	 13c 	 31%
15:00Thu 	 13c 	 36%
16:00Thu 	 13c 	 38%
17:00Thu 	 12c 	 41%
18:00Thu 	 11c 	 47%
19:00Thu 	 10c 	 48%
20:00Thu 	 10c 	 39%
21:00Thu 	 9c 	 29%
22:00Thu 	 9c 	 21%
23:00Thu 	 8c 	 16%
00:00Fri 	 8c 	 16%
01:00Fri 	 8c 	 16%
02:00Fri 	 8c 	 14%
03:00Fri 	 8c 	 12%
04:00Fri 	 8c 	 11%
05:00Fri 	 8c 	 10%

# /home/pi/Documents/bbc-weather-predictions/data/Sep23Wed/bbcweather_Wednesday23rdSeptember_2020-09-23_1645.txt
# time 	 temp 	 rain
17:00Wed 	 14c 	 4%
18:00Wed 	 13c 	 7%
19:00Wed 	 12c 	 25%
20:00Wed 	 11c 	 23%
21:00Wed 	 11c 	 22%
22:00Wed 	 10c 	 19%
23:00Wed 	 10c 	 17%
00:00Thu 	 10c 	 19%
01:00Thu 	 10c 	 21%
02:00Thu 	 10c 	 32%
03:00Thu 	 10c 	 56%
04:00Thu 	 10c 	 80%
05:00Thu 	 10c 	 88%
06:00Thu 	 10c 	 86%
07:00Thu 	 10c 	 79%
08:00Thu 	 10c 	 67%
09:00Thu 	 10c 	 53%
10:00Thu 	 11c 	 41%
11:00Thu 	 11c 	 36%
12:00Thu 	 12c 	 34%
13:00Thu 	 13c 	 30%
14:00Thu 	 13c 	 31%
15:00Thu 	 13c 	 36%
16:00Thu 	 13c 	 38%
17:00Thu 	 12c 	 41%
18:00Thu 	 11c 	 47%
19:00Thu 	 10c 	 48%
20:00Thu 	 10c 	 39%
21:00Thu 	 9c 	 29%
22:00Thu 	 9c 	 21%
23:00Thu 	 8c 	 16%
00:00Fri 	 8c 	 16%
01:00Fri 	 8c 	 16%
02:00Fri 	 8c 	 14%
03:00Fri 	 8c 	 12%
04:00Fri 	 8c 	 11%
05:00Fri 	 8c 	 10%

# /home/pi/Documents/bbc-weather-predictions/data/Sep23Wed/bbcweather_Wednesday23rdSeptember_2020-09-23_1700.txt
# time 	 temp 	 rain
17:00Wed 	 14c 	 4%
18:00Wed 	 13c 	 7%
19:00Wed 	 12c 	 25%
20:00Wed 	 11c 	 23%
21:00Wed 	 11c 	 22%
22:00Wed 	 10c 	 19%
23:00Wed 	 10c 	 17%
00:00Thu 	 10c 	 19%
01:00Thu 	 10c 	 21%
02:00Thu 	 10c 	 32%
03:00Thu 	 10c 	 56%
04:00Thu 	 10c 	 80%
05:00Thu 	 10c 	 88%
06:00Thu 	 10c 	 86%
07:00Thu 	 10c 	 79%
08:00Thu 	 10c 	 67%
09:00Thu 	 10c 	 53%
10:00Thu 	 11c 	 41%
11:00Thu 	 11c 	 36%
12:00Thu 	 12c 	 34%
13:00Thu 	 13c 	 30%
14:00Thu 	 13c 	 31%
15:00Thu 	 13c 	 36%
16:00Thu 	 13c 	 38%
17:00Thu 	 12c 	 41%
18:00Thu 	 11c 	 47%
19:00Thu 	 10c 	 48%
20:00Thu 	 10c 	 39%
21:00Thu 	 9c 	 29%
22:00Thu 	 9c 	 21%
23:00Thu 	 8c 	 16%
00:00Fri 	 8c 	 16%
01:00Fri 	 8c 	 16%
02:00Fri 	 8c 	 14%
03:00Fri 	 8c 	 12%
04:00Fri 	 8c 	 11%
05:00Fri 	 8c 	 10%

# /home/pi/Documents/bbc-weather-predictions/data/Sep23Wed/bbcweather_Wednesday23rdSeptember_2020-09-23_1715.txt
# time 	 temp 	 rain
18:00Wed 	 13c 	 7%
19:00Wed 	 12c 	 25%
20:00Wed 	 11c 	 23%
21:00Wed 	 11c 	 22%
22:00Wed 	 10c 	 19%
23:00Wed 	 10c 	 17%
00:00Thu 	 10c 	 19%
01:00Thu 	 10c 	 21%
02:00Thu 	 10c 	 32%
03:00Thu 	 10c 	 56%
04:00Thu 	 10c 	 80%
05:00Thu 	 10c 	 88%
06:00Thu 	 10c 	 86%
07:00Thu 	 10c 	 79%
08:00Thu 	 10c 	 67%
09:00Thu 	 10c 	 53%
10:00Thu 	 11c 	 41%
11:00Thu 	 11c 	 36%
12:00Thu 	 12c 	 34%
13:00Thu 	 13c 	 30%
14:00Thu 	 13c 	 31%
15:00Thu 	 13c 	 36%
16:00Thu 	 13c 	 38%
17:00Thu 	 12c 	 41%
18:00Thu 	 11c 	 47%
19:00Thu 	 10c 	 48%
20:00Thu 	 10c 	 39%
21:00Thu 	 9c 	 29%
22:00Thu 	 9c 	 21%
23:00Thu 	 8c 	 16%
00:00Fri 	 8c 	 16%
01:00Fri 	 8c 	 16%
02:00Fri 	 8c 	 14%
03:00Fri 	 8c 	 12%
04:00Fri 	 8c 	 11%
05:00Fri 	 8c 	 10%

# /home/pi/Documents/bbc-weather-predictions/data/Sep23Wed/bbcweather_Wednesday23rdSeptember_2020-09-23_1730.txt
# time 	 temp 	 rain
18:00Wed 	 13c 	 7%
19:00Wed 	 12c 	 25%
20:00Wed 	 11c 	 23%
21:00Wed 	 11c 	 22%
22:00Wed 	 10c 	 19%
23:00Wed 	 10c 	 17%
00:00Thu 	 10c 	 19%
01:00Thu 	 10c 	 21%
02:00Thu 	 10c 	 32%
03:00Thu 	 10c 	 56%
04:00Thu 	 10c 	 80%
05:00Thu 	 10c 	 88%
06:00Thu 	 10c 	 86%
07:00Thu 	 10c 	 79%
08:00Thu 	 10c 	 67%
09:00Thu 	 10c 	 53%
10:00Thu 	 11c 	 41%
11:00Thu 	 11c 	 36%
12:00Thu 	 12c 	 34%
13:00Thu 	 13c 	 30%
14:00Thu 	 13c 	 31%
15:00Thu 	 13c 	 36%
16:00Thu 	 13c 	 38%
17:00Thu 	 12c 	 41%
18:00Thu 	 11c 	 47%
19:00Thu 	 10c 	 48%
20:00Thu 	 10c 	 39%
21:00Thu 	 9c 	 29%
22:00Thu 	 9c 	 21%
23:00Thu 	 8c 	 16%
00:00Fri 	 8c 	 16%
01:00Fri 	 8c 	 16%
02:00Fri 	 8c 	 14%
03:00Fri 	 8c 	 12%
04:00Fri 	 8c 	 11%
05:00Fri 	 8c 	 10%

# /home/pi/Documents/bbc-weather-predictions/data/Sep23Wed/bbcweather_Wednesday23rdSeptember_2020-09-23_1745.txt
# time 	 temp 	 rain
18:00Wed 	 13c 	 4%
19:00Wed 	 12c 	 69%
20:00Wed 	 11c 	 23%
21:00Wed 	 11c 	 21%
22:00Wed 	 10c 	 19%
23:00Wed 	 10c 	 17%
00:00Thu 	 10c 	 19%
01:00Thu 	 10c 	 21%
02:00Thu 	 10c 	 32%
03:00Thu 	 10c 	 56%
04:00Thu 	 10c 	 80%
05:00Thu 	 10c 	 88%
06:00Thu 	 10c 	 86%
07:00Thu 	 10c 	 79%
08:00Thu 	 10c 	 67%
09:00Thu 	 10c 	 53%
10:00Thu 	 11c 	 41%
11:00Thu 	 11c 	 36%
12:00Thu 	 12c 	 34%
13:00Thu 	 13c 	 30%
14:00Thu 	 13c 	 31%
15:00Thu 	 13c 	 36%
16:00Thu 	 13c 	 38%
17:00Thu 	 12c 	 41%
18:00Thu 	 11c 	 47%
19:00Thu 	 10c 	 48%
20:00Thu 	 10c 	 39%
21:00Thu 	 9c 	 29%
22:00Thu 	 9c 	 21%
23:00Thu 	 8c 	 16%
00:00Fri 	 8c 	 16%
01:00Fri 	 8c 	 16%
02:00Fri 	 8c 	 14%
03:00Fri 	 8c 	 12%
04:00Fri 	 8c 	 11%
05:00Fri 	 8c 	 10%

# /home/pi/Documents/bbc-weather-predictions/data/Sep23Wed/bbcweather_Wednesday23rdSeptember_2020-09-23_1800.txt
# time 	 temp 	 rain
19:00Wed 	 12c 	 69%
20:00Wed 	 11c 	 23%
21:00Wed 	 11c 	 21%
22:00Wed 	 10c 	 19%
23:00Wed 	 10c 	 17%
00:00Thu 	 10c 	 19%
01:00Thu 	 10c 	 21%
02:00Thu 	 10c 	 32%
03:00Thu 	 10c 	 56%
04:00Thu 	 10c 	 80%
05:00Thu 	 10c 	 88%
06:00Thu 	 10c 	 86%
07:00Thu 	 10c 	 79%
08:00Thu 	 10c 	 67%
09:00Thu 	 10c 	 53%
10:00Thu 	 11c 	 41%
11:00Thu 	 11c 	 36%
12:00Thu 	 12c 	 34%
13:00Thu 	 13c 	 30%
14:00Thu 	 13c 	 31%
15:00Thu 	 13c 	 36%
16:00Thu 	 13c 	 38%
17:00Thu 	 12c 	 41%
18:00Thu 	 11c 	 47%
19:00Thu 	 10c 	 48%
20:00Thu 	 10c 	 39%
21:00Thu 	 9c 	 29%
22:00Thu 	 9c 	 21%
23:00Thu 	 8c 	 16%
00:00Fri 	 8c 	 16%
01:00Fri 	 8c 	 16%
02:00Fri 	 8c 	 14%
03:00Fri 	 8c 	 12%
04:00Fri 	 8c 	 11%
05:00Fri 	 8c 	 10%

# /home/pi/Documents/bbc-weather-predictions/data/Sep23Wed/bbcweather_Wednesday23rdSeptember_2020-09-23_1815.txt
# time 	 temp 	 rain
19:00Wed 	 12c 	 69%
20:00Wed 	 11c 	 23%
21:00Wed 	 11c 	 21%
22:00Wed 	 10c 	 19%
23:00Wed 	 10c 	 17%
00:00Thu 	 10c 	 19%
01:00Thu 	 10c 	 21%
02:00Thu 	 10c 	 32%
03:00Thu 	 10c 	 56%
04:00Thu 	 10c 	 80%
05:00Thu 	 10c 	 88%
06:00Thu 	 10c 	 86%
07:00Thu 	 10c 	 79%
08:00Thu 	 10c 	 67%
09:00Thu 	 10c 	 53%
10:00Thu 	 11c 	 41%
11:00Thu 	 11c 	 36%
12:00Thu 	 12c 	 34%
13:00Thu 	 13c 	 30%
14:00Thu 	 13c 	 31%
15:00Thu 	 13c 	 36%
16:00Thu 	 13c 	 38%
17:00Thu 	 12c 	 41%
18:00Thu 	 11c 	 47%
19:00Thu 	 10c 	 48%
20:00Thu 	 10c 	 39%
21:00Thu 	 9c 	 29%
22:00Thu 	 9c 	 21%
23:00Thu 	 8c 	 16%
00:00Fri 	 8c 	 16%
01:00Fri 	 8c 	 16%
02:00Fri 	 8c 	 14%
03:00Fri 	 8c 	 12%
04:00Fri 	 8c 	 11%
05:00Fri 	 8c 	 10%

# /home/pi/Documents/bbc-weather-predictions/data/Sep23Wed/bbcweather_Wednesday23rdSeptember_2020-09-23_1830.txt
# time 	 temp 	 rain
19:00Wed 	 12c 	 69%
20:00Wed 	 11c 	 23%
21:00Wed 	 11c 	 21%
22:00Wed 	 10c 	 19%
23:00Wed 	 10c 	 17%
00:00Thu 	 10c 	 19%
01:00Thu 	 10c 	 21%
02:00Thu 	 10c 	 32%
03:00Thu 	 10c 	 56%
04:00Thu 	 10c 	 80%
05:00Thu 	 10c 	 88%
06:00Thu 	 10c 	 86%
07:00Thu 	 10c 	 79%
08:00Thu 	 10c 	 67%
09:00Thu 	 10c 	 53%
10:00Thu 	 11c 	 41%
11:00Thu 	 11c 	 36%
12:00Thu 	 12c 	 34%
13:00Thu 	 13c 	 30%
14:00Thu 	 13c 	 31%
15:00Thu 	 13c 	 36%
16:00Thu 	 13c 	 38%
17:00Thu 	 12c 	 41%
18:00Thu 	 11c 	 47%
19:00Thu 	 10c 	 48%
20:00Thu 	 10c 	 39%
21:00Thu 	 9c 	 29%
22:00Thu 	 9c 	 21%
23:00Thu 	 8c 	 16%
00:00Fri 	 8c 	 16%
01:00Fri 	 8c 	 16%
02:00Fri 	 8c 	 14%
03:00Fri 	 8c 	 12%
04:00Fri 	 8c 	 11%
05:00Fri 	 8c 	 10%

# /home/pi/Documents/bbc-weather-predictions/data/Sep23Wed/bbcweather_Wednesday23rdSeptember_2020-09-23_1845.txt
# time 	 temp 	 rain
19:00Wed 	 12c 	 90%
20:00Wed 	 11c 	 80%
21:00Wed 	 11c 	 20%
22:00Wed 	 10c 	 18%
23:00Wed 	 10c 	 17%
00:00Thu 	 10c 	 19%
01:00Thu 	 10c 	 21%
02:00Thu 	 10c 	 32%
03:00Thu 	 10c 	 56%
04:00Thu 	 10c 	 80%
05:00Thu 	 10c 	 88%
06:00Thu 	 10c 	 86%
07:00Thu 	 10c 	 79%
08:00Thu 	 10c 	 67%
09:00Thu 	 10c 	 53%
10:00Thu 	 11c 	 41%
11:00Thu 	 11c 	 36%
12:00Thu 	 12c 	 34%
13:00Thu 	 13c 	 30%
14:00Thu 	 13c 	 31%
15:00Thu 	 13c 	 36%
16:00Thu 	 13c 	 38%
17:00Thu 	 12c 	 41%
18:00Thu 	 11c 	 47%
19:00Thu 	 10c 	 48%
20:00Thu 	 10c 	 39%
21:00Thu 	 9c 	 29%
22:00Thu 	 9c 	 21%
23:00Thu 	 8c 	 16%
00:00Fri 	 8c 	 16%
01:00Fri 	 8c 	 16%
02:00Fri 	 8c 	 14%
03:00Fri 	 8c 	 12%
04:00Fri 	 8c 	 11%
05:00Fri 	 8c 	 10%

# /home/pi/Documents/bbc-weather-predictions/data/Sep23Wed/bbcweather_Wednesday23rdSeptember_2020-09-23_1900.txt
# time 	 temp 	 rain
19:00Wed 	 12c 	 90%
20:00Wed 	 11c 	 80%
21:00Wed 	 11c 	 20%
22:00Wed 	 10c 	 18%
23:00Wed 	 10c 	 17%
00:00Thu 	 10c 	 19%
01:00Thu 	 10c 	 21%
02:00Thu 	 10c 	 32%
03:00Thu 	 10c 	 56%
04:00Thu 	 10c 	 80%
05:00Thu 	 10c 	 88%
06:00Thu 	 10c 	 86%
07:00Thu 	 10c 	 79%
08:00Thu 	 10c 	 67%
09:00Thu 	 10c 	 53%
10:00Thu 	 11c 	 41%
11:00Thu 	 11c 	 36%
12:00Thu 	 12c 	 34%
13:00Thu 	 13c 	 30%
14:00Thu 	 13c 	 31%
15:00Thu 	 13c 	 36%
16:00Thu 	 13c 	 38%
17:00Thu 	 12c 	 41%
18:00Thu 	 11c 	 47%
19:00Thu 	 10c 	 48%
20:00Thu 	 10c 	 39%
21:00Thu 	 9c 	 29%
22:00Thu 	 9c 	 21%
23:00Thu 	 8c 	 16%
00:00Fri 	 8c 	 16%
01:00Fri 	 8c 	 16%
02:00Fri 	 8c 	 14%
03:00Fri 	 8c 	 12%
04:00Fri 	 8c 	 11%
05:00Fri 	 8c 	 10%

# /home/pi/Documents/bbc-weather-predictions/data/Sep23Wed/bbcweather_Wednesday23rdSeptember_2020-09-23_1915.txt
# time 	 temp 	 rain
20:00Wed 	 11c 	 80%
21:00Wed 	 11c 	 20%
22:00Wed 	 10c 	 18%
23:00Wed 	 10c 	 17%
00:00Thu 	 10c 	 19%
01:00Thu 	 10c 	 21%
02:00Thu 	 10c 	 32%
03:00Thu 	 10c 	 56%
04:00Thu 	 10c 	 80%
05:00Thu 	 10c 	 88%
06:00Thu 	 10c 	 86%
07:00Thu 	 10c 	 79%
08:00Thu 	 10c 	 67%
09:00Thu 	 10c 	 53%
10:00Thu 	 11c 	 41%
11:00Thu 	 11c 	 36%
12:00Thu 	 12c 	 34%
13:00Thu 	 13c 	 30%
14:00Thu 	 13c 	 31%
15:00Thu 	 13c 	 36%
16:00Thu 	 13c 	 38%
17:00Thu 	 12c 	 41%
18:00Thu 	 11c 	 47%
19:00Thu 	 10c 	 48%
20:00Thu 	 10c 	 39%
21:00Thu 	 9c 	 29%
22:00Thu 	 9c 	 21%
23:00Thu 	 8c 	 16%
00:00Fri 	 8c 	 16%
01:00Fri 	 8c 	 16%
02:00Fri 	 8c 	 14%
03:00Fri 	 8c 	 12%
04:00Fri 	 8c 	 11%
05:00Fri 	 8c 	 10%

# /home/pi/Documents/bbc-weather-predictions/data/Sep23Wed/bbcweather_Wednesday23rdSeptember_2020-09-23_1930.txt
# time 	 temp 	 rain
20:00Wed 	 11c 	 80%
21:00Wed 	 11c 	 20%
22:00Wed 	 10c 	 18%
23:00Wed 	 10c 	 17%
00:00Thu 	 10c 	 19%
01:00Thu 	 10c 	 21%
02:00Thu 	 10c 	 32%
03:00Thu 	 10c 	 56%
04:00Thu 	 10c 	 80%
05:00Thu 	 10c 	 88%
06:00Thu 	 10c 	 86%
07:00Thu 	 10c 	 79%
08:00Thu 	 10c 	 67%
09:00Thu 	 10c 	 53%
10:00Thu 	 11c 	 41%
11:00Thu 	 11c 	 36%
12:00Thu 	 12c 	 34%
13:00Thu 	 13c 	 30%
14:00Thu 	 13c 	 31%
15:00Thu 	 13c 	 36%
16:00Thu 	 13c 	 38%
17:00Thu 	 12c 	 41%
18:00Thu 	 11c 	 47%
19:00Thu 	 10c 	 48%
20:00Thu 	 10c 	 39%
21:00Thu 	 9c 	 29%
22:00Thu 	 9c 	 21%
23:00Thu 	 8c 	 16%
00:00Fri 	 8c 	 16%
01:00Fri 	 8c 	 16%
02:00Fri 	 8c 	 14%
03:00Fri 	 8c 	 12%
04:00Fri 	 8c 	 11%
05:00Fri 	 8c 	 10%

# /home/pi/Documents/bbc-weather-predictions/data/Sep23Wed/bbcweather_Wednesday23rdSeptember_2020-09-23_1945.txt
# time 	 temp 	 rain
20:00Wed 	 12c 	 97%
21:00Wed 	 11c 	 80%
22:00Wed 	 10c 	 17%
23:00Wed 	 10c 	 16%
00:00Thu 	 10c 	 18%
01:00Thu 	 10c 	 21%
02:00Thu 	 10c 	 32%
03:00Thu 	 10c 	 56%
04:00Thu 	 10c 	 80%
05:00Thu 	 10c 	 88%
06:00Thu 	 10c 	 86%
07:00Thu 	 10c 	 79%
08:00Thu 	 10c 	 67%
09:00Thu 	 10c 	 53%
10:00Thu 	 11c 	 41%
11:00Thu 	 11c 	 36%
12:00Thu 	 12c 	 34%
13:00Thu 	 13c 	 30%
14:00Thu 	 13c 	 31%
15:00Thu 	 13c 	 36%
16:00Thu 	 13c 	 38%
17:00Thu 	 12c 	 41%
18:00Thu 	 11c 	 47%
19:00Thu 	 10c 	 48%
20:00Thu 	 10c 	 39%
21:00Thu 	 9c 	 29%
22:00Thu 	 9c 	 21%
23:00Thu 	 8c 	 16%
00:00Fri 	 8c 	 16%
01:00Fri 	 8c 	 16%
02:00Fri 	 8c 	 14%
03:00Fri 	 8c 	 12%
04:00Fri 	 8c 	 11%
05:00Fri 	 8c 	 10%

# /home/pi/Documents/bbc-weather-predictions/data/Sep23Wed/bbcweather_Wednesday23rdSeptember_2020-09-23_2000.txt
# time 	 temp 	 rain
20:00Wed 	 12c 	 97%
21:00Wed 	 11c 	 80%
22:00Wed 	 10c 	 17%
23:00Wed 	 10c 	 16%
00:00Thu 	 10c 	 18%
01:00Thu 	 10c 	 21%
02:00Thu 	 10c 	 32%
03:00Thu 	 10c 	 56%
04:00Thu 	 10c 	 80%
05:00Thu 	 10c 	 88%
06:00Thu 	 10c 	 86%
07:00Thu 	 10c 	 79%
08:00Thu 	 10c 	 67%
09:00Thu 	 10c 	 53%
10:00Thu 	 11c 	 41%
11:00Thu 	 11c 	 36%
12:00Thu 	 12c 	 34%
13:00Thu 	 13c 	 30%
14:00Thu 	 13c 	 31%
15:00Thu 	 13c 	 36%
16:00Thu 	 13c 	 38%
17:00Thu 	 12c 	 41%
18:00Thu 	 11c 	 47%
19:00Thu 	 10c 	 48%
20:00Thu 	 10c 	 39%
21:00Thu 	 9c 	 29%
22:00Thu 	 9c 	 21%
23:00Thu 	 8c 	 16%
00:00Fri 	 8c 	 16%
01:00Fri 	 8c 	 16%
02:00Fri 	 8c 	 14%
03:00Fri 	 8c 	 12%
04:00Fri 	 8c 	 11%
05:00Fri 	 8c 	 10%

# /home/pi/Documents/bbc-weather-predictions/data/Sep23Wed/bbcweather_Wednesday23rdSeptember_2020-09-23_2015.txt
# time 	 temp 	 rain
21:00Wed 	 11c 	 80%
22:00Wed 	 10c 	 17%
23:00Wed 	 10c 	 16%
00:00Thu 	 10c 	 18%
01:00Thu 	 10c 	 21%
02:00Thu 	 10c 	 32%
03:00Thu 	 10c 	 56%
04:00Thu 	 10c 	 80%
05:00Thu 	 10c 	 88%
06:00Thu 	 10c 	 86%
07:00Thu 	 10c 	 79%
08:00Thu 	 10c 	 67%
09:00Thu 	 10c 	 53%
10:00Thu 	 11c 	 41%
11:00Thu 	 11c 	 36%
12:00Thu 	 12c 	 34%
13:00Thu 	 13c 	 30%
14:00Thu 	 13c 	 31%
15:00Thu 	 13c 	 36%
16:00Thu 	 13c 	 38%
17:00Thu 	 12c 	 41%
18:00Thu 	 11c 	 47%
19:00Thu 	 10c 	 48%
20:00Thu 	 10c 	 39%
21:00Thu 	 9c 	 29%
22:00Thu 	 9c 	 21%
23:00Thu 	 8c 	 16%
00:00Fri 	 8c 	 16%
01:00Fri 	 8c 	 16%
02:00Fri 	 8c 	 14%
03:00Fri 	 8c 	 12%
04:00Fri 	 8c 	 11%
05:00Fri 	 8c 	 10%

# /home/pi/Documents/bbc-weather-predictions/data/Sep23Wed/bbcweather_Wednesday23rdSeptember_2020-09-23_2030.txt
# time 	 temp 	 rain
21:00Wed 	 11c 	 100%
22:00Wed 	 10c 	 97%
23:00Wed 	 10c 	 83%
00:00Thu 	 9c 	 44%
01:00Thu 	 9c 	 24%
02:00Thu 	 9c 	 26%
03:00Thu 	 9c 	 53%
04:00Thu 	 10c 	 79%
05:00Thu 	 10c 	 88%
06:00Thu 	 10c 	 86%
07:00Thu 	 10c 	 79%
08:00Thu 	 10c 	 67%
09:00Thu 	 10c 	 53%
10:00Thu 	 11c 	 41%
11:00Thu 	 11c 	 36%
12:00Thu 	 12c 	 34%
13:00Thu 	 13c 	 30%
14:00Thu 	 13c 	 31%
15:00Thu 	 13c 	 36%
16:00Thu 	 13c 	 38%
17:00Thu 	 12c 	 41%
18:00Thu 	 11c 	 47%
19:00Thu 	 10c 	 48%
20:00Thu 	 10c 	 39%
21:00Thu 	 9c 	 29%
22:00Thu 	 9c 	 21%
23:00Thu 	 8c 	 16%
00:00Fri 	 8c 	 16%
01:00Fri 	 8c 	 16%
02:00Fri 	 8c 	 14%
03:00Fri 	 8c 	 12%
04:00Fri 	 8c 	 11%
05:00Fri 	 8c 	 10%

# /home/pi/Documents/bbc-weather-predictions/data/Sep23Wed/bbcweather_Wednesday23rdSeptember_2020-09-23_2045.txt
# time 	 temp 	 rain
21:00Wed 	 11c 	 100%
22:00Wed 	 10c 	 97%
23:00Wed 	 10c 	 83%
00:00Thu 	 9c 	 44%
01:00Thu 	 9c 	 24%
02:00Thu 	 9c 	 26%
03:00Thu 	 9c 	 53%
04:00Thu 	 10c 	 79%
05:00Thu 	 10c 	 88%
06:00Thu 	 10c 	 89%
07:00Thu 	 9c 	 86%
08:00Thu 	 9c 	 81%
09:00Thu 	 10c 	 72%
10:00Thu 	 10c 	 59%
11:00Thu 	 11c 	 46%
12:00Thu 	 12c 	 33%
13:00Thu 	 12c 	 23%
14:00Thu 	 13c 	 20%
15:00Thu 	 12c 	 22%
16:00Thu 	 12c 	 23%
17:00Thu 	 12c 	 25%
18:00Thu 	 11c 	 27%
19:00Thu 	 10c 	 26%
20:00Thu 	 10c 	 26%
21:00Thu 	 9c 	 24%
22:00Thu 	 9c 	 19%
23:00Thu 	 8c 	 16%
00:00Fri 	 8c 	 16%
01:00Fri 	 8c 	 16%
02:00Fri 	 8c 	 14%
03:00Fri 	 8c 	 12%
04:00Fri 	 8c 	 11%
05:00Fri 	 8c 	 10%

# /home/pi/Documents/bbc-weather-predictions/data/Sep23Wed/bbcweather_Wednesday23rdSeptember_2020-09-23_2100.txt
# time 	 temp 	 rain
21:00Wed 	 11c 	 100%
22:00Wed 	 10c 	 97%
23:00Wed 	 10c 	 83%
00:00Thu 	 9c 	 44%
01:00Thu 	 9c 	 24%
02:00Thu 	 9c 	 26%
03:00Thu 	 9c 	 53%
04:00Thu 	 10c 	 79%
05:00Thu 	 10c 	 88%
06:00Thu 	 10c 	 89%
07:00Thu 	 9c 	 86%
08:00Thu 	 9c 	 81%
09:00Thu 	 10c 	 72%
10:00Thu 	 10c 	 59%
11:00Thu 	 11c 	 46%
12:00Thu 	 12c 	 33%
13:00Thu 	 12c 	 23%
14:00Thu 	 13c 	 20%
15:00Thu 	 12c 	 22%
16:00Thu 	 12c 	 23%
17:00Thu 	 12c 	 25%
18:00Thu 	 11c 	 27%
19:00Thu 	 10c 	 26%
20:00Thu 	 10c 	 26%
21:00Thu 	 9c 	 24%
22:00Thu 	 9c 	 19%
23:00Thu 	 8c 	 16%
00:00Fri 	 8c 	 16%
01:00Fri 	 8c 	 16%
02:00Fri 	 8c 	 14%
03:00Fri 	 8c 	 12%
04:00Fri 	 8c 	 11%
05:00Fri 	 8c 	 10%

# /home/pi/Documents/bbc-weather-predictions/data/Sep23Wed/bbcweather_Wednesday23rdSeptember_2020-09-23_2115.txt
# time 	 temp 	 rain
22:00Wed 	 10c 	 97%
23:00Wed 	 10c 	 83%
00:00Thu 	 9c 	 44%
01:00Thu 	 9c 	 24%
02:00Thu 	 9c 	 26%
03:00Thu 	 9c 	 53%
04:00Thu 	 10c 	 79%
05:00Thu 	 10c 	 88%
06:00Thu 	 10c 	 89%
07:00Thu 	 9c 	 86%
08:00Thu 	 9c 	 81%
09:00Thu 	 10c 	 72%
10:00Thu 	 10c 	 59%
11:00Thu 	 11c 	 46%
12:00Thu 	 12c 	 33%
13:00Thu 	 12c 	 23%
14:00Thu 	 13c 	 20%
15:00Thu 	 12c 	 22%
16:00Thu 	 12c 	 23%
17:00Thu 	 12c 	 25%
18:00Thu 	 11c 	 27%
19:00Thu 	 10c 	 26%
20:00Thu 	 10c 	 26%
21:00Thu 	 9c 	 24%
22:00Thu 	 9c 	 19%
23:00Thu 	 8c 	 16%
00:00Fri 	 8c 	 16%
01:00Fri 	 8c 	 16%
02:00Fri 	 8c 	 14%
03:00Fri 	 8c 	 12%
04:00Fri 	 8c 	 11%
05:00Fri 	 8c 	 10%

# /home/pi/Documents/bbc-weather-predictions/data/Sep23Wed/bbcweather_Wednesday23rdSeptember_2020-09-23_2130.txt
# time 	 temp 	 rain
22:00Wed 	 10c 	 97%
23:00Wed 	 10c 	 83%
00:00Thu 	 9c 	 44%
01:00Thu 	 9c 	 24%
02:00Thu 	 9c 	 26%
03:00Thu 	 9c 	 53%
04:00Thu 	 10c 	 79%
05:00Thu 	 10c 	 88%
06:00Thu 	 10c 	 89%
07:00Thu 	 9c 	 86%
08:00Thu 	 9c 	 81%
09:00Thu 	 10c 	 72%
10:00Thu 	 10c 	 59%
11:00Thu 	 11c 	 46%
12:00Thu 	 12c 	 33%
13:00Thu 	 12c 	 23%
14:00Thu 	 13c 	 20%
15:00Thu 	 12c 	 22%
16:00Thu 	 12c 	 23%
17:00Thu 	 12c 	 25%
18:00Thu 	 11c 	 27%
19:00Thu 	 10c 	 26%
20:00Thu 	 10c 	 26%
21:00Thu 	 9c 	 24%
22:00Thu 	 9c 	 19%
23:00Thu 	 8c 	 16%
00:00Fri 	 8c 	 16%
01:00Fri 	 8c 	 16%
02:00Fri 	 8c 	 14%
03:00Fri 	 8c 	 12%
04:00Fri 	 8c 	 11%
05:00Fri 	 8c 	 10%

# /home/pi/Documents/bbc-weather-predictions/data/Sep23Wed/bbcweather_Wednesday23rdSeptember_2020-09-23_2145.txt
# time 	 temp 	 rain
22:00Wed 	 10c 	 83%
23:00Wed 	 10c 	 57%
00:00Thu 	 9c 	 20%
01:00Thu 	 9c 	 20%
02:00Thu 	 9c 	 30%
03:00Thu 	 9c 	 55%
04:00Thu 	 10c 	 79%
05:00Thu 	 10c 	 88%
06:00Thu 	 10c 	 89%
07:00Thu 	 9c 	 86%
08:00Thu 	 9c 	 81%
09:00Thu 	 10c 	 72%
10:00Thu 	 10c 	 59%
11:00Thu 	 11c 	 46%
12:00Thu 	 12c 	 33%
13:00Thu 	 12c 	 23%
14:00Thu 	 13c 	 20%
15:00Thu 	 12c 	 22%
16:00Thu 	 12c 	 23%
17:00Thu 	 12c 	 25%
18:00Thu 	 11c 	 26%
19:00Thu 	 10c 	 24%
20:00Thu 	 9c 	 19%
21:00Thu 	 9c 	 16%
22:00Thu 	 8c 	 11%
23:00Thu 	 8c 	 8%
00:00Fri 	 8c 	 9%
01:00Fri 	 8c 	 11%
02:00Fri 	 7c 	 11%
03:00Fri 	 7c 	 9%
04:00Fri 	 7c 	 8%
05:00Fri 	 8c 	 8%

# /home/pi/Documents/bbc-weather-predictions/data/Sep23Wed/bbcweather_Wednesday23rdSeptember_2020-09-23_2200.txt
# time 	 temp 	 rain
22:00Wed 	 10c 	 83%
23:00Wed 	 10c 	 57%
00:00Thu 	 9c 	 20%
01:00Thu 	 9c 	 20%
02:00Thu 	 9c 	 30%
03:00Thu 	 9c 	 55%
04:00Thu 	 10c 	 79%
05:00Thu 	 10c 	 88%
06:00Thu 	 10c 	 89%
07:00Thu 	 9c 	 86%
08:00Thu 	 9c 	 81%
09:00Thu 	 10c 	 72%
10:00Thu 	 10c 	 59%
11:00Thu 	 11c 	 46%
12:00Thu 	 12c 	 33%
13:00Thu 	 12c 	 23%
14:00Thu 	 13c 	 20%
15:00Thu 	 12c 	 22%
16:00Thu 	 12c 	 23%
17:00Thu 	 12c 	 25%
18:00Thu 	 11c 	 26%
19:00Thu 	 10c 	 24%
20:00Thu 	 9c 	 19%
21:00Thu 	 9c 	 16%
22:00Thu 	 8c 	 11%
23:00Thu 	 8c 	 8%
00:00Fri 	 8c 	 9%
01:00Fri 	 8c 	 11%
02:00Fri 	 7c 	 11%
03:00Fri 	 7c 	 9%
04:00Fri 	 7c 	 8%
05:00Fri 	 8c 	 8%

# /home/pi/Documents/bbc-weather-predictions/data/Sep23Wed/bbcweather_Wednesday23rdSeptember_2020-09-23_2215.txt
# time 	 temp 	 rain
23:00Wed 	 10c 	 57%
00:00Thu 	 9c 	 20%
01:00Thu 	 9c 	 20%
02:00Thu 	 9c 	 30%
03:00Thu 	 9c 	 55%
04:00Thu 	 10c 	 79%
05:00Thu 	 10c 	 88%
06:00Thu 	 10c 	 89%
07:00Thu 	 9c 	 86%
08:00Thu 	 9c 	 81%
09:00Thu 	 10c 	 72%
10:00Thu 	 10c 	 59%
11:00Thu 	 11c 	 46%
12:00Thu 	 12c 	 33%
13:00Thu 	 12c 	 23%
14:00Thu 	 13c 	 20%
15:00Thu 	 12c 	 22%
16:00Thu 	 12c 	 23%
17:00Thu 	 12c 	 25%
18:00Thu 	 11c 	 26%
19:00Thu 	 10c 	 24%
20:00Thu 	 9c 	 19%
21:00Thu 	 9c 	 16%
22:00Thu 	 8c 	 11%
23:00Thu 	 8c 	 8%
00:00Fri 	 8c 	 9%
01:00Fri 	 8c 	 11%
02:00Fri 	 7c 	 11%
03:00Fri 	 7c 	 9%
04:00Fri 	 7c 	 8%
05:00Fri 	 8c 	 8%

# /home/pi/Documents/bbc-weather-predictions/data/Sep23Wed/bbcweather_Wednesday23rdSeptember_2020-09-23_2230.txt
# time 	 temp 	 rain
23:00Wed 	 10c 	 57%
00:00Thu 	 9c 	 20%
01:00Thu 	 9c 	 20%
02:00Thu 	 9c 	 30%
03:00Thu 	 9c 	 55%
04:00Thu 	 10c 	 79%
05:00Thu 	 10c 	 88%
06:00Thu 	 10c 	 89%
07:00Thu 	 9c 	 86%
08:00Thu 	 9c 	 81%
09:00Thu 	 10c 	 72%
10:00Thu 	 10c 	 59%
11:00Thu 	 11c 	 46%
12:00Thu 	 12c 	 33%
13:00Thu 	 12c 	 23%
14:00Thu 	 13c 	 20%
15:00Thu 	 12c 	 22%
16:00Thu 	 12c 	 23%
17:00Thu 	 12c 	 25%
18:00Thu 	 11c 	 26%
19:00Thu 	 10c 	 24%
20:00Thu 	 9c 	 19%
21:00Thu 	 9c 	 16%
22:00Thu 	 8c 	 11%
23:00Thu 	 8c 	 8%
00:00Fri 	 8c 	 9%
01:00Fri 	 8c 	 11%
02:00Fri 	 7c 	 11%
03:00Fri 	 7c 	 9%
04:00Fri 	 7c 	 8%
05:00Fri 	 8c 	 8%

# /home/pi/Documents/bbc-weather-predictions/data/Sep23Wed/bbcweather_Wednesday23rdSeptember_2020-09-23_2245.txt
# time 	 temp 	 rain
23:00Wed 	 9c 	 59%
00:00Thu 	 9c 	 85%
01:00Thu 	 9c 	 30%
02:00Thu 	 9c 	 31%
03:00Thu 	 9c 	 55%
04:00Thu 	 10c 	 79%
05:00Thu 	 10c 	 88%
06:00Thu 	 10c 	 89%
07:00Thu 	 9c 	 86%
08:00Thu 	 9c 	 81%
09:00Thu 	 10c 	 72%
10:00Thu 	 10c 	 59%
11:00Thu 	 11c 	 46%
12:00Thu 	 12c 	 33%
13:00Thu 	 12c 	 23%
14:00Thu 	 13c 	 20%
15:00Thu 	 12c 	 22%
16:00Thu 	 12c 	 23%
17:00Thu 	 12c 	 25%
18:00Thu 	 11c 	 26%
19:00Thu 	 10c 	 24%
20:00Thu 	 9c 	 19%
21:00Thu 	 9c 	 16%
22:00Thu 	 8c 	 11%
23:00Thu 	 8c 	 8%
00:00Fri 	 8c 	 9%
01:00Fri 	 8c 	 11%
02:00Fri 	 7c 	 11%
03:00Fri 	 7c 	 9%
04:00Fri 	 7c 	 8%
05:00Fri 	 8c 	 8%

# /home/pi/Documents/bbc-weather-predictions/data/Sep23Wed/bbcweather_Wednesday23rdSeptember_2020-09-23_2300.txt
# time 	 temp 	 rain
23:00Wed 	 9c 	 59%
00:00Thu 	 9c 	 85%
01:00Thu 	 9c 	 30%
02:00Thu 	 9c 	 31%
03:00Thu 	 9c 	 55%
04:00Thu 	 10c 	 79%
05:00Thu 	 10c 	 88%
06:00Thu 	 10c 	 89%
07:00Thu 	 9c 	 86%
08:00Thu 	 9c 	 81%
09:00Thu 	 10c 	 72%
10:00Thu 	 10c 	 59%
11:00Thu 	 11c 	 46%
12:00Thu 	 12c 	 33%
13:00Thu 	 12c 	 23%
14:00Thu 	 13c 	 20%
15:00Thu 	 12c 	 22%
16:00Thu 	 12c 	 23%
17:00Thu 	 12c 	 25%
18:00Thu 	 11c 	 26%
19:00Thu 	 10c 	 24%
20:00Thu 	 9c 	 19%
21:00Thu 	 9c 	 16%
22:00Thu 	 8c 	 11%
23:00Thu 	 8c 	 8%
00:00Fri 	 8c 	 9%
01:00Fri 	 8c 	 11%
02:00Fri 	 7c 	 11%
03:00Fri 	 7c 	 9%
04:00Fri 	 7c 	 8%
05:00Fri 	 8c 	 8%

# /home/pi/Documents/bbc-weather-predictions/data/Sep23Wed/bbcweather_Wednesday23rdSeptember_2020-09-23_2315.txt
# time 	 temp 	 rain
00:00Thu 	 9c 	 85%
01:00Thu 	 9c 	 30%
02:00Thu 	 9c 	 31%
03:00Thu 	 9c 	 55%
04:00Thu 	 10c 	 79%
05:00Thu 	 10c 	 88%
06:00Thu 	 10c 	 89%
07:00Thu 	 9c 	 86%
08:00Thu 	 9c 	 81%
09:00Thu 	 10c 	 72%
10:00Thu 	 10c 	 59%
11:00Thu 	 11c 	 46%
12:00Thu 	 12c 	 33%
13:00Thu 	 12c 	 23%
14:00Thu 	 13c 	 20%
15:00Thu 	 12c 	 22%
16:00Thu 	 12c 	 23%
17:00Thu 	 12c 	 25%
18:00Thu 	 11c 	 26%
19:00Thu 	 10c 	 24%
20:00Thu 	 9c 	 19%
21:00Thu 	 9c 	 16%
22:00Thu 	 8c 	 11%
23:00Thu 	 8c 	 8%
00:00Fri 	 8c 	 9%
01:00Fri 	 8c 	 11%
02:00Fri 	 7c 	 11%
03:00Fri 	 7c 	 9%
04:00Fri 	 7c 	 8%
05:00Fri 	 8c 	 8%

# /home/pi/Documents/bbc-weather-predictions/data/Sep23Wed/bbcweather_Wednesday23rdSeptember_2020-09-23_2330.txt
# time 	 temp 	 rain
00:00Thu 	 9c 	 85%
01:00Thu 	 9c 	 30%
02:00Thu 	 9c 	 31%
03:00Thu 	 9c 	 55%
04:00Thu 	 10c 	 79%
05:00Thu 	 10c 	 88%
06:00Thu 	 10c 	 89%
07:00Thu 	 9c 	 86%
08:00Thu 	 9c 	 81%
09:00Thu 	 10c 	 72%
10:00Thu 	 10c 	 59%
11:00Thu 	 11c 	 46%
12:00Thu 	 12c 	 33%
13:00Thu 	 12c 	 23%
14:00Thu 	 13c 	 20%
15:00Thu 	 12c 	 22%
16:00Thu 	 12c 	 23%
17:00Thu 	 12c 	 25%
18:00Thu 	 11c 	 26%
19:00Thu 	 10c 	 24%
20:00Thu 	 9c 	 19%
21:00Thu 	 9c 	 16%
22:00Thu 	 8c 	 11%
23:00Thu 	 8c 	 8%
00:00Fri 	 8c 	 9%
01:00Fri 	 8c 	 11%
02:00Fri 	 7c 	 11%
03:00Fri 	 7c 	 9%
04:00Fri 	 7c 	 8%
05:00Fri 	 8c 	 8%

# /home/pi/Documents/bbc-weather-predictions/data/Sep23Wed/bbcweather_Wednesday23rdSeptember_2020-09-23_2345.txt
# time 	 temp 	 rain
00:00Thu 	 9c 	 78%
01:00Thu 	 9c 	 35%
02:00Thu 	 9c 	 39%
03:00Thu 	 9c 	 59%
04:00Thu 	 10c 	 79%
05:00Thu 	 10c 	 88%
06:00Thu 	 10c 	 89%
07:00Thu 	 9c 	 86%
08:00Thu 	 9c 	 81%
09:00Thu 	 10c 	 72%
10:00Thu 	 10c 	 59%
11:00Thu 	 11c 	 46%
12:00Thu 	 12c 	 33%
13:00Thu 	 12c 	 23%
14:00Thu 	 13c 	 20%
15:00Thu 	 12c 	 22%
16:00Thu 	 12c 	 23%
17:00Thu 	 12c 	 25%
18:00Thu 	 11c 	 26%
19:00Thu 	 10c 	 24%
20:00Thu 	 9c 	 19%
21:00Thu 	 9c 	 16%
22:00Thu 	 8c 	 10%
23:00Thu 	 8c 	 6%
00:00Fri 	 8c 	 6%
01:00Fri 	 8c 	 7%
02:00Fri 	 7c 	 7%
03:00Fri 	 7c 	 7%
04:00Fri 	 8c 	 8%
05:00Fri 	 8c 	 9%
