00:00Sat 	 12c 	 1%
01:00Sat 	 12c 	 2%
02:00Sat 	 12c 	 1%
03:00Sat 	 12c 	 1%
04:00Sat 	 11c 	 3%
05:00Sat 	 11c 	 2%
06:00Sat 	 11c 	 2%
07:00Sat 	 11c 	 4%
08:00Sat 	 11c 	 7%
09:00Sat 	 12c 	 8%
10:00Sat 	 13c 	 9%
11:00Sat 	 14c 	 8%
12:00Sat 	 15c 	 7%
13:00Sat 	 15c 	 7%
14:00Sat 	 16c 	 6%
15:00Sat 	 16c 	 5%
16:00Sat 	 16c 	 6%
17:00Sat 	 15c 	 6%
18:00Sat 	 15c 	 7%
19:00Sat 	 14c 	 7%
20:00Sat 	 14c 	 8%
21:00Sat 	 13c 	 9%
22:00Sat 	 13c 	 8%
23:00Sat 	 12c 	 7%


00:00Sat 	 12c 	 1%
01:00Sat 	 12c 	 2%
02:00Sat 	 12c 	 1%
03:00Sat 	 12c 	 1%
04:00Sat 	 11c 	 3%
05:00Sat 	 11c 	 2%
06:00Sat 	 11c 	 2%
07:00Sat 	 11c 	 4%
08:00Sat 	 11c 	 7%
09:00Sat 	 12c 	 8%
10:00Sat 	 13c 	 9%
11:00Sat 	 14c 	 8%
12:00Sat 	 15c 	 7%
13:00Sat 	 15c 	 7%
14:00Sat 	 16c 	 6%
15:00Sat 	 16c 	 5%
16:00Sat 	 16c 	 6%
17:00Sat 	 15c 	 6%
18:00Sat 	 15c 	 7%
19:00Sat 	 14c 	 7%
20:00Sat 	 14c 	 8%
21:00Sat 	 13c 	 9%
22:00Sat 	 13c 	 8%
23:00Sat 	 12c 	 7%


00:00Sat 	 12c 	 1%
01:00Sat 	 12c 	 2%
02:00Sat 	 12c 	 1%
03:00Sat 	 12c 	 1%
04:00Sat 	 11c 	 3%
05:00Sat 	 11c 	 2%
06:00Sat 	 11c 	 2%
07:00Sat 	 11c 	 4%
08:00Sat 	 11c 	 7%
09:00Sat 	 12c 	 8%
10:00Sat 	 13c 	 9%
11:00Sat 	 14c 	 8%
12:00Sat 	 15c 	 7%
13:00Sat 	 15c 	 7%
14:00Sat 	 16c 	 6%
15:00Sat 	 16c 	 5%
16:00Sat 	 16c 	 6%
17:00Sat 	 15c 	 6%
18:00Sat 	 15c 	 7%
19:00Sat 	 14c 	 7%
20:00Sat 	 14c 	 8%
21:00Sat 	 13c 	 9%
22:00Sat 	 13c 	 8%
23:00Sat 	 12c 	 7%


00:00Sat 	 12c 	 1%
01:00Sat 	 12c 	 2%
02:00Sat 	 12c 	 1%
03:00Sat 	 12c 	 1%
04:00Sat 	 11c 	 3%
05:00Sat 	 11c 	 2%
06:00Sat 	 11c 	 2%
07:00Sat 	 11c 	 4%
08:00Sat 	 11c 	 7%
09:00Sat 	 12c 	 8%
10:00Sat 	 13c 	 9%
11:00Sat 	 14c 	 8%
12:00Sat 	 15c 	 7%
13:00Sat 	 15c 	 7%
14:00Sat 	 16c 	 6%
15:00Sat 	 16c 	 5%
16:00Sat 	 16c 	 6%
17:00Sat 	 15c 	 6%
18:00Sat 	 15c 	 7%
19:00Sat 	 14c 	 7%
20:00Sat 	 14c 	 8%
21:00Sat 	 13c 	 9%
22:00Sat 	 13c 	 8%
23:00Sat 	 12c 	 7%


00:00Sat 	 12c 	 1%
01:00Sat 	 12c 	 2%
02:00Sat 	 12c 	 1%
03:00Sat 	 12c 	 1%
04:00Sat 	 11c 	 3%
05:00Sat 	 11c 	 2%
06:00Sat 	 11c 	 2%
07:00Sat 	 11c 	 4%
08:00Sat 	 11c 	 7%
09:00Sat 	 12c 	 8%
10:00Sat 	 13c 	 9%
11:00Sat 	 14c 	 8%
12:00Sat 	 15c 	 7%
13:00Sat 	 15c 	 7%
14:00Sat 	 16c 	 6%
15:00Sat 	 16c 	 5%
16:00Sat 	 16c 	 6%
17:00Sat 	 15c 	 6%
18:00Sat 	 15c 	 7%
19:00Sat 	 14c 	 7%
20:00Sat 	 14c 	 8%
21:00Sat 	 13c 	 9%
22:00Sat 	 13c 	 8%
23:00Sat 	 12c 	 7%


00:00Sat 	 12c 	 1%
01:00Sat 	 12c 	 2%
02:00Sat 	 12c 	 1%
03:00Sat 	 12c 	 1%
04:00Sat 	 11c 	 3%
05:00Sat 	 11c 	 2%
06:00Sat 	 11c 	 2%
07:00Sat 	 11c 	 4%
08:00Sat 	 11c 	 7%
09:00Sat 	 12c 	 8%
10:00Sat 	 13c 	 9%
11:00Sat 	 14c 	 8%
12:00Sat 	 15c 	 7%
13:00Sat 	 15c 	 7%
14:00Sat 	 16c 	 6%
15:00Sat 	 16c 	 5%
16:00Sat 	 16c 	 6%
17:00Sat 	 15c 	 6%
18:00Sat 	 15c 	 7%
19:00Sat 	 14c 	 7%
20:00Sat 	 14c 	 8%
21:00Sat 	 13c 	 9%
22:00Sat 	 13c 	 8%
23:00Sat 	 12c 	 7%


00:00Sat 	 12c 	 1%
01:00Sat 	 12c 	 2%
02:00Sat 	 12c 	 1%
03:00Sat 	 12c 	 1%
04:00Sat 	 11c 	 3%
05:00Sat 	 11c 	 2%
06:00Sat 	 11c 	 2%
07:00Sat 	 11c 	 4%
08:00Sat 	 11c 	 7%
09:00Sat 	 12c 	 8%
10:00Sat 	 13c 	 9%
11:00Sat 	 14c 	 8%
12:00Sat 	 15c 	 7%
13:00Sat 	 15c 	 7%
14:00Sat 	 16c 	 6%
15:00Sat 	 16c 	 5%
16:00Sat 	 16c 	 6%
17:00Sat 	 15c 	 6%
18:00Sat 	 15c 	 7%
19:00Sat 	 14c 	 7%
20:00Sat 	 14c 	 8%
21:00Sat 	 13c 	 9%
22:00Sat 	 13c 	 8%
23:00Sat 	 12c 	 7%


00:00Sat 	 12c 	 1%
01:00Sat 	 12c 	 2%
02:00Sat 	 12c 	 1%
03:00Sat 	 12c 	 1%
04:00Sat 	 11c 	 3%
05:00Sat 	 11c 	 2%
06:00Sat 	 11c 	 2%
07:00Sat 	 11c 	 4%
08:00Sat 	 11c 	 7%
09:00Sat 	 12c 	 8%
10:00Sat 	 13c 	 9%
11:00Sat 	 14c 	 8%
12:00Sat 	 15c 	 7%
13:00Sat 	 15c 	 7%
14:00Sat 	 16c 	 6%
15:00Sat 	 16c 	 5%
16:00Sat 	 16c 	 6%
17:00Sat 	 15c 	 6%
18:00Sat 	 15c 	 7%
19:00Sat 	 14c 	 7%
20:00Sat 	 14c 	 8%
21:00Sat 	 13c 	 9%
22:00Sat 	 13c 	 8%
23:00Sat 	 12c 	 7%


00:00Sat 	 12c 	 1%
01:00Sat 	 12c 	 2%
02:00Sat 	 12c 	 1%
03:00Sat 	 12c 	 1%
04:00Sat 	 11c 	 3%
05:00Sat 	 11c 	 2%
06:00Sat 	 11c 	 2%
07:00Sat 	 11c 	 4%
08:00Sat 	 11c 	 7%
09:00Sat 	 12c 	 8%
10:00Sat 	 13c 	 9%
11:00Sat 	 14c 	 8%
12:00Sat 	 15c 	 7%
13:00Sat 	 15c 	 7%
14:00Sat 	 16c 	 6%
15:00Sat 	 16c 	 5%
16:00Sat 	 16c 	 6%
17:00Sat 	 15c 	 6%
18:00Sat 	 15c 	 7%
19:00Sat 	 14c 	 7%
20:00Sat 	 14c 	 8%
21:00Sat 	 13c 	 9%
22:00Sat 	 13c 	 8%
23:00Sat 	 12c 	 7%


00:00Sat 	 12c 	 1%
01:00Sat 	 12c 	 2%
02:00Sat 	 12c 	 1%
03:00Sat 	 12c 	 1%
04:00Sat 	 11c 	 3%
05:00Sat 	 11c 	 2%
06:00Sat 	 11c 	 2%
07:00Sat 	 11c 	 4%
08:00Sat 	 11c 	 7%
09:00Sat 	 12c 	 8%
10:00Sat 	 13c 	 9%
11:00Sat 	 14c 	 8%
12:00Sat 	 15c 	 7%
13:00Sat 	 15c 	 7%
14:00Sat 	 16c 	 6%
15:00Sat 	 16c 	 5%
16:00Sat 	 16c 	 6%
17:00Sat 	 15c 	 6%
18:00Sat 	 15c 	 7%
19:00Sat 	 14c 	 7%
20:00Sat 	 14c 	 8%
21:00Sat 	 13c 	 9%
22:00Sat 	 13c 	 8%
23:00Sat 	 12c 	 7%


00:00Sat 	 12c 	 1%
01:00Sat 	 12c 	 2%
02:00Sat 	 12c 	 1%
03:00Sat 	 12c 	 1%
04:00Sat 	 11c 	 3%
05:00Sat 	 11c 	 2%
06:00Sat 	 11c 	 2%
07:00Sat 	 11c 	 4%
08:00Sat 	 11c 	 7%
09:00Sat 	 12c 	 8%
10:00Sat 	 13c 	 9%
11:00Sat 	 14c 	 8%
12:00Sat 	 15c 	 7%
13:00Sat 	 15c 	 7%
14:00Sat 	 16c 	 6%
15:00Sat 	 16c 	 5%
16:00Sat 	 16c 	 6%
17:00Sat 	 15c 	 6%
18:00Sat 	 15c 	 7%
19:00Sat 	 14c 	 7%
20:00Sat 	 14c 	 8%
21:00Sat 	 13c 	 9%
22:00Sat 	 13c 	 8%
23:00Sat 	 12c 	 7%


00:00Sat 	 12c 	 1%
01:00Sat 	 12c 	 2%
02:00Sat 	 12c 	 1%
03:00Sat 	 12c 	 1%
04:00Sat 	 11c 	 3%
05:00Sat 	 11c 	 2%
06:00Sat 	 11c 	 2%
07:00Sat 	 11c 	 4%
08:00Sat 	 11c 	 7%
09:00Sat 	 12c 	 8%
10:00Sat 	 13c 	 9%
11:00Sat 	 14c 	 8%
12:00Sat 	 15c 	 7%
13:00Sat 	 15c 	 7%
14:00Sat 	 16c 	 6%
15:00Sat 	 16c 	 5%
16:00Sat 	 16c 	 6%
17:00Sat 	 15c 	 6%
18:00Sat 	 15c 	 7%
19:00Sat 	 14c 	 7%
20:00Sat 	 14c 	 8%
21:00Sat 	 13c 	 9%
22:00Sat 	 13c 	 8%
23:00Sat 	 12c 	 7%


00:00Sat 	 13c 	 3%
01:00Sat 	 12c 	 2%
02:00Sat 	 12c 	 2%
03:00Sat 	 12c 	 2%
04:00Sat 	 11c 	 3%
05:00Sat 	 11c 	 3%
06:00Sat 	 11c 	 4%
07:00Sat 	 11c 	 4%
08:00Sat 	 12c 	 4%
09:00Sat 	 13c 	 4%
10:00Sat 	 14c 	 6%
11:00Sat 	 15c 	 9%
12:00Sat 	 15c 	 11%
13:00Sat 	 16c 	 10%
14:00Sat 	 17c 	 9%
15:00Sat 	 17c 	 9%
16:00Sat 	 16c 	 9%
17:00Sat 	 16c 	 8%
18:00Sat 	 15c 	 7%
19:00Sat 	 15c 	 6%
20:00Sat 	 14c 	 7%
21:00Sat 	 13c 	 8%
22:00Sat 	 13c 	 8%
23:00Sat 	 12c 	 7%


00:00Sat 	 13c 	 3%
01:00Sat 	 12c 	 2%
02:00Sat 	 12c 	 2%
03:00Sat 	 12c 	 2%
04:00Sat 	 11c 	 3%
05:00Sat 	 11c 	 3%
06:00Sat 	 11c 	 4%
07:00Sat 	 11c 	 4%
08:00Sat 	 12c 	 4%
09:00Sat 	 13c 	 4%
10:00Sat 	 14c 	 6%
11:00Sat 	 15c 	 9%
12:00Sat 	 15c 	 11%
13:00Sat 	 16c 	 10%
14:00Sat 	 17c 	 9%
15:00Sat 	 17c 	 9%
16:00Sat 	 16c 	 9%
17:00Sat 	 16c 	 8%
18:00Sat 	 15c 	 7%
19:00Sat 	 15c 	 6%
20:00Sat 	 14c 	 7%
21:00Sat 	 13c 	 8%
22:00Sat 	 13c 	 8%
23:00Sat 	 12c 	 7%


00:00Sat 	 13c 	 3%
01:00Sat 	 12c 	 2%
02:00Sat 	 12c 	 2%
03:00Sat 	 12c 	 2%
04:00Sat 	 11c 	 3%
05:00Sat 	 11c 	 3%
06:00Sat 	 11c 	 4%
07:00Sat 	 11c 	 4%
08:00Sat 	 12c 	 4%
09:00Sat 	 13c 	 4%
10:00Sat 	 14c 	 6%
11:00Sat 	 15c 	 9%
12:00Sat 	 15c 	 11%
13:00Sat 	 16c 	 10%
14:00Sat 	 17c 	 9%
15:00Sat 	 17c 	 9%
16:00Sat 	 16c 	 9%
17:00Sat 	 16c 	 8%
18:00Sat 	 15c 	 7%
19:00Sat 	 15c 	 6%
20:00Sat 	 14c 	 7%
21:00Sat 	 13c 	 8%
22:00Sat 	 13c 	 8%
23:00Sat 	 12c 	 7%


00:00Sat 	 13c 	 3%
01:00Sat 	 12c 	 2%
02:00Sat 	 12c 	 2%
03:00Sat 	 12c 	 2%
04:00Sat 	 11c 	 3%
05:00Sat 	 11c 	 3%
06:00Sat 	 11c 	 4%
07:00Sat 	 11c 	 4%
08:00Sat 	 12c 	 4%
09:00Sat 	 13c 	 4%
10:00Sat 	 14c 	 6%
11:00Sat 	 15c 	 9%
12:00Sat 	 15c 	 11%
13:00Sat 	 16c 	 10%
14:00Sat 	 17c 	 9%
15:00Sat 	 17c 	 9%
16:00Sat 	 16c 	 9%
17:00Sat 	 16c 	 8%
18:00Sat 	 15c 	 7%
19:00Sat 	 15c 	 6%
20:00Sat 	 14c 	 7%
21:00Sat 	 13c 	 8%
22:00Sat 	 13c 	 8%
23:00Sat 	 12c 	 7%


00:00Sat 	 13c 	 3%
01:00Sat 	 12c 	 2%
02:00Sat 	 12c 	 2%
03:00Sat 	 12c 	 2%
04:00Sat 	 11c 	 3%
05:00Sat 	 11c 	 3%
06:00Sat 	 11c 	 4%
07:00Sat 	 11c 	 4%
08:00Sat 	 12c 	 4%
09:00Sat 	 13c 	 4%
10:00Sat 	 14c 	 6%
11:00Sat 	 15c 	 9%
12:00Sat 	 15c 	 11%
13:00Sat 	 16c 	 10%
14:00Sat 	 17c 	 9%
15:00Sat 	 17c 	 9%
16:00Sat 	 16c 	 9%
17:00Sat 	 16c 	 8%
18:00Sat 	 15c 	 7%
19:00Sat 	 15c 	 6%
20:00Sat 	 14c 	 7%
21:00Sat 	 13c 	 8%
22:00Sat 	 13c 	 8%
23:00Sat 	 12c 	 7%


00:00Sat 	 13c 	 3%
01:00Sat 	 12c 	 2%
02:00Sat 	 12c 	 2%
03:00Sat 	 12c 	 2%
04:00Sat 	 11c 	 3%
05:00Sat 	 11c 	 3%
06:00Sat 	 11c 	 4%
07:00Sat 	 11c 	 4%
08:00Sat 	 12c 	 4%
09:00Sat 	 13c 	 4%
10:00Sat 	 14c 	 6%
11:00Sat 	 15c 	 9%
12:00Sat 	 15c 	 11%
13:00Sat 	 16c 	 10%
14:00Sat 	 17c 	 9%
15:00Sat 	 17c 	 9%
16:00Sat 	 16c 	 9%
17:00Sat 	 16c 	 8%
18:00Sat 	 15c 	 7%
19:00Sat 	 15c 	 6%
20:00Sat 	 14c 	 7%
21:00Sat 	 13c 	 8%
22:00Sat 	 13c 	 8%
23:00Sat 	 12c 	 7%


00:00Sat 	 13c 	 3%
01:00Sat 	 12c 	 2%
02:00Sat 	 12c 	 2%
03:00Sat 	 12c 	 2%
04:00Sat 	 11c 	 3%
05:00Sat 	 11c 	 3%
06:00Sat 	 11c 	 4%
07:00Sat 	 11c 	 4%
08:00Sat 	 12c 	 4%
09:00Sat 	 13c 	 4%
10:00Sat 	 14c 	 6%
11:00Sat 	 15c 	 9%
12:00Sat 	 15c 	 11%
13:00Sat 	 16c 	 10%
14:00Sat 	 17c 	 9%
15:00Sat 	 17c 	 9%
16:00Sat 	 16c 	 9%
17:00Sat 	 16c 	 8%
18:00Sat 	 15c 	 7%
19:00Sat 	 15c 	 6%
20:00Sat 	 14c 	 7%
21:00Sat 	 13c 	 8%
22:00Sat 	 13c 	 8%
23:00Sat 	 12c 	 7%


00:00Sat 	 13c 	 3%
01:00Sat 	 12c 	 2%
02:00Sat 	 12c 	 2%
03:00Sat 	 12c 	 2%
04:00Sat 	 11c 	 3%
05:00Sat 	 11c 	 3%
06:00Sat 	 11c 	 4%
07:00Sat 	 11c 	 4%
08:00Sat 	 12c 	 4%
09:00Sat 	 13c 	 4%
10:00Sat 	 14c 	 6%
11:00Sat 	 15c 	 9%
12:00Sat 	 15c 	 11%
13:00Sat 	 16c 	 10%
14:00Sat 	 17c 	 9%
15:00Sat 	 17c 	 9%
16:00Sat 	 16c 	 9%
17:00Sat 	 16c 	 8%
18:00Sat 	 15c 	 7%
19:00Sat 	 15c 	 6%
20:00Sat 	 14c 	 7%
21:00Sat 	 13c 	 8%
22:00Sat 	 13c 	 8%
23:00Sat 	 12c 	 7%


00:00Sat 	 13c 	 3%
01:00Sat 	 12c 	 2%
02:00Sat 	 12c 	 2%
03:00Sat 	 12c 	 2%
04:00Sat 	 11c 	 3%
05:00Sat 	 11c 	 3%
06:00Sat 	 11c 	 3%
07:00Sat 	 11c 	 4%
08:00Sat 	 12c 	 4%
09:00Sat 	 13c 	 5%
10:00Sat 	 14c 	 6%
11:00Sat 	 15c 	 9%
12:00Sat 	 15c 	 11%
13:00Sat 	 16c 	 10%
14:00Sat 	 17c 	 10%
15:00Sat 	 17c 	 10%
16:00Sat 	 16c 	 9%
17:00Sat 	 16c 	 8%
18:00Sat 	 15c 	 7%
19:00Sat 	 15c 	 6%
20:00Sat 	 14c 	 6%
21:00Sat 	 13c 	 9%
22:00Sat 	 13c 	 10%
23:00Sat 	 12c 	 9%


00:00Sat 	 13c 	 3%
01:00Sat 	 12c 	 2%
02:00Sat 	 12c 	 2%
03:00Sat 	 12c 	 2%
04:00Sat 	 11c 	 3%
05:00Sat 	 11c 	 3%
06:00Sat 	 11c 	 3%
07:00Sat 	 11c 	 4%
08:00Sat 	 12c 	 4%
09:00Sat 	 13c 	 5%
10:00Sat 	 14c 	 6%
11:00Sat 	 15c 	 9%
12:00Sat 	 15c 	 11%
13:00Sat 	 16c 	 10%
14:00Sat 	 17c 	 10%
15:00Sat 	 17c 	 10%
16:00Sat 	 16c 	 9%
17:00Sat 	 16c 	 8%
18:00Sat 	 15c 	 7%
19:00Sat 	 15c 	 6%
20:00Sat 	 14c 	 6%
21:00Sat 	 13c 	 9%
22:00Sat 	 13c 	 10%
23:00Sat 	 12c 	 9%


00:00Sat 	 13c 	 3%
01:00Sat 	 12c 	 2%
02:00Sat 	 12c 	 2%
03:00Sat 	 12c 	 2%
04:00Sat 	 11c 	 3%
05:00Sat 	 11c 	 3%
06:00Sat 	 11c 	 3%
07:00Sat 	 11c 	 4%
08:00Sat 	 12c 	 4%
09:00Sat 	 13c 	 5%
10:00Sat 	 14c 	 6%
11:00Sat 	 15c 	 9%
12:00Sat 	 15c 	 11%
13:00Sat 	 16c 	 10%
14:00Sat 	 17c 	 10%
15:00Sat 	 17c 	 10%
16:00Sat 	 16c 	 9%
17:00Sat 	 16c 	 8%
18:00Sat 	 15c 	 7%
19:00Sat 	 15c 	 6%
20:00Sat 	 14c 	 6%
21:00Sat 	 13c 	 9%
22:00Sat 	 13c 	 10%
23:00Sat 	 12c 	 9%


00:00Sat 	 13c 	 3%
01:00Sat 	 12c 	 2%
02:00Sat 	 12c 	 2%
03:00Sat 	 12c 	 2%
04:00Sat 	 11c 	 3%
05:00Sat 	 11c 	 3%
06:00Sat 	 11c 	 3%
07:00Sat 	 11c 	 4%
08:00Sat 	 12c 	 4%
09:00Sat 	 13c 	 5%
10:00Sat 	 14c 	 6%
11:00Sat 	 15c 	 9%
12:00Sat 	 15c 	 11%
13:00Sat 	 16c 	 10%
14:00Sat 	 17c 	 10%
15:00Sat 	 17c 	 10%
16:00Sat 	 16c 	 9%
17:00Sat 	 16c 	 8%
18:00Sat 	 15c 	 7%
19:00Sat 	 15c 	 6%
20:00Sat 	 14c 	 6%
21:00Sat 	 13c 	 9%
22:00Sat 	 13c 	 10%
23:00Sat 	 12c 	 9%


00:00Sat 	 13c 	 3%
01:00Sat 	 12c 	 2%
02:00Sat 	 12c 	 2%
03:00Sat 	 12c 	 2%
04:00Sat 	 11c 	 3%
05:00Sat 	 11c 	 3%
06:00Sat 	 11c 	 3%
07:00Sat 	 11c 	 4%
08:00Sat 	 12c 	 4%
09:00Sat 	 13c 	 5%
10:00Sat 	 14c 	 6%
11:00Sat 	 15c 	 9%
12:00Sat 	 15c 	 11%
13:00Sat 	 16c 	 10%
14:00Sat 	 17c 	 10%
15:00Sat 	 17c 	 10%
16:00Sat 	 16c 	 9%
17:00Sat 	 16c 	 8%
18:00Sat 	 15c 	 7%
19:00Sat 	 15c 	 6%
20:00Sat 	 14c 	 6%
21:00Sat 	 13c 	 9%
22:00Sat 	 13c 	 10%
23:00Sat 	 12c 	 8%


00:00Sat 	 13c 	 3%
01:00Sat 	 12c 	 2%
02:00Sat 	 12c 	 2%
03:00Sat 	 12c 	 2%
04:00Sat 	 11c 	 3%
05:00Sat 	 11c 	 3%
06:00Sat 	 11c 	 3%
07:00Sat 	 11c 	 4%
08:00Sat 	 12c 	 4%
09:00Sat 	 13c 	 5%
10:00Sat 	 14c 	 6%
11:00Sat 	 15c 	 9%
12:00Sat 	 15c 	 11%
13:00Sat 	 16c 	 10%
14:00Sat 	 17c 	 10%
15:00Sat 	 17c 	 10%
16:00Sat 	 16c 	 9%
17:00Sat 	 16c 	 8%
18:00Sat 	 15c 	 7%
19:00Sat 	 15c 	 6%
20:00Sat 	 14c 	 6%
21:00Sat 	 13c 	 9%
22:00Sat 	 13c 	 10%
23:00Sat 	 12c 	 8%


00:00Sat 	 13c 	 3%
01:00Sat 	 12c 	 2%
02:00Sat 	 12c 	 2%
03:00Sat 	 12c 	 2%
04:00Sat 	 11c 	 3%
05:00Sat 	 11c 	 3%
06:00Sat 	 11c 	 3%
07:00Sat 	 11c 	 4%
08:00Sat 	 12c 	 4%
09:00Sat 	 13c 	 5%
10:00Sat 	 14c 	 6%
11:00Sat 	 15c 	 9%
12:00Sat 	 15c 	 11%
13:00Sat 	 16c 	 10%
14:00Sat 	 17c 	 10%
15:00Sat 	 17c 	 10%
16:00Sat 	 16c 	 9%
17:00Sat 	 16c 	 8%
18:00Sat 	 15c 	 7%
19:00Sat 	 15c 	 6%
20:00Sat 	 14c 	 6%
21:00Sat 	 13c 	 9%
22:00Sat 	 13c 	 10%
23:00Sat 	 12c 	 8%


00:00Sat 	 13c 	 3%
01:00Sat 	 12c 	 2%
02:00Sat 	 12c 	 2%
03:00Sat 	 12c 	 2%
04:00Sat 	 11c 	 3%
05:00Sat 	 11c 	 3%
06:00Sat 	 11c 	 3%
07:00Sat 	 11c 	 4%
08:00Sat 	 12c 	 4%
09:00Sat 	 13c 	 5%
10:00Sat 	 14c 	 6%
11:00Sat 	 15c 	 9%
12:00Sat 	 15c 	 11%
13:00Sat 	 16c 	 10%
14:00Sat 	 17c 	 10%
15:00Sat 	 17c 	 10%
16:00Sat 	 16c 	 9%
17:00Sat 	 16c 	 8%
18:00Sat 	 15c 	 7%
19:00Sat 	 15c 	 6%
20:00Sat 	 14c 	 6%
21:00Sat 	 13c 	 9%
22:00Sat 	 13c 	 10%
23:00Sat 	 12c 	 8%


00:00Sat 	 13c 	 3%
01:00Sat 	 12c 	 2%
02:00Sat 	 12c 	 2%
03:00Sat 	 12c 	 2%
04:00Sat 	 11c 	 3%
05:00Sat 	 11c 	 3%
06:00Sat 	 11c 	 3%
07:00Sat 	 11c 	 4%
08:00Sat 	 12c 	 4%
09:00Sat 	 13c 	 5%
10:00Sat 	 14c 	 6%
11:00Sat 	 15c 	 9%
12:00Sat 	 15c 	 11%
13:00Sat 	 16c 	 10%
14:00Sat 	 17c 	 10%
15:00Sat 	 17c 	 10%
16:00Sat 	 16c 	 9%
17:00Sat 	 16c 	 8%
18:00Sat 	 15c 	 7%
19:00Sat 	 15c 	 6%
20:00Sat 	 14c 	 6%
21:00Sat 	 13c 	 9%
22:00Sat 	 13c 	 10%
23:00Sat 	 12c 	 8%


00:00Sat 	 13c 	 3%
01:00Sat 	 12c 	 2%
02:00Sat 	 12c 	 2%
03:00Sat 	 12c 	 2%
04:00Sat 	 11c 	 3%
05:00Sat 	 11c 	 3%
06:00Sat 	 11c 	 3%
07:00Sat 	 11c 	 4%
08:00Sat 	 12c 	 4%
09:00Sat 	 13c 	 5%
10:00Sat 	 14c 	 6%
11:00Sat 	 15c 	 9%
12:00Sat 	 15c 	 11%
13:00Sat 	 16c 	 10%
14:00Sat 	 17c 	 10%
15:00Sat 	 17c 	 10%
16:00Sat 	 16c 	 9%
17:00Sat 	 16c 	 8%
18:00Sat 	 15c 	 7%
19:00Sat 	 15c 	 6%
20:00Sat 	 14c 	 6%
21:00Sat 	 13c 	 9%
22:00Sat 	 13c 	 10%
23:00Sat 	 12c 	 8%


00:00Sat 	 13c 	 3%
01:00Sat 	 12c 	 2%
02:00Sat 	 12c 	 2%
03:00Sat 	 12c 	 2%
04:00Sat 	 11c 	 3%
05:00Sat 	 11c 	 3%
06:00Sat 	 11c 	 3%
07:00Sat 	 11c 	 4%
08:00Sat 	 12c 	 4%
09:00Sat 	 13c 	 5%
10:00Sat 	 14c 	 6%
11:00Sat 	 15c 	 9%
12:00Sat 	 15c 	 11%
13:00Sat 	 16c 	 10%
14:00Sat 	 17c 	 10%
15:00Sat 	 17c 	 10%
16:00Sat 	 16c 	 9%
17:00Sat 	 16c 	 8%
18:00Sat 	 15c 	 7%
19:00Sat 	 15c 	 6%
20:00Sat 	 14c 	 6%
21:00Sat 	 13c 	 9%
22:00Sat 	 13c 	 10%
23:00Sat 	 12c 	 8%


00:00Sat 	 13c 	 3%
01:00Sat 	 12c 	 2%
02:00Sat 	 12c 	 2%
03:00Sat 	 12c 	 2%
04:00Sat 	 11c 	 3%
05:00Sat 	 11c 	 3%
06:00Sat 	 11c 	 3%
07:00Sat 	 11c 	 4%
08:00Sat 	 12c 	 4%
09:00Sat 	 13c 	 5%
10:00Sat 	 14c 	 6%
11:00Sat 	 15c 	 9%
12:00Sat 	 15c 	 11%
13:00Sat 	 16c 	 10%
14:00Sat 	 17c 	 10%
15:00Sat 	 17c 	 10%
16:00Sat 	 16c 	 9%
17:00Sat 	 16c 	 8%
18:00Sat 	 15c 	 7%
19:00Sat 	 15c 	 6%
20:00Sat 	 14c 	 6%
21:00Sat 	 13c 	 9%
22:00Sat 	 13c 	 10%
23:00Sat 	 12c 	 8%


00:00Sat 	 13c 	 3%
01:00Sat 	 12c 	 2%
02:00Sat 	 12c 	 2%
03:00Sat 	 12c 	 2%
04:00Sat 	 11c 	 3%
05:00Sat 	 11c 	 3%
06:00Sat 	 11c 	 3%
07:00Sat 	 11c 	 4%
08:00Sat 	 12c 	 4%
09:00Sat 	 13c 	 5%
10:00Sat 	 14c 	 6%
11:00Sat 	 15c 	 9%
12:00Sat 	 15c 	 11%
13:00Sat 	 16c 	 10%
14:00Sat 	 17c 	 10%
15:00Sat 	 17c 	 10%
16:00Sat 	 16c 	 9%
17:00Sat 	 16c 	 8%
18:00Sat 	 15c 	 7%
19:00Sat 	 15c 	 6%
20:00Sat 	 14c 	 6%
21:00Sat 	 13c 	 9%
22:00Sat 	 13c 	 10%
23:00Sat 	 12c 	 8%


00:00Sat 	 13c 	 3%
01:00Sat 	 12c 	 2%
02:00Sat 	 12c 	 2%
03:00Sat 	 12c 	 2%
04:00Sat 	 11c 	 3%
05:00Sat 	 11c 	 3%
06:00Sat 	 11c 	 3%
07:00Sat 	 11c 	 4%
08:00Sat 	 12c 	 4%
09:00Sat 	 13c 	 5%
10:00Sat 	 14c 	 6%
11:00Sat 	 15c 	 9%
12:00Sat 	 15c 	 11%
13:00Sat 	 16c 	 10%
14:00Sat 	 17c 	 10%
15:00Sat 	 17c 	 10%
16:00Sat 	 16c 	 9%
17:00Sat 	 16c 	 8%
18:00Sat 	 15c 	 7%
19:00Sat 	 15c 	 6%
20:00Sat 	 14c 	 6%
21:00Sat 	 13c 	 9%
22:00Sat 	 13c 	 10%
23:00Sat 	 12c 	 8%


00:00Sat 	 13c 	 3%
01:00Sat 	 12c 	 2%
02:00Sat 	 12c 	 2%
03:00Sat 	 12c 	 2%
04:00Sat 	 11c 	 3%
05:00Sat 	 11c 	 3%
06:00Sat 	 11c 	 3%
07:00Sat 	 11c 	 4%
08:00Sat 	 12c 	 4%
09:00Sat 	 13c 	 5%
10:00Sat 	 14c 	 6%
11:00Sat 	 15c 	 9%
12:00Sat 	 15c 	 11%
13:00Sat 	 16c 	 10%
14:00Sat 	 17c 	 10%
15:00Sat 	 17c 	 10%
16:00Sat 	 16c 	 9%
17:00Sat 	 16c 	 8%
18:00Sat 	 15c 	 7%
19:00Sat 	 15c 	 6%
20:00Sat 	 14c 	 6%
21:00Sat 	 13c 	 9%
22:00Sat 	 13c 	 10%
23:00Sat 	 12c 	 8%


00:00Sat 	 13c 	 3%
01:00Sat 	 12c 	 2%
02:00Sat 	 12c 	 2%
03:00Sat 	 12c 	 2%
04:00Sat 	 11c 	 3%
05:00Sat 	 11c 	 3%
06:00Sat 	 11c 	 3%
07:00Sat 	 11c 	 4%
08:00Sat 	 12c 	 4%
09:00Sat 	 13c 	 5%
10:00Sat 	 14c 	 6%
11:00Sat 	 15c 	 9%
12:00Sat 	 15c 	 11%
13:00Sat 	 16c 	 10%
14:00Sat 	 17c 	 10%
15:00Sat 	 17c 	 10%
16:00Sat 	 16c 	 9%
17:00Sat 	 16c 	 8%
18:00Sat 	 15c 	 7%
19:00Sat 	 15c 	 6%
20:00Sat 	 14c 	 6%
21:00Sat 	 13c 	 9%
22:00Sat 	 13c 	 10%
23:00Sat 	 12c 	 8%


00:00Sat 	 13c 	 3%
01:00Sat 	 12c 	 2%
02:00Sat 	 12c 	 2%
03:00Sat 	 12c 	 2%
04:00Sat 	 11c 	 3%
05:00Sat 	 11c 	 3%
06:00Sat 	 11c 	 3%
07:00Sat 	 11c 	 4%
08:00Sat 	 12c 	 4%
09:00Sat 	 13c 	 5%
10:00Sat 	 14c 	 6%
11:00Sat 	 15c 	 9%
12:00Sat 	 15c 	 11%
13:00Sat 	 16c 	 10%
14:00Sat 	 17c 	 10%
15:00Sat 	 17c 	 10%
16:00Sat 	 16c 	 9%
17:00Sat 	 16c 	 8%
18:00Sat 	 15c 	 7%
19:00Sat 	 15c 	 6%
20:00Sat 	 14c 	 6%
21:00Sat 	 13c 	 9%
22:00Sat 	 13c 	 10%
23:00Sat 	 12c 	 8%


00:00Sat 	 13c 	 3%
01:00Sat 	 12c 	 2%
02:00Sat 	 12c 	 2%
03:00Sat 	 12c 	 2%
04:00Sat 	 11c 	 3%
05:00Sat 	 11c 	 3%
06:00Sat 	 11c 	 3%
07:00Sat 	 11c 	 4%
08:00Sat 	 12c 	 4%
09:00Sat 	 13c 	 5%
10:00Sat 	 14c 	 6%
11:00Sat 	 15c 	 9%
12:00Sat 	 15c 	 11%
13:00Sat 	 16c 	 10%
14:00Sat 	 17c 	 10%
15:00Sat 	 17c 	 10%
16:00Sat 	 16c 	 9%
17:00Sat 	 16c 	 8%
18:00Sat 	 15c 	 7%
19:00Sat 	 15c 	 6%
20:00Sat 	 14c 	 6%
21:00Sat 	 13c 	 9%
22:00Sat 	 13c 	 10%
23:00Sat 	 12c 	 8%


00:00Sat 	 13c 	 3%
01:00Sat 	 12c 	 2%
02:00Sat 	 12c 	 2%
03:00Sat 	 12c 	 2%
04:00Sat 	 11c 	 3%
05:00Sat 	 11c 	 3%
06:00Sat 	 11c 	 3%
07:00Sat 	 11c 	 4%
08:00Sat 	 12c 	 4%
09:00Sat 	 13c 	 5%
10:00Sat 	 14c 	 6%
11:00Sat 	 15c 	 9%
12:00Sat 	 15c 	 11%
13:00Sat 	 16c 	 10%
14:00Sat 	 17c 	 10%
15:00Sat 	 17c 	 10%
16:00Sat 	 16c 	 9%
17:00Sat 	 16c 	 8%
18:00Sat 	 15c 	 7%
19:00Sat 	 15c 	 6%
20:00Sat 	 14c 	 6%
21:00Sat 	 13c 	 9%
22:00Sat 	 13c 	 10%
23:00Sat 	 12c 	 8%


00:00Sat 	 13c 	 3%
01:00Sat 	 12c 	 2%
02:00Sat 	 12c 	 2%
03:00Sat 	 12c 	 2%
04:00Sat 	 11c 	 3%
05:00Sat 	 11c 	 3%
06:00Sat 	 11c 	 3%
07:00Sat 	 11c 	 4%
08:00Sat 	 12c 	 4%
09:00Sat 	 13c 	 5%
10:00Sat 	 14c 	 6%
11:00Sat 	 15c 	 9%
12:00Sat 	 15c 	 11%
13:00Sat 	 16c 	 10%
14:00Sat 	 17c 	 10%
15:00Sat 	 17c 	 10%
16:00Sat 	 16c 	 9%
17:00Sat 	 16c 	 8%
18:00Sat 	 15c 	 7%
19:00Sat 	 15c 	 6%
20:00Sat 	 14c 	 6%
21:00Sat 	 13c 	 9%
22:00Sat 	 13c 	 10%
23:00Sat 	 12c 	 8%


00:00Sat 	 13c 	 3%
01:00Sat 	 12c 	 2%
02:00Sat 	 12c 	 2%
03:00Sat 	 12c 	 2%
04:00Sat 	 11c 	 3%
05:00Sat 	 11c 	 3%
06:00Sat 	 11c 	 3%
07:00Sat 	 11c 	 4%
08:00Sat 	 12c 	 4%
09:00Sat 	 13c 	 5%
10:00Sat 	 14c 	 6%
11:00Sat 	 15c 	 9%
12:00Sat 	 15c 	 11%
13:00Sat 	 16c 	 10%
14:00Sat 	 17c 	 10%
15:00Sat 	 17c 	 10%
16:00Sat 	 16c 	 9%
17:00Sat 	 16c 	 8%
18:00Sat 	 15c 	 7%
19:00Sat 	 15c 	 6%
20:00Sat 	 14c 	 6%
21:00Sat 	 13c 	 9%
22:00Sat 	 13c 	 10%
23:00Sat 	 12c 	 8%


00:00Sat 	 13c 	 3%
01:00Sat 	 12c 	 2%
02:00Sat 	 12c 	 2%
03:00Sat 	 12c 	 2%
04:00Sat 	 11c 	 3%
05:00Sat 	 11c 	 3%
06:00Sat 	 11c 	 3%
07:00Sat 	 11c 	 4%
08:00Sat 	 12c 	 4%
09:00Sat 	 13c 	 5%
10:00Sat 	 14c 	 6%
11:00Sat 	 15c 	 9%
12:00Sat 	 15c 	 11%
13:00Sat 	 16c 	 10%
14:00Sat 	 17c 	 10%
15:00Sat 	 17c 	 10%
16:00Sat 	 16c 	 9%
17:00Sat 	 16c 	 8%
18:00Sat 	 15c 	 7%
19:00Sat 	 15c 	 6%
20:00Sat 	 14c 	 6%
21:00Sat 	 13c 	 9%
22:00Sat 	 13c 	 10%
23:00Sat 	 12c 	 8%


00:00Sat 	 13c 	 3%
01:00Sat 	 12c 	 2%
02:00Sat 	 12c 	 2%
03:00Sat 	 12c 	 2%
04:00Sat 	 11c 	 3%
05:00Sat 	 11c 	 3%
06:00Sat 	 11c 	 3%
07:00Sat 	 11c 	 4%
08:00Sat 	 12c 	 4%
09:00Sat 	 13c 	 5%
10:00Sat 	 14c 	 6%
11:00Sat 	 15c 	 9%
12:00Sat 	 15c 	 11%
13:00Sat 	 16c 	 10%
14:00Sat 	 17c 	 10%
15:00Sat 	 17c 	 10%
16:00Sat 	 16c 	 9%
17:00Sat 	 16c 	 8%
18:00Sat 	 15c 	 7%
19:00Sat 	 15c 	 6%
20:00Sat 	 14c 	 6%
21:00Sat 	 13c 	 9%
22:00Sat 	 13c 	 10%
23:00Sat 	 12c 	 8%


00:00Sat 	 13c 	 3%
01:00Sat 	 12c 	 2%
02:00Sat 	 12c 	 2%
03:00Sat 	 12c 	 2%
04:00Sat 	 11c 	 3%
05:00Sat 	 11c 	 3%
06:00Sat 	 11c 	 3%
07:00Sat 	 11c 	 4%
08:00Sat 	 12c 	 4%
09:00Sat 	 13c 	 5%
10:00Sat 	 14c 	 6%
11:00Sat 	 15c 	 9%
12:00Sat 	 15c 	 11%
13:00Sat 	 16c 	 10%
14:00Sat 	 17c 	 10%
15:00Sat 	 17c 	 10%
16:00Sat 	 16c 	 9%
17:00Sat 	 16c 	 8%
18:00Sat 	 15c 	 7%
19:00Sat 	 15c 	 6%
20:00Sat 	 14c 	 6%
21:00Sat 	 13c 	 9%
22:00Sat 	 13c 	 10%
23:00Sat 	 12c 	 8%


00:00Sat 	 13c 	 3%
01:00Sat 	 12c 	 2%
02:00Sat 	 12c 	 2%
03:00Sat 	 12c 	 2%
04:00Sat 	 11c 	 3%
05:00Sat 	 11c 	 3%
06:00Sat 	 11c 	 3%
07:00Sat 	 11c 	 4%
08:00Sat 	 12c 	 4%
09:00Sat 	 13c 	 5%
10:00Sat 	 14c 	 6%
11:00Sat 	 15c 	 9%
12:00Sat 	 15c 	 11%
13:00Sat 	 16c 	 10%
14:00Sat 	 17c 	 10%
15:00Sat 	 17c 	 10%
16:00Sat 	 16c 	 9%
17:00Sat 	 16c 	 8%
18:00Sat 	 15c 	 7%
19:00Sat 	 15c 	 6%
20:00Sat 	 14c 	 6%
21:00Sat 	 13c 	 9%
22:00Sat 	 13c 	 10%
23:00Sat 	 12c 	 8%


00:00Sat 	 13c 	 3%
01:00Sat 	 12c 	 2%
02:00Sat 	 12c 	 2%
03:00Sat 	 12c 	 2%
04:00Sat 	 11c 	 3%
05:00Sat 	 11c 	 3%
06:00Sat 	 11c 	 3%
07:00Sat 	 11c 	 4%
08:00Sat 	 12c 	 4%
09:00Sat 	 13c 	 5%
10:00Sat 	 14c 	 6%
11:00Sat 	 15c 	 9%
12:00Sat 	 15c 	 11%
13:00Sat 	 16c 	 10%
14:00Sat 	 17c 	 10%
15:00Sat 	 17c 	 10%
16:00Sat 	 16c 	 9%
17:00Sat 	 16c 	 8%
18:00Sat 	 15c 	 7%
19:00Sat 	 15c 	 6%
20:00Sat 	 14c 	 6%
21:00Sat 	 13c 	 9%
22:00Sat 	 13c 	 10%
23:00Sat 	 12c 	 8%


00:00Sat 	 13c 	 3%
01:00Sat 	 12c 	 2%
02:00Sat 	 12c 	 2%
03:00Sat 	 12c 	 2%
04:00Sat 	 11c 	 3%
05:00Sat 	 11c 	 3%
06:00Sat 	 11c 	 3%
07:00Sat 	 11c 	 4%
08:00Sat 	 12c 	 4%
09:00Sat 	 13c 	 5%
10:00Sat 	 14c 	 6%
11:00Sat 	 15c 	 9%
12:00Sat 	 15c 	 11%
13:00Sat 	 16c 	 10%
14:00Sat 	 17c 	 10%
15:00Sat 	 17c 	 10%
16:00Sat 	 16c 	 9%
17:00Sat 	 16c 	 8%
18:00Sat 	 15c 	 7%
19:00Sat 	 15c 	 6%
20:00Sat 	 14c 	 6%
21:00Sat 	 13c 	 9%
22:00Sat 	 13c 	 10%
23:00Sat 	 12c 	 8%


00:00Sat 	 13c 	 3%
01:00Sat 	 12c 	 2%
02:00Sat 	 12c 	 2%
03:00Sat 	 12c 	 2%
04:00Sat 	 11c 	 3%
05:00Sat 	 11c 	 3%
06:00Sat 	 11c 	 3%
07:00Sat 	 11c 	 4%
08:00Sat 	 12c 	 4%
09:00Sat 	 13c 	 5%
10:00Sat 	 14c 	 6%
11:00Sat 	 15c 	 9%
12:00Sat 	 15c 	 11%
13:00Sat 	 16c 	 10%
14:00Sat 	 17c 	 10%
15:00Sat 	 17c 	 10%
16:00Sat 	 16c 	 9%
17:00Sat 	 16c 	 8%
18:00Sat 	 15c 	 7%
19:00Sat 	 15c 	 6%
20:00Sat 	 14c 	 6%
21:00Sat 	 13c 	 9%
22:00Sat 	 13c 	 10%
23:00Sat 	 12c 	 8%


00:00Sat 	 13c 	 3%
01:00Sat 	 12c 	 2%
02:00Sat 	 12c 	 2%
03:00Sat 	 12c 	 2%
04:00Sat 	 11c 	 3%
05:00Sat 	 11c 	 3%
06:00Sat 	 11c 	 3%
07:00Sat 	 11c 	 4%
08:00Sat 	 12c 	 4%
09:00Sat 	 13c 	 5%
10:00Sat 	 14c 	 6%
11:00Sat 	 15c 	 9%
12:00Sat 	 15c 	 11%
13:00Sat 	 16c 	 10%
14:00Sat 	 17c 	 10%
15:00Sat 	 17c 	 10%
16:00Sat 	 16c 	 9%
17:00Sat 	 16c 	 8%
18:00Sat 	 15c 	 7%
19:00Sat 	 15c 	 6%
20:00Sat 	 14c 	 6%
21:00Sat 	 13c 	 9%
22:00Sat 	 13c 	 10%
23:00Sat 	 12c 	 8%


00:00Sat 	 13c 	 3%
01:00Sat 	 12c 	 2%
02:00Sat 	 12c 	 2%
03:00Sat 	 12c 	 2%
04:00Sat 	 11c 	 3%
05:00Sat 	 11c 	 3%
06:00Sat 	 11c 	 3%
07:00Sat 	 11c 	 4%
08:00Sat 	 12c 	 4%
09:00Sat 	 13c 	 5%
10:00Sat 	 14c 	 6%
11:00Sat 	 15c 	 9%
12:00Sat 	 15c 	 11%
13:00Sat 	 16c 	 10%
14:00Sat 	 17c 	 10%
15:00Sat 	 17c 	 10%
16:00Sat 	 16c 	 9%
17:00Sat 	 16c 	 8%
18:00Sat 	 15c 	 7%
19:00Sat 	 15c 	 6%
20:00Sat 	 14c 	 6%
21:00Sat 	 13c 	 9%
22:00Sat 	 13c 	 10%
23:00Sat 	 12c 	 8%


00:00Sat 	 13c 	 3%
01:00Sat 	 12c 	 2%
02:00Sat 	 12c 	 2%
03:00Sat 	 12c 	 2%
04:00Sat 	 11c 	 3%
05:00Sat 	 11c 	 3%
06:00Sat 	 11c 	 3%
07:00Sat 	 11c 	 4%
08:00Sat 	 12c 	 4%
09:00Sat 	 13c 	 5%
10:00Sat 	 14c 	 6%
11:00Sat 	 15c 	 9%
12:00Sat 	 15c 	 11%
13:00Sat 	 16c 	 10%
14:00Sat 	 17c 	 10%
15:00Sat 	 17c 	 10%
16:00Sat 	 16c 	 9%
17:00Sat 	 16c 	 8%
18:00Sat 	 15c 	 7%
19:00Sat 	 15c 	 6%
20:00Sat 	 14c 	 6%
21:00Sat 	 13c 	 9%
22:00Sat 	 13c 	 10%
23:00Sat 	 12c 	 8%


00:00Sat 	 13c 	 3%
01:00Sat 	 12c 	 2%
02:00Sat 	 12c 	 2%
03:00Sat 	 12c 	 2%
04:00Sat 	 11c 	 3%
05:00Sat 	 11c 	 3%
06:00Sat 	 11c 	 3%
07:00Sat 	 11c 	 4%
08:00Sat 	 12c 	 4%
09:00Sat 	 13c 	 5%
10:00Sat 	 14c 	 6%
11:00Sat 	 15c 	 9%
12:00Sat 	 15c 	 11%
13:00Sat 	 16c 	 10%
14:00Sat 	 17c 	 10%
15:00Sat 	 17c 	 10%
16:00Sat 	 16c 	 9%
17:00Sat 	 16c 	 8%
18:00Sat 	 15c 	 7%
19:00Sat 	 15c 	 6%
20:00Sat 	 14c 	 6%
21:00Sat 	 13c 	 9%
22:00Sat 	 13c 	 10%
23:00Sat 	 12c 	 8%


00:00Sat 	 13c 	 3%
01:00Sat 	 12c 	 2%
02:00Sat 	 12c 	 2%
03:00Sat 	 12c 	 2%
04:00Sat 	 11c 	 3%
05:00Sat 	 11c 	 3%
06:00Sat 	 11c 	 3%
07:00Sat 	 11c 	 4%
08:00Sat 	 12c 	 4%
09:00Sat 	 13c 	 5%
10:00Sat 	 14c 	 6%
11:00Sat 	 15c 	 9%
12:00Sat 	 15c 	 11%
13:00Sat 	 16c 	 10%
14:00Sat 	 17c 	 10%
15:00Sat 	 17c 	 10%
16:00Sat 	 16c 	 9%
17:00Sat 	 16c 	 8%
18:00Sat 	 15c 	 7%
19:00Sat 	 15c 	 6%
20:00Sat 	 14c 	 6%
21:00Sat 	 13c 	 9%
22:00Sat 	 13c 	 10%
23:00Sat 	 12c 	 8%


00:00Sat 	 13c 	 3%
01:00Sat 	 12c 	 2%
02:00Sat 	 12c 	 2%
03:00Sat 	 12c 	 2%
04:00Sat 	 11c 	 3%
05:00Sat 	 11c 	 3%
06:00Sat 	 11c 	 3%
07:00Sat 	 11c 	 4%
08:00Sat 	 12c 	 4%
09:00Sat 	 13c 	 5%
10:00Sat 	 14c 	 6%
11:00Sat 	 15c 	 9%
12:00Sat 	 15c 	 11%
13:00Sat 	 16c 	 10%
14:00Sat 	 17c 	 10%
15:00Sat 	 17c 	 10%
16:00Sat 	 16c 	 9%
17:00Sat 	 16c 	 8%
18:00Sat 	 15c 	 7%
19:00Sat 	 15c 	 6%
20:00Sat 	 14c 	 6%
21:00Sat 	 13c 	 9%
22:00Sat 	 13c 	 10%
23:00Sat 	 12c 	 8%


00:00Sat 	 13c 	 3%
01:00Sat 	 12c 	 2%
02:00Sat 	 12c 	 2%
03:00Sat 	 12c 	 2%
04:00Sat 	 11c 	 3%
05:00Sat 	 11c 	 3%
06:00Sat 	 11c 	 3%
07:00Sat 	 11c 	 4%
08:00Sat 	 12c 	 4%
09:00Sat 	 13c 	 5%
10:00Sat 	 14c 	 6%
11:00Sat 	 15c 	 9%
12:00Sat 	 15c 	 11%
13:00Sat 	 16c 	 10%
14:00Sat 	 17c 	 10%
15:00Sat 	 17c 	 10%
16:00Sat 	 16c 	 9%
17:00Sat 	 16c 	 8%
18:00Sat 	 15c 	 7%
19:00Sat 	 15c 	 6%
20:00Sat 	 14c 	 6%
21:00Sat 	 13c 	 9%
22:00Sat 	 13c 	 10%
23:00Sat 	 12c 	 8%


00:00Sat 	 13c 	 3%
01:00Sat 	 12c 	 2%
02:00Sat 	 12c 	 2%
03:00Sat 	 12c 	 2%
04:00Sat 	 11c 	 3%
05:00Sat 	 11c 	 3%
06:00Sat 	 11c 	 3%
07:00Sat 	 11c 	 4%
08:00Sat 	 12c 	 4%
09:00Sat 	 13c 	 5%
10:00Sat 	 14c 	 6%
11:00Sat 	 15c 	 9%
12:00Sat 	 15c 	 11%
13:00Sat 	 16c 	 10%
14:00Sat 	 17c 	 10%
15:00Sat 	 17c 	 10%
16:00Sat 	 16c 	 9%
17:00Sat 	 16c 	 8%
18:00Sat 	 15c 	 7%
19:00Sat 	 15c 	 6%
20:00Sat 	 14c 	 6%
21:00Sat 	 13c 	 9%
22:00Sat 	 13c 	 10%
23:00Sat 	 12c 	 8%


00:00Sat 	 13c 	 3%
01:00Sat 	 12c 	 2%
02:00Sat 	 12c 	 2%
03:00Sat 	 12c 	 2%
04:00Sat 	 11c 	 3%
05:00Sat 	 11c 	 3%
06:00Sat 	 11c 	 3%
07:00Sat 	 11c 	 4%
08:00Sat 	 12c 	 4%
09:00Sat 	 13c 	 5%
10:00Sat 	 14c 	 6%
11:00Sat 	 15c 	 9%
12:00Sat 	 15c 	 11%
13:00Sat 	 16c 	 10%
14:00Sat 	 17c 	 10%
15:00Sat 	 17c 	 10%
16:00Sat 	 16c 	 9%
17:00Sat 	 16c 	 8%
18:00Sat 	 15c 	 7%
19:00Sat 	 15c 	 6%
20:00Sat 	 14c 	 6%
21:00Sat 	 13c 	 9%
22:00Sat 	 13c 	 10%
23:00Sat 	 12c 	 8%


00:00Sat 	 13c 	 3%
01:00Sat 	 12c 	 2%
02:00Sat 	 12c 	 2%
03:00Sat 	 12c 	 2%
04:00Sat 	 11c 	 3%
05:00Sat 	 11c 	 3%
06:00Sat 	 11c 	 3%
07:00Sat 	 11c 	 4%
08:00Sat 	 12c 	 4%
09:00Sat 	 13c 	 5%
10:00Sat 	 14c 	 6%
11:00Sat 	 15c 	 9%
12:00Sat 	 15c 	 11%
13:00Sat 	 16c 	 10%
14:00Sat 	 17c 	 10%
15:00Sat 	 17c 	 10%
16:00Sat 	 16c 	 9%
17:00Sat 	 16c 	 8%
18:00Sat 	 15c 	 7%
19:00Sat 	 15c 	 6%
20:00Sat 	 14c 	 6%
21:00Sat 	 13c 	 9%
22:00Sat 	 13c 	 10%
23:00Sat 	 12c 	 8%


00:00Sat 	 13c 	 3%
01:00Sat 	 12c 	 2%
02:00Sat 	 12c 	 2%
03:00Sat 	 12c 	 2%
04:00Sat 	 11c 	 3%
05:00Sat 	 11c 	 3%
06:00Sat 	 11c 	 3%
07:00Sat 	 11c 	 4%
08:00Sat 	 12c 	 4%
09:00Sat 	 13c 	 5%
10:00Sat 	 14c 	 6%
11:00Sat 	 15c 	 9%
12:00Sat 	 15c 	 11%
13:00Sat 	 16c 	 10%
14:00Sat 	 17c 	 10%
15:00Sat 	 17c 	 10%
16:00Sat 	 16c 	 9%
17:00Sat 	 16c 	 8%
18:00Sat 	 15c 	 7%
19:00Sat 	 15c 	 6%
20:00Sat 	 14c 	 6%
21:00Sat 	 13c 	 9%
22:00Sat 	 13c 	 10%
23:00Sat 	 12c 	 8%


00:00Sat 	 13c 	 3%
01:00Sat 	 12c 	 2%
02:00Sat 	 12c 	 2%
03:00Sat 	 12c 	 2%
04:00Sat 	 11c 	 3%
05:00Sat 	 11c 	 3%
06:00Sat 	 11c 	 3%
07:00Sat 	 11c 	 4%
08:00Sat 	 12c 	 4%
09:00Sat 	 13c 	 5%
10:00Sat 	 14c 	 6%
11:00Sat 	 15c 	 9%
12:00Sat 	 15c 	 11%
13:00Sat 	 16c 	 10%
14:00Sat 	 17c 	 10%
15:00Sat 	 17c 	 10%
16:00Sat 	 16c 	 9%
17:00Sat 	 16c 	 8%
18:00Sat 	 15c 	 7%
19:00Sat 	 15c 	 6%
20:00Sat 	 14c 	 6%
21:00Sat 	 13c 	 9%
22:00Sat 	 13c 	 10%
23:00Sat 	 12c 	 8%


00:00Sat 	 13c 	 3%
01:00Sat 	 12c 	 2%
02:00Sat 	 12c 	 2%
03:00Sat 	 12c 	 2%
04:00Sat 	 11c 	 3%
05:00Sat 	 11c 	 3%
06:00Sat 	 11c 	 3%
07:00Sat 	 11c 	 3%
08:00Sat 	 12c 	 3%
09:00Sat 	 13c 	 4%
10:00Sat 	 14c 	 5%
11:00Sat 	 15c 	 9%
12:00Sat 	 15c 	 10%
13:00Sat 	 16c 	 9%
14:00Sat 	 17c 	 9%
15:00Sat 	 17c 	 9%
16:00Sat 	 17c 	 10%
17:00Sat 	 16c 	 9%
18:00Sat 	 16c 	 7%
19:00Sat 	 15c 	 6%
20:00Sat 	 14c 	 7%
21:00Sat 	 13c 	 9%
22:00Sat 	 13c 	 10%
23:00Sat 	 12c 	 8%


00:00Sat 	 13c 	 3%
01:00Sat 	 12c 	 2%
02:00Sat 	 12c 	 2%
03:00Sat 	 12c 	 2%
04:00Sat 	 11c 	 3%
05:00Sat 	 11c 	 3%
06:00Sat 	 11c 	 3%
07:00Sat 	 11c 	 3%
08:00Sat 	 12c 	 3%
09:00Sat 	 13c 	 4%
10:00Sat 	 14c 	 5%
11:00Sat 	 15c 	 9%
12:00Sat 	 15c 	 10%
13:00Sat 	 16c 	 9%
14:00Sat 	 17c 	 9%
15:00Sat 	 17c 	 9%
16:00Sat 	 17c 	 10%
17:00Sat 	 16c 	 9%
18:00Sat 	 16c 	 7%
19:00Sat 	 15c 	 6%
20:00Sat 	 14c 	 7%
21:00Sat 	 13c 	 9%
22:00Sat 	 13c 	 10%
23:00Sat 	 12c 	 8%


00:00Sat 	 13c 	 3%
01:00Sat 	 12c 	 2%
02:00Sat 	 12c 	 2%
03:00Sat 	 12c 	 2%
04:00Sat 	 11c 	 3%
05:00Sat 	 11c 	 3%
06:00Sat 	 11c 	 3%
07:00Sat 	 11c 	 3%
08:00Sat 	 12c 	 3%
09:00Sat 	 13c 	 4%
10:00Sat 	 14c 	 5%
11:00Sat 	 15c 	 9%
12:00Sat 	 15c 	 10%
13:00Sat 	 16c 	 9%
14:00Sat 	 17c 	 9%
15:00Sat 	 17c 	 9%
16:00Sat 	 17c 	 10%
17:00Sat 	 16c 	 9%
18:00Sat 	 16c 	 7%
19:00Sat 	 15c 	 6%
20:00Sat 	 14c 	 7%
21:00Sat 	 13c 	 9%
22:00Sat 	 13c 	 10%
23:00Sat 	 12c 	 8%


00:00Sat 	 13c 	 3%
01:00Sat 	 12c 	 2%
02:00Sat 	 12c 	 2%
03:00Sat 	 12c 	 2%
04:00Sat 	 11c 	 3%
05:00Sat 	 11c 	 3%
06:00Sat 	 11c 	 3%
07:00Sat 	 11c 	 3%
08:00Sat 	 12c 	 3%
09:00Sat 	 13c 	 4%
10:00Sat 	 14c 	 5%
11:00Sat 	 15c 	 9%
12:00Sat 	 15c 	 10%
13:00Sat 	 16c 	 9%
14:00Sat 	 17c 	 9%
15:00Sat 	 17c 	 9%
16:00Sat 	 17c 	 10%
17:00Sat 	 16c 	 9%
18:00Sat 	 16c 	 7%
19:00Sat 	 15c 	 6%
20:00Sat 	 14c 	 7%
21:00Sat 	 13c 	 9%
22:00Sat 	 13c 	 10%
23:00Sat 	 12c 	 8%


00:00Sat 	 13c 	 7%
01:00Sat 	 12c 	 3%
02:00Sat 	 12c 	 2%
03:00Sat 	 12c 	 2%
04:00Sat 	 11c 	 3%
05:00Sat 	 11c 	 3%
06:00Sat 	 11c 	 3%
07:00Sat 	 11c 	 3%
08:00Sat 	 12c 	 3%
09:00Sat 	 13c 	 4%
10:00Sat 	 14c 	 5%
11:00Sat 	 15c 	 9%
12:00Sat 	 15c 	 10%
13:00Sat 	 16c 	 9%
14:00Sat 	 17c 	 9%
15:00Sat 	 17c 	 9%
16:00Sat 	 17c 	 10%
17:00Sat 	 16c 	 9%
18:00Sat 	 16c 	 7%
19:00Sat 	 15c 	 6%
20:00Sat 	 14c 	 8%
21:00Sat 	 14c 	 10%
22:00Sat 	 13c 	 11%
23:00Sat 	 12c 	 9%


00:00Sat 	 13c 	 7%
01:00Sat 	 12c 	 3%
02:00Sat 	 12c 	 2%
03:00Sat 	 12c 	 2%
04:00Sat 	 11c 	 3%
05:00Sat 	 11c 	 3%
06:00Sat 	 11c 	 3%
07:00Sat 	 11c 	 3%
08:00Sat 	 12c 	 3%
09:00Sat 	 13c 	 4%
10:00Sat 	 14c 	 5%
11:00Sat 	 15c 	 9%
12:00Sat 	 15c 	 10%
13:00Sat 	 16c 	 9%
14:00Sat 	 17c 	 9%
15:00Sat 	 17c 	 9%
16:00Sat 	 17c 	 10%
17:00Sat 	 16c 	 9%
18:00Sat 	 16c 	 7%
19:00Sat 	 15c 	 6%
20:00Sat 	 14c 	 8%
21:00Sat 	 14c 	 10%
22:00Sat 	 13c 	 11%
23:00Sat 	 12c 	 9%


00:00Sat 	 13c 	 7%
01:00Sat 	 12c 	 3%
02:00Sat 	 12c 	 2%
03:00Sat 	 12c 	 2%
04:00Sat 	 11c 	 3%
05:00Sat 	 11c 	 3%
06:00Sat 	 11c 	 3%
07:00Sat 	 11c 	 3%
08:00Sat 	 12c 	 3%
09:00Sat 	 13c 	 4%
10:00Sat 	 14c 	 5%
11:00Sat 	 15c 	 9%
12:00Sat 	 15c 	 10%
13:00Sat 	 16c 	 9%
14:00Sat 	 17c 	 9%
15:00Sat 	 17c 	 9%
16:00Sat 	 17c 	 10%
17:00Sat 	 16c 	 9%
18:00Sat 	 16c 	 7%
19:00Sat 	 15c 	 6%
20:00Sat 	 14c 	 8%
21:00Sat 	 14c 	 10%
22:00Sat 	 13c 	 11%
23:00Sat 	 12c 	 9%


00:00Sat 	 13c 	 7%
01:00Sat 	 12c 	 3%
02:00Sat 	 12c 	 2%
03:00Sat 	 12c 	 2%
04:00Sat 	 11c 	 3%
05:00Sat 	 11c 	 3%
06:00Sat 	 11c 	 3%
07:00Sat 	 11c 	 3%
08:00Sat 	 12c 	 3%
09:00Sat 	 13c 	 4%
10:00Sat 	 14c 	 5%
11:00Sat 	 15c 	 9%
12:00Sat 	 15c 	 10%
13:00Sat 	 16c 	 9%
14:00Sat 	 17c 	 9%
15:00Sat 	 17c 	 9%
16:00Sat 	 17c 	 10%
17:00Sat 	 16c 	 9%
18:00Sat 	 16c 	 7%
19:00Sat 	 15c 	 6%
20:00Sat 	 14c 	 8%
21:00Sat 	 14c 	 10%
22:00Sat 	 13c 	 11%
23:00Sat 	 12c 	 9%


00:00Sat 	 13c 	 7%
01:00Sat 	 12c 	 2%
02:00Sat 	 12c 	 2%
03:00Sat 	 12c 	 2%
04:00Sat 	 11c 	 3%
05:00Sat 	 11c 	 3%
06:00Sat 	 11c 	 3%
07:00Sat 	 11c 	 3%
08:00Sat 	 12c 	 3%
09:00Sat 	 13c 	 4%
10:00Sat 	 14c 	 5%
11:00Sat 	 15c 	 9%
12:00Sat 	 15c 	 10%
13:00Sat 	 16c 	 9%
14:00Sat 	 17c 	 9%
15:00Sat 	 17c 	 9%
16:00Sat 	 17c 	 10%
17:00Sat 	 16c 	 9%
18:00Sat 	 16c 	 7%
19:00Sat 	 15c 	 6%
20:00Sat 	 14c 	 8%
21:00Sat 	 14c 	 10%
22:00Sat 	 13c 	 11%
23:00Sat 	 12c 	 9%


00:00Sat 	 13c 	 7%
01:00Sat 	 12c 	 2%
02:00Sat 	 12c 	 2%
03:00Sat 	 12c 	 2%
04:00Sat 	 11c 	 3%
05:00Sat 	 11c 	 3%
06:00Sat 	 11c 	 3%
07:00Sat 	 11c 	 3%
08:00Sat 	 12c 	 3%
09:00Sat 	 13c 	 4%
10:00Sat 	 14c 	 5%
11:00Sat 	 15c 	 9%
12:00Sat 	 15c 	 10%
13:00Sat 	 16c 	 9%
14:00Sat 	 17c 	 9%
15:00Sat 	 17c 	 9%
16:00Sat 	 17c 	 10%
17:00Sat 	 16c 	 9%
18:00Sat 	 16c 	 7%
19:00Sat 	 15c 	 6%
20:00Sat 	 14c 	 8%
21:00Sat 	 14c 	 10%
22:00Sat 	 13c 	 11%
23:00Sat 	 12c 	 9%


00:00Sat 	 13c 	 7%
01:00Sat 	 12c 	 2%
02:00Sat 	 12c 	 2%
03:00Sat 	 12c 	 2%
04:00Sat 	 11c 	 3%
05:00Sat 	 11c 	 3%
06:00Sat 	 11c 	 3%
07:00Sat 	 11c 	 3%
08:00Sat 	 12c 	 3%
09:00Sat 	 13c 	 4%
10:00Sat 	 14c 	 5%
11:00Sat 	 15c 	 9%
12:00Sat 	 15c 	 10%
13:00Sat 	 16c 	 9%
14:00Sat 	 17c 	 9%
15:00Sat 	 17c 	 9%
16:00Sat 	 17c 	 10%
17:00Sat 	 16c 	 9%
18:00Sat 	 16c 	 7%
19:00Sat 	 15c 	 6%
20:00Sat 	 14c 	 8%
21:00Sat 	 14c 	 10%
22:00Sat 	 13c 	 11%
23:00Sat 	 12c 	 9%


00:00Sat 	 13c 	 7%
01:00Sat 	 12c 	 2%
02:00Sat 	 12c 	 2%
03:00Sat 	 12c 	 2%
04:00Sat 	 11c 	 3%
05:00Sat 	 11c 	 3%
06:00Sat 	 11c 	 3%
07:00Sat 	 11c 	 3%
08:00Sat 	 12c 	 3%
09:00Sat 	 13c 	 4%
10:00Sat 	 14c 	 5%
11:00Sat 	 15c 	 9%
12:00Sat 	 15c 	 10%
13:00Sat 	 16c 	 9%
14:00Sat 	 17c 	 9%
15:00Sat 	 17c 	 9%
16:00Sat 	 17c 	 10%
17:00Sat 	 16c 	 9%
18:00Sat 	 16c 	 7%
19:00Sat 	 15c 	 6%
20:00Sat 	 14c 	 8%
21:00Sat 	 14c 	 10%
22:00Sat 	 13c 	 11%
23:00Sat 	 12c 	 9%


00:00Sat 	 13c 	 39%
01:00Sat 	 12c 	 7%
02:00Sat 	 12c 	 2%
03:00Sat 	 12c 	 2%
04:00Sat 	 11c 	 3%
05:00Sat 	 11c 	 3%
06:00Sat 	 11c 	 3%
07:00Sat 	 11c 	 3%
08:00Sat 	 12c 	 3%
09:00Sat 	 13c 	 4%
10:00Sat 	 14c 	 5%
11:00Sat 	 15c 	 9%
12:00Sat 	 15c 	 10%
13:00Sat 	 16c 	 9%
14:00Sat 	 17c 	 9%
15:00Sat 	 17c 	 9%
16:00Sat 	 17c 	 10%
17:00Sat 	 16c 	 9%
18:00Sat 	 16c 	 7%
19:00Sat 	 15c 	 6%
20:00Sat 	 14c 	 8%
21:00Sat 	 14c 	 10%
22:00Sat 	 13c 	 11%
23:00Sat 	 12c 	 10%


00:00Sat 	 12c 	 1%
01:00Sat 	 12c 	 2%
02:00Sat 	 12c 	 1%
03:00Sat 	 12c 	 1%
04:00Sat 	 11c 	 3%
05:00Sat 	 11c 	 2%
00:00Sat 	 12c 	 1%
01:00Sat 	 12c 	 2%
02:00Sat 	 12c 	 1%
03:00Sat 	 12c 	 1%
04:00Sat 	 11c 	 3%
05:00Sat 	 11c 	 2%
00:00Sat 	 12c 	 1%
01:00Sat 	 12c 	 2%
02:00Sat 	 12c 	 1%
03:00Sat 	 12c 	 1%
04:00Sat 	 11c 	 3%
05:00Sat 	 11c 	 2%
00:00Sat 	 12c 	 1%
01:00Sat 	 12c 	 2%
02:00Sat 	 12c 	 1%
03:00Sat 	 12c 	 1%
04:00Sat 	 11c 	 3%
05:00Sat 	 11c 	 2%
00:00Sat 	 12c 	 1%
01:00Sat 	 12c 	 2%
02:00Sat 	 12c 	 1%
03:00Sat 	 12c 	 1%
04:00Sat 	 11c 	 3%
05:00Sat 	 11c 	 2%
00:00Sat 	 12c 	 1%
01:00Sat 	 12c 	 2%
02:00Sat 	 12c 	 1%
03:00Sat 	 12c 	 1%
04:00Sat 	 11c 	 3%
05:00Sat 	 11c 	 2%
00:00Sat 	 12c 	 1%
01:00Sat 	 12c 	 2%
02:00Sat 	 12c 	 1%
03:00Sat 	 12c 	 1%
04:00Sat 	 11c 	 3%
05:00Sat 	 11c 	 2%
00:00Sat 	 12c 	 1%
01:00Sat 	 12c 	 2%
02:00Sat 	 12c 	 1%
03:00Sat 	 12c 	 1%
04:00Sat 	 11c 	 3%
05:00Sat 	 11c 	 2%
00:00Sat 	 12c 	 1%
01:00Sat 	 12c 	 2%
02:00Sat 	 12c 	 1%
03:00Sat 	 12c 	 1%
04:00Sat 	 11c 	 3%
05:00Sat 	 11c 	 2%
00:00Sat 	 12c 	 1%
01:00Sat 	 12c 	 2%
02:00Sat 	 12c 	 1%
03:00Sat 	 12c 	 1%
04:00Sat 	 11c 	 3%
05:00Sat 	 11c 	 2%
00:00Sat 	 12c 	 1%
01:00Sat 	 12c 	 2%
02:00Sat 	 12c 	 1%
03:00Sat 	 12c 	 1%
04:00Sat 	 11c 	 3%
05:00Sat 	 11c 	 2%
00:00Sat 	 12c 	 1%
01:00Sat 	 12c 	 2%
02:00Sat 	 12c 	 1%
03:00Sat 	 12c 	 1%
04:00Sat 	 11c 	 3%
05:00Sat 	 11c 	 2%
00:00Sat 	 12c 	 1%
01:00Sat 	 12c 	 2%
02:00Sat 	 12c 	 1%
03:00Sat 	 12c 	 1%
04:00Sat 	 11c 	 3%
05:00Sat 	 11c 	 2%
00:00Sat 	 12c 	 1%
01:00Sat 	 12c 	 2%
02:00Sat 	 12c 	 1%
03:00Sat 	 12c 	 1%
04:00Sat 	 11c 	 3%
05:00Sat 	 11c 	 2%
00:00Sat 	 12c 	 1%
01:00Sat 	 12c 	 2%
02:00Sat 	 12c 	 1%
03:00Sat 	 12c 	 1%
04:00Sat 	 11c 	 3%
05:00Sat 	 11c 	 2%
00:00Sat 	 12c 	 1%
01:00Sat 	 12c 	 2%
02:00Sat 	 12c 	 1%
03:00Sat 	 12c 	 1%
04:00Sat 	 11c 	 3%
05:00Sat 	 11c 	 2%
00:00Sat 	 12c 	 1%
01:00Sat 	 12c 	 2%
02:00Sat 	 12c 	 1%
03:00Sat 	 12c 	 1%
04:00Sat 	 11c 	 3%
05:00Sat 	 11c 	 2%
00:00Sat 	 12c 	 1%
01:00Sat 	 12c 	 2%
02:00Sat 	 12c 	 1%
03:00Sat 	 12c 	 1%
04:00Sat 	 11c 	 3%
05:00Sat 	 11c 	 2%
00:00Sat 	 12c 	 1%
01:00Sat 	 12c 	 2%
02:00Sat 	 12c 	 1%
03:00Sat 	 12c 	 1%
04:00Sat 	 11c 	 3%
05:00Sat 	 11c 	 2%
00:00Sat 	 12c 	 1%
01:00Sat 	 12c 	 2%
02:00Sat 	 12c 	 1%
03:00Sat 	 12c 	 1%
04:00Sat 	 11c 	 3%
05:00Sat 	 11c 	 2%
00:00Sat 	 12c 	 1%
01:00Sat 	 12c 	 2%
02:00Sat 	 12c 	 1%
03:00Sat 	 12c 	 1%
04:00Sat 	 11c 	 3%
05:00Sat 	 11c 	 2%
00:00Sat 	 12c 	 1%
01:00Sat 	 12c 	 2%
02:00Sat 	 12c 	 1%
03:00Sat 	 12c 	 1%
04:00Sat 	 11c 	 3%
05:00Sat 	 11c 	 2%
06:00Sat 	 13c 	 3%
07:00Sat 	 14c 	 12%
08:00Sat 	 14c 	 13%
09:00Sat 	 15c 	 13%
10:00Sat 	 15c 	 13%
11:00Sat 	 15c 	 15%
12:00Sat 	 16c 	 16%
13:00Sat 	 16c 	 15%
14:00Sat 	 16c 	 12%
15:00Sat 	 16c 	 11%
16:00Sat 	 16c 	 11%
17:00Sat 	 16c 	 11%
18:00Sat 	 15c 	 11%
19:00Sat 	 15c 	 9%
20:00Sat 	 14c 	 8%
21:00Sat 	 13c 	 8%
22:00Sat 	 13c 	 6%
23:00Sat 	 13c 	 2%


00:00Sat 	 12c 	 1%
01:00Sat 	 12c 	 2%
02:00Sat 	 12c 	 1%
03:00Sat 	 12c 	 1%
04:00Sat 	 11c 	 3%
05:00Sat 	 11c 	 2%
00:00Sat 	 12c 	 1%
01:00Sat 	 12c 	 2%
02:00Sat 	 12c 	 1%
03:00Sat 	 12c 	 1%
04:00Sat 	 11c 	 3%
05:00Sat 	 11c 	 2%
06:00Sat 	 13c 	 3%
07:00Sat 	 14c 	 12%
08:00Sat 	 14c 	 13%
09:00Sat 	 15c 	 13%
10:00Sat 	 15c 	 13%
11:00Sat 	 15c 	 15%
12:00Sat 	 16c 	 16%
13:00Sat 	 16c 	 15%
14:00Sat 	 16c 	 12%
15:00Sat 	 16c 	 11%
16:00Sat 	 16c 	 11%
17:00Sat 	 16c 	 11%
18:00Sat 	 15c 	 11%
19:00Sat 	 15c 	 9%
20:00Sat 	 14c 	 8%
21:00Sat 	 13c 	 8%
22:00Sat 	 13c 	 6%
23:00Sat 	 13c 	 2%


00:00Sat 	 12c 	 1%
01:00Sat 	 12c 	 2%
02:00Sat 	 12c 	 1%
03:00Sat 	 12c 	 1%
04:00Sat 	 11c 	 3%
05:00Sat 	 11c 	 2%
