00:00Fri 	 8c 	 1%

01:00Fri 	 8c 	 19%
01:00Fri 	 8c 	 19%
01:00Fri 	 8c 	 19%
01:00Fri 	 8c 	 19%
01:00Fri 	 8c 	 2%

02:00Fri 	 8c 	 7%
02:00Fri 	 8c 	 7%
02:00Fri 	 8c 	 7%
02:00Fri 	 8c 	 7%
02:00Fri 	 8c 	 3%
02:00Fri 	 8c 	 3%
02:00Fri 	 8c 	 3%
02:00Fri 	 8c 	 1%

03:00Fri 	 7c 	 10%
03:00Fri 	 7c 	 10%
03:00Fri 	 7c 	 10%
03:00Fri 	 7c 	 10%
03:00Fri 	 7c 	 5%
03:00Fri 	 7c 	 5%
03:00Fri 	 7c 	 5%
03:00Fri 	 7c 	 3%
03:00Fri 	 7c 	 3%
03:00Fri 	 7c 	 3%
03:00Fri 	 7c 	 3%
03:00Fri 	 7c 	 3%
03:00Fri 	 7c 	 2%

04:00Fri 	 7c 	 9%
04:00Fri 	 7c 	 9%
04:00Fri 	 7c 	 9%
04:00Fri 	 7c 	 9%
04:00Fri 	 7c 	 9%
04:00Fri 	 7c 	 9%
04:00Fri 	 7c 	 9%
04:00Fri 	 7c 	 9%
04:00Fri 	 7c 	 9%
04:00Fri 	 7c 	 9%
04:00Fri 	 7c 	 9%
04:00Fri 	 7c 	 9%
04:00Fri 	 7c 	 3%
04:00Fri 	 7c 	 3%
04:00Fri 	 7c 	 3%
04:00Fri 	 7c 	 3%
04:00Fri 	 7c 	 3%

05:00Fri 	 8c 	 10%
05:00Fri 	 8c 	 10%
05:00Fri 	 8c 	 10%
05:00Fri 	 8c 	 10%
05:00Fri 	 8c 	 10%
05:00Fri 	 8c 	 10%
05:00Fri 	 8c 	 10%
05:00Fri 	 8c 	 10%
05:00Fri 	 8c 	 10%
05:00Fri 	 8c 	 10%
05:00Fri 	 8c 	 10%
05:00Fri 	 8c 	 10%
05:00Fri 	 8c 	 5%
05:00Fri 	 8c 	 5%
05:00Fri 	 8c 	 5%
05:00Fri 	 8c 	 5%
05:00Fri 	 8c 	 4%
05:00Fri 	 8c 	 4%
05:00Fri 	 8c 	 4%
05:00Fri 	 8c 	 4%
05:00Fri 	 7c 	 1%

06:00Fri 	 8c 	 1%
06:00Fri 	 8c 	 13%
06:00Fri 	 8c 	 13%
06:00Fri 	 8c 	 13%
06:00Fri 	 8c 	 13%
06:00Fri 	 8c 	 13%
06:00Fri 	 8c 	 13%
06:00Fri 	 8c 	 13%
06:00Fri 	 8c 	 13%
06:00Fri 	 8c 	 13%
06:00Fri 	 8c 	 13%
06:00Fri 	 8c 	 13%
06:00Fri 	 8c 	 8%
06:00Fri 	 8c 	 8%
06:00Fri 	 8c 	 8%
06:00Fri 	 8c 	 8%
06:00Fri 	 8c 	 8%
06:00Fri 	 8c 	 5%
06:00Fri 	 8c 	 5%
06:00Fri 	 8c 	 5%
06:00Fri 	 8c 	 5%
06:00Fri 	 8c 	 3%
06:00Fri 	 8c 	 3%
06:00Fri 	 8c 	 3%
06:00Fri 	 8c 	 3%

07:00Fri 	 8c 	 2%
07:00Fri 	 8c 	 2%
07:00Fri 	 8c 	 2%
07:00Fri 	 8c 	 2%
07:00Fri 	 8c 	 16%
07:00Fri 	 8c 	 16%
07:00Fri 	 8c 	 16%
07:00Fri 	 8c 	 16%
07:00Fri 	 8c 	 16%
07:00Fri 	 8c 	 16%
07:00Fri 	 8c 	 16%
07:00Fri 	 8c 	 16%
07:00Fri 	 8c 	 16%
07:00Fri 	 8c 	 16%
07:00Fri 	 8c 	 16%
07:00Fri 	 8c 	 11%
07:00Fri 	 8c 	 11%
07:00Fri 	 8c 	 11%
07:00Fri 	 8c 	 11%
07:00Fri 	 8c 	 11%
07:00Fri 	 8c 	 8%
07:00Fri 	 8c 	 8%
07:00Fri 	 8c 	 8%
07:00Fri 	 8c 	 8%
07:00Fri 	 8c 	 5%
07:00Fri 	 8c 	 5%
07:00Fri 	 8c 	 5%
07:00Fri 	 8c 	 5%

08:00Fri 	 9c 	 3%
08:00Fri 	 9c 	 3%
08:00Fri 	 9c 	 3%
08:00Fri 	 9c 	 3%
08:00Fri 	 9c 	 1%
08:00Fri 	 9c 	 1%
08:00Fri 	 9c 	 1%
08:00Fri 	 9c 	 1%
08:00Fri 	 8c 	 6%
08:00Fri 	 9c 	 14%
08:00Fri 	 9c 	 14%
08:00Fri 	 9c 	 14%
08:00Fri 	 9c 	 14%
08:00Fri 	 9c 	 14%
08:00Fri 	 9c 	 14%
08:00Fri 	 9c 	 14%
08:00Fri 	 9c 	 14%
08:00Fri 	 9c 	 14%
08:00Fri 	 9c 	 14%
08:00Fri 	 9c 	 14%
08:00Fri 	 9c 	 13%
08:00Fri 	 9c 	 13%
08:00Fri 	 9c 	 13%
08:00Fri 	 9c 	 13%
08:00Fri 	 9c 	 13%
08:00Fri 	 9c 	 10%
08:00Fri 	 9c 	 10%
08:00Fri 	 9c 	 10%
08:00Fri 	 9c 	 10%
08:00Fri 	 9c 	 8%
08:00Fri 	 9c 	 8%
08:00Fri 	 9c 	 8%
08:00Fri 	 9c 	 8%

09:00Fri 	 10c 	 7%
09:00Fri 	 10c 	 7%
09:00Fri 	 10c 	 7%
09:00Fri 	 10c 	 7%
09:00Fri 	 10c 	 2%
09:00Fri 	 10c 	 2%
09:00Fri 	 10c 	 2%
09:00Fri 	 10c 	 2%
09:00Fri 	 9c 	 7%
09:00Fri 	 9c 	 7%
09:00Fri 	 9c 	 7%
09:00Fri 	 9c 	 7%
09:00Fri 	 9c 	 0%
09:00Fri 	 10c 	 11%
09:00Fri 	 10c 	 11%
09:00Fri 	 10c 	 11%
09:00Fri 	 10c 	 11%
09:00Fri 	 10c 	 11%
09:00Fri 	 10c 	 11%
09:00Fri 	 10c 	 11%
09:00Fri 	 10c 	 11%
09:00Fri 	 10c 	 11%
09:00Fri 	 10c 	 11%
09:00Fri 	 10c 	 11%
09:00Fri 	 10c 	 11%
09:00Fri 	 10c 	 11%
09:00Fri 	 10c 	 11%
09:00Fri 	 10c 	 11%
09:00Fri 	 10c 	 11%
09:00Fri 	 10c 	 10%
09:00Fri 	 10c 	 10%
09:00Fri 	 10c 	 10%
09:00Fri 	 10c 	 10%
09:00Fri 	 10c 	 8%
09:00Fri 	 10c 	 8%
09:00Fri 	 10c 	 8%
09:00Fri 	 10c 	 8%

10:00Fri 	 11c 	 7%
10:00Fri 	 11c 	 7%
10:00Fri 	 11c 	 7%
10:00Fri 	 11c 	 7%
10:00Fri 	 11c 	 6%
10:00Fri 	 11c 	 6%
10:00Fri 	 11c 	 6%
10:00Fri 	 11c 	 6%
10:00Fri 	 11c 	 10%
10:00Fri 	 11c 	 10%
10:00Fri 	 11c 	 10%
10:00Fri 	 11c 	 10%
10:00Fri 	 11c 	 1%
10:00Fri 	 11c 	 1%
10:00Fri 	 11c 	 1%
10:00Fri 	 11c 	 1%
10:00Fri 	 10c 	 1%
10:00Fri 	 11c 	 8%
10:00Fri 	 11c 	 8%
10:00Fri 	 11c 	 8%
10:00Fri 	 11c 	 8%
10:00Fri 	 11c 	 8%
10:00Fri 	 11c 	 8%
10:00Fri 	 11c 	 8%
10:00Fri 	 11c 	 8%
10:00Fri 	 11c 	 8%
10:00Fri 	 11c 	 8%
10:00Fri 	 11c 	 8%
10:00Fri 	 11c 	 8%
10:00Fri 	 11c 	 8%
10:00Fri 	 11c 	 8%
10:00Fri 	 11c 	 8%
10:00Fri 	 11c 	 8%
10:00Fri 	 11c 	 8%
10:00Fri 	 11c 	 8%
10:00Fri 	 11c 	 8%
10:00Fri 	 11c 	 8%
10:00Fri 	 11c 	 8%
10:00Fri 	 11c 	 8%
10:00Fri 	 11c 	 8%
10:00Fri 	 11c 	 8%

11:00Fri 	 12c 	 9%
11:00Fri 	 12c 	 9%
11:00Fri 	 12c 	 9%
11:00Fri 	 12c 	 9%
11:00Fri 	 12c 	 8%
11:00Fri 	 12c 	 8%
11:00Fri 	 12c 	 8%
11:00Fri 	 12c 	 8%
11:00Fri 	 12c 	 17%
11:00Fri 	 12c 	 17%
11:00Fri 	 12c 	 17%
11:00Fri 	 12c 	 17%
11:00Fri 	 12c 	 9%
11:00Fri 	 12c 	 9%
11:00Fri 	 12c 	 9%
11:00Fri 	 12c 	 9%
11:00Fri 	 11c 	 2%
11:00Fri 	 11c 	 2%
11:00Fri 	 11c 	 2%
11:00Fri 	 11c 	 2%
11:00Fri 	 11c 	 0%
11:00Fri 	 12c 	 9%
11:00Fri 	 12c 	 9%
11:00Fri 	 12c 	 9%
11:00Fri 	 12c 	 9%
11:00Fri 	 12c 	 9%
11:00Fri 	 12c 	 9%
11:00Fri 	 12c 	 9%
11:00Fri 	 12c 	 9%
11:00Fri 	 12c 	 9%
11:00Fri 	 12c 	 9%
11:00Fri 	 12c 	 9%
11:00Fri 	 12c 	 9%
11:00Fri 	 12c 	 9%
11:00Fri 	 12c 	 9%
11:00Fri 	 12c 	 9%
11:00Fri 	 12c 	 9%
11:00Fri 	 12c 	 9%
11:00Fri 	 12c 	 9%
11:00Fri 	 12c 	 9%
11:00Fri 	 12c 	 9%
11:00Fri 	 12c 	 9%
11:00Fri 	 12c 	 9%
11:00Fri 	 12c 	 9%
11:00Fri 	 12c 	 9%

12:00Fri 	 13c 	 11%
12:00Fri 	 13c 	 11%
12:00Fri 	 13c 	 11%
12:00Fri 	 13c 	 11%
12:00Fri 	 13c 	 10%
12:00Fri 	 13c 	 10%
12:00Fri 	 13c 	 10%
12:00Fri 	 13c 	 10%
12:00Fri 	 13c 	 16%
12:00Fri 	 13c 	 16%
12:00Fri 	 13c 	 16%
12:00Fri 	 13c 	 16%
12:00Fri 	 13c 	 16%
12:00Fri 	 13c 	 16%
12:00Fri 	 13c 	 16%
12:00Fri 	 13c 	 16%
12:00Fri 	 13c 	 14%
12:00Fri 	 13c 	 14%
12:00Fri 	 13c 	 14%
12:00Fri 	 13c 	 14%
12:00Fri 	 13c 	 1%
12:00Fri 	 13c 	 1%
12:00Fri 	 13c 	 1%
12:00Fri 	 13c 	 1%
12:00Fri 	 13c 	 1%
12:00Fri 	 13c 	 11%
12:00Fri 	 13c 	 11%
12:00Fri 	 13c 	 11%
12:00Fri 	 13c 	 11%
12:00Fri 	 13c 	 11%
12:00Fri 	 13c 	 11%
12:00Fri 	 13c 	 11%
12:00Fri 	 13c 	 11%
12:00Fri 	 13c 	 11%
12:00Fri 	 13c 	 11%
12:00Fri 	 13c 	 11%
12:00Fri 	 13c 	 11%
12:00Fri 	 13c 	 11%
12:00Fri 	 13c 	 11%
12:00Fri 	 13c 	 11%
12:00Fri 	 13c 	 11%
12:00Fri 	 13c 	 11%
12:00Fri 	 13c 	 11%
12:00Fri 	 13c 	 11%
12:00Fri 	 13c 	 11%
12:00Fri 	 13c 	 11%
12:00Fri 	 13c 	 11%
12:00Fri 	 13c 	 11%
12:00Fri 	 13c 	 11%

13:00Fri 	 13c 	 11%
13:00Fri 	 13c 	 11%
13:00Fri 	 13c 	 11%
13:00Fri 	 13c 	 11%
13:00Fri 	 13c 	 11%
13:00Fri 	 13c 	 11%
13:00Fri 	 13c 	 11%
13:00Fri 	 13c 	 11%
13:00Fri 	 14c 	 9%
13:00Fri 	 14c 	 9%
13:00Fri 	 14c 	 9%
13:00Fri 	 14c 	 9%
13:00Fri 	 14c 	 9%
13:00Fri 	 14c 	 9%
13:00Fri 	 14c 	 9%
13:00Fri 	 14c 	 9%
13:00Fri 	 14c 	 7%
13:00Fri 	 14c 	 7%
13:00Fri 	 14c 	 7%
13:00Fri 	 14c 	 7%
13:00Fri 	 14c 	 11%
13:00Fri 	 14c 	 11%
13:00Fri 	 14c 	 11%
13:00Fri 	 14c 	 11%
13:00Fri 	 14c 	 1%
13:00Fri 	 14c 	 1%
13:00Fri 	 14c 	 1%
13:00Fri 	 14c 	 1%
13:00Fri 	 13c 	 11%
13:00Fri 	 13c 	 11%
13:00Fri 	 13c 	 11%
13:00Fri 	 13c 	 11%
13:00Fri 	 13c 	 11%
13:00Fri 	 13c 	 11%
13:00Fri 	 13c 	 11%
13:00Fri 	 13c 	 11%
13:00Fri 	 13c 	 11%
13:00Fri 	 13c 	 11%
13:00Fri 	 13c 	 11%
13:00Fri 	 13c 	 11%
13:00Fri 	 13c 	 11%
13:00Fri 	 13c 	 11%
13:00Fri 	 13c 	 11%
13:00Fri 	 13c 	 11%
13:00Fri 	 13c 	 11%
13:00Fri 	 13c 	 11%
13:00Fri 	 13c 	 11%
13:00Fri 	 13c 	 11%
13:00Fri 	 13c 	 11%
13:00Fri 	 13c 	 11%
13:00Fri 	 13c 	 11%
13:00Fri 	 13c 	 11%

14:00Fri 	 14c 	 8%
14:00Fri 	 14c 	 8%
14:00Fri 	 14c 	 8%
14:00Fri 	 14c 	 8%
14:00Fri 	 14c 	 8%
14:00Fri 	 14c 	 8%
14:00Fri 	 14c 	 8%
14:00Fri 	 14c 	 8%
14:00Fri 	 14c 	 6%
14:00Fri 	 14c 	 6%
14:00Fri 	 14c 	 6%
14:00Fri 	 14c 	 6%
14:00Fri 	 14c 	 6%
14:00Fri 	 14c 	 6%
14:00Fri 	 14c 	 6%
14:00Fri 	 14c 	 6%
14:00Fri 	 14c 	 7%
14:00Fri 	 14c 	 7%
14:00Fri 	 14c 	 7%
14:00Fri 	 14c 	 7%
14:00Fri 	 14c 	 7%
14:00Fri 	 14c 	 7%
14:00Fri 	 14c 	 7%
14:00Fri 	 14c 	 7%
14:00Fri 	 14c 	 24%
14:00Fri 	 14c 	 24%
14:00Fri 	 14c 	 24%
14:00Fri 	 14c 	 24%
14:00Fri 	 14c 	 1%
14:00Fri 	 14c 	 1%
14:00Fri 	 14c 	 1%
14:00Fri 	 14c 	 1%
14:00Fri 	 14c 	 1%
14:00Fri 	 14c 	 8%
14:00Fri 	 14c 	 8%
14:00Fri 	 14c 	 8%
14:00Fri 	 14c 	 8%
14:00Fri 	 14c 	 8%
14:00Fri 	 14c 	 8%
14:00Fri 	 14c 	 8%
14:00Fri 	 14c 	 8%
14:00Fri 	 14c 	 8%
14:00Fri 	 14c 	 8%
14:00Fri 	 14c 	 8%
14:00Fri 	 14c 	 8%
14:00Fri 	 14c 	 8%
14:00Fri 	 14c 	 8%
14:00Fri 	 14c 	 8%
14:00Fri 	 14c 	 8%
14:00Fri 	 14c 	 8%
14:00Fri 	 14c 	 8%
14:00Fri 	 14c 	 8%
14:00Fri 	 14c 	 8%
14:00Fri 	 14c 	 8%
14:00Fri 	 14c 	 8%
14:00Fri 	 14c 	 8%
14:00Fri 	 14c 	 8%

15:00Fri 	 14c 	 8%
15:00Fri 	 14c 	 8%
15:00Fri 	 14c 	 8%
15:00Fri 	 14c 	 8%
15:00Fri 	 14c 	 8%
15:00Fri 	 14c 	 8%
15:00Fri 	 14c 	 8%
15:00Fri 	 14c 	 8%
15:00Fri 	 15c 	 6%
15:00Fri 	 15c 	 6%
15:00Fri 	 15c 	 6%
15:00Fri 	 15c 	 6%
15:00Fri 	 15c 	 6%
15:00Fri 	 15c 	 6%
15:00Fri 	 15c 	 6%
15:00Fri 	 15c 	 6%
15:00Fri 	 15c 	 7%
15:00Fri 	 15c 	 7%
15:00Fri 	 15c 	 7%
15:00Fri 	 15c 	 7%
15:00Fri 	 15c 	 7%
15:00Fri 	 15c 	 7%
15:00Fri 	 15c 	 7%
15:00Fri 	 15c 	 7%
15:00Fri 	 15c 	 6%
15:00Fri 	 15c 	 6%
15:00Fri 	 15c 	 6%
15:00Fri 	 15c 	 6%
15:00Fri 	 15c 	 40%
15:00Fri 	 15c 	 40%
15:00Fri 	 15c 	 40%
15:00Fri 	 15c 	 40%
15:00Fri 	 15c 	 2%
15:00Fri 	 15c 	 2%
15:00Fri 	 15c 	 2%
15:00Fri 	 15c 	 2%
15:00Fri 	 15c 	 1%
15:00Fri 	 14c 	 8%
15:00Fri 	 14c 	 8%
15:00Fri 	 14c 	 8%
15:00Fri 	 14c 	 8%
15:00Fri 	 14c 	 8%
15:00Fri 	 14c 	 8%
15:00Fri 	 14c 	 8%
15:00Fri 	 14c 	 8%
15:00Fri 	 14c 	 8%
15:00Fri 	 14c 	 8%
15:00Fri 	 14c 	 8%
15:00Fri 	 14c 	 8%
15:00Fri 	 14c 	 8%
15:00Fri 	 14c 	 8%
15:00Fri 	 14c 	 8%
15:00Fri 	 14c 	 8%
15:00Fri 	 14c 	 8%
15:00Fri 	 14c 	 8%
15:00Fri 	 14c 	 8%
15:00Fri 	 14c 	 8%
15:00Fri 	 14c 	 8%
15:00Fri 	 14c 	 8%
15:00Fri 	 14c 	 8%
15:00Fri 	 14c 	 8%

16:00Fri 	 14c 	 10%
16:00Fri 	 14c 	 10%
16:00Fri 	 14c 	 10%
16:00Fri 	 14c 	 10%
16:00Fri 	 14c 	 10%
16:00Fri 	 14c 	 10%
16:00Fri 	 14c 	 10%
16:00Fri 	 14c 	 10%
16:00Fri 	 15c 	 6%
16:00Fri 	 15c 	 6%
16:00Fri 	 15c 	 6%
16:00Fri 	 15c 	 6%
16:00Fri 	 15c 	 6%
16:00Fri 	 15c 	 6%
16:00Fri 	 15c 	 6%
16:00Fri 	 15c 	 6%
16:00Fri 	 15c 	 6%
16:00Fri 	 15c 	 6%
16:00Fri 	 15c 	 6%
16:00Fri 	 15c 	 6%
16:00Fri 	 15c 	 6%
16:00Fri 	 15c 	 6%
16:00Fri 	 15c 	 6%
16:00Fri 	 15c 	 6%
16:00Fri 	 15c 	 6%
16:00Fri 	 15c 	 6%
16:00Fri 	 15c 	 6%
16:00Fri 	 15c 	 6%
16:00Fri 	 15c 	 5%
16:00Fri 	 15c 	 5%
16:00Fri 	 15c 	 5%
16:00Fri 	 15c 	 5%
16:00Fri 	 15c 	 26%
16:00Fri 	 15c 	 26%
16:00Fri 	 15c 	 26%
16:00Fri 	 15c 	 26%
16:00Fri 	 14c 	 1%
16:00Fri 	 14c 	 1%
16:00Fri 	 14c 	 1%
16:00Fri 	 14c 	 1%
16:00Fri 	 14c 	 0%
16:00Fri 	 14c 	 10%
16:00Fri 	 14c 	 10%
16:00Fri 	 14c 	 10%
16:00Fri 	 14c 	 10%
16:00Fri 	 14c 	 10%
16:00Fri 	 14c 	 10%
16:00Fri 	 14c 	 10%
16:00Fri 	 14c 	 10%
16:00Fri 	 14c 	 10%
16:00Fri 	 14c 	 10%
16:00Fri 	 14c 	 10%
16:00Fri 	 14c 	 10%
16:00Fri 	 14c 	 10%
16:00Fri 	 14c 	 10%
16:00Fri 	 14c 	 10%
16:00Fri 	 14c 	 10%
16:00Fri 	 14c 	 10%
16:00Fri 	 14c 	 10%
16:00Fri 	 14c 	 10%
16:00Fri 	 14c 	 10%
16:00Fri 	 14c 	 10%
16:00Fri 	 14c 	 10%
16:00Fri 	 14c 	 10%
16:00Fri 	 14c 	 10%

17:00Fri 	 14c 	 10%
17:00Fri 	 14c 	 10%
17:00Fri 	 14c 	 10%
17:00Fri 	 14c 	 10%
17:00Fri 	 14c 	 10%
17:00Fri 	 14c 	 10%
17:00Fri 	 14c 	 10%
17:00Fri 	 14c 	 10%
17:00Fri 	 14c 	 7%
17:00Fri 	 14c 	 7%
17:00Fri 	 14c 	 7%
17:00Fri 	 14c 	 7%
17:00Fri 	 14c 	 7%
17:00Fri 	 14c 	 7%
17:00Fri 	 14c 	 7%
17:00Fri 	 14c 	 7%
17:00Fri 	 14c 	 7%
17:00Fri 	 14c 	 7%
17:00Fri 	 14c 	 7%
17:00Fri 	 14c 	 7%
17:00Fri 	 14c 	 7%
17:00Fri 	 14c 	 7%
17:00Fri 	 14c 	 7%
17:00Fri 	 14c 	 7%
17:00Fri 	 14c 	 6%
17:00Fri 	 14c 	 6%
17:00Fri 	 14c 	 6%
17:00Fri 	 14c 	 6%
17:00Fri 	 14c 	 6%
17:00Fri 	 14c 	 6%
17:00Fri 	 14c 	 6%
17:00Fri 	 14c 	 6%
17:00Fri 	 14c 	 6%
17:00Fri 	 14c 	 6%
17:00Fri 	 14c 	 6%
17:00Fri 	 14c 	 6%
17:00Fri 	 14c 	 3%
17:00Fri 	 14c 	 3%
17:00Fri 	 14c 	 3%
17:00Fri 	 14c 	 3%
17:00Fri 	 14c 	 1%
17:00Fri 	 14c 	 1%
17:00Fri 	 14c 	 1%
17:00Fri 	 14c 	 1%
17:00Fri 	 13c 	 1%
17:00Fri 	 14c 	 10%
17:00Fri 	 14c 	 10%
17:00Fri 	 14c 	 10%
17:00Fri 	 14c 	 10%
17:00Fri 	 14c 	 10%
17:00Fri 	 14c 	 10%
17:00Fri 	 14c 	 10%
17:00Fri 	 14c 	 10%
17:00Fri 	 14c 	 10%
17:00Fri 	 14c 	 10%
17:00Fri 	 14c 	 10%
17:00Fri 	 14c 	 10%
17:00Fri 	 14c 	 10%
17:00Fri 	 14c 	 10%
17:00Fri 	 14c 	 10%
17:00Fri 	 14c 	 10%
17:00Fri 	 14c 	 10%
17:00Fri 	 14c 	 10%
17:00Fri 	 14c 	 10%
17:00Fri 	 14c 	 10%
17:00Fri 	 14c 	 10%
17:00Fri 	 14c 	 10%
17:00Fri 	 14c 	 10%
17:00Fri 	 14c 	 10%

18:00Fri 	 13c 	 8%
18:00Fri 	 13c 	 8%
18:00Fri 	 13c 	 8%
18:00Fri 	 13c 	 8%
18:00Fri 	 13c 	 8%
18:00Fri 	 13c 	 8%
18:00Fri 	 13c 	 8%
18:00Fri 	 13c 	 8%
18:00Fri 	 13c 	 6%
18:00Fri 	 13c 	 6%
18:00Fri 	 13c 	 6%
18:00Fri 	 13c 	 6%
18:00Fri 	 13c 	 6%
18:00Fri 	 13c 	 6%
18:00Fri 	 13c 	 6%
18:00Fri 	 13c 	 6%
18:00Fri 	 13c 	 6%
18:00Fri 	 13c 	 6%
18:00Fri 	 13c 	 6%
18:00Fri 	 13c 	 6%
18:00Fri 	 13c 	 6%
18:00Fri 	 13c 	 6%
18:00Fri 	 13c 	 6%
18:00Fri 	 13c 	 6%
18:00Fri 	 13c 	 6%
18:00Fri 	 13c 	 6%
18:00Fri 	 13c 	 6%
18:00Fri 	 13c 	 6%
18:00Fri 	 13c 	 6%
18:00Fri 	 13c 	 6%
18:00Fri 	 13c 	 6%
18:00Fri 	 13c 	 6%
18:00Fri 	 13c 	 6%
18:00Fri 	 13c 	 6%
18:00Fri 	 13c 	 6%
18:00Fri 	 13c 	 6%
18:00Fri 	 13c 	 5%
18:00Fri 	 13c 	 5%
18:00Fri 	 13c 	 5%
18:00Fri 	 13c 	 5%
18:00Fri 	 13c 	 2%
18:00Fri 	 13c 	 2%
18:00Fri 	 13c 	 2%
18:00Fri 	 13c 	 2%
18:00Fri 	 13c 	 1%
18:00Fri 	 13c 	 1%
18:00Fri 	 13c 	 1%
18:00Fri 	 13c 	 1%
18:00Fri 	 13c 	 1%
18:00Fri 	 13c 	 8%
18:00Fri 	 13c 	 8%
18:00Fri 	 13c 	 8%
18:00Fri 	 13c 	 8%
18:00Fri 	 13c 	 8%
18:00Fri 	 13c 	 8%
18:00Fri 	 13c 	 8%
18:00Fri 	 13c 	 8%
18:00Fri 	 13c 	 8%
18:00Fri 	 13c 	 8%
18:00Fri 	 13c 	 8%
18:00Fri 	 13c 	 8%
18:00Fri 	 13c 	 8%
18:00Fri 	 13c 	 8%
18:00Fri 	 13c 	 8%
18:00Fri 	 13c 	 8%
18:00Fri 	 13c 	 8%
18:00Fri 	 13c 	 8%
18:00Fri 	 13c 	 8%
18:00Fri 	 13c 	 8%
18:00Fri 	 13c 	 8%
18:00Fri 	 13c 	 8%
18:00Fri 	 13c 	 8%
18:00Fri 	 13c 	 8%

19:00Fri 	 12c 	 4%
19:00Fri 	 12c 	 4%
19:00Fri 	 12c 	 4%
19:00Fri 	 12c 	 4%
19:00Fri 	 12c 	 4%
19:00Fri 	 12c 	 4%
19:00Fri 	 12c 	 4%
19:00Fri 	 12c 	 4%
19:00Fri 	 12c 	 5%
19:00Fri 	 12c 	 5%
19:00Fri 	 12c 	 5%
19:00Fri 	 12c 	 5%
19:00Fri 	 12c 	 5%
19:00Fri 	 12c 	 5%
19:00Fri 	 12c 	 5%
19:00Fri 	 12c 	 5%
19:00Fri 	 12c 	 5%
19:00Fri 	 12c 	 5%
19:00Fri 	 12c 	 5%
19:00Fri 	 12c 	 5%
19:00Fri 	 12c 	 5%
19:00Fri 	 12c 	 5%
19:00Fri 	 12c 	 5%
19:00Fri 	 12c 	 5%
19:00Fri 	 12c 	 4%
19:00Fri 	 12c 	 4%
19:00Fri 	 12c 	 4%
19:00Fri 	 12c 	 4%
19:00Fri 	 12c 	 4%
19:00Fri 	 12c 	 4%
19:00Fri 	 12c 	 4%
19:00Fri 	 12c 	 4%
19:00Fri 	 12c 	 4%
19:00Fri 	 12c 	 4%
19:00Fri 	 12c 	 4%
19:00Fri 	 12c 	 4%
19:00Fri 	 12c 	 4%
19:00Fri 	 12c 	 4%
19:00Fri 	 12c 	 4%
19:00Fri 	 12c 	 4%
19:00Fri 	 12c 	 4%
19:00Fri 	 12c 	 4%
19:00Fri 	 12c 	 4%
19:00Fri 	 12c 	 4%
19:00Fri 	 12c 	 20%
19:00Fri 	 12c 	 20%
19:00Fri 	 12c 	 20%
19:00Fri 	 12c 	 20%
19:00Fri 	 12c 	 1%
19:00Fri 	 12c 	 1%
19:00Fri 	 12c 	 1%
19:00Fri 	 12c 	 1%
19:00Fri 	 12c 	 0%
19:00Fri 	 12c 	 4%
19:00Fri 	 12c 	 4%
19:00Fri 	 12c 	 4%
19:00Fri 	 12c 	 4%
19:00Fri 	 12c 	 4%
19:00Fri 	 12c 	 4%
19:00Fri 	 12c 	 4%
19:00Fri 	 12c 	 4%
19:00Fri 	 12c 	 4%
19:00Fri 	 12c 	 4%
19:00Fri 	 12c 	 4%
19:00Fri 	 12c 	 4%
19:00Fri 	 12c 	 4%
19:00Fri 	 12c 	 4%
19:00Fri 	 12c 	 4%
19:00Fri 	 12c 	 4%
19:00Fri 	 12c 	 4%
19:00Fri 	 12c 	 4%
19:00Fri 	 12c 	 4%
19:00Fri 	 12c 	 4%
19:00Fri 	 12c 	 4%
19:00Fri 	 12c 	 4%
19:00Fri 	 12c 	 4%
19:00Fri 	 12c 	 4%

20:00Fri 	 11c 	 3%
20:00Fri 	 11c 	 3%
20:00Fri 	 11c 	 3%
20:00Fri 	 11c 	 3%
20:00Fri 	 11c 	 3%
20:00Fri 	 11c 	 3%
20:00Fri 	 11c 	 3%
20:00Fri 	 11c 	 3%
20:00Fri 	 11c 	 5%
20:00Fri 	 11c 	 5%
20:00Fri 	 11c 	 5%
20:00Fri 	 11c 	 5%
20:00Fri 	 11c 	 5%
20:00Fri 	 11c 	 5%
20:00Fri 	 11c 	 5%
20:00Fri 	 11c 	 5%
20:00Fri 	 11c 	 5%
20:00Fri 	 11c 	 5%
20:00Fri 	 11c 	 5%
20:00Fri 	 11c 	 5%
20:00Fri 	 11c 	 5%
20:00Fri 	 11c 	 5%
20:00Fri 	 11c 	 5%
20:00Fri 	 11c 	 5%
20:00Fri 	 11c 	 4%
20:00Fri 	 11c 	 4%
20:00Fri 	 11c 	 4%
20:00Fri 	 11c 	 4%
20:00Fri 	 11c 	 4%
20:00Fri 	 11c 	 4%
20:00Fri 	 11c 	 4%
20:00Fri 	 11c 	 4%
20:00Fri 	 11c 	 4%
20:00Fri 	 11c 	 4%
20:00Fri 	 11c 	 4%
20:00Fri 	 11c 	 4%
20:00Fri 	 11c 	 4%
20:00Fri 	 11c 	 4%
20:00Fri 	 11c 	 4%
20:00Fri 	 11c 	 4%
20:00Fri 	 11c 	 4%
20:00Fri 	 11c 	 4%
20:00Fri 	 11c 	 4%
20:00Fri 	 11c 	 4%
20:00Fri 	 11c 	 6%
20:00Fri 	 11c 	 6%
20:00Fri 	 11c 	 6%
20:00Fri 	 11c 	 6%
20:00Fri 	 11c 	 3%
20:00Fri 	 11c 	 3%
20:00Fri 	 11c 	 3%
20:00Fri 	 11c 	 3%
20:00Fri 	 11c 	 1%
20:00Fri 	 11c 	 1%
20:00Fri 	 11c 	 1%
20:00Fri 	 11c 	 1%
20:00Fri 	 11c 	 1%
20:00Fri 	 11c 	 3%
20:00Fri 	 11c 	 3%
20:00Fri 	 11c 	 3%
20:00Fri 	 11c 	 3%
20:00Fri 	 11c 	 3%
20:00Fri 	 11c 	 3%
20:00Fri 	 11c 	 3%
20:00Fri 	 11c 	 3%
20:00Fri 	 11c 	 3%
20:00Fri 	 11c 	 3%
20:00Fri 	 11c 	 3%
20:00Fri 	 11c 	 3%
20:00Fri 	 11c 	 3%
20:00Fri 	 11c 	 3%
20:00Fri 	 11c 	 3%
20:00Fri 	 11c 	 3%
20:00Fri 	 11c 	 3%
20:00Fri 	 11c 	 3%
20:00Fri 	 11c 	 3%
20:00Fri 	 11c 	 3%
20:00Fri 	 11c 	 3%
20:00Fri 	 11c 	 3%
20:00Fri 	 11c 	 3%
20:00Fri 	 11c 	 3%

21:00Fri 	 10c 	 5%
21:00Fri 	 10c 	 5%
21:00Fri 	 10c 	 5%
21:00Fri 	 10c 	 5%
21:00Fri 	 10c 	 5%
21:00Fri 	 10c 	 5%
21:00Fri 	 10c 	 5%
21:00Fri 	 10c 	 5%
21:00Fri 	 10c 	 6%
21:00Fri 	 10c 	 6%
21:00Fri 	 10c 	 6%
21:00Fri 	 10c 	 6%
21:00Fri 	 10c 	 6%
21:00Fri 	 10c 	 6%
21:00Fri 	 10c 	 6%
21:00Fri 	 10c 	 6%
21:00Fri 	 10c 	 6%
21:00Fri 	 10c 	 6%
21:00Fri 	 10c 	 6%
21:00Fri 	 10c 	 6%
21:00Fri 	 10c 	 6%
21:00Fri 	 10c 	 6%
21:00Fri 	 10c 	 6%
21:00Fri 	 10c 	 6%
21:00Fri 	 10c 	 5%
21:00Fri 	 10c 	 5%
21:00Fri 	 10c 	 5%
21:00Fri 	 10c 	 5%
21:00Fri 	 10c 	 5%
21:00Fri 	 10c 	 5%
21:00Fri 	 10c 	 5%
21:00Fri 	 10c 	 5%
21:00Fri 	 10c 	 5%
21:00Fri 	 10c 	 5%
21:00Fri 	 10c 	 5%
21:00Fri 	 10c 	 5%
21:00Fri 	 10c 	 5%
21:00Fri 	 10c 	 5%
21:00Fri 	 10c 	 5%
21:00Fri 	 10c 	 5%
21:00Fri 	 10c 	 5%
21:00Fri 	 10c 	 5%
21:00Fri 	 10c 	 5%
21:00Fri 	 10c 	 5%
21:00Fri 	 10c 	 6%
21:00Fri 	 10c 	 6%
21:00Fri 	 10c 	 6%
21:00Fri 	 10c 	 6%
21:00Fri 	 10c 	 6%
21:00Fri 	 10c 	 6%
21:00Fri 	 10c 	 6%
21:00Fri 	 10c 	 6%
21:00Fri 	 10c 	 41%
21:00Fri 	 10c 	 41%
21:00Fri 	 10c 	 41%
21:00Fri 	 10c 	 41%
21:00Fri 	 10c 	 1%
21:00Fri 	 10c 	 1%
21:00Fri 	 10c 	 1%
21:00Fri 	 10c 	 1%
21:00Fri 	 10c 	 0%
21:00Fri 	 10c 	 5%
21:00Fri 	 10c 	 5%
21:00Fri 	 10c 	 5%
21:00Fri 	 10c 	 5%
21:00Fri 	 10c 	 5%
21:00Fri 	 10c 	 5%
21:00Fri 	 10c 	 5%
21:00Fri 	 10c 	 5%
21:00Fri 	 10c 	 5%
21:00Fri 	 10c 	 5%
21:00Fri 	 10c 	 5%
21:00Fri 	 10c 	 5%
21:00Fri 	 10c 	 5%
21:00Fri 	 10c 	 5%
21:00Fri 	 10c 	 5%
21:00Fri 	 10c 	 5%
21:00Fri 	 10c 	 5%
21:00Fri 	 10c 	 5%
21:00Fri 	 10c 	 5%
21:00Fri 	 10c 	 5%
21:00Fri 	 10c 	 5%
21:00Fri 	 10c 	 5%
21:00Fri 	 10c 	 5%
21:00Fri 	 10c 	 5%

22:00Fri 	 9c 	 5%
22:00Fri 	 9c 	 5%
22:00Fri 	 9c 	 5%
22:00Fri 	 9c 	 5%
22:00Fri 	 9c 	 5%
22:00Fri 	 9c 	 5%
22:00Fri 	 9c 	 5%
22:00Fri 	 9c 	 5%
22:00Fri 	 9c 	 6%
22:00Fri 	 9c 	 6%
22:00Fri 	 9c 	 6%
22:00Fri 	 9c 	 6%
22:00Fri 	 9c 	 6%
22:00Fri 	 9c 	 6%
22:00Fri 	 9c 	 6%
22:00Fri 	 9c 	 6%
22:00Fri 	 9c 	 6%
22:00Fri 	 9c 	 6%
22:00Fri 	 9c 	 6%
22:00Fri 	 9c 	 6%
22:00Fri 	 9c 	 6%
22:00Fri 	 9c 	 6%
22:00Fri 	 9c 	 6%
22:00Fri 	 9c 	 6%
22:00Fri 	 9c 	 6%
22:00Fri 	 9c 	 6%
22:00Fri 	 9c 	 6%
22:00Fri 	 9c 	 6%
22:00Fri 	 9c 	 6%
22:00Fri 	 9c 	 6%
22:00Fri 	 9c 	 6%
22:00Fri 	 9c 	 6%
22:00Fri 	 9c 	 6%
22:00Fri 	 9c 	 6%
22:00Fri 	 9c 	 6%
22:00Fri 	 9c 	 6%
22:00Fri 	 9c 	 6%
22:00Fri 	 9c 	 6%
22:00Fri 	 9c 	 6%
22:00Fri 	 9c 	 6%
22:00Fri 	 9c 	 6%
22:00Fri 	 9c 	 6%
22:00Fri 	 9c 	 6%
22:00Fri 	 9c 	 6%
22:00Fri 	 9c 	 6%
22:00Fri 	 9c 	 6%
22:00Fri 	 9c 	 6%
22:00Fri 	 9c 	 6%
22:00Fri 	 9c 	 6%
22:00Fri 	 9c 	 6%
22:00Fri 	 9c 	 6%
22:00Fri 	 9c 	 6%
22:00Fri 	 9c 	 6%
22:00Fri 	 9c 	 6%
22:00Fri 	 9c 	 6%
22:00Fri 	 9c 	 6%
22:00Fri 	 9c 	 6%
22:00Fri 	 9c 	 6%
22:00Fri 	 9c 	 6%
22:00Fri 	 9c 	 6%
22:00Fri 	 9c 	 1%
22:00Fri 	 9c 	 1%
22:00Fri 	 9c 	 1%
22:00Fri 	 9c 	 1%
22:00Fri 	 9c 	 0%
22:00Fri 	 9c 	 5%
22:00Fri 	 9c 	 5%
22:00Fri 	 9c 	 5%
22:00Fri 	 9c 	 5%
22:00Fri 	 9c 	 5%
22:00Fri 	 9c 	 5%
22:00Fri 	 9c 	 5%
22:00Fri 	 9c 	 5%
22:00Fri 	 9c 	 5%
22:00Fri 	 9c 	 5%
22:00Fri 	 9c 	 5%
22:00Fri 	 9c 	 5%
22:00Fri 	 9c 	 5%
22:00Fri 	 9c 	 5%
22:00Fri 	 9c 	 5%
22:00Fri 	 9c 	 5%
22:00Fri 	 9c 	 5%
22:00Fri 	 9c 	 5%
22:00Fri 	 9c 	 5%
22:00Fri 	 9c 	 5%
22:00Fri 	 9c 	 5%
22:00Fri 	 9c 	 5%
22:00Fri 	 9c 	 5%
22:00Fri 	 9c 	 5%

23:00Fri 	 9c 	 2%
23:00Fri 	 9c 	 2%
23:00Fri 	 9c 	 2%
23:00Fri 	 9c 	 2%
23:00Fri 	 9c 	 2%
23:00Fri 	 9c 	 2%
23:00Fri 	 9c 	 2%
23:00Fri 	 9c 	 2%
23:00Fri 	 9c 	 5%
23:00Fri 	 9c 	 5%
23:00Fri 	 9c 	 5%
23:00Fri 	 9c 	 5%
23:00Fri 	 9c 	 5%
23:00Fri 	 9c 	 5%
23:00Fri 	 9c 	 5%
23:00Fri 	 9c 	 5%
23:00Fri 	 9c 	 5%
23:00Fri 	 9c 	 5%
23:00Fri 	 9c 	 5%
23:00Fri 	 9c 	 5%
23:00Fri 	 8c 	 5%
23:00Fri 	 8c 	 5%
23:00Fri 	 8c 	 5%
23:00Fri 	 8c 	 5%
23:00Fri 	 9c 	 5%
23:00Fri 	 9c 	 5%
23:00Fri 	 9c 	 5%
23:00Fri 	 9c 	 5%
23:00Fri 	 9c 	 5%
23:00Fri 	 9c 	 5%
23:00Fri 	 9c 	 5%
23:00Fri 	 9c 	 5%
23:00Fri 	 9c 	 5%
23:00Fri 	 9c 	 5%
23:00Fri 	 9c 	 5%
23:00Fri 	 9c 	 5%
23:00Fri 	 9c 	 5%
23:00Fri 	 9c 	 5%
23:00Fri 	 9c 	 5%
23:00Fri 	 9c 	 5%
23:00Fri 	 9c 	 5%
23:00Fri 	 9c 	 5%
23:00Fri 	 9c 	 5%
23:00Fri 	 9c 	 5%
23:00Fri 	 9c 	 5%
23:00Fri 	 9c 	 5%
23:00Fri 	 9c 	 5%
23:00Fri 	 9c 	 5%
23:00Fri 	 9c 	 5%
23:00Fri 	 9c 	 5%
23:00Fri 	 9c 	 5%
23:00Fri 	 9c 	 5%
23:00Fri 	 9c 	 5%
23:00Fri 	 9c 	 5%
23:00Fri 	 9c 	 5%
23:00Fri 	 9c 	 5%
23:00Fri 	 9c 	 4%
23:00Fri 	 9c 	 4%
23:00Fri 	 9c 	 4%
23:00Fri 	 9c 	 4%
23:00Fri 	 9c 	 19%
23:00Fri 	 9c 	 19%
23:00Fri 	 9c 	 19%
23:00Fri 	 9c 	 19%
23:00Fri 	 9c 	 1%
23:00Fri 	 9c 	 1%
23:00Fri 	 9c 	 1%
23:00Fri 	 9c 	 1%
23:00Fri 	 9c 	 2%
23:00Fri 	 9c 	 2%
23:00Fri 	 9c 	 2%
23:00Fri 	 9c 	 2%
23:00Fri 	 9c 	 2%
23:00Fri 	 9c 	 2%
23:00Fri 	 9c 	 2%
23:00Fri 	 9c 	 2%
23:00Fri 	 9c 	 2%
23:00Fri 	 9c 	 2%
23:00Fri 	 9c 	 2%
23:00Fri 	 9c 	 2%
23:00Fri 	 9c 	 2%
23:00Fri 	 9c 	 2%
23:00Fri 	 9c 	 2%
23:00Fri 	 9c 	 2%
23:00Fri 	 9c 	 2%
23:00Fri 	 9c 	 2%
23:00Fri 	 9c 	 2%
23:00Fri 	 9c 	 2%
23:00Fri 	 9c 	 2%
23:00Fri 	 9c 	 2%
23:00Fri 	 9c 	 2%
23:00Fri 	 9c 	 2%

