00:00Fri 	 9c 	 22%
01:00Fri 	 9c 	 23%
02:00Fri 	 9c 	 22%
03:00Fri 	 9c 	 24%
04:00Fri 	 9c 	 24%
05:00Fri 	 9c 	 21%
00:00Fri 	 9c 	 22%
01:00Fri 	 9c 	 23%
02:00Fri 	 9c 	 22%
03:00Fri 	 9c 	 24%
04:00Fri 	 9c 	 24%
05:00Fri 	 9c 	 21%
00:00Fri 	 9c 	 22%
01:00Fri 	 9c 	 23%
02:00Fri 	 9c 	 22%
03:00Fri 	 9c 	 24%
04:00Fri 	 9c 	 24%
05:00Fri 	 9c 	 21%
00:00Fri 	 9c 	 22%
01:00Fri 	 9c 	 23%
02:00Fri 	 9c 	 22%
03:00Fri 	 9c 	 24%
04:00Fri 	 9c 	 24%
05:00Fri 	 9c 	 21%
00:00Fri 	 9c 	 22%
01:00Fri 	 9c 	 23%
02:00Fri 	 9c 	 22%
03:00Fri 	 9c 	 24%
04:00Fri 	 9c 	 24%
05:00Fri 	 9c 	 21%
00:00Fri 	 9c 	 22%
01:00Fri 	 9c 	 23%
02:00Fri 	 9c 	 22%
03:00Fri 	 9c 	 24%
04:00Fri 	 9c 	 24%
05:00Fri 	 9c 	 21%
00:00Fri 	 9c 	 22%
01:00Fri 	 9c 	 23%
02:00Fri 	 9c 	 22%
03:00Fri 	 9c 	 24%
04:00Fri 	 9c 	 24%
05:00Fri 	 9c 	 21%
00:00Fri 	 9c 	 22%
01:00Fri 	 9c 	 23%
02:00Fri 	 9c 	 22%
03:00Fri 	 9c 	 24%
04:00Fri 	 9c 	 24%
05:00Fri 	 9c 	 21%
00:00Fri 	 9c 	 22%
01:00Fri 	 9c 	 23%
02:00Fri 	 9c 	 22%
03:00Fri 	 9c 	 24%
04:00Fri 	 9c 	 24%
05:00Fri 	 9c 	 21%
00:00Fri 	 9c 	 22%
01:00Fri 	 9c 	 23%
02:00Fri 	 9c 	 22%
03:00Fri 	 9c 	 24%
04:00Fri 	 9c 	 24%
05:00Fri 	 9c 	 21%
00:00Fri 	 9c 	 22%
01:00Fri 	 9c 	 23%
02:00Fri 	 9c 	 22%
03:00Fri 	 9c 	 24%
04:00Fri 	 9c 	 24%
05:00Fri 	 9c 	 21%
00:00Fri 	 9c 	 22%
01:00Fri 	 9c 	 23%
02:00Fri 	 9c 	 22%
03:00Fri 	 9c 	 24%
04:00Fri 	 9c 	 24%
05:00Fri 	 9c 	 21%
00:00Fri 	 9c 	 22%
01:00Fri 	 9c 	 23%
02:00Fri 	 9c 	 22%
03:00Fri 	 9c 	 24%
04:00Fri 	 9c 	 24%
05:00Fri 	 9c 	 21%
00:00Fri 	 9c 	 23%
01:00Fri 	 9c 	 23%
02:00Fri 	 9c 	 22%
03:00Fri 	 9c 	 24%
04:00Fri 	 9c 	 24%
05:00Fri 	 9c 	 21%
00:00Fri 	 9c 	 23%
01:00Fri 	 9c 	 23%
02:00Fri 	 9c 	 22%
03:00Fri 	 9c 	 24%
04:00Fri 	 9c 	 24%
05:00Fri 	 9c 	 21%
00:00Fri 	 9c 	 23%
01:00Fri 	 9c 	 23%
02:00Fri 	 9c 	 22%
03:00Fri 	 9c 	 24%
04:00Fri 	 9c 	 24%
05:00Fri 	 9c 	 21%
00:00Fri 	 9c 	 23%
01:00Fri 	 9c 	 23%
02:00Fri 	 9c 	 22%
03:00Fri 	 9c 	 24%
04:00Fri 	 9c 	 24%
05:00Fri 	 9c 	 21%
00:00Fri 	 10c 	 21%
01:00Fri 	 9c 	 20%
02:00Fri 	 9c 	 25%
03:00Fri 	 9c 	 39%
04:00Fri 	 9c 	 51%
05:00Fri 	 9c 	 44%
00:00Fri 	 10c 	 21%
01:00Fri 	 9c 	 20%
02:00Fri 	 9c 	 25%
03:00Fri 	 9c 	 39%
04:00Fri 	 9c 	 51%
05:00Fri 	 9c 	 44%
00:00Fri 	 10c 	 21%
01:00Fri 	 9c 	 20%
02:00Fri 	 9c 	 25%
03:00Fri 	 9c 	 39%
04:00Fri 	 9c 	 51%
05:00Fri 	 9c 	 44%
00:00Fri 	 10c 	 21%
01:00Fri 	 9c 	 20%
02:00Fri 	 9c 	 25%
03:00Fri 	 9c 	 39%
04:00Fri 	 9c 	 51%
05:00Fri 	 9c 	 44%
00:00Fri 	 10c 	 21%
01:00Fri 	 9c 	 20%
02:00Fri 	 9c 	 25%
03:00Fri 	 9c 	 39%
04:00Fri 	 9c 	 51%
05:00Fri 	 9c 	 44%
00:00Fri 	 10c 	 21%
01:00Fri 	 9c 	 20%
02:00Fri 	 9c 	 25%
03:00Fri 	 9c 	 39%
04:00Fri 	 9c 	 51%
05:00Fri 	 9c 	 44%
00:00Fri 	 10c 	 21%
01:00Fri 	 9c 	 20%
02:00Fri 	 9c 	 25%
03:00Fri 	 9c 	 39%
04:00Fri 	 9c 	 51%
05:00Fri 	 9c 	 44%
00:00Fri 	 10c 	 21%
01:00Fri 	 9c 	 20%
02:00Fri 	 9c 	 25%
03:00Fri 	 9c 	 39%
04:00Fri 	 9c 	 51%
05:00Fri 	 9c 	 44%
00:00Fri 	 10c 	 33%
01:00Fri 	 10c 	 31%
02:00Fri 	 9c 	 34%
03:00Fri 	 9c 	 46%
04:00Fri 	 9c 	 57%
05:00Fri 	 9c 	 52%
00:00Fri 	 10c 	 33%
01:00Fri 	 10c 	 31%
02:00Fri 	 9c 	 34%
03:00Fri 	 9c 	 46%
04:00Fri 	 9c 	 57%
05:00Fri 	 9c 	 52%
00:00Fri 	 10c 	 33%
01:00Fri 	 10c 	 31%
02:00Fri 	 9c 	 34%
03:00Fri 	 9c 	 46%
04:00Fri 	 9c 	 57%
05:00Fri 	 9c 	 52%
00:00Fri 	 10c 	 33%
01:00Fri 	 10c 	 31%
02:00Fri 	 9c 	 34%
03:00Fri 	 9c 	 46%
04:00Fri 	 9c 	 57%
05:00Fri 	 9c 	 52%
00:00Fri 	 10c 	 33%
01:00Fri 	 10c 	 31%
02:00Fri 	 9c 	 34%
03:00Fri 	 9c 	 46%
04:00Fri 	 9c 	 57%
05:00Fri 	 9c 	 52%
00:00Fri 	 10c 	 33%
01:00Fri 	 10c 	 31%
02:00Fri 	 9c 	 34%
03:00Fri 	 9c 	 46%
04:00Fri 	 9c 	 57%
05:00Fri 	 9c 	 52%
00:00Fri 	 10c 	 33%
01:00Fri 	 10c 	 31%
02:00Fri 	 9c 	 34%
03:00Fri 	 9c 	 46%
04:00Fri 	 9c 	 57%
05:00Fri 	 9c 	 52%
00:00Fri 	 10c 	 33%
01:00Fri 	 10c 	 31%
02:00Fri 	 9c 	 34%
03:00Fri 	 9c 	 46%
04:00Fri 	 9c 	 57%
05:00Fri 	 9c 	 52%
00:00Fri 	 10c 	 33%
01:00Fri 	 10c 	 31%
02:00Fri 	 9c 	 34%
03:00Fri 	 9c 	 46%
04:00Fri 	 9c 	 57%
05:00Fri 	 9c 	 52%
00:00Fri 	 10c 	 33%
01:00Fri 	 10c 	 31%
02:00Fri 	 9c 	 34%
03:00Fri 	 9c 	 46%
04:00Fri 	 9c 	 57%
05:00Fri 	 9c 	 52%
00:00Fri 	 10c 	 33%
01:00Fri 	 10c 	 31%
02:00Fri 	 9c 	 34%
03:00Fri 	 9c 	 46%
04:00Fri 	 9c 	 57%
05:00Fri 	 9c 	 52%
00:00Fri 	 10c 	 33%
01:00Fri 	 10c 	 31%
02:00Fri 	 9c 	 34%
03:00Fri 	 9c 	 46%
04:00Fri 	 9c 	 57%
05:00Fri 	 9c 	 52%
00:00Fri 	 10c 	 33%
01:00Fri 	 10c 	 31%
02:00Fri 	 9c 	 34%
03:00Fri 	 9c 	 46%
04:00Fri 	 9c 	 57%
05:00Fri 	 9c 	 52%
00:00Fri 	 10c 	 33%
01:00Fri 	 10c 	 31%
02:00Fri 	 9c 	 34%
03:00Fri 	 9c 	 46%
04:00Fri 	 9c 	 57%
05:00Fri 	 9c 	 52%
00:00Fri 	 10c 	 33%
01:00Fri 	 10c 	 31%
02:00Fri 	 9c 	 34%
03:00Fri 	 9c 	 46%
04:00Fri 	 9c 	 57%
05:00Fri 	 9c 	 52%
00:00Fri 	 10c 	 33%
01:00Fri 	 10c 	 31%
02:00Fri 	 9c 	 34%
03:00Fri 	 9c 	 46%
04:00Fri 	 9c 	 57%
05:00Fri 	 9c 	 52%
00:00Fri 	 10c 	 33%
01:00Fri 	 10c 	 31%
02:00Fri 	 9c 	 34%
03:00Fri 	 9c 	 46%
04:00Fri 	 9c 	 57%
05:00Fri 	 9c 	 52%
00:00Fri 	 10c 	 33%
01:00Fri 	 10c 	 31%
02:00Fri 	 9c 	 34%
03:00Fri 	 9c 	 46%
04:00Fri 	 9c 	 57%
05:00Fri 	 9c 	 52%
00:00Fri 	 10c 	 33%
01:00Fri 	 10c 	 31%
02:00Fri 	 9c 	 34%
03:00Fri 	 9c 	 46%
04:00Fri 	 9c 	 57%
05:00Fri 	 9c 	 52%
00:00Fri 	 10c 	 33%
01:00Fri 	 10c 	 31%
02:00Fri 	 9c 	 34%
03:00Fri 	 9c 	 46%
04:00Fri 	 9c 	 57%
05:00Fri 	 9c 	 52%
00:00Fri 	 10c 	 33%
01:00Fri 	 10c 	 31%
02:00Fri 	 9c 	 34%
03:00Fri 	 9c 	 46%
04:00Fri 	 9c 	 57%
05:00Fri 	 9c 	 52%
00:00Fri 	 10c 	 33%
01:00Fri 	 10c 	 31%
02:00Fri 	 9c 	 34%
03:00Fri 	 9c 	 46%
04:00Fri 	 9c 	 57%
05:00Fri 	 9c 	 52%
00:00Fri 	 10c 	 33%
01:00Fri 	 10c 	 31%
02:00Fri 	 9c 	 34%
03:00Fri 	 9c 	 46%
04:00Fri 	 9c 	 57%
05:00Fri 	 9c 	 52%
00:00Fri 	 10c 	 33%
01:00Fri 	 10c 	 31%
02:00Fri 	 9c 	 34%
03:00Fri 	 9c 	 46%
04:00Fri 	 9c 	 57%
05:00Fri 	 9c 	 52%
00:00Fri 	 10c 	 33%
01:00Fri 	 10c 	 31%
02:00Fri 	 9c 	 34%
03:00Fri 	 9c 	 46%
04:00Fri 	 9c 	 57%
05:00Fri 	 9c 	 52%
00:00Fri 	 10c 	 33%
01:00Fri 	 10c 	 31%
02:00Fri 	 9c 	 34%
03:00Fri 	 9c 	 46%
04:00Fri 	 9c 	 57%
05:00Fri 	 9c 	 52%
00:00Fri 	 10c 	 33%
01:00Fri 	 10c 	 31%
02:00Fri 	 9c 	 34%
03:00Fri 	 9c 	 46%
04:00Fri 	 9c 	 57%
05:00Fri 	 9c 	 52%
00:00Fri 	 10c 	 33%
01:00Fri 	 10c 	 31%
02:00Fri 	 9c 	 34%
03:00Fri 	 9c 	 46%
04:00Fri 	 9c 	 57%
05:00Fri 	 9c 	 52%
00:00Fri 	 10c 	 33%
01:00Fri 	 10c 	 31%
02:00Fri 	 9c 	 34%
03:00Fri 	 9c 	 46%
04:00Fri 	 9c 	 57%
05:00Fri 	 9c 	 52%
00:00Fri 	 10c 	 33%
01:00Fri 	 10c 	 31%
02:00Fri 	 9c 	 34%
03:00Fri 	 9c 	 46%
04:00Fri 	 9c 	 57%
05:00Fri 	 9c 	 52%
00:00Fri 	 10c 	 33%
01:00Fri 	 10c 	 31%
02:00Fri 	 9c 	 34%
03:00Fri 	 9c 	 46%
04:00Fri 	 9c 	 57%
05:00Fri 	 9c 	 52%
00:00Fri 	 10c 	 33%
01:00Fri 	 10c 	 31%
02:00Fri 	 9c 	 34%
03:00Fri 	 9c 	 46%
04:00Fri 	 9c 	 57%
05:00Fri 	 9c 	 52%
00:00Fri 	 10c 	 33%
01:00Fri 	 10c 	 31%
02:00Fri 	 9c 	 34%
03:00Fri 	 9c 	 46%
04:00Fri 	 9c 	 57%
05:00Fri 	 9c 	 52%
00:00Fri 	 10c 	 33%
01:00Fri 	 10c 	 31%
02:00Fri 	 9c 	 34%
03:00Fri 	 9c 	 46%
04:00Fri 	 9c 	 57%
05:00Fri 	 9c 	 52%
00:00Fri 	 10c 	 33%
01:00Fri 	 10c 	 31%
02:00Fri 	 9c 	 34%
03:00Fri 	 9c 	 46%
04:00Fri 	 9c 	 57%
05:00Fri 	 9c 	 52%
00:00Fri 	 10c 	 33%
01:00Fri 	 10c 	 31%
02:00Fri 	 9c 	 34%
03:00Fri 	 9c 	 46%
04:00Fri 	 9c 	 57%
05:00Fri 	 9c 	 52%
00:00Fri 	 10c 	 33%
01:00Fri 	 10c 	 31%
02:00Fri 	 9c 	 34%
03:00Fri 	 9c 	 46%
04:00Fri 	 9c 	 57%
05:00Fri 	 9c 	 52%
00:00Fri 	 10c 	 33%
01:00Fri 	 10c 	 31%
02:00Fri 	 9c 	 34%
03:00Fri 	 9c 	 46%
04:00Fri 	 9c 	 57%
05:00Fri 	 9c 	 52%
00:00Fri 	 10c 	 33%
01:00Fri 	 10c 	 31%
02:00Fri 	 9c 	 34%
03:00Fri 	 9c 	 46%
04:00Fri 	 9c 	 57%
05:00Fri 	 9c 	 52%
00:00Fri 	 10c 	 33%
01:00Fri 	 10c 	 31%
02:00Fri 	 9c 	 34%
03:00Fri 	 9c 	 46%
04:00Fri 	 9c 	 57%
05:00Fri 	 9c 	 52%
00:00Fri 	 10c 	 26%
01:00Fri 	 10c 	 25%
02:00Fri 	 10c 	 26%
03:00Fri 	 10c 	 32%
04:00Fri 	 10c 	 36%
05:00Fri 	 9c 	 34%
00:00Fri 	 10c 	 26%
01:00Fri 	 10c 	 25%
02:00Fri 	 10c 	 26%
03:00Fri 	 10c 	 32%
04:00Fri 	 10c 	 36%
05:00Fri 	 9c 	 34%
00:00Fri 	 10c 	 26%
01:00Fri 	 10c 	 25%
02:00Fri 	 10c 	 26%
03:00Fri 	 10c 	 32%
04:00Fri 	 10c 	 36%
05:00Fri 	 9c 	 34%
00:00Fri 	 10c 	 26%
01:00Fri 	 10c 	 25%
02:00Fri 	 10c 	 26%
03:00Fri 	 10c 	 32%
04:00Fri 	 10c 	 36%
05:00Fri 	 9c 	 34%
00:00Fri 	 10c 	 26%
01:00Fri 	 10c 	 25%
02:00Fri 	 10c 	 26%
03:00Fri 	 10c 	 32%
04:00Fri 	 10c 	 36%
05:00Fri 	 9c 	 34%
00:00Fri 	 10c 	 26%
01:00Fri 	 10c 	 25%
02:00Fri 	 10c 	 26%
03:00Fri 	 10c 	 32%
04:00Fri 	 10c 	 36%
05:00Fri 	 9c 	 34%
00:00Fri 	 10c 	 26%
01:00Fri 	 10c 	 25%
02:00Fri 	 10c 	 26%
03:00Fri 	 10c 	 32%
04:00Fri 	 10c 	 36%
05:00Fri 	 9c 	 34%
00:00Fri 	 10c 	 26%
01:00Fri 	 10c 	 25%
02:00Fri 	 10c 	 26%
03:00Fri 	 10c 	 32%
04:00Fri 	 10c 	 36%
05:00Fri 	 9c 	 34%
00:00Fri 	 10c 	 26%
01:00Fri 	 10c 	 25%
02:00Fri 	 10c 	 26%
03:00Fri 	 10c 	 32%
04:00Fri 	 10c 	 36%
05:00Fri 	 9c 	 34%
00:00Fri 	 10c 	 28%
01:00Fri 	 10c 	 27%
02:00Fri 	 10c 	 29%
03:00Fri 	 10c 	 34%
04:00Fri 	 10c 	 37%
05:00Fri 	 10c 	 36%
