00:00Fri 	 11c 	 72%

01:00Fri 	 11c 	 86%
01:00Fri 	 11c 	 86%
01:00Fri 	 11c 	 86%
01:00Fri 	 11c 	 86%
01:00Fri 	 11c 	 88%

02:00Fri 	 11c 	 69%
02:00Fri 	 11c 	 69%
02:00Fri 	 11c 	 69%
02:00Fri 	 11c 	 69%
02:00Fri 	 11c 	 60%
02:00Fri 	 11c 	 60%
02:00Fri 	 11c 	 60%
02:00Fri 	 11c 	 60%
02:00Fri 	 12c 	 84%

03:00Fri 	 11c 	 44%
03:00Fri 	 11c 	 44%
03:00Fri 	 11c 	 44%
03:00Fri 	 11c 	 44%
03:00Fri 	 11c 	 44%
03:00Fri 	 11c 	 44%
03:00Fri 	 11c 	 44%
03:00Fri 	 11c 	 44%
03:00Fri 	 12c 	 79%
03:00Fri 	 12c 	 79%
03:00Fri 	 12c 	 79%
03:00Fri 	 12c 	 79%
03:00Fri 	 11c 	 50%

04:00Fri 	 12c 	 56%
04:00Fri 	 12c 	 56%
04:00Fri 	 12c 	 56%
04:00Fri 	 12c 	 56%
04:00Fri 	 12c 	 56%
04:00Fri 	 12c 	 56%
04:00Fri 	 12c 	 56%
04:00Fri 	 12c 	 56%
04:00Fri 	 12c 	 73%
04:00Fri 	 12c 	 73%
04:00Fri 	 12c 	 73%
04:00Fri 	 12c 	 73%
04:00Fri 	 11c 	 95%
04:00Fri 	 11c 	 95%
04:00Fri 	 11c 	 95%
04:00Fri 	 11c 	 95%
04:00Fri 	 11c 	 5%

05:00Fri 	 11c 	 71%
05:00Fri 	 11c 	 71%
05:00Fri 	 11c 	 71%
05:00Fri 	 11c 	 71%
05:00Fri 	 11c 	 71%
05:00Fri 	 11c 	 71%
05:00Fri 	 11c 	 71%
05:00Fri 	 11c 	 71%
05:00Fri 	 11c 	 83%
05:00Fri 	 11c 	 83%
05:00Fri 	 11c 	 83%
05:00Fri 	 11c 	 83%
05:00Fri 	 11c 	 91%
05:00Fri 	 11c 	 91%
05:00Fri 	 11c 	 91%
05:00Fri 	 11c 	 91%
05:00Fri 	 11c 	 89%
05:00Fri 	 11c 	 89%
05:00Fri 	 11c 	 89%
05:00Fri 	 11c 	 89%
05:00Fri 	 11c 	 69%

06:00Fri 	 11c 	 99%
06:00Fri 	 11c 	 75%
06:00Fri 	 11c 	 75%
06:00Fri 	 11c 	 75%
06:00Fri 	 11c 	 75%
06:00Fri 	 11c 	 75%
06:00Fri 	 11c 	 75%
06:00Fri 	 11c 	 75%
06:00Fri 	 11c 	 75%
06:00Fri 	 11c 	 80%
06:00Fri 	 11c 	 80%
06:00Fri 	 11c 	 80%
06:00Fri 	 11c 	 80%
06:00Fri 	 11c 	 82%
06:00Fri 	 11c 	 82%
06:00Fri 	 11c 	 82%
06:00Fri 	 11c 	 82%
06:00Fri 	 11c 	 80%
06:00Fri 	 11c 	 80%
06:00Fri 	 11c 	 80%
06:00Fri 	 11c 	 80%
06:00Fri 	 11c 	 91%
06:00Fri 	 11c 	 91%
06:00Fri 	 11c 	 91%
06:00Fri 	 11c 	 91%

07:00Fri 	 10c 	 96%
07:00Fri 	 10c 	 96%
07:00Fri 	 10c 	 96%
07:00Fri 	 10c 	 96%
07:00Fri 	 9c 	 99%
07:00Fri 	 11c 	 65%
07:00Fri 	 11c 	 65%
07:00Fri 	 11c 	 65%
07:00Fri 	 11c 	 65%
07:00Fri 	 11c 	 65%
07:00Fri 	 11c 	 65%
07:00Fri 	 11c 	 65%
07:00Fri 	 11c 	 65%
07:00Fri 	 11c 	 66%
07:00Fri 	 11c 	 66%
07:00Fri 	 11c 	 66%
07:00Fri 	 11c 	 66%
07:00Fri 	 11c 	 69%
07:00Fri 	 11c 	 69%
07:00Fri 	 11c 	 69%
07:00Fri 	 11c 	 69%
07:00Fri 	 10c 	 65%
07:00Fri 	 10c 	 65%
07:00Fri 	 10c 	 65%
07:00Fri 	 10c 	 65%
07:00Fri 	 10c 	 83%
07:00Fri 	 10c 	 83%
07:00Fri 	 10c 	 83%
07:00Fri 	 10c 	 83%

08:00Fri 	 10c 	 43%
08:00Fri 	 10c 	 43%
08:00Fri 	 10c 	 43%
08:00Fri 	 10c 	 43%
08:00Fri 	 9c 	 19%
08:00Fri 	 9c 	 19%
08:00Fri 	 9c 	 19%
08:00Fri 	 9c 	 19%
08:00Fri 	 9c 	 28%
08:00Fri 	 10c 	 51%
08:00Fri 	 10c 	 51%
08:00Fri 	 10c 	 51%
08:00Fri 	 10c 	 51%
08:00Fri 	 10c 	 51%
08:00Fri 	 10c 	 51%
08:00Fri 	 10c 	 51%
08:00Fri 	 10c 	 51%
08:00Fri 	 10c 	 51%
08:00Fri 	 10c 	 51%
08:00Fri 	 10c 	 51%
08:00Fri 	 10c 	 51%
08:00Fri 	 10c 	 53%
08:00Fri 	 10c 	 53%
08:00Fri 	 10c 	 53%
08:00Fri 	 10c 	 53%
08:00Fri 	 10c 	 56%
08:00Fri 	 10c 	 56%
08:00Fri 	 10c 	 56%
08:00Fri 	 10c 	 56%
08:00Fri 	 10c 	 61%
08:00Fri 	 10c 	 61%
08:00Fri 	 10c 	 61%
08:00Fri 	 10c 	 61%

09:00Fri 	 10c 	 49%
09:00Fri 	 10c 	 49%
09:00Fri 	 10c 	 49%
09:00Fri 	 10c 	 49%
09:00Fri 	 10c 	 43%
09:00Fri 	 10c 	 43%
09:00Fri 	 10c 	 43%
09:00Fri 	 10c 	 43%
09:00Fri 	 10c 	 4%
09:00Fri 	 10c 	 4%
09:00Fri 	 10c 	 4%
09:00Fri 	 10c 	 4%
09:00Fri 	 9c 	 18%
09:00Fri 	 10c 	 36%
09:00Fri 	 10c 	 36%
09:00Fri 	 10c 	 36%
09:00Fri 	 10c 	 36%
09:00Fri 	 10c 	 36%
09:00Fri 	 10c 	 36%
09:00Fri 	 10c 	 36%
09:00Fri 	 10c 	 36%
09:00Fri 	 10c 	 36%
09:00Fri 	 10c 	 36%
09:00Fri 	 10c 	 36%
09:00Fri 	 10c 	 36%
09:00Fri 	 10c 	 36%
09:00Fri 	 10c 	 36%
09:00Fri 	 10c 	 36%
09:00Fri 	 10c 	 36%
09:00Fri 	 10c 	 39%
09:00Fri 	 10c 	 39%
09:00Fri 	 10c 	 39%
09:00Fri 	 10c 	 39%
09:00Fri 	 10c 	 45%
09:00Fri 	 10c 	 45%
09:00Fri 	 10c 	 45%
09:00Fri 	 10c 	 45%

10:00Fri 	 11c 	 33%
10:00Fri 	 11c 	 33%
10:00Fri 	 11c 	 33%
10:00Fri 	 11c 	 33%
10:00Fri 	 11c 	 54%
10:00Fri 	 11c 	 54%
10:00Fri 	 11c 	 54%
10:00Fri 	 11c 	 54%
10:00Fri 	 11c 	 27%
10:00Fri 	 11c 	 27%
10:00Fri 	 11c 	 27%
10:00Fri 	 11c 	 27%
10:00Fri 	 10c 	 79%
10:00Fri 	 10c 	 79%
10:00Fri 	 10c 	 79%
10:00Fri 	 10c 	 79%
10:00Fri 	 10c 	 52%
10:00Fri 	 11c 	 24%
10:00Fri 	 11c 	 24%
10:00Fri 	 11c 	 24%
10:00Fri 	 11c 	 24%
10:00Fri 	 11c 	 24%
10:00Fri 	 11c 	 24%
10:00Fri 	 11c 	 24%
10:00Fri 	 11c 	 24%
10:00Fri 	 11c 	 24%
10:00Fri 	 11c 	 24%
10:00Fri 	 11c 	 24%
10:00Fri 	 11c 	 24%
10:00Fri 	 11c 	 24%
10:00Fri 	 11c 	 24%
10:00Fri 	 11c 	 24%
10:00Fri 	 11c 	 24%
10:00Fri 	 11c 	 24%
10:00Fri 	 11c 	 24%
10:00Fri 	 11c 	 24%
10:00Fri 	 11c 	 24%
10:00Fri 	 11c 	 28%
10:00Fri 	 11c 	 28%
10:00Fri 	 11c 	 28%
10:00Fri 	 11c 	 28%

11:00Fri 	 11c 	 21%
11:00Fri 	 11c 	 21%
11:00Fri 	 11c 	 21%
11:00Fri 	 11c 	 21%
11:00Fri 	 11c 	 34%
11:00Fri 	 11c 	 34%
11:00Fri 	 11c 	 34%
11:00Fri 	 11c 	 34%
11:00Fri 	 11c 	 34%
11:00Fri 	 11c 	 34%
11:00Fri 	 11c 	 34%
11:00Fri 	 11c 	 34%
11:00Fri 	 11c 	 60%
11:00Fri 	 11c 	 60%
11:00Fri 	 11c 	 60%
11:00Fri 	 11c 	 60%
11:00Fri 	 11c 	 92%
11:00Fri 	 11c 	 92%
11:00Fri 	 11c 	 92%
11:00Fri 	 11c 	 92%
11:00Fri 	 11c 	 34%
11:00Fri 	 11c 	 19%
11:00Fri 	 11c 	 19%
11:00Fri 	 11c 	 19%
11:00Fri 	 11c 	 19%
11:00Fri 	 11c 	 19%
11:00Fri 	 11c 	 19%
11:00Fri 	 11c 	 19%
11:00Fri 	 11c 	 19%
11:00Fri 	 11c 	 19%
11:00Fri 	 11c 	 19%
11:00Fri 	 11c 	 19%
11:00Fri 	 11c 	 19%
11:00Fri 	 11c 	 19%
11:00Fri 	 11c 	 19%
11:00Fri 	 11c 	 19%
11:00Fri 	 11c 	 19%
11:00Fri 	 11c 	 19%
11:00Fri 	 11c 	 19%
11:00Fri 	 11c 	 19%
11:00Fri 	 11c 	 19%
11:00Fri 	 11c 	 19%
11:00Fri 	 11c 	 19%
11:00Fri 	 11c 	 19%
11:00Fri 	 11c 	 19%

12:00Fri 	 12c 	 13%
12:00Fri 	 12c 	 13%
12:00Fri 	 12c 	 13%
12:00Fri 	 12c 	 13%
12:00Fri 	 12c 	 19%
12:00Fri 	 12c 	 19%
12:00Fri 	 12c 	 19%
12:00Fri 	 12c 	 19%
12:00Fri 	 12c 	 19%
12:00Fri 	 12c 	 19%
12:00Fri 	 12c 	 19%
12:00Fri 	 12c 	 19%
12:00Fri 	 12c 	 19%
12:00Fri 	 12c 	 19%
12:00Fri 	 12c 	 19%
12:00Fri 	 12c 	 19%
12:00Fri 	 12c 	 23%
12:00Fri 	 12c 	 23%
12:00Fri 	 12c 	 23%
12:00Fri 	 12c 	 23%
12:00Fri 	 11c 	 28%
12:00Fri 	 11c 	 28%
12:00Fri 	 11c 	 28%
12:00Fri 	 11c 	 28%
12:00Fri 	 11c 	 2%
12:00Fri 	 12c 	 13%
12:00Fri 	 12c 	 13%
12:00Fri 	 12c 	 13%
12:00Fri 	 12c 	 13%
12:00Fri 	 12c 	 13%
12:00Fri 	 12c 	 13%
12:00Fri 	 12c 	 13%
12:00Fri 	 12c 	 13%
12:00Fri 	 12c 	 13%
12:00Fri 	 12c 	 13%
12:00Fri 	 12c 	 13%
12:00Fri 	 12c 	 13%
12:00Fri 	 12c 	 13%
12:00Fri 	 12c 	 13%
12:00Fri 	 12c 	 13%
12:00Fri 	 12c 	 13%
12:00Fri 	 12c 	 13%
12:00Fri 	 12c 	 13%
12:00Fri 	 12c 	 13%
12:00Fri 	 12c 	 13%
12:00Fri 	 12c 	 13%
12:00Fri 	 12c 	 13%
12:00Fri 	 12c 	 13%
12:00Fri 	 12c 	 13%

13:00Fri 	 12c 	 7%
13:00Fri 	 12c 	 7%
13:00Fri 	 12c 	 7%
13:00Fri 	 12c 	 7%
13:00Fri 	 12c 	 9%
13:00Fri 	 12c 	 9%
13:00Fri 	 12c 	 9%
13:00Fri 	 12c 	 9%
13:00Fri 	 12c 	 9%
13:00Fri 	 12c 	 9%
13:00Fri 	 12c 	 9%
13:00Fri 	 12c 	 9%
13:00Fri 	 12c 	 8%
13:00Fri 	 12c 	 8%
13:00Fri 	 12c 	 8%
13:00Fri 	 12c 	 8%
13:00Fri 	 12c 	 8%
13:00Fri 	 12c 	 8%
13:00Fri 	 12c 	 8%
13:00Fri 	 12c 	 8%
13:00Fri 	 12c 	 7%
13:00Fri 	 12c 	 7%
13:00Fri 	 12c 	 7%
13:00Fri 	 12c 	 7%
13:00Fri 	 11c 	 2%
13:00Fri 	 11c 	 2%
13:00Fri 	 11c 	 2%
13:00Fri 	 11c 	 2%
13:00Fri 	 11c 	 1%
13:00Fri 	 12c 	 7%
13:00Fri 	 12c 	 7%
13:00Fri 	 12c 	 7%
13:00Fri 	 12c 	 7%
13:00Fri 	 12c 	 7%
13:00Fri 	 12c 	 7%
13:00Fri 	 12c 	 7%
13:00Fri 	 12c 	 7%
13:00Fri 	 12c 	 7%
13:00Fri 	 12c 	 7%
13:00Fri 	 12c 	 7%
13:00Fri 	 12c 	 7%
13:00Fri 	 12c 	 7%
13:00Fri 	 12c 	 7%
13:00Fri 	 12c 	 7%
13:00Fri 	 12c 	 7%
13:00Fri 	 12c 	 7%
13:00Fri 	 12c 	 7%
13:00Fri 	 12c 	 7%
13:00Fri 	 12c 	 7%
13:00Fri 	 12c 	 7%
13:00Fri 	 12c 	 7%
13:00Fri 	 12c 	 7%
13:00Fri 	 12c 	 7%

14:00Fri 	 12c 	 5%
14:00Fri 	 12c 	 5%
14:00Fri 	 12c 	 5%
14:00Fri 	 12c 	 5%
14:00Fri 	 12c 	 5%
14:00Fri 	 12c 	 5%
14:00Fri 	 12c 	 5%
14:00Fri 	 12c 	 5%
14:00Fri 	 12c 	 5%
14:00Fri 	 12c 	 5%
14:00Fri 	 12c 	 5%
14:00Fri 	 12c 	 5%
14:00Fri 	 12c 	 5%
14:00Fri 	 12c 	 5%
14:00Fri 	 12c 	 5%
14:00Fri 	 12c 	 5%
14:00Fri 	 12c 	 5%
14:00Fri 	 12c 	 5%
14:00Fri 	 12c 	 5%
14:00Fri 	 12c 	 5%
14:00Fri 	 12c 	 5%
14:00Fri 	 12c 	 5%
14:00Fri 	 12c 	 5%
14:00Fri 	 12c 	 5%
14:00Fri 	 11c 	 3%
14:00Fri 	 11c 	 3%
14:00Fri 	 11c 	 3%
14:00Fri 	 11c 	 3%
14:00Fri 	 11c 	 1%
14:00Fri 	 11c 	 1%
14:00Fri 	 11c 	 1%
14:00Fri 	 11c 	 1%
14:00Fri 	 11c 	 0%
14:00Fri 	 12c 	 5%
14:00Fri 	 12c 	 5%
14:00Fri 	 12c 	 5%
14:00Fri 	 12c 	 5%
14:00Fri 	 12c 	 5%
14:00Fri 	 12c 	 5%
14:00Fri 	 12c 	 5%
14:00Fri 	 12c 	 5%
14:00Fri 	 12c 	 5%
14:00Fri 	 12c 	 5%
14:00Fri 	 12c 	 5%
14:00Fri 	 12c 	 5%
14:00Fri 	 12c 	 5%
14:00Fri 	 12c 	 5%
14:00Fri 	 12c 	 5%
14:00Fri 	 12c 	 5%
14:00Fri 	 12c 	 5%
14:00Fri 	 12c 	 5%
14:00Fri 	 12c 	 5%
14:00Fri 	 12c 	 5%
14:00Fri 	 12c 	 5%
14:00Fri 	 12c 	 5%
14:00Fri 	 12c 	 5%
14:00Fri 	 12c 	 5%

15:00Fri 	 11c 	 6%
15:00Fri 	 11c 	 6%
15:00Fri 	 11c 	 6%
15:00Fri 	 11c 	 6%
15:00Fri 	 11c 	 4%
15:00Fri 	 11c 	 4%
15:00Fri 	 11c 	 4%
15:00Fri 	 11c 	 4%
15:00Fri 	 11c 	 4%
15:00Fri 	 11c 	 4%
15:00Fri 	 11c 	 4%
15:00Fri 	 11c 	 4%
15:00Fri 	 11c 	 5%
15:00Fri 	 11c 	 5%
15:00Fri 	 11c 	 5%
15:00Fri 	 11c 	 5%
15:00Fri 	 11c 	 5%
15:00Fri 	 11c 	 5%
15:00Fri 	 11c 	 5%
15:00Fri 	 11c 	 5%
15:00Fri 	 11c 	 5%
15:00Fri 	 11c 	 5%
15:00Fri 	 11c 	 5%
15:00Fri 	 11c 	 5%
15:00Fri 	 11c 	 5%
15:00Fri 	 11c 	 5%
15:00Fri 	 11c 	 5%
15:00Fri 	 11c 	 5%
15:00Fri 	 11c 	 3%
15:00Fri 	 11c 	 3%
15:00Fri 	 11c 	 3%
15:00Fri 	 11c 	 3%
15:00Fri 	 11c 	 0%
15:00Fri 	 11c 	 0%
15:00Fri 	 11c 	 0%
15:00Fri 	 11c 	 0%
15:00Fri 	 11c 	 0%
15:00Fri 	 11c 	 6%
15:00Fri 	 11c 	 6%
15:00Fri 	 11c 	 6%
15:00Fri 	 11c 	 6%
15:00Fri 	 11c 	 6%
15:00Fri 	 11c 	 6%
15:00Fri 	 11c 	 6%
15:00Fri 	 11c 	 6%
15:00Fri 	 11c 	 6%
15:00Fri 	 11c 	 6%
15:00Fri 	 11c 	 6%
15:00Fri 	 11c 	 6%
15:00Fri 	 11c 	 6%
15:00Fri 	 11c 	 6%
15:00Fri 	 11c 	 6%
15:00Fri 	 11c 	 6%
15:00Fri 	 11c 	 6%
15:00Fri 	 11c 	 6%
15:00Fri 	 11c 	 6%
15:00Fri 	 11c 	 6%
15:00Fri 	 11c 	 6%
15:00Fri 	 11c 	 6%
15:00Fri 	 11c 	 6%
15:00Fri 	 11c 	 6%

16:00Fri 	 11c 	 9%
16:00Fri 	 11c 	 9%
16:00Fri 	 11c 	 9%
16:00Fri 	 11c 	 9%
16:00Fri 	 11c 	 4%
16:00Fri 	 11c 	 4%
16:00Fri 	 11c 	 4%
16:00Fri 	 11c 	 4%
16:00Fri 	 11c 	 4%
16:00Fri 	 11c 	 4%
16:00Fri 	 11c 	 4%
16:00Fri 	 11c 	 4%
16:00Fri 	 11c 	 8%
16:00Fri 	 11c 	 8%
16:00Fri 	 11c 	 8%
16:00Fri 	 11c 	 8%
16:00Fri 	 11c 	 8%
16:00Fri 	 11c 	 8%
16:00Fri 	 11c 	 8%
16:00Fri 	 11c 	 8%
16:00Fri 	 11c 	 8%
16:00Fri 	 11c 	 8%
16:00Fri 	 11c 	 8%
16:00Fri 	 11c 	 8%
16:00Fri 	 11c 	 8%
16:00Fri 	 11c 	 8%
16:00Fri 	 11c 	 8%
16:00Fri 	 11c 	 8%
16:00Fri 	 11c 	 9%
16:00Fri 	 11c 	 9%
16:00Fri 	 11c 	 9%
16:00Fri 	 11c 	 9%
16:00Fri 	 11c 	 6%
16:00Fri 	 11c 	 6%
16:00Fri 	 11c 	 6%
16:00Fri 	 11c 	 6%
16:00Fri 	 10c 	 1%
16:00Fri 	 10c 	 1%
16:00Fri 	 10c 	 1%
16:00Fri 	 10c 	 1%
16:00Fri 	 10c 	 1%
16:00Fri 	 11c 	 9%
16:00Fri 	 11c 	 9%
16:00Fri 	 11c 	 9%
16:00Fri 	 11c 	 9%
16:00Fri 	 11c 	 9%
16:00Fri 	 11c 	 9%
16:00Fri 	 11c 	 9%
16:00Fri 	 11c 	 9%
16:00Fri 	 11c 	 9%
16:00Fri 	 11c 	 9%
16:00Fri 	 11c 	 9%
16:00Fri 	 11c 	 9%
16:00Fri 	 11c 	 9%
16:00Fri 	 11c 	 9%
16:00Fri 	 11c 	 9%
16:00Fri 	 11c 	 9%
16:00Fri 	 11c 	 9%
16:00Fri 	 11c 	 9%
16:00Fri 	 11c 	 9%
16:00Fri 	 11c 	 9%
16:00Fri 	 11c 	 9%
16:00Fri 	 11c 	 9%
16:00Fri 	 11c 	 9%
16:00Fri 	 11c 	 9%

17:00Fri 	 10c 	 11%
17:00Fri 	 10c 	 11%
17:00Fri 	 10c 	 11%
17:00Fri 	 10c 	 11%
17:00Fri 	 10c 	 5%
17:00Fri 	 10c 	 5%
17:00Fri 	 10c 	 5%
17:00Fri 	 10c 	 5%
17:00Fri 	 10c 	 5%
17:00Fri 	 10c 	 5%
17:00Fri 	 10c 	 5%
17:00Fri 	 10c 	 5%
17:00Fri 	 10c 	 10%
17:00Fri 	 10c 	 10%
17:00Fri 	 10c 	 10%
17:00Fri 	 10c 	 10%
17:00Fri 	 10c 	 10%
17:00Fri 	 10c 	 10%
17:00Fri 	 10c 	 10%
17:00Fri 	 10c 	 10%
17:00Fri 	 10c 	 10%
17:00Fri 	 10c 	 10%
17:00Fri 	 10c 	 10%
17:00Fri 	 10c 	 10%
17:00Fri 	 10c 	 10%
17:00Fri 	 10c 	 10%
17:00Fri 	 10c 	 10%
17:00Fri 	 10c 	 10%
17:00Fri 	 10c 	 10%
17:00Fri 	 10c 	 10%
17:00Fri 	 10c 	 10%
17:00Fri 	 10c 	 10%
17:00Fri 	 10c 	 8%
17:00Fri 	 10c 	 8%
17:00Fri 	 10c 	 8%
17:00Fri 	 10c 	 8%
17:00Fri 	 10c 	 24%
17:00Fri 	 10c 	 24%
17:00Fri 	 10c 	 24%
17:00Fri 	 10c 	 24%
17:00Fri 	 10c 	 0%
17:00Fri 	 10c 	 0%
17:00Fri 	 10c 	 0%
17:00Fri 	 10c 	 0%
17:00Fri 	 10c 	 0%
17:00Fri 	 10c 	 11%
17:00Fri 	 10c 	 11%
17:00Fri 	 10c 	 11%
17:00Fri 	 10c 	 11%
17:00Fri 	 10c 	 11%
17:00Fri 	 10c 	 11%
17:00Fri 	 10c 	 11%
17:00Fri 	 10c 	 11%
17:00Fri 	 10c 	 11%
17:00Fri 	 10c 	 11%
17:00Fri 	 10c 	 11%
17:00Fri 	 10c 	 11%
17:00Fri 	 10c 	 11%
17:00Fri 	 10c 	 11%
17:00Fri 	 10c 	 11%
17:00Fri 	 10c 	 11%
17:00Fri 	 10c 	 11%
17:00Fri 	 10c 	 11%
17:00Fri 	 10c 	 11%
17:00Fri 	 10c 	 11%
17:00Fri 	 10c 	 11%
17:00Fri 	 10c 	 11%
17:00Fri 	 10c 	 11%
17:00Fri 	 10c 	 11%

18:00Fri 	 10c 	 8%
18:00Fri 	 10c 	 8%
18:00Fri 	 10c 	 8%
18:00Fri 	 10c 	 8%
18:00Fri 	 10c 	 6%
18:00Fri 	 10c 	 6%
18:00Fri 	 10c 	 6%
18:00Fri 	 10c 	 6%
18:00Fri 	 10c 	 6%
18:00Fri 	 10c 	 6%
18:00Fri 	 10c 	 6%
18:00Fri 	 10c 	 6%
18:00Fri 	 10c 	 7%
18:00Fri 	 10c 	 7%
18:00Fri 	 10c 	 7%
18:00Fri 	 10c 	 7%
18:00Fri 	 10c 	 7%
18:00Fri 	 10c 	 7%
18:00Fri 	 10c 	 7%
18:00Fri 	 10c 	 7%
18:00Fri 	 10c 	 7%
18:00Fri 	 10c 	 7%
18:00Fri 	 10c 	 7%
18:00Fri 	 10c 	 7%
18:00Fri 	 10c 	 7%
18:00Fri 	 10c 	 7%
18:00Fri 	 10c 	 7%
18:00Fri 	 10c 	 7%
18:00Fri 	 10c 	 7%
18:00Fri 	 10c 	 7%
18:00Fri 	 10c 	 7%
18:00Fri 	 10c 	 7%
18:00Fri 	 10c 	 7%
18:00Fri 	 10c 	 7%
18:00Fri 	 10c 	 7%
18:00Fri 	 10c 	 7%
18:00Fri 	 10c 	 6%
18:00Fri 	 10c 	 6%
18:00Fri 	 10c 	 6%
18:00Fri 	 10c 	 6%
18:00Fri 	 10c 	 1%
18:00Fri 	 10c 	 1%
18:00Fri 	 10c 	 1%
18:00Fri 	 10c 	 1%
18:00Fri 	 9c 	 0%
18:00Fri 	 9c 	 0%
18:00Fri 	 9c 	 0%
18:00Fri 	 9c 	 0%
18:00Fri 	 9c 	 0%
18:00Fri 	 10c 	 8%
18:00Fri 	 10c 	 8%
18:00Fri 	 10c 	 8%
18:00Fri 	 10c 	 8%
18:00Fri 	 10c 	 8%
18:00Fri 	 10c 	 8%
18:00Fri 	 10c 	 8%
18:00Fri 	 10c 	 8%
18:00Fri 	 10c 	 8%
18:00Fri 	 10c 	 8%
18:00Fri 	 10c 	 8%
18:00Fri 	 10c 	 8%
18:00Fri 	 10c 	 8%
18:00Fri 	 10c 	 8%
18:00Fri 	 10c 	 8%
18:00Fri 	 10c 	 8%
18:00Fri 	 10c 	 8%
18:00Fri 	 10c 	 8%
18:00Fri 	 10c 	 8%
18:00Fri 	 10c 	 8%
18:00Fri 	 10c 	 8%
18:00Fri 	 10c 	 8%
18:00Fri 	 10c 	 8%
18:00Fri 	 10c 	 8%

19:00Fri 	 9c 	 6%
19:00Fri 	 9c 	 6%
19:00Fri 	 9c 	 6%
19:00Fri 	 9c 	 6%
19:00Fri 	 9c 	 6%
19:00Fri 	 9c 	 6%
19:00Fri 	 9c 	 6%
19:00Fri 	 9c 	 6%
19:00Fri 	 9c 	 6%
19:00Fri 	 9c 	 6%
19:00Fri 	 9c 	 6%
19:00Fri 	 9c 	 6%
19:00Fri 	 9c 	 5%
19:00Fri 	 9c 	 5%
19:00Fri 	 9c 	 5%
19:00Fri 	 9c 	 5%
19:00Fri 	 9c 	 5%
19:00Fri 	 9c 	 5%
19:00Fri 	 9c 	 5%
19:00Fri 	 9c 	 5%
19:00Fri 	 9c 	 5%
19:00Fri 	 9c 	 5%
19:00Fri 	 9c 	 5%
19:00Fri 	 9c 	 5%
19:00Fri 	 9c 	 5%
19:00Fri 	 9c 	 5%
19:00Fri 	 9c 	 5%
19:00Fri 	 9c 	 5%
19:00Fri 	 9c 	 5%
19:00Fri 	 9c 	 5%
19:00Fri 	 9c 	 5%
19:00Fri 	 9c 	 5%
19:00Fri 	 9c 	 5%
19:00Fri 	 9c 	 5%
19:00Fri 	 9c 	 5%
19:00Fri 	 9c 	 5%
19:00Fri 	 9c 	 5%
19:00Fri 	 9c 	 5%
19:00Fri 	 9c 	 5%
19:00Fri 	 9c 	 5%
19:00Fri 	 9c 	 4%
19:00Fri 	 9c 	 4%
19:00Fri 	 9c 	 4%
19:00Fri 	 9c 	 4%
19:00Fri 	 9c 	 1%
19:00Fri 	 9c 	 1%
19:00Fri 	 9c 	 1%
19:00Fri 	 9c 	 1%
19:00Fri 	 9c 	 1%
19:00Fri 	 9c 	 0%
19:00Fri 	 9c 	 0%
19:00Fri 	 9c 	 0%
19:00Fri 	 9c 	 6%
19:00Fri 	 9c 	 6%
19:00Fri 	 9c 	 6%
19:00Fri 	 9c 	 6%
19:00Fri 	 9c 	 6%
19:00Fri 	 9c 	 6%
19:00Fri 	 9c 	 6%
19:00Fri 	 9c 	 6%
19:00Fri 	 9c 	 6%
19:00Fri 	 9c 	 6%
19:00Fri 	 9c 	 6%
19:00Fri 	 9c 	 6%
19:00Fri 	 9c 	 6%
19:00Fri 	 9c 	 6%
19:00Fri 	 9c 	 6%
19:00Fri 	 9c 	 6%
19:00Fri 	 9c 	 6%
19:00Fri 	 9c 	 6%
19:00Fri 	 9c 	 6%
19:00Fri 	 9c 	 6%
19:00Fri 	 9c 	 6%
19:00Fri 	 9c 	 6%
19:00Fri 	 9c 	 6%
19:00Fri 	 9c 	 6%

20:00Fri 	 9c 	 5%
20:00Fri 	 9c 	 5%
20:00Fri 	 9c 	 5%
20:00Fri 	 9c 	 5%
20:00Fri 	 9c 	 8%
20:00Fri 	 9c 	 8%
20:00Fri 	 9c 	 8%
20:00Fri 	 9c 	 8%
20:00Fri 	 9c 	 8%
20:00Fri 	 9c 	 8%
20:00Fri 	 9c 	 8%
20:00Fri 	 9c 	 8%
20:00Fri 	 9c 	 6%
20:00Fri 	 9c 	 6%
20:00Fri 	 9c 	 6%
20:00Fri 	 9c 	 6%
20:00Fri 	 9c 	 6%
20:00Fri 	 9c 	 6%
20:00Fri 	 9c 	 6%
20:00Fri 	 9c 	 6%
20:00Fri 	 9c 	 6%
20:00Fri 	 9c 	 6%
20:00Fri 	 9c 	 6%
20:00Fri 	 9c 	 6%
20:00Fri 	 9c 	 6%
20:00Fri 	 9c 	 6%
20:00Fri 	 9c 	 6%
20:00Fri 	 9c 	 6%
20:00Fri 	 9c 	 6%
20:00Fri 	 9c 	 6%
20:00Fri 	 9c 	 6%
20:00Fri 	 9c 	 6%
20:00Fri 	 9c 	 6%
20:00Fri 	 9c 	 6%
20:00Fri 	 9c 	 6%
20:00Fri 	 9c 	 6%
20:00Fri 	 9c 	 6%
20:00Fri 	 9c 	 6%
20:00Fri 	 9c 	 6%
20:00Fri 	 9c 	 6%
20:00Fri 	 9c 	 6%
20:00Fri 	 9c 	 6%
20:00Fri 	 9c 	 6%
20:00Fri 	 9c 	 6%
20:00Fri 	 9c 	 6%
20:00Fri 	 9c 	 6%
20:00Fri 	 9c 	 6%
20:00Fri 	 9c 	 6%
20:00Fri 	 9c 	 6%
20:00Fri 	 9c 	 7%
20:00Fri 	 9c 	 7%
20:00Fri 	 9c 	 7%
20:00Fri 	 9c 	 0%
20:00Fri 	 9c 	 0%
20:00Fri 	 9c 	 0%
20:00Fri 	 9c 	 0%
20:00Fri 	 9c 	 0%
20:00Fri 	 9c 	 5%
20:00Fri 	 9c 	 5%
20:00Fri 	 9c 	 5%
20:00Fri 	 9c 	 5%
20:00Fri 	 9c 	 5%
20:00Fri 	 9c 	 5%
20:00Fri 	 9c 	 5%
20:00Fri 	 9c 	 5%
20:00Fri 	 9c 	 5%
20:00Fri 	 9c 	 5%
20:00Fri 	 9c 	 5%
20:00Fri 	 9c 	 5%
20:00Fri 	 9c 	 5%
20:00Fri 	 9c 	 5%
20:00Fri 	 9c 	 5%
20:00Fri 	 9c 	 5%
20:00Fri 	 9c 	 5%
20:00Fri 	 9c 	 5%
20:00Fri 	 9c 	 5%
20:00Fri 	 9c 	 5%
20:00Fri 	 9c 	 5%
20:00Fri 	 9c 	 5%
20:00Fri 	 9c 	 5%
20:00Fri 	 9c 	 5%

21:00Fri 	 9c 	 4%
21:00Fri 	 9c 	 4%
21:00Fri 	 9c 	 4%
21:00Fri 	 9c 	 4%
21:00Fri 	 9c 	 10%
21:00Fri 	 9c 	 10%
21:00Fri 	 9c 	 10%
21:00Fri 	 9c 	 10%
21:00Fri 	 9c 	 10%
21:00Fri 	 9c 	 10%
21:00Fri 	 9c 	 10%
21:00Fri 	 9c 	 10%
21:00Fri 	 9c 	 7%
21:00Fri 	 9c 	 7%
21:00Fri 	 9c 	 7%
21:00Fri 	 9c 	 7%
21:00Fri 	 9c 	 7%
21:00Fri 	 9c 	 7%
21:00Fri 	 9c 	 7%
21:00Fri 	 9c 	 7%
21:00Fri 	 9c 	 7%
21:00Fri 	 9c 	 7%
21:00Fri 	 9c 	 7%
21:00Fri 	 9c 	 7%
21:00Fri 	 9c 	 7%
21:00Fri 	 9c 	 7%
21:00Fri 	 9c 	 7%
21:00Fri 	 9c 	 7%
21:00Fri 	 9c 	 7%
21:00Fri 	 9c 	 7%
21:00Fri 	 9c 	 7%
21:00Fri 	 9c 	 7%
21:00Fri 	 9c 	 7%
21:00Fri 	 9c 	 7%
21:00Fri 	 9c 	 7%
21:00Fri 	 9c 	 7%
21:00Fri 	 9c 	 7%
21:00Fri 	 9c 	 7%
21:00Fri 	 9c 	 7%
21:00Fri 	 9c 	 7%
21:00Fri 	 9c 	 7%
21:00Fri 	 9c 	 7%
21:00Fri 	 9c 	 7%
21:00Fri 	 9c 	 7%
21:00Fri 	 9c 	 7%
21:00Fri 	 9c 	 7%
21:00Fri 	 9c 	 7%
21:00Fri 	 9c 	 7%
21:00Fri 	 9c 	 7%
21:00Fri 	 9c 	 8%
21:00Fri 	 9c 	 8%
21:00Fri 	 9c 	 8%
21:00Fri 	 9c 	 6%
21:00Fri 	 9c 	 6%
21:00Fri 	 9c 	 6%
21:00Fri 	 9c 	 6%
21:00Fri 	 9c 	 1%
21:00Fri 	 9c 	 1%
21:00Fri 	 9c 	 1%
21:00Fri 	 9c 	 1%
21:00Fri 	 9c 	 0%
21:00Fri 	 9c 	 4%
21:00Fri 	 9c 	 4%
21:00Fri 	 9c 	 4%
21:00Fri 	 9c 	 4%
21:00Fri 	 9c 	 4%
21:00Fri 	 9c 	 4%
21:00Fri 	 9c 	 4%
21:00Fri 	 9c 	 4%
21:00Fri 	 9c 	 4%
21:00Fri 	 9c 	 4%
21:00Fri 	 9c 	 4%
21:00Fri 	 9c 	 4%
21:00Fri 	 9c 	 4%
21:00Fri 	 9c 	 4%
21:00Fri 	 9c 	 4%
21:00Fri 	 9c 	 4%
21:00Fri 	 9c 	 4%
21:00Fri 	 9c 	 4%
21:00Fri 	 9c 	 4%
21:00Fri 	 9c 	 4%
21:00Fri 	 9c 	 4%
21:00Fri 	 9c 	 4%
21:00Fri 	 9c 	 4%
21:00Fri 	 9c 	 4%

22:00Fri 	 9c 	 6%
22:00Fri 	 9c 	 6%
22:00Fri 	 9c 	 6%
22:00Fri 	 9c 	 6%
22:00Fri 	 9c 	 12%
22:00Fri 	 9c 	 12%
22:00Fri 	 9c 	 12%
22:00Fri 	 9c 	 12%
22:00Fri 	 9c 	 12%
22:00Fri 	 9c 	 12%
22:00Fri 	 9c 	 12%
22:00Fri 	 9c 	 12%
22:00Fri 	 9c 	 9%
22:00Fri 	 9c 	 9%
22:00Fri 	 9c 	 9%
22:00Fri 	 9c 	 9%
22:00Fri 	 9c 	 9%
22:00Fri 	 9c 	 9%
22:00Fri 	 9c 	 9%
22:00Fri 	 9c 	 9%
22:00Fri 	 9c 	 9%
22:00Fri 	 9c 	 9%
22:00Fri 	 9c 	 9%
22:00Fri 	 9c 	 9%
22:00Fri 	 9c 	 9%
22:00Fri 	 9c 	 9%
22:00Fri 	 9c 	 9%
22:00Fri 	 9c 	 9%
22:00Fri 	 9c 	 9%
22:00Fri 	 9c 	 9%
22:00Fri 	 9c 	 9%
22:00Fri 	 9c 	 9%
22:00Fri 	 9c 	 9%
22:00Fri 	 9c 	 9%
22:00Fri 	 9c 	 9%
22:00Fri 	 9c 	 9%
22:00Fri 	 9c 	 9%
22:00Fri 	 9c 	 9%
22:00Fri 	 9c 	 9%
22:00Fri 	 9c 	 9%
22:00Fri 	 9c 	 9%
22:00Fri 	 9c 	 9%
22:00Fri 	 9c 	 9%
22:00Fri 	 9c 	 9%
22:00Fri 	 9c 	 9%
22:00Fri 	 9c 	 9%
22:00Fri 	 9c 	 9%
22:00Fri 	 9c 	 9%
22:00Fri 	 9c 	 9%
22:00Fri 	 9c 	 9%
22:00Fri 	 9c 	 9%
22:00Fri 	 9c 	 9%
22:00Fri 	 9c 	 18%
22:00Fri 	 9c 	 18%
22:00Fri 	 9c 	 18%
22:00Fri 	 9c 	 18%
22:00Fri 	 9c 	 9%
22:00Fri 	 9c 	 9%
22:00Fri 	 9c 	 9%
22:00Fri 	 9c 	 9%
22:00Fri 	 9c 	 1%
22:00Fri 	 9c 	 1%
22:00Fri 	 9c 	 1%
22:00Fri 	 9c 	 1%
22:00Fri 	 9c 	 1%
22:00Fri 	 9c 	 6%
22:00Fri 	 9c 	 6%
22:00Fri 	 9c 	 6%
22:00Fri 	 9c 	 6%
22:00Fri 	 9c 	 6%
22:00Fri 	 9c 	 6%
22:00Fri 	 9c 	 6%
22:00Fri 	 9c 	 6%
22:00Fri 	 9c 	 6%
22:00Fri 	 9c 	 6%
22:00Fri 	 9c 	 6%
22:00Fri 	 9c 	 6%
22:00Fri 	 9c 	 6%
22:00Fri 	 9c 	 6%
22:00Fri 	 9c 	 6%
22:00Fri 	 9c 	 6%
22:00Fri 	 9c 	 6%
22:00Fri 	 9c 	 6%
22:00Fri 	 9c 	 6%
22:00Fri 	 9c 	 6%
22:00Fri 	 9c 	 6%
22:00Fri 	 9c 	 6%
22:00Fri 	 9c 	 6%
22:00Fri 	 9c 	 6%

23:00Fri 	 9c 	 12%
23:00Fri 	 9c 	 12%
23:00Fri 	 9c 	 12%
23:00Fri 	 9c 	 12%
23:00Fri 	 9c 	 13%
23:00Fri 	 9c 	 13%
23:00Fri 	 9c 	 13%
23:00Fri 	 9c 	 13%
23:00Fri 	 9c 	 13%
23:00Fri 	 9c 	 13%
23:00Fri 	 9c 	 13%
23:00Fri 	 9c 	 13%
23:00Fri 	 9c 	 12%
23:00Fri 	 9c 	 12%
23:00Fri 	 9c 	 12%
23:00Fri 	 9c 	 12%
23:00Fri 	 9c 	 12%
23:00Fri 	 9c 	 12%
23:00Fri 	 9c 	 12%
23:00Fri 	 9c 	 12%
23:00Fri 	 9c 	 12%
23:00Fri 	 9c 	 12%
23:00Fri 	 9c 	 12%
23:00Fri 	 9c 	 12%
23:00Fri 	 9c 	 12%
23:00Fri 	 9c 	 12%
23:00Fri 	 9c 	 12%
23:00Fri 	 9c 	 12%
23:00Fri 	 9c 	 12%
23:00Fri 	 9c 	 12%
23:00Fri 	 9c 	 12%
23:00Fri 	 9c 	 12%
23:00Fri 	 9c 	 12%
23:00Fri 	 9c 	 12%
23:00Fri 	 9c 	 12%
23:00Fri 	 9c 	 12%
23:00Fri 	 9c 	 12%
23:00Fri 	 9c 	 12%
23:00Fri 	 9c 	 12%
23:00Fri 	 9c 	 12%
23:00Fri 	 9c 	 12%
23:00Fri 	 9c 	 12%
23:00Fri 	 9c 	 12%
23:00Fri 	 9c 	 12%
23:00Fri 	 9c 	 12%
23:00Fri 	 9c 	 12%
23:00Fri 	 9c 	 12%
23:00Fri 	 9c 	 12%
23:00Fri 	 9c 	 12%
23:00Fri 	 9c 	 12%
23:00Fri 	 9c 	 12%
23:00Fri 	 9c 	 12%
23:00Fri 	 9c 	 18%
23:00Fri 	 9c 	 18%
23:00Fri 	 9c 	 18%
23:00Fri 	 9c 	 18%
23:00Fri 	 9c 	 18%
23:00Fri 	 9c 	 18%
23:00Fri 	 9c 	 18%
23:00Fri 	 9c 	 18%
23:00Fri 	 9c 	 52%
23:00Fri 	 9c 	 52%
23:00Fri 	 9c 	 52%
23:00Fri 	 9c 	 52%
23:00Fri 	 9c 	 52%
23:00Fri 	 9c 	 31%
23:00Fri 	 9c 	 31%
23:00Fri 	 9c 	 31%
23:00Fri 	 9c 	 31%
23:00Fri 	 9c 	 12%
23:00Fri 	 9c 	 12%
23:00Fri 	 9c 	 12%
23:00Fri 	 9c 	 12%
23:00Fri 	 9c 	 12%
23:00Fri 	 9c 	 12%
23:00Fri 	 9c 	 12%
23:00Fri 	 9c 	 12%
23:00Fri 	 9c 	 12%
23:00Fri 	 9c 	 12%
23:00Fri 	 9c 	 12%
23:00Fri 	 9c 	 12%
23:00Fri 	 9c 	 12%
23:00Fri 	 9c 	 12%
23:00Fri 	 9c 	 12%
23:00Fri 	 9c 	 12%
23:00Fri 	 9c 	 12%
23:00Fri 	 9c 	 12%
23:00Fri 	 9c 	 12%
23:00Fri 	 9c 	 12%
23:00Fri 	 9c 	 12%
23:00Fri 	 9c 	 12%
23:00Fri 	 9c 	 12%
23:00Fri 	 9c 	 12%

