
# /home/pi/Documents/bbc-weather-predictions/data/Mar21Sat/bbcweather_Friday20thMarch_2020-03-21_0000.txt
# time 	 temp 	 rain
00:00Sat 	 4c 	 0%
01:00Sat 	 4c 	 1%
02:00Sat 	 3c 	 2%
03:00Sat 	 3c 	 2%
04:00Sat 	 3c 	 2%
05:00Sat 	 3c 	 2%
06:00Sat 	 3c 	 2%
07:00Sat 	 4c 	 1%
08:00Sat 	 5c 	 1%
09:00Sat 	 6c 	 2%
10:00Sat 	 7c 	 1%
11:00Sat 	 8c 	 1%
12:00Sat 	 9c 	 1%
13:00Sat 	 10c 	 1%
14:00Sat 	 10c 	 1%
15:00Sat 	 10c 	 1%
16:00Sat 	 10c 	 0%
17:00Sat 	 9c 	 0%
18:00Sat 	 8c 	 1%
19:00Sat 	 6c 	 0%
20:00Sat 	 5c 	 0%
21:00Sat 	 5c 	 1%
22:00Sat 	 4c 	 3%
23:00Sat 	 3c 	 3%
00:00Sun 	 3c 	 2%
01:00Sun 	 3c 	 1%
02:00Sun 	 3c 	 2%
03:00Sun 	 2c 	 3%
04:00Sun 	 2c 	 3%
05:00Sun 	 2c 	 2%

# /home/pi/Documents/bbc-weather-predictions/data/Mar21Sat/bbcweather_Friday20thMarch_2020-03-21_0015.txt
# time 	 temp 	 rain
01:00Sat 	 4c 	 1%
02:00Sat 	 3c 	 2%
03:00Sat 	 3c 	 2%
04:00Sat 	 3c 	 2%
05:00Sat 	 3c 	 2%
06:00Sat 	 3c 	 2%
07:00Sat 	 4c 	 1%
08:00Sat 	 5c 	 1%
09:00Sat 	 6c 	 2%
10:00Sat 	 7c 	 1%
11:00Sat 	 8c 	 1%
12:00Sat 	 9c 	 1%
13:00Sat 	 10c 	 1%
14:00Sat 	 10c 	 1%
15:00Sat 	 10c 	 1%
16:00Sat 	 10c 	 0%
17:00Sat 	 9c 	 0%
18:00Sat 	 8c 	 1%
19:00Sat 	 6c 	 0%
20:00Sat 	 5c 	 0%
21:00Sat 	 5c 	 1%
22:00Sat 	 4c 	 3%
23:00Sat 	 3c 	 3%
00:00Sun 	 3c 	 2%
01:00Sun 	 3c 	 1%
02:00Sun 	 3c 	 2%
03:00Sun 	 2c 	 3%
04:00Sun 	 2c 	 3%
05:00Sun 	 2c 	 2%

# /home/pi/Documents/bbc-weather-predictions/data/Mar21Sat/bbcweather_Friday20thMarch_2020-03-21_0030.txt
# time 	 temp 	 rain
01:00Sat 	 4c 	 0%
02:00Sat 	 3c 	 1%
03:00Sat 	 3c 	 2%
04:00Sat 	 3c 	 2%
05:00Sat 	 3c 	 2%
06:00Sat 	 3c 	 2%
07:00Sat 	 4c 	 1%
08:00Sat 	 5c 	 1%
09:00Sat 	 6c 	 2%
10:00Sat 	 7c 	 1%
11:00Sat 	 8c 	 1%
12:00Sat 	 9c 	 1%
13:00Sat 	 10c 	 1%
14:00Sat 	 10c 	 1%
15:00Sat 	 10c 	 1%
16:00Sat 	 10c 	 0%
17:00Sat 	 9c 	 0%
18:00Sat 	 8c 	 1%
19:00Sat 	 6c 	 0%
20:00Sat 	 5c 	 0%
21:00Sat 	 5c 	 1%
22:00Sat 	 4c 	 3%
23:00Sat 	 3c 	 3%
00:00Sun 	 3c 	 2%
01:00Sun 	 3c 	 1%
02:00Sun 	 3c 	 2%
03:00Sun 	 2c 	 3%
04:00Sun 	 2c 	 3%
05:00Sun 	 2c 	 2%

# /home/pi/Documents/bbc-weather-predictions/data/Mar21Sat/bbcweather_Friday20thMarch_2020-03-21_0045.txt
# time 	 temp 	 rain
01:00Sat 	 4c 	 0%
02:00Sat 	 3c 	 1%
03:00Sat 	 3c 	 2%
04:00Sat 	 3c 	 2%
05:00Sat 	 3c 	 2%
06:00Sat 	 3c 	 2%
07:00Sat 	 4c 	 1%
08:00Sat 	 5c 	 1%
09:00Sat 	 6c 	 2%
10:00Sat 	 7c 	 1%
11:00Sat 	 8c 	 1%
12:00Sat 	 9c 	 1%
13:00Sat 	 10c 	 1%
14:00Sat 	 10c 	 1%
15:00Sat 	 10c 	 1%
16:00Sat 	 10c 	 0%
17:00Sat 	 9c 	 0%
18:00Sat 	 8c 	 1%
19:00Sat 	 6c 	 0%
20:00Sat 	 5c 	 0%
21:00Sat 	 5c 	 1%
22:00Sat 	 4c 	 3%
23:00Sat 	 3c 	 3%
00:00Sun 	 3c 	 2%
01:00Sun 	 3c 	 1%
02:00Sun 	 3c 	 2%
03:00Sun 	 2c 	 3%
04:00Sun 	 2c 	 3%
05:00Sun 	 2c 	 2%

# /home/pi/Documents/bbc-weather-predictions/data/Mar21Sat/bbcweather_Friday20thMarch_2020-03-21_0100.txt
# time 	 temp 	 rain
01:00Sat 	 4c 	 0%
02:00Sat 	 3c 	 1%
03:00Sat 	 3c 	 2%
04:00Sat 	 3c 	 2%
05:00Sat 	 3c 	 2%
06:00Sat 	 3c 	 2%
07:00Sat 	 4c 	 1%
08:00Sat 	 5c 	 1%
09:00Sat 	 6c 	 2%
10:00Sat 	 7c 	 1%
11:00Sat 	 8c 	 1%
12:00Sat 	 9c 	 1%
13:00Sat 	 10c 	 1%
14:00Sat 	 10c 	 1%
15:00Sat 	 10c 	 1%
16:00Sat 	 10c 	 0%
17:00Sat 	 9c 	 0%
18:00Sat 	 8c 	 1%
19:00Sat 	 6c 	 0%
20:00Sat 	 5c 	 0%
21:00Sat 	 5c 	 1%
22:00Sat 	 4c 	 3%
23:00Sat 	 3c 	 3%
00:00Sun 	 3c 	 2%
01:00Sun 	 3c 	 1%
02:00Sun 	 3c 	 2%
03:00Sun 	 2c 	 3%
04:00Sun 	 2c 	 3%
05:00Sun 	 2c 	 2%

# /home/pi/Documents/bbc-weather-predictions/data/Mar21Sat/bbcweather_Friday20thMarch_2020-03-21_0115.txt
# time 	 temp 	 rain
02:00Sat 	 3c 	 1%
03:00Sat 	 3c 	 2%
04:00Sat 	 3c 	 2%
05:00Sat 	 3c 	 2%
06:00Sat 	 3c 	 2%
07:00Sat 	 4c 	 1%
08:00Sat 	 5c 	 1%
09:00Sat 	 6c 	 2%
10:00Sat 	 7c 	 1%
11:00Sat 	 8c 	 1%
12:00Sat 	 9c 	 1%
13:00Sat 	 10c 	 1%
14:00Sat 	 10c 	 1%
15:00Sat 	 10c 	 1%
16:00Sat 	 10c 	 0%
17:00Sat 	 9c 	 0%
18:00Sat 	 8c 	 1%
19:00Sat 	 6c 	 0%
20:00Sat 	 5c 	 0%
21:00Sat 	 5c 	 1%
22:00Sat 	 4c 	 3%
23:00Sat 	 3c 	 3%
00:00Sun 	 3c 	 2%
01:00Sun 	 3c 	 1%
02:00Sun 	 3c 	 2%
03:00Sun 	 2c 	 3%
04:00Sun 	 2c 	 3%
05:00Sun 	 2c 	 2%

# /home/pi/Documents/bbc-weather-predictions/data/Mar21Sat/bbcweather_Friday20thMarch_2020-03-21_0130.txt
# time 	 temp 	 rain
02:00Sat 	 3c 	 0%
03:00Sat 	 3c 	 1%
04:00Sat 	 3c 	 2%
05:00Sat 	 3c 	 2%
06:00Sat 	 3c 	 2%
07:00Sat 	 4c 	 1%
08:00Sat 	 5c 	 1%
09:00Sat 	 6c 	 2%
10:00Sat 	 7c 	 1%
11:00Sat 	 8c 	 1%
12:00Sat 	 9c 	 1%
13:00Sat 	 10c 	 1%
14:00Sat 	 10c 	 1%
15:00Sat 	 10c 	 1%
16:00Sat 	 10c 	 0%
17:00Sat 	 9c 	 0%
18:00Sat 	 8c 	 1%
19:00Sat 	 6c 	 0%
20:00Sat 	 5c 	 0%
21:00Sat 	 5c 	 1%
22:00Sat 	 4c 	 3%
23:00Sat 	 3c 	 3%
00:00Sun 	 3c 	 2%
01:00Sun 	 3c 	 1%
02:00Sun 	 3c 	 2%
03:00Sun 	 2c 	 3%
04:00Sun 	 2c 	 3%
05:00Sun 	 2c 	 2%

# /home/pi/Documents/bbc-weather-predictions/data/Mar21Sat/bbcweather_Friday20thMarch_2020-03-21_0145.txt
# time 	 temp 	 rain
02:00Sat 	 3c 	 0%
03:00Sat 	 3c 	 1%
04:00Sat 	 3c 	 2%
05:00Sat 	 3c 	 2%
06:00Sat 	 3c 	 2%
07:00Sat 	 4c 	 1%
08:00Sat 	 5c 	 1%
09:00Sat 	 6c 	 2%
10:00Sat 	 7c 	 1%
11:00Sat 	 8c 	 1%
12:00Sat 	 9c 	 1%
13:00Sat 	 10c 	 1%
14:00Sat 	 10c 	 1%
15:00Sat 	 10c 	 1%
16:00Sat 	 10c 	 0%
17:00Sat 	 9c 	 0%
18:00Sat 	 8c 	 1%
19:00Sat 	 6c 	 0%
20:00Sat 	 5c 	 0%
21:00Sat 	 5c 	 1%
22:00Sat 	 4c 	 3%
23:00Sat 	 3c 	 3%
00:00Sun 	 3c 	 2%
01:00Sun 	 3c 	 1%
02:00Sun 	 3c 	 2%
03:00Sun 	 2c 	 3%
04:00Sun 	 2c 	 3%
05:00Sun 	 2c 	 2%

# /home/pi/Documents/bbc-weather-predictions/data/Mar21Sat/bbcweather_Friday20thMarch_2020-03-21_0200.txt
# time 	 temp 	 rain
02:00Sat 	 3c 	 0%
03:00Sat 	 3c 	 1%
04:00Sat 	 3c 	 2%
05:00Sat 	 3c 	 2%
06:00Sat 	 3c 	 2%
07:00Sat 	 4c 	 1%
08:00Sat 	 5c 	 1%
09:00Sat 	 6c 	 2%
10:00Sat 	 7c 	 1%
11:00Sat 	 8c 	 1%
12:00Sat 	 9c 	 1%
13:00Sat 	 10c 	 1%
14:00Sat 	 10c 	 1%
15:00Sat 	 10c 	 1%
16:00Sat 	 10c 	 0%
17:00Sat 	 9c 	 0%
18:00Sat 	 8c 	 1%
19:00Sat 	 6c 	 0%
20:00Sat 	 5c 	 0%
21:00Sat 	 5c 	 1%
22:00Sat 	 4c 	 3%
23:00Sat 	 3c 	 3%
00:00Sun 	 3c 	 2%
01:00Sun 	 3c 	 1%
02:00Sun 	 3c 	 2%
03:00Sun 	 2c 	 3%
04:00Sun 	 2c 	 3%
05:00Sun 	 2c 	 2%

# /home/pi/Documents/bbc-weather-predictions/data/Mar21Sat/bbcweather_Friday20thMarch_2020-03-21_0215.txt
# time 	 temp 	 rain
03:00Sat 	 3c 	 1%
04:00Sat 	 3c 	 1%
05:00Sat 	 3c 	 2%
06:00Sat 	 3c 	 2%
07:00Sat 	 4c 	 2%
08:00Sat 	 5c 	 1%
09:00Sat 	 6c 	 2%
10:00Sat 	 7c 	 1%
11:00Sat 	 8c 	 1%
12:00Sat 	 9c 	 1%
13:00Sat 	 10c 	 1%
14:00Sat 	 10c 	 1%
15:00Sat 	 10c 	 1%
16:00Sat 	 10c 	 0%
17:00Sat 	 9c 	 0%
18:00Sat 	 8c 	 1%
19:00Sat 	 6c 	 0%
20:00Sat 	 5c 	 0%
21:00Sat 	 5c 	 1%
22:00Sat 	 4c 	 3%
23:00Sat 	 3c 	 3%
00:00Sun 	 3c 	 2%
01:00Sun 	 3c 	 1%
02:00Sun 	 3c 	 2%
03:00Sun 	 2c 	 3%
04:00Sun 	 2c 	 3%
05:00Sun 	 2c 	 2%

# /home/pi/Documents/bbc-weather-predictions/data/Mar21Sat/bbcweather_Friday20thMarch_2020-03-21_0230.txt
# time 	 temp 	 rain
03:00Sat 	 3c 	 1%
04:00Sat 	 3c 	 1%
05:00Sat 	 3c 	 2%
06:00Sat 	 3c 	 2%
07:00Sat 	 4c 	 2%
08:00Sat 	 5c 	 1%
09:00Sat 	 6c 	 2%
10:00Sat 	 7c 	 1%
11:00Sat 	 8c 	 1%
12:00Sat 	 9c 	 1%
13:00Sat 	 10c 	 1%
14:00Sat 	 10c 	 1%
15:00Sat 	 10c 	 1%
16:00Sat 	 10c 	 0%
17:00Sat 	 9c 	 0%
18:00Sat 	 8c 	 1%
19:00Sat 	 6c 	 0%
20:00Sat 	 5c 	 0%
21:00Sat 	 5c 	 1%
22:00Sat 	 4c 	 3%
23:00Sat 	 3c 	 3%
00:00Sun 	 3c 	 2%
01:00Sun 	 3c 	 1%
02:00Sun 	 3c 	 2%
03:00Sun 	 2c 	 3%
04:00Sun 	 2c 	 3%
05:00Sun 	 2c 	 2%

# /home/pi/Documents/bbc-weather-predictions/data/Mar21Sat/bbcweather_Friday20thMarch_2020-03-21_0245.txt
# time 	 temp 	 rain
03:00Sat 	 3c 	 1%
04:00Sat 	 3c 	 1%
05:00Sat 	 3c 	 2%
06:00Sat 	 3c 	 2%
07:00Sat 	 4c 	 2%
08:00Sat 	 5c 	 1%
09:00Sat 	 6c 	 2%
10:00Sat 	 7c 	 1%
11:00Sat 	 8c 	 1%
12:00Sat 	 9c 	 1%
13:00Sat 	 10c 	 1%
14:00Sat 	 10c 	 1%
15:00Sat 	 10c 	 1%
16:00Sat 	 10c 	 0%
17:00Sat 	 9c 	 0%
18:00Sat 	 8c 	 1%
19:00Sat 	 6c 	 0%
20:00Sat 	 5c 	 0%
21:00Sat 	 5c 	 1%
22:00Sat 	 4c 	 3%
23:00Sat 	 3c 	 3%
00:00Sun 	 3c 	 2%
01:00Sun 	 3c 	 1%
02:00Sun 	 3c 	 2%
03:00Sun 	 2c 	 3%
04:00Sun 	 2c 	 3%
05:00Sun 	 2c 	 2%

# /home/pi/Documents/bbc-weather-predictions/data/Mar21Sat/bbcweather_Friday20thMarch_2020-03-21_0300.txt
# time 	 temp 	 rain
03:00Sat 	 3c 	 1%
04:00Sat 	 3c 	 1%
05:00Sat 	 3c 	 2%
06:00Sat 	 3c 	 2%
07:00Sat 	 4c 	 2%
08:00Sat 	 5c 	 1%
09:00Sat 	 6c 	 2%
10:00Sat 	 7c 	 1%
11:00Sat 	 8c 	 1%
12:00Sat 	 9c 	 1%
13:00Sat 	 10c 	 1%
14:00Sat 	 10c 	 1%
15:00Sat 	 10c 	 1%
16:00Sat 	 10c 	 0%
17:00Sat 	 9c 	 0%
18:00Sat 	 8c 	 1%
19:00Sat 	 6c 	 0%
20:00Sat 	 5c 	 0%
21:00Sat 	 5c 	 1%
22:00Sat 	 4c 	 3%
23:00Sat 	 3c 	 3%
00:00Sun 	 3c 	 2%
01:00Sun 	 3c 	 1%
02:00Sun 	 3c 	 2%
03:00Sun 	 2c 	 3%
04:00Sun 	 2c 	 3%
05:00Sun 	 2c 	 2%

# /home/pi/Documents/bbc-weather-predictions/data/Mar21Sat/bbcweather_Friday20thMarch_2020-03-21_0315.txt
# time 	 temp 	 rain
04:00Sat 	 3c 	 1%
05:00Sat 	 3c 	 2%
06:00Sat 	 3c 	 2%
07:00Sat 	 4c 	 2%
08:00Sat 	 5c 	 1%
09:00Sat 	 6c 	 2%
10:00Sat 	 7c 	 1%
11:00Sat 	 8c 	 1%
12:00Sat 	 9c 	 1%
13:00Sat 	 10c 	 1%
14:00Sat 	 10c 	 1%
15:00Sat 	 10c 	 1%
16:00Sat 	 10c 	 0%
17:00Sat 	 9c 	 0%
18:00Sat 	 8c 	 1%
19:00Sat 	 6c 	 0%
20:00Sat 	 5c 	 0%
21:00Sat 	 5c 	 1%
22:00Sat 	 4c 	 3%
23:00Sat 	 3c 	 3%
00:00Sun 	 3c 	 2%
01:00Sun 	 3c 	 1%
02:00Sun 	 3c 	 2%
03:00Sun 	 2c 	 3%
04:00Sun 	 2c 	 3%
05:00Sun 	 2c 	 2%

# /home/pi/Documents/bbc-weather-predictions/data/Mar21Sat/bbcweather_Friday20thMarch_2020-03-21_0330.txt
# time 	 temp 	 rain
04:00Sat 	 3c 	 0%
05:00Sat 	 3c 	 1%
06:00Sat 	 3c 	 2%
07:00Sat 	 4c 	 1%
08:00Sat 	 5c 	 1%
09:00Sat 	 6c 	 2%
10:00Sat 	 7c 	 1%
11:00Sat 	 8c 	 1%
12:00Sat 	 9c 	 1%
13:00Sat 	 10c 	 1%
14:00Sat 	 10c 	 1%
15:00Sat 	 10c 	 1%
16:00Sat 	 10c 	 0%
17:00Sat 	 9c 	 0%
18:00Sat 	 8c 	 1%
19:00Sat 	 6c 	 0%
20:00Sat 	 5c 	 0%
21:00Sat 	 5c 	 1%
22:00Sat 	 4c 	 3%
23:00Sat 	 3c 	 3%
00:00Sun 	 3c 	 2%
01:00Sun 	 3c 	 1%
02:00Sun 	 3c 	 2%
03:00Sun 	 2c 	 3%
04:00Sun 	 2c 	 3%
05:00Sun 	 2c 	 2%

# /home/pi/Documents/bbc-weather-predictions/data/Mar21Sat/bbcweather_Friday20thMarch_2020-03-21_0345.txt
# time 	 temp 	 rain
04:00Sat 	 3c 	 0%
05:00Sat 	 3c 	 1%
06:00Sat 	 3c 	 2%
07:00Sat 	 4c 	 1%
08:00Sat 	 5c 	 1%
09:00Sat 	 6c 	 2%
10:00Sat 	 7c 	 1%
11:00Sat 	 8c 	 1%
12:00Sat 	 9c 	 1%
13:00Sat 	 10c 	 1%
14:00Sat 	 10c 	 1%
15:00Sat 	 10c 	 1%
16:00Sat 	 10c 	 0%
17:00Sat 	 9c 	 0%
18:00Sat 	 8c 	 1%
19:00Sat 	 6c 	 0%
20:00Sat 	 5c 	 0%
21:00Sat 	 5c 	 1%
22:00Sat 	 4c 	 3%
23:00Sat 	 3c 	 3%
00:00Sun 	 3c 	 2%
01:00Sun 	 3c 	 1%
02:00Sun 	 3c 	 2%
03:00Sun 	 2c 	 3%
04:00Sun 	 2c 	 3%
05:00Sun 	 2c 	 2%

# /home/pi/Documents/bbc-weather-predictions/data/Mar21Sat/bbcweather_Friday20thMarch_2020-03-21_0400.txt
# time 	 temp 	 rain
04:00Sat 	 3c 	 0%
05:00Sat 	 3c 	 1%
06:00Sat 	 3c 	 2%
07:00Sat 	 4c 	 1%
08:00Sat 	 5c 	 1%
09:00Sat 	 6c 	 2%
10:00Sat 	 7c 	 1%
11:00Sat 	 8c 	 1%
12:00Sat 	 9c 	 1%
13:00Sat 	 10c 	 1%
14:00Sat 	 10c 	 1%
15:00Sat 	 10c 	 1%
16:00Sat 	 10c 	 0%
17:00Sat 	 9c 	 0%
18:00Sat 	 8c 	 1%
19:00Sat 	 6c 	 0%
20:00Sat 	 5c 	 0%
21:00Sat 	 5c 	 1%
22:00Sat 	 4c 	 3%
23:00Sat 	 3c 	 3%
00:00Sun 	 3c 	 2%
01:00Sun 	 3c 	 1%
02:00Sun 	 3c 	 2%
03:00Sun 	 2c 	 3%
04:00Sun 	 2c 	 3%
05:00Sun 	 2c 	 2%

# /home/pi/Documents/bbc-weather-predictions/data/Mar21Sat/bbcweather_Friday20thMarch_2020-03-21_0415.txt
# time 	 temp 	 rain
05:00Sat 	 3c 	 1%
06:00Sat 	 3c 	 2%
07:00Sat 	 4c 	 1%
08:00Sat 	 5c 	 1%
09:00Sat 	 6c 	 2%
10:00Sat 	 7c 	 1%
11:00Sat 	 8c 	 1%
12:00Sat 	 9c 	 1%
13:00Sat 	 10c 	 1%
14:00Sat 	 10c 	 1%
15:00Sat 	 10c 	 1%
16:00Sat 	 10c 	 0%
17:00Sat 	 9c 	 0%
18:00Sat 	 8c 	 1%
19:00Sat 	 6c 	 0%
20:00Sat 	 5c 	 0%
21:00Sat 	 5c 	 1%
22:00Sat 	 4c 	 3%
23:00Sat 	 3c 	 3%
00:00Sun 	 3c 	 2%
01:00Sun 	 3c 	 1%
02:00Sun 	 3c 	 2%
03:00Sun 	 2c 	 3%
04:00Sun 	 2c 	 3%
05:00Sun 	 2c 	 2%

# /home/pi/Documents/bbc-weather-predictions/data/Mar21Sat/bbcweather_Friday20thMarch_2020-03-21_0430.txt
# time 	 temp 	 rain
05:00Sat 	 3c 	 0%
06:00Sat 	 3c 	 0%
07:00Sat 	 4c 	 2%
08:00Sat 	 5c 	 2%
09:00Sat 	 6c 	 2%
10:00Sat 	 7c 	 1%
11:00Sat 	 8c 	 1%
12:00Sat 	 9c 	 1%
13:00Sat 	 10c 	 1%
14:00Sat 	 10c 	 1%
15:00Sat 	 10c 	 1%
16:00Sat 	 10c 	 0%
17:00Sat 	 9c 	 0%
18:00Sat 	 8c 	 1%
19:00Sat 	 6c 	 0%
20:00Sat 	 5c 	 0%
21:00Sat 	 5c 	 1%
22:00Sat 	 4c 	 3%
23:00Sat 	 3c 	 3%
00:00Sun 	 3c 	 2%
01:00Sun 	 3c 	 1%
02:00Sun 	 3c 	 2%
03:00Sun 	 2c 	 3%
04:00Sun 	 2c 	 3%
05:00Sun 	 2c 	 2%

# /home/pi/Documents/bbc-weather-predictions/data/Mar21Sat/bbcweather_Friday20thMarch_2020-03-21_0445.txt
# time 	 temp 	 rain
05:00Sat 	 3c 	 0%
06:00Sat 	 3c 	 0%
07:00Sat 	 4c 	 2%
08:00Sat 	 5c 	 2%
09:00Sat 	 6c 	 2%
10:00Sat 	 7c 	 1%
11:00Sat 	 8c 	 1%
12:00Sat 	 9c 	 1%
13:00Sat 	 10c 	 1%
14:00Sat 	 10c 	 1%
15:00Sat 	 10c 	 1%
16:00Sat 	 10c 	 0%
17:00Sat 	 9c 	 0%
18:00Sat 	 8c 	 1%
19:00Sat 	 6c 	 0%
20:00Sat 	 5c 	 0%
21:00Sat 	 5c 	 1%
22:00Sat 	 4c 	 3%
23:00Sat 	 3c 	 3%
00:00Sun 	 3c 	 2%
01:00Sun 	 3c 	 1%
02:00Sun 	 3c 	 2%
03:00Sun 	 2c 	 3%
04:00Sun 	 2c 	 3%
05:00Sun 	 2c 	 2%

# /home/pi/Documents/bbc-weather-predictions/data/Mar21Sat/bbcweather_Friday20thMarch_2020-03-21_0500.txt
# time 	 temp 	 rain
05:00Sat 	 3c 	 0%
06:00Sat 	 3c 	 0%
07:00Sat 	 4c 	 2%
08:00Sat 	 5c 	 2%
09:00Sat 	 6c 	 2%
10:00Sat 	 7c 	 1%
11:00Sat 	 8c 	 1%
12:00Sat 	 9c 	 1%
13:00Sat 	 10c 	 1%
14:00Sat 	 10c 	 1%
15:00Sat 	 10c 	 1%
16:00Sat 	 10c 	 0%
17:00Sat 	 9c 	 0%
18:00Sat 	 8c 	 1%
19:00Sat 	 6c 	 0%
20:00Sat 	 5c 	 0%
21:00Sat 	 5c 	 1%
22:00Sat 	 4c 	 3%
23:00Sat 	 3c 	 3%
00:00Sun 	 3c 	 2%
01:00Sun 	 3c 	 1%
02:00Sun 	 3c 	 2%
03:00Sun 	 2c 	 3%
04:00Sun 	 2c 	 3%
05:00Sun 	 2c 	 2%

# /home/pi/Documents/bbc-weather-predictions/data/Mar21Sat/bbcweather_Friday20thMarch_2020-03-21_0515.txt
# time 	 temp 	 rain

# /home/pi/Documents/bbc-weather-predictions/data/Mar21Sat/bbcweather_Saturday21stMarch_2020-03-21_0515.txt
# time 	 temp 	 rain
06:00Sun 	 2c 	 1%
07:00Sun 	 3c 	 1%
08:00Sun 	 4c 	 1%
09:00Sun 	 5c 	 0%
10:00Sun 	 7c 	 0%
11:00Sun 	 8c 	 1%
12:00Sun 	 9c 	 1%
13:00Sun 	 9c 	 1%
14:00Sun 	 10c 	 1%
15:00Sun 	 10c 	 1%
16:00Sun 	 10c 	 2%
17:00Sun 	 9c 	 2%
18:00Sun 	 8c 	 1%
19:00Sun 	 7c 	 1%
20:00Sun 	 6c 	 1%
21:00Sun 	 5c 	 2%
22:00Sun 	 4c 	 3%
23:00Sun 	 3c 	 3%
00:00Mon 	 3c 	 2%
01:00Mon 	 2c 	 2%
02:00Mon 	 1c 	 3%
03:00Mon 	 1c 	 4%
04:00Mon 	 1c 	 4%
05:00Mon 	 1c 	 3%

# /home/pi/Documents/bbc-weather-predictions/data/Mar21Sat/bbcweather_Saturday21stMarch_2020-03-21_0530.txt
# time 	 temp 	 rain
06:00Sat 	 3c 	 0%
07:00Sat 	 4c 	 1%
08:00Sat 	 5c 	 3%
09:00Sat 	 6c 	 2%
10:00Sat 	 7c 	 2%
11:00Sat 	 8c 	 1%
12:00Sat 	 9c 	 1%
13:00Sat 	 10c 	 1%
14:00Sat 	 10c 	 1%
15:00Sat 	 10c 	 1%
16:00Sat 	 10c 	 0%
17:00Sat 	 9c 	 0%
18:00Sat 	 8c 	 1%
19:00Sat 	 6c 	 0%
20:00Sat 	 5c 	 0%
21:00Sat 	 5c 	 1%
22:00Sat 	 4c 	 3%
23:00Sat 	 3c 	 3%
00:00Sun 	 3c 	 2%
01:00Sun 	 3c 	 1%
02:00Sun 	 3c 	 2%
03:00Sun 	 2c 	 3%
04:00Sun 	 2c 	 3%
05:00Sun 	 2c 	 2%
06:00Sun 	 2c 	 1%
07:00Sun 	 3c 	 1%
08:00Sun 	 4c 	 1%
09:00Sun 	 5c 	 0%
10:00Sun 	 7c 	 0%
11:00Sun 	 8c 	 1%
12:00Sun 	 9c 	 1%
13:00Sun 	 9c 	 1%
14:00Sun 	 10c 	 1%
15:00Sun 	 10c 	 1%
16:00Sun 	 10c 	 2%
17:00Sun 	 9c 	 2%
18:00Sun 	 8c 	 1%
19:00Sun 	 7c 	 1%
20:00Sun 	 6c 	 1%
21:00Sun 	 5c 	 2%
22:00Sun 	 4c 	 3%
23:00Sun 	 3c 	 3%
00:00Mon 	 3c 	 2%
01:00Mon 	 2c 	 2%
02:00Mon 	 1c 	 3%
03:00Mon 	 1c 	 4%
04:00Mon 	 1c 	 4%
05:00Mon 	 1c 	 3%

# /home/pi/Documents/bbc-weather-predictions/data/Mar21Sat/bbcweather_Saturday21stMarch_2020-03-21_0545.txt
# time 	 temp 	 rain
06:00Sat 	 3c 	 0%
07:00Sat 	 4c 	 1%
08:00Sat 	 5c 	 3%
09:00Sat 	 6c 	 2%
10:00Sat 	 7c 	 2%
11:00Sat 	 8c 	 1%
12:00Sat 	 9c 	 1%
13:00Sat 	 10c 	 1%
14:00Sat 	 10c 	 1%
15:00Sat 	 10c 	 1%
16:00Sat 	 10c 	 0%
17:00Sat 	 9c 	 0%
18:00Sat 	 8c 	 1%
19:00Sat 	 6c 	 0%
20:00Sat 	 5c 	 0%
21:00Sat 	 5c 	 1%
22:00Sat 	 4c 	 3%
23:00Sat 	 3c 	 3%
00:00Sun 	 3c 	 2%
01:00Sun 	 3c 	 1%
02:00Sun 	 3c 	 2%
03:00Sun 	 2c 	 3%
04:00Sun 	 2c 	 3%
05:00Sun 	 2c 	 2%
06:00Sun 	 2c 	 1%
07:00Sun 	 3c 	 1%
08:00Sun 	 4c 	 1%
09:00Sun 	 5c 	 0%
10:00Sun 	 7c 	 0%
11:00Sun 	 8c 	 1%
12:00Sun 	 9c 	 1%
13:00Sun 	 9c 	 1%
14:00Sun 	 10c 	 1%
15:00Sun 	 10c 	 1%
16:00Sun 	 10c 	 2%
17:00Sun 	 9c 	 2%
18:00Sun 	 8c 	 1%
19:00Sun 	 7c 	 1%
20:00Sun 	 6c 	 1%
21:00Sun 	 5c 	 2%
22:00Sun 	 4c 	 3%
23:00Sun 	 3c 	 3%
00:00Mon 	 3c 	 2%
01:00Mon 	 2c 	 2%
02:00Mon 	 1c 	 3%
03:00Mon 	 1c 	 4%
04:00Mon 	 1c 	 4%
05:00Mon 	 1c 	 3%

# /home/pi/Documents/bbc-weather-predictions/data/Mar21Sat/bbcweather_Saturday21stMarch_2020-03-21_0600.txt
# time 	 temp 	 rain
06:00Sat 	 3c 	 0%
07:00Sat 	 4c 	 1%
08:00Sat 	 5c 	 3%
09:00Sat 	 6c 	 2%
10:00Sat 	 7c 	 2%
11:00Sat 	 8c 	 1%
12:00Sat 	 9c 	 1%
13:00Sat 	 10c 	 1%
14:00Sat 	 10c 	 1%
15:00Sat 	 10c 	 1%
16:00Sat 	 10c 	 0%
17:00Sat 	 9c 	 0%
18:00Sat 	 8c 	 1%
19:00Sat 	 6c 	 0%
20:00Sat 	 5c 	 0%
21:00Sat 	 5c 	 1%
22:00Sat 	 4c 	 3%
23:00Sat 	 3c 	 3%
00:00Sun 	 3c 	 2%
01:00Sun 	 3c 	 1%
02:00Sun 	 3c 	 2%
03:00Sun 	 2c 	 3%
04:00Sun 	 2c 	 3%
05:00Sun 	 2c 	 2%
06:00Sun 	 2c 	 1%
07:00Sun 	 3c 	 1%
08:00Sun 	 4c 	 1%
09:00Sun 	 5c 	 0%
10:00Sun 	 7c 	 0%
11:00Sun 	 8c 	 1%
12:00Sun 	 9c 	 1%
13:00Sun 	 9c 	 1%
14:00Sun 	 10c 	 1%
15:00Sun 	 10c 	 1%
16:00Sun 	 10c 	 2%
17:00Sun 	 9c 	 2%
18:00Sun 	 8c 	 1%
19:00Sun 	 7c 	 1%
20:00Sun 	 6c 	 1%
21:00Sun 	 5c 	 2%
22:00Sun 	 4c 	 3%
23:00Sun 	 3c 	 3%
00:00Mon 	 3c 	 2%
01:00Mon 	 2c 	 2%
02:00Mon 	 1c 	 3%
03:00Mon 	 1c 	 4%
04:00Mon 	 1c 	 4%
05:00Mon 	 1c 	 3%

# /home/pi/Documents/bbc-weather-predictions/data/Mar21Sat/bbcweather_Saturday21stMarch_2020-03-21_0615.txt
# time 	 temp 	 rain
07:00Sat 	 4c 	 1%
08:00Sat 	 5c 	 3%
09:00Sat 	 6c 	 2%
10:00Sat 	 7c 	 2%
11:00Sat 	 8c 	 1%
12:00Sat 	 9c 	 1%
13:00Sat 	 10c 	 1%
14:00Sat 	 10c 	 1%
15:00Sat 	 10c 	 1%
16:00Sat 	 10c 	 0%
17:00Sat 	 9c 	 0%
18:00Sat 	 8c 	 1%
19:00Sat 	 6c 	 0%
20:00Sat 	 5c 	 0%
21:00Sat 	 5c 	 1%
22:00Sat 	 4c 	 3%
23:00Sat 	 3c 	 3%
00:00Sun 	 3c 	 2%
01:00Sun 	 3c 	 1%
02:00Sun 	 3c 	 2%
03:00Sun 	 2c 	 3%
04:00Sun 	 2c 	 3%
05:00Sun 	 2c 	 2%
06:00Sun 	 2c 	 1%
07:00Sun 	 3c 	 1%
08:00Sun 	 4c 	 1%
09:00Sun 	 5c 	 0%
10:00Sun 	 7c 	 0%
11:00Sun 	 8c 	 1%
12:00Sun 	 9c 	 1%
13:00Sun 	 9c 	 1%
14:00Sun 	 10c 	 1%
15:00Sun 	 10c 	 1%
16:00Sun 	 10c 	 2%
17:00Sun 	 9c 	 2%
18:00Sun 	 8c 	 1%
19:00Sun 	 7c 	 1%
20:00Sun 	 6c 	 1%
21:00Sun 	 5c 	 2%
22:00Sun 	 4c 	 3%
23:00Sun 	 3c 	 3%
00:00Mon 	 3c 	 2%
01:00Mon 	 2c 	 2%
02:00Mon 	 1c 	 3%
03:00Mon 	 1c 	 4%
04:00Mon 	 1c 	 4%
05:00Mon 	 1c 	 3%

# /home/pi/Documents/bbc-weather-predictions/data/Mar21Sat/bbcweather_Saturday21stMarch_2020-03-21_0630.txt
# time 	 temp 	 rain
07:00Sat 	 3c 	 1%
08:00Sat 	 5c 	 1%
09:00Sat 	 6c 	 3%
10:00Sat 	 7c 	 3%
11:00Sat 	 9c 	 2%
12:00Sat 	 9c 	 1%
13:00Sat 	 10c 	 1%
14:00Sat 	 10c 	 1%
15:00Sat 	 10c 	 1%
16:00Sat 	 10c 	 0%
17:00Sat 	 9c 	 0%
18:00Sat 	 8c 	 1%
19:00Sat 	 6c 	 0%
20:00Sat 	 5c 	 0%
21:00Sat 	 5c 	 1%
22:00Sat 	 4c 	 3%
23:00Sat 	 3c 	 3%
00:00Sun 	 3c 	 2%
01:00Sun 	 3c 	 1%
02:00Sun 	 3c 	 2%
03:00Sun 	 2c 	 3%
04:00Sun 	 2c 	 3%
05:00Sun 	 2c 	 2%
06:00Sun 	 2c 	 1%
07:00Sun 	 3c 	 1%
08:00Sun 	 4c 	 1%
09:00Sun 	 5c 	 0%
10:00Sun 	 7c 	 0%
11:00Sun 	 8c 	 1%
12:00Sun 	 9c 	 1%
13:00Sun 	 9c 	 1%
14:00Sun 	 10c 	 1%
15:00Sun 	 10c 	 1%
16:00Sun 	 10c 	 2%
17:00Sun 	 9c 	 2%
18:00Sun 	 8c 	 1%
19:00Sun 	 7c 	 1%
20:00Sun 	 6c 	 1%
21:00Sun 	 5c 	 2%
22:00Sun 	 4c 	 3%
23:00Sun 	 3c 	 3%
00:00Mon 	 3c 	 2%
01:00Mon 	 2c 	 2%
02:00Mon 	 1c 	 3%
03:00Mon 	 1c 	 4%
04:00Mon 	 1c 	 4%
05:00Mon 	 1c 	 3%

# /home/pi/Documents/bbc-weather-predictions/data/Mar21Sat/bbcweather_Saturday21stMarch_2020-03-21_0645.txt
# time 	 temp 	 rain
07:00Sat 	 3c 	 1%
08:00Sat 	 5c 	 1%
09:00Sat 	 6c 	 3%
10:00Sat 	 7c 	 3%
11:00Sat 	 9c 	 2%
12:00Sat 	 9c 	 1%
13:00Sat 	 10c 	 1%
14:00Sat 	 10c 	 1%
15:00Sat 	 10c 	 1%
16:00Sat 	 10c 	 0%
17:00Sat 	 9c 	 0%
18:00Sat 	 8c 	 1%
19:00Sat 	 6c 	 0%
20:00Sat 	 5c 	 0%
21:00Sat 	 5c 	 1%
22:00Sat 	 4c 	 3%
23:00Sat 	 3c 	 3%
00:00Sun 	 3c 	 2%
01:00Sun 	 3c 	 1%
02:00Sun 	 3c 	 2%
03:00Sun 	 2c 	 3%
04:00Sun 	 2c 	 3%
05:00Sun 	 2c 	 2%
06:00Sun 	 2c 	 1%
07:00Sun 	 3c 	 1%
08:00Sun 	 4c 	 1%
09:00Sun 	 5c 	 0%
10:00Sun 	 7c 	 0%
11:00Sun 	 8c 	 1%
12:00Sun 	 9c 	 1%
13:00Sun 	 9c 	 1%
14:00Sun 	 10c 	 1%
15:00Sun 	 10c 	 1%
16:00Sun 	 10c 	 2%
17:00Sun 	 9c 	 2%
18:00Sun 	 8c 	 1%
19:00Sun 	 7c 	 1%
20:00Sun 	 6c 	 1%
21:00Sun 	 5c 	 2%
22:00Sun 	 4c 	 3%
23:00Sun 	 3c 	 3%
00:00Mon 	 3c 	 2%
01:00Mon 	 2c 	 2%
02:00Mon 	 1c 	 3%
03:00Mon 	 1c 	 4%
04:00Mon 	 1c 	 4%
05:00Mon 	 1c 	 3%

# /home/pi/Documents/bbc-weather-predictions/data/Mar21Sat/bbcweather_Saturday21stMarch_2020-03-21_0700.txt
# time 	 temp 	 rain
07:00Sat 	 3c 	 1%
08:00Sat 	 5c 	 1%
09:00Sat 	 6c 	 3%
10:00Sat 	 7c 	 3%
11:00Sat 	 9c 	 2%
12:00Sat 	 9c 	 1%
13:00Sat 	 10c 	 1%
14:00Sat 	 10c 	 1%
15:00Sat 	 10c 	 1%
16:00Sat 	 10c 	 0%
17:00Sat 	 9c 	 0%
18:00Sat 	 8c 	 1%
19:00Sat 	 6c 	 0%
20:00Sat 	 5c 	 0%
21:00Sat 	 5c 	 1%
22:00Sat 	 4c 	 3%
23:00Sat 	 3c 	 3%
00:00Sun 	 3c 	 2%
01:00Sun 	 3c 	 1%
02:00Sun 	 3c 	 2%
03:00Sun 	 2c 	 3%
04:00Sun 	 2c 	 3%
05:00Sun 	 2c 	 2%
06:00Sun 	 2c 	 1%
07:00Sun 	 3c 	 1%
08:00Sun 	 4c 	 1%
09:00Sun 	 5c 	 0%
10:00Sun 	 7c 	 0%
11:00Sun 	 8c 	 1%
12:00Sun 	 9c 	 1%
13:00Sun 	 9c 	 1%
14:00Sun 	 10c 	 1%
15:00Sun 	 10c 	 1%
16:00Sun 	 10c 	 2%
17:00Sun 	 9c 	 2%
18:00Sun 	 8c 	 1%
19:00Sun 	 7c 	 1%
20:00Sun 	 6c 	 1%
21:00Sun 	 5c 	 2%
22:00Sun 	 4c 	 3%
23:00Sun 	 3c 	 3%
00:00Mon 	 3c 	 2%
01:00Mon 	 2c 	 2%
02:00Mon 	 1c 	 3%
03:00Mon 	 1c 	 4%
04:00Mon 	 1c 	 4%
05:00Mon 	 1c 	 3%

# /home/pi/Documents/bbc-weather-predictions/data/Mar21Sat/bbcweather_Saturday21stMarch_2020-03-21_0715.txt
# time 	 temp 	 rain
08:00Sat 	 5c 	 0%
09:00Sat 	 6c 	 1%
10:00Sat 	 7c 	 4%
11:00Sat 	 9c 	 5%
12:00Sat 	 9c 	 4%
13:00Sat 	 10c 	 4%
14:00Sat 	 10c 	 3%
15:00Sat 	 10c 	 2%
16:00Sat 	 10c 	 1%
17:00Sat 	 9c 	 1%
18:00Sat 	 7c 	 1%
19:00Sat 	 6c 	 0%
20:00Sat 	 5c 	 1%
21:00Sat 	 5c 	 1%
22:00Sat 	 4c 	 1%
23:00Sat 	 4c 	 1%
00:00Sun 	 4c 	 2%
01:00Sun 	 4c 	 2%
02:00Sun 	 4c 	 3%
03:00Sun 	 3c 	 3%
04:00Sun 	 3c 	 2%
05:00Sun 	 3c 	 1%
06:00Sun 	 3c 	 1%
07:00Sun 	 3c 	 1%
08:00Sun 	 4c 	 2%
09:00Sun 	 5c 	 2%
10:00Sun 	 7c 	 2%
11:00Sun 	 8c 	 1%
12:00Sun 	 9c 	 1%
13:00Sun 	 10c 	 2%
14:00Sun 	 11c 	 1%
15:00Sun 	 11c 	 1%
16:00Sun 	 11c 	 1%
17:00Sun 	 10c 	 1%
18:00Sun 	 9c 	 0%
19:00Sun 	 7c 	 0%
20:00Sun 	 6c 	 0%
21:00Sun 	 5c 	 1%
22:00Sun 	 4c 	 3%
23:00Sun 	 3c 	 3%
00:00Mon 	 3c 	 2%
01:00Mon 	 2c 	 2%
02:00Mon 	 1c 	 3%
03:00Mon 	 1c 	 4%
04:00Mon 	 1c 	 4%
05:00Mon 	 1c 	 3%

# /home/pi/Documents/bbc-weather-predictions/data/Mar21Sat/bbcweather_Saturday21stMarch_2020-03-21_0730.txt
# time 	 temp 	 rain
08:00Sat 	 5c 	 0%
09:00Sat 	 6c 	 1%
10:00Sat 	 7c 	 4%
11:00Sat 	 9c 	 5%
12:00Sat 	 9c 	 4%
13:00Sat 	 10c 	 4%
14:00Sat 	 10c 	 3%
15:00Sat 	 10c 	 2%
16:00Sat 	 10c 	 1%
17:00Sat 	 9c 	 1%
18:00Sat 	 7c 	 1%
19:00Sat 	 6c 	 0%
20:00Sat 	 5c 	 1%
21:00Sat 	 5c 	 1%
22:00Sat 	 4c 	 1%
23:00Sat 	 4c 	 1%
00:00Sun 	 4c 	 2%
01:00Sun 	 4c 	 2%
02:00Sun 	 4c 	 3%
03:00Sun 	 3c 	 3%
04:00Sun 	 3c 	 2%
05:00Sun 	 3c 	 1%
06:00Sun 	 3c 	 1%
07:00Sun 	 3c 	 1%
08:00Sun 	 4c 	 2%
09:00Sun 	 5c 	 2%
10:00Sun 	 7c 	 2%
11:00Sun 	 8c 	 1%
12:00Sun 	 9c 	 1%
13:00Sun 	 10c 	 2%
14:00Sun 	 11c 	 1%
15:00Sun 	 11c 	 1%
16:00Sun 	 11c 	 1%
17:00Sun 	 10c 	 1%
18:00Sun 	 9c 	 0%
19:00Sun 	 7c 	 0%
20:00Sun 	 6c 	 0%
21:00Sun 	 5c 	 1%
22:00Sun 	 4c 	 3%
23:00Sun 	 3c 	 3%
00:00Mon 	 3c 	 2%
01:00Mon 	 2c 	 2%
02:00Mon 	 1c 	 3%
03:00Mon 	 1c 	 4%
04:00Mon 	 1c 	 4%
05:00Mon 	 1c 	 3%

# /home/pi/Documents/bbc-weather-predictions/data/Mar21Sat/bbcweather_Saturday21stMarch_2020-03-21_0745.txt
# time 	 temp 	 rain
08:00Sat 	 5c 	 0%
09:00Sat 	 6c 	 1%
10:00Sat 	 7c 	 4%
11:00Sat 	 9c 	 5%
12:00Sat 	 9c 	 4%
13:00Sat 	 10c 	 4%
14:00Sat 	 10c 	 3%
15:00Sat 	 10c 	 2%
16:00Sat 	 10c 	 1%
17:00Sat 	 9c 	 1%
18:00Sat 	 7c 	 1%
19:00Sat 	 6c 	 0%
20:00Sat 	 5c 	 1%
21:00Sat 	 5c 	 1%
22:00Sat 	 4c 	 1%
23:00Sat 	 4c 	 1%
00:00Sun 	 4c 	 2%
01:00Sun 	 4c 	 2%
02:00Sun 	 4c 	 3%
03:00Sun 	 3c 	 3%
04:00Sun 	 3c 	 2%
05:00Sun 	 3c 	 1%
06:00Sun 	 3c 	 1%
07:00Sun 	 3c 	 1%
08:00Sun 	 4c 	 2%
09:00Sun 	 5c 	 2%
10:00Sun 	 7c 	 2%
11:00Sun 	 8c 	 1%
12:00Sun 	 9c 	 1%
13:00Sun 	 10c 	 2%
14:00Sun 	 11c 	 1%
15:00Sun 	 11c 	 1%
16:00Sun 	 11c 	 1%
17:00Sun 	 10c 	 1%
18:00Sun 	 9c 	 0%
19:00Sun 	 7c 	 0%
20:00Sun 	 6c 	 0%
21:00Sun 	 5c 	 1%
22:00Sun 	 4c 	 3%
23:00Sun 	 3c 	 3%
00:00Mon 	 3c 	 2%
01:00Mon 	 2c 	 2%
02:00Mon 	 1c 	 3%
03:00Mon 	 1c 	 4%
04:00Mon 	 1c 	 4%
05:00Mon 	 1c 	 3%

# /home/pi/Documents/bbc-weather-predictions/data/Mar21Sat/bbcweather_Saturday21stMarch_2020-03-21_0800.txt
# time 	 temp 	 rain
08:00Sat 	 5c 	 0%
09:00Sat 	 6c 	 1%
10:00Sat 	 7c 	 4%
11:00Sat 	 9c 	 5%
12:00Sat 	 9c 	 4%
13:00Sat 	 10c 	 4%
14:00Sat 	 10c 	 3%
15:00Sat 	 10c 	 2%
16:00Sat 	 10c 	 1%
17:00Sat 	 9c 	 1%
18:00Sat 	 7c 	 1%
19:00Sat 	 6c 	 0%
20:00Sat 	 5c 	 1%
21:00Sat 	 5c 	 1%
22:00Sat 	 4c 	 1%
23:00Sat 	 4c 	 1%
00:00Sun 	 4c 	 2%
01:00Sun 	 4c 	 2%
02:00Sun 	 4c 	 3%
03:00Sun 	 3c 	 3%
04:00Sun 	 3c 	 2%
05:00Sun 	 3c 	 1%
06:00Sun 	 3c 	 1%
07:00Sun 	 3c 	 1%
08:00Sun 	 4c 	 2%
09:00Sun 	 5c 	 2%
10:00Sun 	 7c 	 2%
11:00Sun 	 8c 	 1%
12:00Sun 	 9c 	 1%
13:00Sun 	 10c 	 2%
14:00Sun 	 11c 	 1%
15:00Sun 	 11c 	 1%
16:00Sun 	 11c 	 1%
17:00Sun 	 10c 	 1%
18:00Sun 	 9c 	 0%
19:00Sun 	 7c 	 0%
20:00Sun 	 6c 	 0%
21:00Sun 	 5c 	 1%
22:00Sun 	 4c 	 3%
23:00Sun 	 3c 	 3%
00:00Mon 	 3c 	 2%
01:00Mon 	 2c 	 2%
02:00Mon 	 1c 	 3%
03:00Mon 	 1c 	 4%
04:00Mon 	 1c 	 4%
05:00Mon 	 1c 	 3%

# /home/pi/Documents/bbc-weather-predictions/data/Mar21Sat/bbcweather_Saturday21stMarch_2020-03-21_0815.txt
# time 	 temp 	 rain
09:00Sat 	 6c 	 1%
10:00Sat 	 7c 	 4%
11:00Sat 	 9c 	 5%
12:00Sat 	 9c 	 4%
13:00Sat 	 10c 	 4%
14:00Sat 	 10c 	 3%
15:00Sat 	 10c 	 2%
16:00Sat 	 10c 	 1%
17:00Sat 	 9c 	 1%
18:00Sat 	 7c 	 1%
19:00Sat 	 6c 	 0%
20:00Sat 	 5c 	 1%
21:00Sat 	 5c 	 1%
22:00Sat 	 4c 	 1%
23:00Sat 	 4c 	 1%
00:00Sun 	 4c 	 2%
01:00Sun 	 4c 	 2%
02:00Sun 	 4c 	 3%
03:00Sun 	 3c 	 3%
04:00Sun 	 3c 	 2%
05:00Sun 	 3c 	 1%
06:00Sun 	 3c 	 1%
07:00Sun 	 3c 	 1%
08:00Sun 	 4c 	 2%
09:00Sun 	 5c 	 2%
10:00Sun 	 7c 	 2%
11:00Sun 	 8c 	 1%
12:00Sun 	 9c 	 1%
13:00Sun 	 10c 	 2%
14:00Sun 	 11c 	 1%
15:00Sun 	 11c 	 1%
16:00Sun 	 11c 	 1%
17:00Sun 	 10c 	 1%
18:00Sun 	 9c 	 0%
19:00Sun 	 7c 	 0%
20:00Sun 	 6c 	 0%
21:00Sun 	 5c 	 1%
22:00Sun 	 4c 	 3%
23:00Sun 	 3c 	 3%
00:00Mon 	 3c 	 2%
01:00Mon 	 2c 	 2%
02:00Mon 	 1c 	 3%
03:00Mon 	 1c 	 4%
04:00Mon 	 1c 	 4%
05:00Mon 	 1c 	 3%

# /home/pi/Documents/bbc-weather-predictions/data/Mar21Sat/bbcweather_Saturday21stMarch_2020-03-21_0830.txt
# time 	 temp 	 rain
09:00Sat 	 6c 	 0%
10:00Sat 	 7c 	 2%
11:00Sat 	 9c 	 5%
12:00Sat 	 9c 	 4%
13:00Sat 	 10c 	 4%
14:00Sat 	 10c 	 3%
15:00Sat 	 10c 	 2%
16:00Sat 	 10c 	 1%
17:00Sat 	 9c 	 1%
18:00Sat 	 7c 	 1%
19:00Sat 	 6c 	 0%
20:00Sat 	 5c 	 1%
21:00Sat 	 5c 	 1%
22:00Sat 	 4c 	 1%
23:00Sat 	 4c 	 1%
00:00Sun 	 4c 	 2%
01:00Sun 	 4c 	 2%
02:00Sun 	 4c 	 3%
03:00Sun 	 3c 	 3%
04:00Sun 	 3c 	 2%
05:00Sun 	 3c 	 1%
06:00Sun 	 3c 	 1%
07:00Sun 	 3c 	 1%
08:00Sun 	 4c 	 2%
09:00Sun 	 5c 	 2%
10:00Sun 	 7c 	 2%
11:00Sun 	 8c 	 1%
12:00Sun 	 9c 	 1%
13:00Sun 	 10c 	 2%
14:00Sun 	 11c 	 1%
15:00Sun 	 11c 	 1%
16:00Sun 	 11c 	 1%
17:00Sun 	 10c 	 1%
18:00Sun 	 9c 	 0%
19:00Sun 	 7c 	 0%
20:00Sun 	 6c 	 0%
21:00Sun 	 5c 	 1%
22:00Sun 	 4c 	 3%
23:00Sun 	 3c 	 3%
00:00Mon 	 3c 	 2%
01:00Mon 	 2c 	 2%
02:00Mon 	 1c 	 3%
03:00Mon 	 1c 	 4%
04:00Mon 	 1c 	 4%
05:00Mon 	 1c 	 3%

# /home/pi/Documents/bbc-weather-predictions/data/Mar21Sat/bbcweather_Saturday21stMarch_2020-03-21_0845.txt
# time 	 temp 	 rain
09:00Sat 	 6c 	 0%
10:00Sat 	 7c 	 2%
11:00Sat 	 9c 	 5%
12:00Sat 	 9c 	 4%
13:00Sat 	 10c 	 4%
14:00Sat 	 10c 	 3%
15:00Sat 	 10c 	 2%
16:00Sat 	 10c 	 1%
17:00Sat 	 9c 	 1%
18:00Sat 	 7c 	 1%
19:00Sat 	 6c 	 0%
20:00Sat 	 5c 	 1%
21:00Sat 	 5c 	 1%
22:00Sat 	 4c 	 1%
23:00Sat 	 4c 	 1%
00:00Sun 	 4c 	 2%
01:00Sun 	 4c 	 2%
02:00Sun 	 4c 	 3%
03:00Sun 	 3c 	 3%
04:00Sun 	 3c 	 2%
05:00Sun 	 3c 	 1%
06:00Sun 	 3c 	 1%
07:00Sun 	 3c 	 1%
08:00Sun 	 4c 	 2%
09:00Sun 	 5c 	 2%
10:00Sun 	 7c 	 2%
11:00Sun 	 8c 	 1%
12:00Sun 	 9c 	 1%
13:00Sun 	 10c 	 2%
14:00Sun 	 11c 	 1%
15:00Sun 	 11c 	 1%
16:00Sun 	 11c 	 1%
17:00Sun 	 10c 	 1%
18:00Sun 	 9c 	 0%
19:00Sun 	 7c 	 0%
20:00Sun 	 6c 	 0%
21:00Sun 	 5c 	 1%
22:00Sun 	 4c 	 3%
23:00Sun 	 3c 	 3%
00:00Mon 	 3c 	 2%
01:00Mon 	 2c 	 2%
02:00Mon 	 1c 	 3%
03:00Mon 	 1c 	 4%
04:00Mon 	 1c 	 4%
05:00Mon 	 1c 	 3%

# /home/pi/Documents/bbc-weather-predictions/data/Mar21Sat/bbcweather_Saturday21stMarch_2020-03-21_0900.txt
# time 	 temp 	 rain
09:00Sat 	 6c 	 0%
10:00Sat 	 7c 	 2%
11:00Sat 	 9c 	 5%
12:00Sat 	 9c 	 4%
13:00Sat 	 10c 	 4%
14:00Sat 	 10c 	 3%
15:00Sat 	 10c 	 2%
16:00Sat 	 10c 	 1%
17:00Sat 	 9c 	 1%
18:00Sat 	 7c 	 1%
19:00Sat 	 6c 	 0%
20:00Sat 	 5c 	 1%
21:00Sat 	 5c 	 1%
22:00Sat 	 4c 	 1%
23:00Sat 	 4c 	 1%
00:00Sun 	 4c 	 2%
01:00Sun 	 4c 	 2%
02:00Sun 	 4c 	 3%
03:00Sun 	 3c 	 3%
04:00Sun 	 3c 	 2%
05:00Sun 	 3c 	 1%
06:00Sun 	 3c 	 1%
07:00Sun 	 3c 	 1%
08:00Sun 	 4c 	 2%
09:00Sun 	 5c 	 2%
10:00Sun 	 7c 	 2%
11:00Sun 	 8c 	 1%
12:00Sun 	 9c 	 1%
13:00Sun 	 10c 	 2%
14:00Sun 	 11c 	 1%
15:00Sun 	 11c 	 1%
16:00Sun 	 11c 	 1%
17:00Sun 	 10c 	 1%
18:00Sun 	 9c 	 0%
19:00Sun 	 7c 	 0%
20:00Sun 	 6c 	 0%
21:00Sun 	 5c 	 1%
22:00Sun 	 4c 	 3%
23:00Sun 	 3c 	 3%
00:00Mon 	 3c 	 2%
01:00Mon 	 2c 	 2%
02:00Mon 	 1c 	 3%
03:00Mon 	 1c 	 4%
04:00Mon 	 1c 	 4%
05:00Mon 	 1c 	 3%

# /home/pi/Documents/bbc-weather-predictions/data/Mar21Sat/bbcweather_Saturday21stMarch_2020-03-21_0915.txt
# time 	 temp 	 rain
10:00Sat 	 7c 	 2%
11:00Sat 	 9c 	 5%
12:00Sat 	 9c 	 4%
13:00Sat 	 10c 	 4%
14:00Sat 	 10c 	 3%
15:00Sat 	 10c 	 2%
16:00Sat 	 10c 	 1%
17:00Sat 	 9c 	 1%
18:00Sat 	 7c 	 1%
19:00Sat 	 6c 	 0%
20:00Sat 	 5c 	 1%
21:00Sat 	 5c 	 1%
22:00Sat 	 4c 	 1%
23:00Sat 	 4c 	 1%
00:00Sun 	 4c 	 2%
01:00Sun 	 4c 	 2%
02:00Sun 	 4c 	 3%
03:00Sun 	 3c 	 3%
04:00Sun 	 3c 	 2%
05:00Sun 	 3c 	 1%
06:00Sun 	 3c 	 1%
07:00Sun 	 3c 	 1%
08:00Sun 	 4c 	 2%
09:00Sun 	 5c 	 2%
10:00Sun 	 7c 	 2%
11:00Sun 	 8c 	 1%
12:00Sun 	 9c 	 1%
13:00Sun 	 10c 	 2%
14:00Sun 	 11c 	 1%
15:00Sun 	 11c 	 1%
16:00Sun 	 11c 	 1%
17:00Sun 	 10c 	 1%
18:00Sun 	 9c 	 0%
19:00Sun 	 7c 	 0%
20:00Sun 	 6c 	 0%
21:00Sun 	 5c 	 1%
22:00Sun 	 4c 	 3%
23:00Sun 	 3c 	 3%
00:00Mon 	 3c 	 2%
01:00Mon 	 2c 	 2%
02:00Mon 	 1c 	 3%
03:00Mon 	 1c 	 4%
04:00Mon 	 1c 	 4%
05:00Mon 	 1c 	 3%

# /home/pi/Documents/bbc-weather-predictions/data/Mar21Sat/bbcweather_Saturday21stMarch_2020-03-21_0930.txt
# time 	 temp 	 rain
10:00Sat 	 7c 	 0%
11:00Sat 	 8c 	 1%
12:00Sat 	 9c 	 4%
13:00Sat 	 10c 	 4%
14:00Sat 	 10c 	 3%
15:00Sat 	 10c 	 2%
16:00Sat 	 10c 	 1%
17:00Sat 	 9c 	 1%
18:00Sat 	 7c 	 1%
19:00Sat 	 6c 	 0%
20:00Sat 	 5c 	 1%
21:00Sat 	 5c 	 1%
22:00Sat 	 4c 	 1%
23:00Sat 	 4c 	 1%
00:00Sun 	 4c 	 2%
01:00Sun 	 4c 	 2%
02:00Sun 	 4c 	 3%
03:00Sun 	 3c 	 3%
04:00Sun 	 3c 	 2%
05:00Sun 	 3c 	 1%
06:00Sun 	 3c 	 1%
07:00Sun 	 3c 	 1%
08:00Sun 	 4c 	 2%
09:00Sun 	 5c 	 2%
10:00Sun 	 7c 	 2%
11:00Sun 	 8c 	 1%
12:00Sun 	 9c 	 1%
13:00Sun 	 10c 	 2%
14:00Sun 	 11c 	 1%
15:00Sun 	 11c 	 1%
16:00Sun 	 11c 	 1%
17:00Sun 	 10c 	 1%
18:00Sun 	 9c 	 1%
19:00Sun 	 7c 	 0%
20:00Sun 	 6c 	 0%
21:00Sun 	 5c 	 0%
22:00Sun 	 4c 	 1%
23:00Sun 	 3c 	 1%
00:00Mon 	 3c 	 1%
01:00Mon 	 3c 	 1%
02:00Mon 	 3c 	 2%
03:00Mon 	 2c 	 3%
04:00Mon 	 2c 	 2%
05:00Mon 	 2c 	 1%

# /home/pi/Documents/bbc-weather-predictions/data/Mar21Sat/bbcweather_Saturday21stMarch_2020-03-21_0945.txt
# time 	 temp 	 rain
10:00Sat 	 7c 	 0%
11:00Sat 	 8c 	 1%
12:00Sat 	 9c 	 4%
13:00Sat 	 10c 	 4%
14:00Sat 	 10c 	 3%
15:00Sat 	 10c 	 2%
16:00Sat 	 10c 	 1%
17:00Sat 	 9c 	 1%
18:00Sat 	 7c 	 1%
19:00Sat 	 6c 	 0%
20:00Sat 	 5c 	 1%
21:00Sat 	 5c 	 1%
22:00Sat 	 4c 	 1%
23:00Sat 	 4c 	 1%
00:00Sun 	 4c 	 2%
01:00Sun 	 4c 	 2%
02:00Sun 	 4c 	 3%
03:00Sun 	 3c 	 3%
04:00Sun 	 3c 	 2%
05:00Sun 	 3c 	 1%
06:00Sun 	 3c 	 1%
07:00Sun 	 3c 	 1%
08:00Sun 	 4c 	 2%
09:00Sun 	 5c 	 2%
10:00Sun 	 7c 	 2%
11:00Sun 	 8c 	 1%
12:00Sun 	 9c 	 1%
13:00Sun 	 10c 	 2%
14:00Sun 	 11c 	 1%
15:00Sun 	 11c 	 1%
16:00Sun 	 11c 	 1%
17:00Sun 	 10c 	 1%
18:00Sun 	 9c 	 1%
19:00Sun 	 7c 	 0%
20:00Sun 	 6c 	 0%
21:00Sun 	 5c 	 0%
22:00Sun 	 4c 	 1%
23:00Sun 	 3c 	 1%
00:00Mon 	 3c 	 1%
01:00Mon 	 3c 	 1%
02:00Mon 	 3c 	 2%
03:00Mon 	 2c 	 3%
04:00Mon 	 2c 	 2%
05:00Mon 	 2c 	 1%

# /home/pi/Documents/bbc-weather-predictions/data/Mar21Sat/bbcweather_Saturday21stMarch_2020-03-21_1000.txt
# time 	 temp 	 rain
10:00Sat 	 7c 	 0%
11:00Sat 	 8c 	 1%
12:00Sat 	 9c 	 4%
13:00Sat 	 10c 	 4%
14:00Sat 	 10c 	 3%
15:00Sat 	 10c 	 2%
16:00Sat 	 10c 	 1%
17:00Sat 	 9c 	 1%
18:00Sat 	 7c 	 1%
19:00Sat 	 6c 	 0%
20:00Sat 	 5c 	 1%
21:00Sat 	 5c 	 1%
22:00Sat 	 4c 	 1%
23:00Sat 	 4c 	 1%
00:00Sun 	 4c 	 2%
01:00Sun 	 4c 	 2%
02:00Sun 	 4c 	 3%
03:00Sun 	 3c 	 3%
04:00Sun 	 3c 	 2%
05:00Sun 	 3c 	 1%
06:00Sun 	 3c 	 1%
07:00Sun 	 3c 	 1%
08:00Sun 	 4c 	 2%
09:00Sun 	 5c 	 2%
10:00Sun 	 7c 	 2%
11:00Sun 	 8c 	 1%
12:00Sun 	 9c 	 1%
13:00Sun 	 10c 	 2%
14:00Sun 	 11c 	 1%
15:00Sun 	 11c 	 1%
16:00Sun 	 11c 	 1%
17:00Sun 	 10c 	 1%
18:00Sun 	 9c 	 1%
19:00Sun 	 7c 	 0%
20:00Sun 	 6c 	 0%
21:00Sun 	 5c 	 0%
22:00Sun 	 4c 	 1%
23:00Sun 	 3c 	 1%
00:00Mon 	 3c 	 1%
01:00Mon 	 3c 	 1%
02:00Mon 	 3c 	 2%
03:00Mon 	 2c 	 3%
04:00Mon 	 2c 	 2%
05:00Mon 	 2c 	 1%

# /home/pi/Documents/bbc-weather-predictions/data/Mar21Sat/bbcweather_Saturday21stMarch_2020-03-21_1015.txt
# time 	 temp 	 rain
11:00Sat 	 8c 	 0%
12:00Sat 	 9c 	 2%
13:00Sat 	 10c 	 4%
14:00Sat 	 10c 	 3%
15:00Sat 	 10c 	 2%
16:00Sat 	 10c 	 1%
17:00Sat 	 9c 	 1%
18:00Sat 	 7c 	 1%
19:00Sat 	 6c 	 0%
20:00Sat 	 5c 	 1%
21:00Sat 	 5c 	 1%
22:00Sat 	 4c 	 1%
23:00Sat 	 4c 	 1%
00:00Sun 	 4c 	 2%
01:00Sun 	 4c 	 2%
02:00Sun 	 4c 	 3%
03:00Sun 	 3c 	 3%
04:00Sun 	 3c 	 2%
05:00Sun 	 3c 	 1%
06:00Sun 	 3c 	 1%
07:00Sun 	 3c 	 1%
08:00Sun 	 4c 	 2%
09:00Sun 	 5c 	 2%
10:00Sun 	 7c 	 2%
11:00Sun 	 8c 	 1%
12:00Sun 	 9c 	 1%
13:00Sun 	 10c 	 2%
14:00Sun 	 11c 	 1%
15:00Sun 	 11c 	 1%
16:00Sun 	 11c 	 1%
17:00Sun 	 10c 	 1%
18:00Sun 	 9c 	 1%
19:00Sun 	 7c 	 0%
20:00Sun 	 6c 	 0%
21:00Sun 	 5c 	 0%
22:00Sun 	 4c 	 1%
23:00Sun 	 3c 	 1%
00:00Mon 	 3c 	 1%
01:00Mon 	 3c 	 1%
02:00Mon 	 3c 	 2%
03:00Mon 	 2c 	 3%
04:00Mon 	 2c 	 2%
05:00Mon 	 2c 	 1%

# /home/pi/Documents/bbc-weather-predictions/data/Mar21Sat/bbcweather_Saturday21stMarch_2020-03-21_1030.txt
# time 	 temp 	 rain
11:00Sat 	 8c 	 0%
12:00Sat 	 9c 	 2%
13:00Sat 	 10c 	 4%
14:00Sat 	 10c 	 3%
15:00Sat 	 10c 	 2%
16:00Sat 	 10c 	 1%
17:00Sat 	 9c 	 1%
18:00Sat 	 7c 	 1%
19:00Sat 	 6c 	 0%
20:00Sat 	 5c 	 1%
21:00Sat 	 5c 	 1%
22:00Sat 	 4c 	 1%
23:00Sat 	 4c 	 1%
00:00Sun 	 4c 	 2%
01:00Sun 	 4c 	 2%
02:00Sun 	 4c 	 3%
03:00Sun 	 3c 	 3%
04:00Sun 	 3c 	 2%
05:00Sun 	 3c 	 1%
06:00Sun 	 3c 	 1%
07:00Sun 	 3c 	 1%
08:00Sun 	 4c 	 2%
09:00Sun 	 5c 	 2%
10:00Sun 	 7c 	 2%
11:00Sun 	 8c 	 1%
12:00Sun 	 9c 	 1%
13:00Sun 	 10c 	 2%
14:00Sun 	 11c 	 1%
15:00Sun 	 11c 	 1%
16:00Sun 	 11c 	 1%
17:00Sun 	 10c 	 1%
18:00Sun 	 9c 	 1%
19:00Sun 	 7c 	 0%
20:00Sun 	 6c 	 0%
21:00Sun 	 5c 	 0%
22:00Sun 	 4c 	 1%
23:00Sun 	 3c 	 1%
00:00Mon 	 3c 	 1%
01:00Mon 	 3c 	 1%
02:00Mon 	 3c 	 2%
03:00Mon 	 2c 	 3%
04:00Mon 	 2c 	 2%
05:00Mon 	 2c 	 1%

# /home/pi/Documents/bbc-weather-predictions/data/Mar21Sat/bbcweather_Saturday21stMarch_2020-03-21_1045.txt
# time 	 temp 	 rain
11:00Sat 	 8c 	 0%
12:00Sat 	 9c 	 2%
13:00Sat 	 10c 	 4%
14:00Sat 	 10c 	 3%
15:00Sat 	 10c 	 2%
16:00Sat 	 10c 	 1%
17:00Sat 	 9c 	 1%
18:00Sat 	 7c 	 1%
19:00Sat 	 6c 	 0%
20:00Sat 	 5c 	 1%
21:00Sat 	 5c 	 1%
22:00Sat 	 4c 	 1%
23:00Sat 	 4c 	 1%
00:00Sun 	 4c 	 2%
01:00Sun 	 4c 	 2%
02:00Sun 	 4c 	 3%
03:00Sun 	 3c 	 3%
04:00Sun 	 3c 	 2%
05:00Sun 	 3c 	 1%
06:00Sun 	 3c 	 1%
07:00Sun 	 3c 	 1%
08:00Sun 	 4c 	 2%
09:00Sun 	 5c 	 2%
10:00Sun 	 7c 	 2%
11:00Sun 	 8c 	 1%
12:00Sun 	 9c 	 1%
13:00Sun 	 10c 	 2%
14:00Sun 	 11c 	 1%
15:00Sun 	 11c 	 1%
16:00Sun 	 11c 	 1%
17:00Sun 	 10c 	 1%
18:00Sun 	 9c 	 1%
19:00Sun 	 7c 	 0%
20:00Sun 	 6c 	 0%
21:00Sun 	 5c 	 0%
22:00Sun 	 4c 	 1%
23:00Sun 	 3c 	 1%
00:00Mon 	 3c 	 1%
01:00Mon 	 3c 	 1%
02:00Mon 	 3c 	 2%
03:00Mon 	 2c 	 3%
04:00Mon 	 2c 	 2%
05:00Mon 	 2c 	 1%

# /home/pi/Documents/bbc-weather-predictions/data/Mar21Sat/bbcweather_Saturday21stMarch_2020-03-21_1100.txt
# time 	 temp 	 rain
11:00Sat 	 8c 	 0%
12:00Sat 	 9c 	 2%
13:00Sat 	 10c 	 4%
14:00Sat 	 10c 	 3%
15:00Sat 	 10c 	 2%
16:00Sat 	 10c 	 1%
17:00Sat 	 9c 	 1%
18:00Sat 	 7c 	 1%
19:00Sat 	 6c 	 0%
20:00Sat 	 5c 	 1%
21:00Sat 	 5c 	 1%
22:00Sat 	 4c 	 1%
23:00Sat 	 4c 	 1%
00:00Sun 	 4c 	 2%
01:00Sun 	 4c 	 2%
02:00Sun 	 4c 	 3%
03:00Sun 	 3c 	 3%
04:00Sun 	 3c 	 2%
05:00Sun 	 3c 	 1%
06:00Sun 	 3c 	 1%
07:00Sun 	 3c 	 1%
08:00Sun 	 4c 	 2%
09:00Sun 	 5c 	 2%
10:00Sun 	 7c 	 2%
11:00Sun 	 8c 	 1%
12:00Sun 	 9c 	 1%
13:00Sun 	 10c 	 2%
14:00Sun 	 11c 	 1%
15:00Sun 	 11c 	 1%
16:00Sun 	 11c 	 1%
17:00Sun 	 10c 	 1%
18:00Sun 	 9c 	 1%
19:00Sun 	 7c 	 0%
20:00Sun 	 6c 	 0%
21:00Sun 	 5c 	 0%
22:00Sun 	 4c 	 1%
23:00Sun 	 3c 	 1%
00:00Mon 	 3c 	 1%
01:00Mon 	 3c 	 1%
02:00Mon 	 3c 	 2%
03:00Mon 	 2c 	 3%
04:00Mon 	 2c 	 2%
05:00Mon 	 2c 	 1%

# /home/pi/Documents/bbc-weather-predictions/data/Mar21Sat/bbcweather_Saturday21stMarch_2020-03-21_1115.txt
# time 	 temp 	 rain
12:00Sat 	 9c 	 0%
13:00Sat 	 10c 	 1%
14:00Sat 	 10c 	 3%
15:00Sat 	 10c 	 2%
16:00Sat 	 10c 	 1%
17:00Sat 	 9c 	 1%
18:00Sat 	 7c 	 1%
19:00Sat 	 6c 	 0%
20:00Sat 	 5c 	 1%
21:00Sat 	 4c 	 1%
22:00Sat 	 4c 	 1%
23:00Sat 	 4c 	 1%
00:00Sun 	 3c 	 2%
01:00Sun 	 3c 	 2%
02:00Sun 	 3c 	 3%
03:00Sun 	 3c 	 3%
04:00Sun 	 3c 	 2%
05:00Sun 	 2c 	 1%
06:00Sun 	 2c 	 1%
07:00Sun 	 3c 	 1%
08:00Sun 	 4c 	 2%
09:00Sun 	 5c 	 2%
10:00Sun 	 7c 	 2%
11:00Sun 	 8c 	 1%
12:00Sun 	 9c 	 1%
13:00Sun 	 10c 	 2%
14:00Sun 	 11c 	 1%
15:00Sun 	 11c 	 1%
16:00Sun 	 11c 	 1%
17:00Sun 	 10c 	 1%
18:00Sun 	 9c 	 1%
19:00Sun 	 7c 	 0%
20:00Sun 	 6c 	 0%
21:00Sun 	 5c 	 0%
22:00Sun 	 4c 	 1%
23:00Sun 	 4c 	 1%
00:00Mon 	 3c 	 1%
01:00Mon 	 3c 	 1%
02:00Mon 	 3c 	 2%
03:00Mon 	 2c 	 3%
04:00Mon 	 2c 	 2%
05:00Mon 	 2c 	 1%

# /home/pi/Documents/bbc-weather-predictions/data/Mar21Sat/bbcweather_Saturday21stMarch_2020-03-21_1130.txt
# time 	 temp 	 rain
12:00Sat 	 9c 	 0%
13:00Sat 	 10c 	 1%
14:00Sat 	 10c 	 3%
15:00Sat 	 10c 	 2%
16:00Sat 	 10c 	 1%
17:00Sat 	 9c 	 1%
18:00Sat 	 7c 	 1%
19:00Sat 	 6c 	 0%
20:00Sat 	 5c 	 1%
21:00Sat 	 4c 	 1%
22:00Sat 	 4c 	 1%
23:00Sat 	 4c 	 1%
00:00Sun 	 3c 	 2%
01:00Sun 	 3c 	 2%
02:00Sun 	 3c 	 3%
03:00Sun 	 3c 	 3%
04:00Sun 	 3c 	 2%
05:00Sun 	 2c 	 1%
06:00Sun 	 2c 	 1%
07:00Sun 	 3c 	 1%
08:00Sun 	 4c 	 2%
09:00Sun 	 5c 	 2%
10:00Sun 	 7c 	 2%
11:00Sun 	 8c 	 1%
12:00Sun 	 9c 	 1%
13:00Sun 	 10c 	 2%
14:00Sun 	 11c 	 1%
15:00Sun 	 11c 	 1%
16:00Sun 	 11c 	 1%
17:00Sun 	 10c 	 1%
18:00Sun 	 9c 	 1%
19:00Sun 	 7c 	 0%
20:00Sun 	 6c 	 0%
21:00Sun 	 5c 	 0%
22:00Sun 	 4c 	 1%
23:00Sun 	 4c 	 1%
00:00Mon 	 3c 	 1%
01:00Mon 	 3c 	 1%
02:00Mon 	 3c 	 2%
03:00Mon 	 2c 	 3%
04:00Mon 	 2c 	 2%
05:00Mon 	 2c 	 1%

# /home/pi/Documents/bbc-weather-predictions/data/Mar21Sat/bbcweather_Saturday21stMarch_2020-03-21_1145.txt
# time 	 temp 	 rain
12:00Sat 	 9c 	 0%
13:00Sat 	 10c 	 1%
14:00Sat 	 10c 	 3%
15:00Sat 	 10c 	 2%
16:00Sat 	 10c 	 1%
17:00Sat 	 9c 	 1%
18:00Sat 	 7c 	 1%
19:00Sat 	 6c 	 0%
20:00Sat 	 5c 	 1%
21:00Sat 	 4c 	 1%
22:00Sat 	 4c 	 1%
23:00Sat 	 4c 	 1%
00:00Sun 	 3c 	 2%
01:00Sun 	 3c 	 2%
02:00Sun 	 3c 	 3%
03:00Sun 	 3c 	 3%
04:00Sun 	 3c 	 2%
05:00Sun 	 2c 	 1%
06:00Sun 	 2c 	 1%
07:00Sun 	 3c 	 1%
08:00Sun 	 4c 	 2%
09:00Sun 	 5c 	 2%
10:00Sun 	 7c 	 2%
11:00Sun 	 8c 	 1%
12:00Sun 	 9c 	 1%
13:00Sun 	 10c 	 2%
14:00Sun 	 11c 	 1%
15:00Sun 	 11c 	 1%
16:00Sun 	 11c 	 1%
17:00Sun 	 10c 	 1%
18:00Sun 	 9c 	 1%
19:00Sun 	 7c 	 0%
20:00Sun 	 6c 	 0%
21:00Sun 	 5c 	 0%
22:00Sun 	 4c 	 1%
23:00Sun 	 4c 	 1%
00:00Mon 	 3c 	 1%
01:00Mon 	 3c 	 1%
02:00Mon 	 3c 	 2%
03:00Mon 	 2c 	 3%
04:00Mon 	 2c 	 2%
05:00Mon 	 2c 	 1%

# /home/pi/Documents/bbc-weather-predictions/data/Mar21Sat/bbcweather_Saturday21stMarch_2020-03-21_1200.txt
# time 	 temp 	 rain
12:00Sat 	 9c 	 0%
13:00Sat 	 10c 	 1%
14:00Sat 	 10c 	 3%
15:00Sat 	 10c 	 2%
16:00Sat 	 10c 	 1%
17:00Sat 	 9c 	 1%
18:00Sat 	 7c 	 1%
19:00Sat 	 6c 	 0%
20:00Sat 	 5c 	 1%
21:00Sat 	 4c 	 1%
22:00Sat 	 4c 	 1%
23:00Sat 	 4c 	 1%
00:00Sun 	 3c 	 2%
01:00Sun 	 3c 	 2%
02:00Sun 	 3c 	 3%
03:00Sun 	 3c 	 3%
04:00Sun 	 3c 	 2%
05:00Sun 	 2c 	 1%
06:00Sun 	 2c 	 1%
07:00Sun 	 3c 	 1%
08:00Sun 	 4c 	 2%
09:00Sun 	 5c 	 2%
10:00Sun 	 7c 	 2%
11:00Sun 	 8c 	 1%
12:00Sun 	 9c 	 1%
13:00Sun 	 10c 	 2%
14:00Sun 	 11c 	 1%
15:00Sun 	 11c 	 1%
16:00Sun 	 11c 	 1%
17:00Sun 	 10c 	 1%
18:00Sun 	 9c 	 1%
19:00Sun 	 7c 	 0%
20:00Sun 	 6c 	 0%
21:00Sun 	 5c 	 0%
22:00Sun 	 4c 	 1%
23:00Sun 	 4c 	 1%
00:00Mon 	 3c 	 1%
01:00Mon 	 3c 	 1%
02:00Mon 	 3c 	 2%
03:00Mon 	 2c 	 3%
04:00Mon 	 2c 	 2%
05:00Mon 	 2c 	 1%

# /home/pi/Documents/bbc-weather-predictions/data/Mar21Sat/bbcweather_Saturday21stMarch_2020-03-21_1215.txt
# time 	 temp 	 rain
13:00Sat 	 10c 	 1%
14:00Sat 	 10c 	 3%
15:00Sat 	 10c 	 2%
16:00Sat 	 10c 	 1%
17:00Sat 	 9c 	 1%
18:00Sat 	 7c 	 1%
19:00Sat 	 6c 	 0%
20:00Sat 	 5c 	 1%
21:00Sat 	 4c 	 1%
22:00Sat 	 4c 	 1%
23:00Sat 	 4c 	 1%
00:00Sun 	 3c 	 2%
01:00Sun 	 3c 	 2%
02:00Sun 	 3c 	 3%
03:00Sun 	 3c 	 3%
04:00Sun 	 3c 	 2%
05:00Sun 	 2c 	 1%
06:00Sun 	 2c 	 1%
07:00Sun 	 3c 	 1%
08:00Sun 	 4c 	 2%
09:00Sun 	 5c 	 2%
10:00Sun 	 7c 	 2%
11:00Sun 	 8c 	 1%
12:00Sun 	 9c 	 1%
13:00Sun 	 10c 	 2%
14:00Sun 	 11c 	 1%
15:00Sun 	 11c 	 1%
16:00Sun 	 11c 	 1%
17:00Sun 	 10c 	 1%
18:00Sun 	 9c 	 1%
19:00Sun 	 7c 	 0%
20:00Sun 	 6c 	 0%
21:00Sun 	 5c 	 0%
22:00Sun 	 4c 	 1%
23:00Sun 	 4c 	 1%
00:00Mon 	 3c 	 1%
01:00Mon 	 3c 	 1%
02:00Mon 	 3c 	 2%
03:00Mon 	 2c 	 3%
04:00Mon 	 2c 	 2%
05:00Mon 	 2c 	 1%

# /home/pi/Documents/bbc-weather-predictions/data/Mar21Sat/bbcweather_Saturday21stMarch_2020-03-21_1230.txt
# time 	 temp 	 rain
13:00Sat 	 10c 	 0%
14:00Sat 	 10c 	 1%
15:00Sat 	 10c 	 2%
16:00Sat 	 10c 	 1%
17:00Sat 	 9c 	 1%
18:00Sat 	 7c 	 1%
19:00Sat 	 6c 	 0%
20:00Sat 	 5c 	 1%
21:00Sat 	 4c 	 1%
22:00Sat 	 4c 	 1%
23:00Sat 	 4c 	 1%
00:00Sun 	 3c 	 2%
01:00Sun 	 3c 	 2%
02:00Sun 	 3c 	 3%
03:00Sun 	 3c 	 3%
04:00Sun 	 3c 	 2%
05:00Sun 	 2c 	 1%
06:00Sun 	 2c 	 1%
07:00Sun 	 3c 	 1%
08:00Sun 	 4c 	 2%
09:00Sun 	 5c 	 2%
10:00Sun 	 7c 	 2%
11:00Sun 	 8c 	 1%
12:00Sun 	 9c 	 1%
13:00Sun 	 10c 	 2%
14:00Sun 	 11c 	 1%
15:00Sun 	 11c 	 1%
16:00Sun 	 11c 	 1%
17:00Sun 	 10c 	 1%
18:00Sun 	 9c 	 1%
19:00Sun 	 7c 	 0%
20:00Sun 	 6c 	 0%
21:00Sun 	 5c 	 0%
22:00Sun 	 4c 	 1%
23:00Sun 	 4c 	 1%
00:00Mon 	 3c 	 1%
01:00Mon 	 3c 	 1%
02:00Mon 	 3c 	 2%
03:00Mon 	 2c 	 3%
04:00Mon 	 2c 	 2%
05:00Mon 	 2c 	 1%

# /home/pi/Documents/bbc-weather-predictions/data/Mar21Sat/bbcweather_Saturday21stMarch_2020-03-21_1245.txt
# time 	 temp 	 rain
13:00Sat 	 10c 	 0%
14:00Sat 	 10c 	 1%
15:00Sat 	 10c 	 2%
16:00Sat 	 10c 	 1%
17:00Sat 	 9c 	 1%
18:00Sat 	 7c 	 1%
19:00Sat 	 6c 	 0%
20:00Sat 	 5c 	 1%
21:00Sat 	 4c 	 1%
22:00Sat 	 4c 	 1%
23:00Sat 	 4c 	 1%
00:00Sun 	 3c 	 2%
01:00Sun 	 3c 	 2%
02:00Sun 	 3c 	 3%
03:00Sun 	 3c 	 3%
04:00Sun 	 3c 	 2%
05:00Sun 	 2c 	 1%
06:00Sun 	 2c 	 1%
07:00Sun 	 3c 	 1%
08:00Sun 	 4c 	 2%
09:00Sun 	 5c 	 2%
10:00Sun 	 7c 	 2%
11:00Sun 	 8c 	 1%
12:00Sun 	 9c 	 1%
13:00Sun 	 10c 	 2%
14:00Sun 	 11c 	 1%
15:00Sun 	 11c 	 1%
16:00Sun 	 11c 	 1%
17:00Sun 	 10c 	 1%
18:00Sun 	 9c 	 1%
19:00Sun 	 7c 	 0%
20:00Sun 	 6c 	 0%
21:00Sun 	 5c 	 0%
22:00Sun 	 4c 	 1%
23:00Sun 	 4c 	 1%
00:00Mon 	 3c 	 1%
01:00Mon 	 3c 	 1%
02:00Mon 	 3c 	 2%
03:00Mon 	 2c 	 3%
04:00Mon 	 2c 	 2%
05:00Mon 	 2c 	 1%

# /home/pi/Documents/bbc-weather-predictions/data/Mar21Sat/bbcweather_Saturday21stMarch_2020-03-21_1300.txt
# time 	 temp 	 rain
13:00Sat 	 10c 	 0%
14:00Sat 	 10c 	 1%
15:00Sat 	 10c 	 2%
16:00Sat 	 10c 	 1%
17:00Sat 	 9c 	 1%
18:00Sat 	 7c 	 1%
19:00Sat 	 6c 	 0%
20:00Sat 	 5c 	 1%
21:00Sat 	 4c 	 1%
22:00Sat 	 4c 	 1%
23:00Sat 	 4c 	 1%
00:00Sun 	 3c 	 2%
01:00Sun 	 3c 	 2%
02:00Sun 	 3c 	 3%
03:00Sun 	 3c 	 3%
04:00Sun 	 3c 	 2%
05:00Sun 	 2c 	 1%
06:00Sun 	 2c 	 1%
07:00Sun 	 3c 	 1%
08:00Sun 	 4c 	 2%
09:00Sun 	 5c 	 2%
10:00Sun 	 7c 	 2%
11:00Sun 	 8c 	 1%
12:00Sun 	 9c 	 1%
13:00Sun 	 10c 	 2%
14:00Sun 	 11c 	 1%
15:00Sun 	 11c 	 1%
16:00Sun 	 11c 	 1%
17:00Sun 	 10c 	 1%
18:00Sun 	 9c 	 1%
19:00Sun 	 7c 	 0%
20:00Sun 	 6c 	 0%
21:00Sun 	 5c 	 0%
22:00Sun 	 4c 	 1%
23:00Sun 	 4c 	 1%
00:00Mon 	 3c 	 1%
01:00Mon 	 3c 	 1%
02:00Mon 	 3c 	 2%
03:00Mon 	 2c 	 3%
04:00Mon 	 2c 	 2%
05:00Mon 	 2c 	 1%

# /home/pi/Documents/bbc-weather-predictions/data/Mar21Sat/bbcweather_Saturday21stMarch_2020-03-21_1315.txt
# time 	 temp 	 rain
14:00Sat 	 10c 	 1%
15:00Sat 	 10c 	 2%
16:00Sat 	 10c 	 1%
17:00Sat 	 9c 	 1%
18:00Sat 	 7c 	 1%
19:00Sat 	 6c 	 0%
20:00Sat 	 5c 	 1%
21:00Sat 	 4c 	 1%
22:00Sat 	 4c 	 1%
23:00Sat 	 4c 	 1%
00:00Sun 	 3c 	 2%
01:00Sun 	 3c 	 2%
02:00Sun 	 3c 	 3%
03:00Sun 	 3c 	 3%
04:00Sun 	 3c 	 2%
05:00Sun 	 2c 	 1%
06:00Sun 	 2c 	 1%
07:00Sun 	 3c 	 1%
08:00Sun 	 4c 	 2%
09:00Sun 	 5c 	 2%
10:00Sun 	 7c 	 2%
11:00Sun 	 8c 	 1%
12:00Sun 	 9c 	 1%
13:00Sun 	 10c 	 2%
14:00Sun 	 11c 	 1%
15:00Sun 	 11c 	 1%
16:00Sun 	 11c 	 1%
17:00Sun 	 10c 	 1%
18:00Sun 	 9c 	 1%
19:00Sun 	 7c 	 0%
20:00Sun 	 6c 	 0%
21:00Sun 	 5c 	 0%
22:00Sun 	 4c 	 1%
23:00Sun 	 4c 	 1%
00:00Mon 	 3c 	 1%
01:00Mon 	 3c 	 1%
02:00Mon 	 3c 	 2%
03:00Mon 	 2c 	 3%
04:00Mon 	 2c 	 2%
05:00Mon 	 2c 	 1%

# /home/pi/Documents/bbc-weather-predictions/data/Mar21Sat/bbcweather_Saturday21stMarch_2020-03-21_1330.txt
# time 	 temp 	 rain
14:00Sat 	 11c 	 1%
15:00Sat 	 10c 	 1%
16:00Sat 	 10c 	 1%
17:00Sat 	 9c 	 1%
18:00Sat 	 7c 	 1%
19:00Sat 	 6c 	 0%
20:00Sat 	 5c 	 1%
21:00Sat 	 4c 	 1%
22:00Sat 	 4c 	 1%
23:00Sat 	 4c 	 1%
00:00Sun 	 3c 	 2%
01:00Sun 	 3c 	 2%
02:00Sun 	 3c 	 3%
03:00Sun 	 3c 	 3%
04:00Sun 	 3c 	 2%
05:00Sun 	 2c 	 1%
06:00Sun 	 2c 	 1%
07:00Sun 	 3c 	 1%
08:00Sun 	 4c 	 2%
09:00Sun 	 5c 	 2%
10:00Sun 	 7c 	 2%
11:00Sun 	 8c 	 1%
12:00Sun 	 9c 	 1%
13:00Sun 	 10c 	 2%
14:00Sun 	 11c 	 1%
15:00Sun 	 11c 	 1%
16:00Sun 	 11c 	 1%
17:00Sun 	 10c 	 1%
18:00Sun 	 9c 	 1%
19:00Sun 	 7c 	 0%
20:00Sun 	 6c 	 0%
21:00Sun 	 5c 	 0%
22:00Sun 	 4c 	 1%
23:00Sun 	 4c 	 1%
00:00Mon 	 3c 	 1%
01:00Mon 	 3c 	 1%
02:00Mon 	 3c 	 2%
03:00Mon 	 2c 	 3%
04:00Mon 	 2c 	 2%
05:00Mon 	 2c 	 1%

# /home/pi/Documents/bbc-weather-predictions/data/Mar21Sat/bbcweather_Saturday21stMarch_2020-03-21_1345.txt
# time 	 temp 	 rain
14:00Sat 	 11c 	 1%
15:00Sat 	 10c 	 1%
16:00Sat 	 10c 	 1%
17:00Sat 	 9c 	 1%
18:00Sat 	 7c 	 1%
19:00Sat 	 6c 	 0%
20:00Sat 	 5c 	 1%
21:00Sat 	 4c 	 1%
22:00Sat 	 4c 	 1%
23:00Sat 	 4c 	 1%
00:00Sun 	 3c 	 2%
01:00Sun 	 3c 	 2%
02:00Sun 	 3c 	 3%
03:00Sun 	 3c 	 3%
04:00Sun 	 3c 	 2%
05:00Sun 	 2c 	 1%
06:00Sun 	 2c 	 1%
07:00Sun 	 3c 	 1%
08:00Sun 	 4c 	 2%
09:00Sun 	 5c 	 2%
10:00Sun 	 7c 	 2%
11:00Sun 	 8c 	 1%
12:00Sun 	 9c 	 1%
13:00Sun 	 10c 	 2%
14:00Sun 	 11c 	 1%
15:00Sun 	 11c 	 1%
16:00Sun 	 11c 	 1%
17:00Sun 	 10c 	 1%
18:00Sun 	 9c 	 1%
19:00Sun 	 7c 	 0%
20:00Sun 	 6c 	 0%
21:00Sun 	 5c 	 0%
22:00Sun 	 4c 	 1%
23:00Sun 	 4c 	 1%
00:00Mon 	 3c 	 1%
01:00Mon 	 3c 	 1%
02:00Mon 	 3c 	 2%
03:00Mon 	 2c 	 3%
04:00Mon 	 2c 	 2%
05:00Mon 	 2c 	 1%

# /home/pi/Documents/bbc-weather-predictions/data/Mar21Sat/bbcweather_Saturday21stMarch_2020-03-21_1400.txt
# time 	 temp 	 rain
14:00Sat 	 11c 	 1%
15:00Sat 	 10c 	 1%
16:00Sat 	 10c 	 1%
17:00Sat 	 9c 	 1%
18:00Sat 	 7c 	 1%
19:00Sat 	 6c 	 0%
20:00Sat 	 5c 	 1%
21:00Sat 	 4c 	 1%
22:00Sat 	 4c 	 1%
23:00Sat 	 4c 	 1%
00:00Sun 	 3c 	 2%
01:00Sun 	 3c 	 2%
02:00Sun 	 3c 	 3%
03:00Sun 	 3c 	 3%
04:00Sun 	 3c 	 2%
05:00Sun 	 2c 	 1%
06:00Sun 	 2c 	 1%
07:00Sun 	 3c 	 1%
08:00Sun 	 4c 	 2%
09:00Sun 	 5c 	 2%
10:00Sun 	 7c 	 2%
11:00Sun 	 8c 	 1%
12:00Sun 	 9c 	 1%
13:00Sun 	 10c 	 2%
14:00Sun 	 11c 	 1%
15:00Sun 	 11c 	 1%
16:00Sun 	 11c 	 1%
17:00Sun 	 10c 	 1%
18:00Sun 	 9c 	 1%
19:00Sun 	 7c 	 0%
20:00Sun 	 6c 	 0%
21:00Sun 	 5c 	 0%
22:00Sun 	 4c 	 1%
23:00Sun 	 4c 	 1%
00:00Mon 	 3c 	 1%
01:00Mon 	 3c 	 1%
02:00Mon 	 3c 	 2%
03:00Mon 	 2c 	 3%
04:00Mon 	 2c 	 2%
05:00Mon 	 2c 	 1%

# /home/pi/Documents/bbc-weather-predictions/data/Mar21Sat/bbcweather_Saturday21stMarch_2020-03-21_1415.txt
# time 	 temp 	 rain
15:00Sat 	 10c 	 0%
16:00Sat 	 10c 	 1%
17:00Sat 	 9c 	 1%
18:00Sat 	 7c 	 1%
19:00Sat 	 6c 	 1%
20:00Sat 	 5c 	 1%
21:00Sat 	 4c 	 1%
22:00Sat 	 4c 	 1%
23:00Sat 	 4c 	 1%
00:00Sun 	 3c 	 2%
01:00Sun 	 3c 	 2%
02:00Sun 	 3c 	 3%
03:00Sun 	 3c 	 3%
04:00Sun 	 3c 	 2%
05:00Sun 	 2c 	 1%
06:00Sun 	 2c 	 1%
07:00Sun 	 3c 	 1%
08:00Sun 	 4c 	 2%
09:00Sun 	 5c 	 2%
10:00Sun 	 7c 	 2%
11:00Sun 	 8c 	 1%
12:00Sun 	 9c 	 1%
13:00Sun 	 10c 	 2%
14:00Sun 	 11c 	 1%
15:00Sun 	 11c 	 1%
16:00Sun 	 11c 	 1%
17:00Sun 	 10c 	 1%
18:00Sun 	 9c 	 1%
19:00Sun 	 7c 	 0%
20:00Sun 	 6c 	 0%
21:00Sun 	 5c 	 0%
22:00Sun 	 4c 	 1%
23:00Sun 	 4c 	 1%
00:00Mon 	 3c 	 1%
01:00Mon 	 3c 	 1%
02:00Mon 	 3c 	 2%
03:00Mon 	 2c 	 3%
04:00Mon 	 2c 	 2%
05:00Mon 	 2c 	 1%

# /home/pi/Documents/bbc-weather-predictions/data/Mar21Sat/bbcweather_Saturday21stMarch_2020-03-21_1430.txt
# time 	 temp 	 rain
15:00Sat 	 10c 	 0%
16:00Sat 	 10c 	 1%
17:00Sat 	 9c 	 1%
18:00Sat 	 7c 	 1%
19:00Sat 	 6c 	 1%
20:00Sat 	 5c 	 1%
21:00Sat 	 4c 	 1%
22:00Sat 	 4c 	 1%
23:00Sat 	 4c 	 1%
00:00Sun 	 3c 	 2%
01:00Sun 	 3c 	 2%
02:00Sun 	 3c 	 3%
03:00Sun 	 3c 	 3%
04:00Sun 	 3c 	 2%
05:00Sun 	 2c 	 1%
06:00Sun 	 2c 	 1%
07:00Sun 	 3c 	 1%
08:00Sun 	 4c 	 2%
09:00Sun 	 5c 	 2%
10:00Sun 	 7c 	 2%
11:00Sun 	 8c 	 1%
12:00Sun 	 9c 	 1%
13:00Sun 	 10c 	 2%
14:00Sun 	 11c 	 1%
15:00Sun 	 11c 	 1%
16:00Sun 	 11c 	 1%
17:00Sun 	 10c 	 1%
18:00Sun 	 9c 	 1%
19:00Sun 	 7c 	 0%
20:00Sun 	 6c 	 0%
21:00Sun 	 5c 	 0%
22:00Sun 	 4c 	 1%
23:00Sun 	 4c 	 1%
00:00Mon 	 3c 	 1%
01:00Mon 	 3c 	 1%
02:00Mon 	 3c 	 2%
03:00Mon 	 2c 	 3%
04:00Mon 	 2c 	 2%
05:00Mon 	 2c 	 1%

# /home/pi/Documents/bbc-weather-predictions/data/Mar21Sat/bbcweather_Saturday21stMarch_2020-03-21_1445.txt
# time 	 temp 	 rain
15:00Sat 	 10c 	 0%
16:00Sat 	 10c 	 1%
17:00Sat 	 9c 	 1%
18:00Sat 	 7c 	 1%
19:00Sat 	 6c 	 1%
20:00Sat 	 5c 	 1%
21:00Sat 	 4c 	 1%
22:00Sat 	 4c 	 1%
23:00Sat 	 4c 	 1%
00:00Sun 	 3c 	 2%
01:00Sun 	 3c 	 2%
02:00Sun 	 3c 	 3%
03:00Sun 	 3c 	 3%
04:00Sun 	 3c 	 2%
05:00Sun 	 2c 	 1%
06:00Sun 	 2c 	 1%
07:00Sun 	 3c 	 1%
08:00Sun 	 4c 	 2%
09:00Sun 	 5c 	 2%
10:00Sun 	 7c 	 2%
11:00Sun 	 8c 	 1%
12:00Sun 	 9c 	 1%
13:00Sun 	 10c 	 2%
14:00Sun 	 11c 	 1%
15:00Sun 	 11c 	 1%
16:00Sun 	 11c 	 1%
17:00Sun 	 10c 	 1%
18:00Sun 	 9c 	 1%
19:00Sun 	 7c 	 0%
20:00Sun 	 6c 	 0%
21:00Sun 	 5c 	 0%
22:00Sun 	 4c 	 1%
23:00Sun 	 4c 	 1%
00:00Mon 	 3c 	 1%
01:00Mon 	 3c 	 1%
02:00Mon 	 3c 	 2%
03:00Mon 	 2c 	 3%
04:00Mon 	 2c 	 2%
05:00Mon 	 2c 	 1%

# /home/pi/Documents/bbc-weather-predictions/data/Mar21Sat/bbcweather_Saturday21stMarch_2020-03-21_1500.txt
# time 	 temp 	 rain
15:00Sat 	 10c 	 0%
16:00Sat 	 10c 	 1%
17:00Sat 	 9c 	 1%
18:00Sat 	 7c 	 1%
19:00Sat 	 6c 	 1%
20:00Sat 	 5c 	 1%
21:00Sat 	 4c 	 1%
22:00Sat 	 4c 	 1%
23:00Sat 	 4c 	 1%
00:00Sun 	 3c 	 2%
01:00Sun 	 3c 	 2%
02:00Sun 	 3c 	 3%
03:00Sun 	 3c 	 3%
04:00Sun 	 3c 	 2%
05:00Sun 	 2c 	 1%
06:00Sun 	 2c 	 1%
07:00Sun 	 3c 	 1%
08:00Sun 	 4c 	 2%
09:00Sun 	 5c 	 2%
10:00Sun 	 7c 	 2%
11:00Sun 	 8c 	 1%
12:00Sun 	 9c 	 1%
13:00Sun 	 10c 	 2%
14:00Sun 	 11c 	 1%
15:00Sun 	 11c 	 1%
16:00Sun 	 11c 	 1%
17:00Sun 	 10c 	 1%
18:00Sun 	 9c 	 1%
19:00Sun 	 7c 	 0%
20:00Sun 	 6c 	 0%
21:00Sun 	 5c 	 0%
22:00Sun 	 4c 	 1%
23:00Sun 	 4c 	 1%
00:00Mon 	 3c 	 1%
01:00Mon 	 3c 	 1%
02:00Mon 	 3c 	 2%
03:00Mon 	 2c 	 3%
04:00Mon 	 2c 	 2%
05:00Mon 	 2c 	 1%

# /home/pi/Documents/bbc-weather-predictions/data/Mar21Sat/bbcweather_Saturday21stMarch_2020-03-21_1515.txt
# time 	 temp 	 rain
16:00Sat 	 10c 	 1%
17:00Sat 	 9c 	 1%
18:00Sat 	 7c 	 1%
19:00Sat 	 6c 	 1%
20:00Sat 	 5c 	 1%
21:00Sat 	 4c 	 1%
22:00Sat 	 4c 	 1%
23:00Sat 	 4c 	 1%
00:00Sun 	 3c 	 2%
01:00Sun 	 3c 	 2%
02:00Sun 	 3c 	 3%
03:00Sun 	 3c 	 3%
04:00Sun 	 3c 	 2%
05:00Sun 	 2c 	 1%
06:00Sun 	 2c 	 1%
07:00Sun 	 3c 	 1%
08:00Sun 	 4c 	 2%
09:00Sun 	 5c 	 2%
10:00Sun 	 7c 	 2%
11:00Sun 	 8c 	 1%
12:00Sun 	 9c 	 1%
13:00Sun 	 10c 	 2%
14:00Sun 	 11c 	 1%
15:00Sun 	 11c 	 1%
16:00Sun 	 11c 	 1%
17:00Sun 	 10c 	 1%
18:00Sun 	 9c 	 1%
19:00Sun 	 7c 	 0%
20:00Sun 	 6c 	 0%
21:00Sun 	 5c 	 0%
22:00Sun 	 4c 	 1%
23:00Sun 	 4c 	 1%
00:00Mon 	 3c 	 1%
01:00Mon 	 3c 	 1%
02:00Mon 	 3c 	 2%
03:00Mon 	 2c 	 3%
04:00Mon 	 2c 	 2%
05:00Mon 	 2c 	 1%

# /home/pi/Documents/bbc-weather-predictions/data/Mar21Sat/bbcweather_Saturday21stMarch_2020-03-21_1530.txt
# time 	 temp 	 rain
16:00Sat 	 10c 	 0%
17:00Sat 	 9c 	 1%
18:00Sat 	 8c 	 1%
19:00Sat 	 6c 	 1%
20:00Sat 	 5c 	 1%
21:00Sat 	 4c 	 1%
22:00Sat 	 4c 	 1%
23:00Sat 	 4c 	 1%
00:00Sun 	 3c 	 2%
01:00Sun 	 3c 	 2%
02:00Sun 	 3c 	 3%
03:00Sun 	 3c 	 3%
04:00Sun 	 3c 	 2%
05:00Sun 	 2c 	 1%
06:00Sun 	 2c 	 1%
07:00Sun 	 3c 	 1%
08:00Sun 	 4c 	 2%
09:00Sun 	 5c 	 2%
10:00Sun 	 7c 	 2%
11:00Sun 	 8c 	 1%
12:00Sun 	 9c 	 1%
13:00Sun 	 10c 	 2%
14:00Sun 	 11c 	 1%
15:00Sun 	 11c 	 1%
16:00Sun 	 11c 	 1%
17:00Sun 	 10c 	 1%
18:00Sun 	 9c 	 1%
19:00Sun 	 7c 	 0%
20:00Sun 	 6c 	 0%
21:00Sun 	 5c 	 0%
22:00Sun 	 4c 	 1%
23:00Sun 	 4c 	 1%
00:00Mon 	 3c 	 1%
01:00Mon 	 3c 	 1%
02:00Mon 	 3c 	 2%
03:00Mon 	 2c 	 3%
04:00Mon 	 2c 	 2%
05:00Mon 	 2c 	 1%

# /home/pi/Documents/bbc-weather-predictions/data/Mar21Sat/bbcweather_Saturday21stMarch_2020-03-21_1545.txt
# time 	 temp 	 rain
16:00Sat 	 10c 	 0%
17:00Sat 	 9c 	 1%
18:00Sat 	 8c 	 1%
19:00Sat 	 6c 	 1%
20:00Sat 	 5c 	 1%
21:00Sat 	 4c 	 1%
22:00Sat 	 4c 	 1%
23:00Sat 	 4c 	 1%
00:00Sun 	 3c 	 2%
01:00Sun 	 3c 	 2%
02:00Sun 	 3c 	 3%
03:00Sun 	 3c 	 3%
04:00Sun 	 3c 	 2%
05:00Sun 	 2c 	 1%
06:00Sun 	 2c 	 1%
07:00Sun 	 3c 	 1%
08:00Sun 	 4c 	 2%
09:00Sun 	 5c 	 2%
10:00Sun 	 7c 	 2%
11:00Sun 	 8c 	 1%
12:00Sun 	 9c 	 1%
13:00Sun 	 10c 	 2%
14:00Sun 	 11c 	 1%
15:00Sun 	 11c 	 1%
16:00Sun 	 11c 	 1%
17:00Sun 	 10c 	 1%
18:00Sun 	 9c 	 1%
19:00Sun 	 7c 	 0%
20:00Sun 	 6c 	 0%
21:00Sun 	 5c 	 0%
22:00Sun 	 4c 	 1%
23:00Sun 	 4c 	 1%
00:00Mon 	 3c 	 1%
01:00Mon 	 3c 	 1%
02:00Mon 	 3c 	 2%
03:00Mon 	 2c 	 3%
04:00Mon 	 2c 	 2%
05:00Mon 	 2c 	 1%

# /home/pi/Documents/bbc-weather-predictions/data/Mar21Sat/bbcweather_Saturday21stMarch_2020-03-21_1600.txt
# time 	 temp 	 rain
16:00Sat 	 10c 	 0%
17:00Sat 	 9c 	 1%
18:00Sat 	 8c 	 1%
19:00Sat 	 6c 	 1%
20:00Sat 	 5c 	 1%
21:00Sat 	 4c 	 1%
22:00Sat 	 4c 	 1%
23:00Sat 	 4c 	 1%
00:00Sun 	 3c 	 2%
01:00Sun 	 3c 	 2%
02:00Sun 	 3c 	 3%
03:00Sun 	 3c 	 3%
04:00Sun 	 3c 	 2%
05:00Sun 	 2c 	 1%
06:00Sun 	 2c 	 1%
07:00Sun 	 3c 	 1%
08:00Sun 	 4c 	 2%
09:00Sun 	 5c 	 2%
10:00Sun 	 7c 	 2%
11:00Sun 	 8c 	 1%
12:00Sun 	 9c 	 1%
13:00Sun 	 10c 	 2%
14:00Sun 	 11c 	 1%
15:00Sun 	 11c 	 1%
16:00Sun 	 11c 	 1%
17:00Sun 	 10c 	 1%
18:00Sun 	 9c 	 1%
19:00Sun 	 7c 	 0%
20:00Sun 	 6c 	 0%
21:00Sun 	 5c 	 0%
22:00Sun 	 4c 	 1%
23:00Sun 	 4c 	 1%
00:00Mon 	 3c 	 1%
01:00Mon 	 3c 	 1%
02:00Mon 	 3c 	 2%
03:00Mon 	 2c 	 3%
04:00Mon 	 2c 	 2%
05:00Mon 	 2c 	 1%

# /home/pi/Documents/bbc-weather-predictions/data/Mar21Sat/bbcweather_Saturday21stMarch_2020-03-21_1615.txt
# time 	 temp 	 rain
17:00Sat 	 9c 	 0%
18:00Sat 	 8c 	 0%
19:00Sat 	 6c 	 1%
20:00Sat 	 5c 	 1%
21:00Sat 	 4c 	 1%
22:00Sat 	 4c 	 1%
23:00Sat 	 4c 	 1%
00:00Sun 	 3c 	 2%
01:00Sun 	 3c 	 2%
02:00Sun 	 3c 	 3%
03:00Sun 	 3c 	 3%
04:00Sun 	 3c 	 2%
05:00Sun 	 2c 	 1%
06:00Sun 	 2c 	 1%
07:00Sun 	 3c 	 1%
08:00Sun 	 4c 	 2%
09:00Sun 	 5c 	 2%
10:00Sun 	 7c 	 2%
11:00Sun 	 8c 	 1%
12:00Sun 	 9c 	 1%
13:00Sun 	 10c 	 2%
14:00Sun 	 11c 	 1%
15:00Sun 	 11c 	 1%
16:00Sun 	 11c 	 1%
17:00Sun 	 10c 	 1%
18:00Sun 	 9c 	 1%
19:00Sun 	 7c 	 0%
20:00Sun 	 6c 	 0%
21:00Sun 	 5c 	 0%
22:00Sun 	 4c 	 1%
23:00Sun 	 4c 	 1%
00:00Mon 	 3c 	 1%
01:00Mon 	 3c 	 1%
02:00Mon 	 3c 	 2%
03:00Mon 	 2c 	 3%
04:00Mon 	 2c 	 2%
05:00Mon 	 2c 	 1%

# /home/pi/Documents/bbc-weather-predictions/data/Mar21Sat/bbcweather_Saturday21stMarch_2020-03-21_1630.txt
# time 	 temp 	 rain
17:00Sat 	 9c 	 0%
18:00Sat 	 8c 	 0%
19:00Sat 	 6c 	 1%
20:00Sat 	 5c 	 1%
21:00Sat 	 4c 	 1%
22:00Sat 	 4c 	 1%
23:00Sat 	 4c 	 1%
00:00Sun 	 3c 	 2%
01:00Sun 	 3c 	 2%
02:00Sun 	 3c 	 3%
03:00Sun 	 3c 	 3%
04:00Sun 	 3c 	 2%
05:00Sun 	 2c 	 1%
06:00Sun 	 2c 	 1%
07:00Sun 	 3c 	 1%
08:00Sun 	 4c 	 2%
09:00Sun 	 5c 	 2%
10:00Sun 	 7c 	 2%
11:00Sun 	 8c 	 1%
12:00Sun 	 9c 	 1%
13:00Sun 	 10c 	 2%
14:00Sun 	 11c 	 1%
15:00Sun 	 11c 	 1%
16:00Sun 	 11c 	 1%
17:00Sun 	 10c 	 1%
18:00Sun 	 9c 	 1%
19:00Sun 	 7c 	 0%
20:00Sun 	 6c 	 0%
21:00Sun 	 5c 	 0%
22:00Sun 	 4c 	 1%
23:00Sun 	 4c 	 1%
00:00Mon 	 3c 	 1%
01:00Mon 	 3c 	 1%
02:00Mon 	 3c 	 2%
03:00Mon 	 2c 	 3%
04:00Mon 	 2c 	 2%
05:00Mon 	 2c 	 1%

# /home/pi/Documents/bbc-weather-predictions/data/Mar21Sat/bbcweather_Saturday21stMarch_2020-03-21_1645.txt
# time 	 temp 	 rain
17:00Sat 	 9c 	 0%
18:00Sat 	 8c 	 0%
19:00Sat 	 6c 	 1%
20:00Sat 	 5c 	 1%
21:00Sat 	 4c 	 1%
22:00Sat 	 4c 	 1%
23:00Sat 	 4c 	 1%
00:00Sun 	 3c 	 2%
01:00Sun 	 3c 	 2%
02:00Sun 	 3c 	 3%
03:00Sun 	 3c 	 3%
04:00Sun 	 3c 	 2%
05:00Sun 	 2c 	 1%
06:00Sun 	 2c 	 1%
07:00Sun 	 3c 	 1%
08:00Sun 	 4c 	 2%
09:00Sun 	 5c 	 2%
10:00Sun 	 7c 	 2%
11:00Sun 	 8c 	 1%
12:00Sun 	 9c 	 1%
13:00Sun 	 10c 	 2%
14:00Sun 	 11c 	 1%
15:00Sun 	 11c 	 1%
16:00Sun 	 11c 	 1%
17:00Sun 	 10c 	 1%
18:00Sun 	 9c 	 1%
19:00Sun 	 7c 	 0%
20:00Sun 	 6c 	 0%
21:00Sun 	 5c 	 0%
22:00Sun 	 4c 	 1%
23:00Sun 	 4c 	 1%
00:00Mon 	 3c 	 1%
01:00Mon 	 3c 	 1%
02:00Mon 	 3c 	 2%
03:00Mon 	 2c 	 3%
04:00Mon 	 2c 	 2%
05:00Mon 	 2c 	 1%

# /home/pi/Documents/bbc-weather-predictions/data/Mar21Sat/bbcweather_Saturday21stMarch_2020-03-21_1700.txt
# time 	 temp 	 rain
17:00Sat 	 9c 	 0%
18:00Sat 	 8c 	 0%
19:00Sat 	 6c 	 1%
20:00Sat 	 5c 	 1%
21:00Sat 	 4c 	 1%
22:00Sat 	 4c 	 1%
23:00Sat 	 4c 	 1%
00:00Sun 	 3c 	 2%
01:00Sun 	 3c 	 2%
02:00Sun 	 3c 	 3%
03:00Sun 	 3c 	 3%
04:00Sun 	 3c 	 2%
05:00Sun 	 2c 	 1%
06:00Sun 	 2c 	 1%
07:00Sun 	 3c 	 1%
08:00Sun 	 4c 	 2%
09:00Sun 	 5c 	 2%
10:00Sun 	 7c 	 2%
11:00Sun 	 8c 	 1%
12:00Sun 	 9c 	 1%
13:00Sun 	 10c 	 2%
14:00Sun 	 11c 	 1%
15:00Sun 	 11c 	 1%
16:00Sun 	 11c 	 1%
17:00Sun 	 10c 	 1%
18:00Sun 	 9c 	 1%
19:00Sun 	 7c 	 0%
20:00Sun 	 6c 	 0%
21:00Sun 	 5c 	 0%
22:00Sun 	 4c 	 1%
23:00Sun 	 4c 	 1%
00:00Mon 	 3c 	 1%
01:00Mon 	 3c 	 1%
02:00Mon 	 3c 	 2%
03:00Mon 	 2c 	 3%
04:00Mon 	 2c 	 2%
05:00Mon 	 2c 	 1%

# /home/pi/Documents/bbc-weather-predictions/data/Mar21Sat/bbcweather_Saturday21stMarch_2020-03-21_1715.txt
# time 	 temp 	 rain
18:00Sat 	 8c 	 0%
19:00Sat 	 6c 	 1%
20:00Sat 	 5c 	 1%
21:00Sat 	 4c 	 1%
22:00Sat 	 4c 	 1%
23:00Sat 	 4c 	 1%
00:00Sun 	 3c 	 2%
01:00Sun 	 3c 	 2%
02:00Sun 	 3c 	 3%
03:00Sun 	 3c 	 3%
04:00Sun 	 3c 	 2%
05:00Sun 	 2c 	 1%
06:00Sun 	 2c 	 1%
07:00Sun 	 3c 	 1%
08:00Sun 	 4c 	 2%
09:00Sun 	 5c 	 2%
10:00Sun 	 7c 	 2%
11:00Sun 	 8c 	 1%
12:00Sun 	 9c 	 1%
13:00Sun 	 10c 	 2%
14:00Sun 	 11c 	 1%
15:00Sun 	 11c 	 1%
16:00Sun 	 11c 	 1%
17:00Sun 	 10c 	 1%
18:00Sun 	 9c 	 1%
19:00Sun 	 7c 	 0%
20:00Sun 	 6c 	 0%
21:00Sun 	 5c 	 0%
22:00Sun 	 4c 	 1%
23:00Sun 	 4c 	 1%
00:00Mon 	 3c 	 1%
01:00Mon 	 3c 	 1%
02:00Mon 	 3c 	 2%
03:00Mon 	 2c 	 3%
04:00Mon 	 2c 	 2%
05:00Mon 	 2c 	 1%

# /home/pi/Documents/bbc-weather-predictions/data/Mar21Sat/bbcweather_Saturday21stMarch_2020-03-21_1730.txt
# time 	 temp 	 rain
18:00Sat 	 7c 	 0%
19:00Sat 	 7c 	 0%
20:00Sat 	 5c 	 1%
21:00Sat 	 4c 	 1%
22:00Sat 	 4c 	 1%
23:00Sat 	 4c 	 1%
00:00Sun 	 3c 	 2%
01:00Sun 	 3c 	 2%
02:00Sun 	 3c 	 3%
03:00Sun 	 3c 	 3%
04:00Sun 	 3c 	 2%
05:00Sun 	 2c 	 1%
06:00Sun 	 2c 	 1%
07:00Sun 	 3c 	 1%
08:00Sun 	 4c 	 2%
09:00Sun 	 5c 	 2%
10:00Sun 	 7c 	 2%
11:00Sun 	 8c 	 1%
12:00Sun 	 9c 	 1%
13:00Sun 	 10c 	 2%
14:00Sun 	 11c 	 1%
15:00Sun 	 11c 	 1%
16:00Sun 	 11c 	 1%
17:00Sun 	 10c 	 1%
18:00Sun 	 9c 	 1%
19:00Sun 	 7c 	 0%
20:00Sun 	 6c 	 0%
21:00Sun 	 5c 	 0%
22:00Sun 	 4c 	 1%
23:00Sun 	 4c 	 1%
00:00Mon 	 3c 	 1%
01:00Mon 	 3c 	 1%
02:00Mon 	 3c 	 2%
03:00Mon 	 2c 	 3%
04:00Mon 	 2c 	 2%
05:00Mon 	 2c 	 1%

# /home/pi/Documents/bbc-weather-predictions/data/Mar21Sat/bbcweather_Saturday21stMarch_2020-03-21_1745.txt
# time 	 temp 	 rain
18:00Sat 	 7c 	 0%
19:00Sat 	 7c 	 0%
20:00Sat 	 5c 	 1%
21:00Sat 	 4c 	 1%
22:00Sat 	 4c 	 1%
23:00Sat 	 4c 	 1%
00:00Sun 	 3c 	 2%
01:00Sun 	 3c 	 2%
02:00Sun 	 3c 	 3%
03:00Sun 	 3c 	 3%
04:00Sun 	 3c 	 2%
05:00Sun 	 2c 	 1%
06:00Sun 	 2c 	 1%
07:00Sun 	 3c 	 1%
08:00Sun 	 4c 	 2%
09:00Sun 	 5c 	 2%
10:00Sun 	 7c 	 2%
11:00Sun 	 8c 	 1%
12:00Sun 	 9c 	 1%
13:00Sun 	 10c 	 2%
14:00Sun 	 11c 	 1%
15:00Sun 	 11c 	 1%
16:00Sun 	 11c 	 1%
17:00Sun 	 10c 	 1%
18:00Sun 	 9c 	 1%
19:00Sun 	 7c 	 0%
20:00Sun 	 6c 	 0%
21:00Sun 	 5c 	 0%
22:00Sun 	 4c 	 1%
23:00Sun 	 4c 	 1%
00:00Mon 	 3c 	 1%
01:00Mon 	 3c 	 1%
02:00Mon 	 3c 	 2%
03:00Mon 	 2c 	 3%
04:00Mon 	 2c 	 2%
05:00Mon 	 2c 	 1%

# /home/pi/Documents/bbc-weather-predictions/data/Mar21Sat/bbcweather_Saturday21stMarch_2020-03-21_1800.txt
# time 	 temp 	 rain
18:00Sat 	 7c 	 0%
19:00Sat 	 7c 	 0%
20:00Sat 	 5c 	 1%
21:00Sat 	 4c 	 1%
22:00Sat 	 4c 	 1%
23:00Sat 	 4c 	 1%
00:00Sun 	 3c 	 2%
01:00Sun 	 3c 	 2%
02:00Sun 	 3c 	 3%
03:00Sun 	 3c 	 3%
04:00Sun 	 3c 	 2%
05:00Sun 	 2c 	 1%
06:00Sun 	 2c 	 1%
07:00Sun 	 3c 	 1%
08:00Sun 	 4c 	 2%
09:00Sun 	 5c 	 2%
10:00Sun 	 7c 	 2%
11:00Sun 	 8c 	 1%
12:00Sun 	 9c 	 1%
13:00Sun 	 10c 	 2%
14:00Sun 	 11c 	 1%
15:00Sun 	 11c 	 1%
16:00Sun 	 11c 	 1%
17:00Sun 	 10c 	 1%
18:00Sun 	 9c 	 1%
19:00Sun 	 7c 	 0%
20:00Sun 	 6c 	 0%
21:00Sun 	 5c 	 0%
22:00Sun 	 4c 	 1%
23:00Sun 	 4c 	 1%
00:00Mon 	 3c 	 1%
01:00Mon 	 3c 	 1%
02:00Mon 	 3c 	 2%
03:00Mon 	 2c 	 3%
04:00Mon 	 2c 	 2%
05:00Mon 	 2c 	 1%

# /home/pi/Documents/bbc-weather-predictions/data/Mar21Sat/bbcweather_Saturday21stMarch_2020-03-21_1815.txt
# time 	 temp 	 rain
19:00Sat 	 7c 	 0%
20:00Sat 	 5c 	 1%
21:00Sat 	 4c 	 1%
22:00Sat 	 4c 	 1%
23:00Sat 	 4c 	 1%
00:00Sun 	 3c 	 2%
01:00Sun 	 3c 	 2%
02:00Sun 	 3c 	 3%
03:00Sun 	 3c 	 3%
04:00Sun 	 3c 	 2%
05:00Sun 	 2c 	 1%
06:00Sun 	 2c 	 1%
07:00Sun 	 3c 	 1%
08:00Sun 	 4c 	 2%
09:00Sun 	 5c 	 2%
10:00Sun 	 7c 	 2%
11:00Sun 	 8c 	 1%
12:00Sun 	 9c 	 1%
13:00Sun 	 10c 	 2%
14:00Sun 	 11c 	 1%
15:00Sun 	 11c 	 1%
16:00Sun 	 11c 	 1%
17:00Sun 	 10c 	 1%
18:00Sun 	 9c 	 1%
19:00Sun 	 7c 	 0%
20:00Sun 	 6c 	 0%
21:00Sun 	 5c 	 0%
22:00Sun 	 4c 	 1%
23:00Sun 	 4c 	 1%
00:00Mon 	 3c 	 1%
01:00Mon 	 3c 	 1%
02:00Mon 	 3c 	 2%
03:00Mon 	 2c 	 3%
04:00Mon 	 2c 	 2%
05:00Mon 	 2c 	 1%

# /home/pi/Documents/bbc-weather-predictions/data/Mar21Sat/bbcweather_Saturday21stMarch_2020-03-21_1830.txt
# time 	 temp 	 rain
19:00Sat 	 6c 	 0%
20:00Sat 	 5c 	 0%
21:00Sat 	 5c 	 1%
22:00Sat 	 4c 	 1%
23:00Sat 	 4c 	 1%
00:00Sun 	 3c 	 2%
01:00Sun 	 3c 	 2%
02:00Sun 	 3c 	 3%
03:00Sun 	 3c 	 3%
04:00Sun 	 3c 	 2%
05:00Sun 	 2c 	 1%
06:00Sun 	 2c 	 1%
07:00Sun 	 3c 	 1%
08:00Sun 	 4c 	 2%
09:00Sun 	 5c 	 2%
10:00Sun 	 7c 	 2%
11:00Sun 	 8c 	 1%
12:00Sun 	 9c 	 1%
13:00Sun 	 10c 	 2%
14:00Sun 	 11c 	 1%
15:00Sun 	 11c 	 1%
16:00Sun 	 11c 	 1%
17:00Sun 	 10c 	 1%
18:00Sun 	 9c 	 1%
19:00Sun 	 7c 	 0%
20:00Sun 	 6c 	 0%
21:00Sun 	 5c 	 0%
22:00Sun 	 4c 	 1%
23:00Sun 	 4c 	 1%
00:00Mon 	 3c 	 1%
01:00Mon 	 3c 	 1%
02:00Mon 	 3c 	 2%
03:00Mon 	 2c 	 3%
04:00Mon 	 2c 	 2%
05:00Mon 	 2c 	 1%

# /home/pi/Documents/bbc-weather-predictions/data/Mar21Sat/bbcweather_Saturday21stMarch_2020-03-21_1845.txt
# time 	 temp 	 rain
19:00Sat 	 6c 	 0%
20:00Sat 	 5c 	 0%
21:00Sat 	 5c 	 1%
22:00Sat 	 4c 	 1%
23:00Sat 	 4c 	 1%
00:00Sun 	 3c 	 2%
01:00Sun 	 3c 	 2%
02:00Sun 	 3c 	 3%
03:00Sun 	 3c 	 3%
04:00Sun 	 3c 	 2%
05:00Sun 	 2c 	 1%
06:00Sun 	 2c 	 1%
07:00Sun 	 3c 	 1%
08:00Sun 	 4c 	 2%
09:00Sun 	 5c 	 2%
10:00Sun 	 7c 	 2%
11:00Sun 	 8c 	 1%
12:00Sun 	 9c 	 1%
13:00Sun 	 10c 	 2%
14:00Sun 	 11c 	 1%
15:00Sun 	 11c 	 1%
16:00Sun 	 11c 	 1%
17:00Sun 	 10c 	 1%
18:00Sun 	 9c 	 1%
19:00Sun 	 7c 	 0%
20:00Sun 	 6c 	 0%
21:00Sun 	 5c 	 0%
22:00Sun 	 4c 	 1%
23:00Sun 	 4c 	 1%
00:00Mon 	 3c 	 1%
01:00Mon 	 3c 	 1%
02:00Mon 	 3c 	 2%
03:00Mon 	 2c 	 3%
04:00Mon 	 2c 	 2%
05:00Mon 	 2c 	 1%

# /home/pi/Documents/bbc-weather-predictions/data/Mar21Sat/bbcweather_Saturday21stMarch_2020-03-21_1900.txt
# time 	 temp 	 rain
19:00Sat 	 6c 	 0%
20:00Sat 	 5c 	 0%
21:00Sat 	 5c 	 1%
22:00Sat 	 4c 	 1%
23:00Sat 	 4c 	 1%
00:00Sun 	 3c 	 2%
01:00Sun 	 3c 	 2%
02:00Sun 	 3c 	 3%
03:00Sun 	 3c 	 3%
04:00Sun 	 3c 	 2%
05:00Sun 	 2c 	 1%
06:00Sun 	 2c 	 1%
07:00Sun 	 3c 	 1%
08:00Sun 	 4c 	 2%
09:00Sun 	 5c 	 2%
10:00Sun 	 7c 	 2%
11:00Sun 	 8c 	 1%
12:00Sun 	 9c 	 1%
13:00Sun 	 10c 	 2%
14:00Sun 	 11c 	 1%
15:00Sun 	 11c 	 1%
16:00Sun 	 11c 	 1%
17:00Sun 	 10c 	 1%
18:00Sun 	 9c 	 1%
19:00Sun 	 7c 	 0%
20:00Sun 	 6c 	 0%
21:00Sun 	 5c 	 0%
22:00Sun 	 4c 	 1%
23:00Sun 	 4c 	 1%
00:00Mon 	 3c 	 1%
01:00Mon 	 3c 	 1%
02:00Mon 	 3c 	 2%
03:00Mon 	 2c 	 3%
04:00Mon 	 2c 	 2%
05:00Mon 	 2c 	 1%

# /home/pi/Documents/bbc-weather-predictions/data/Mar21Sat/bbcweather_Saturday21stMarch_2020-03-21_1915.txt
# time 	 temp 	 rain
20:00Sat 	 5c 	 0%
21:00Sat 	 5c 	 1%
22:00Sat 	 4c 	 1%
23:00Sat 	 4c 	 1%
00:00Sun 	 3c 	 2%
01:00Sun 	 3c 	 2%
02:00Sun 	 3c 	 3%
03:00Sun 	 3c 	 3%
04:00Sun 	 3c 	 2%
05:00Sun 	 2c 	 1%
06:00Sun 	 2c 	 1%
07:00Sun 	 3c 	 1%
08:00Sun 	 4c 	 2%
09:00Sun 	 5c 	 2%
10:00Sun 	 7c 	 2%
11:00Sun 	 8c 	 1%
12:00Sun 	 9c 	 1%
13:00Sun 	 10c 	 2%
14:00Sun 	 11c 	 1%
15:00Sun 	 11c 	 1%
16:00Sun 	 11c 	 1%
17:00Sun 	 10c 	 1%
18:00Sun 	 9c 	 1%
19:00Sun 	 7c 	 0%
20:00Sun 	 6c 	 0%
21:00Sun 	 5c 	 0%
22:00Sun 	 4c 	 1%
23:00Sun 	 4c 	 1%
00:00Mon 	 3c 	 1%
01:00Mon 	 3c 	 1%
02:00Mon 	 3c 	 2%
03:00Mon 	 2c 	 3%
04:00Mon 	 2c 	 2%
05:00Mon 	 2c 	 1%

# /home/pi/Documents/bbc-weather-predictions/data/Mar21Sat/bbcweather_Saturday21stMarch_2020-03-21_1930.txt
# time 	 temp 	 rain
20:00Sat 	 5c 	 0%
21:00Sat 	 5c 	 1%
22:00Sat 	 4c 	 1%
23:00Sat 	 4c 	 1%
00:00Sun 	 4c 	 2%
01:00Sun 	 3c 	 2%
02:00Sun 	 3c 	 3%
03:00Sun 	 3c 	 3%
04:00Sun 	 3c 	 2%
05:00Sun 	 2c 	 1%
06:00Sun 	 2c 	 1%
07:00Sun 	 3c 	 1%
08:00Sun 	 4c 	 2%
09:00Sun 	 5c 	 2%
10:00Sun 	 7c 	 2%
11:00Sun 	 8c 	 1%
12:00Sun 	 9c 	 1%
13:00Sun 	 10c 	 2%
14:00Sun 	 11c 	 1%
15:00Sun 	 11c 	 1%
16:00Sun 	 11c 	 1%
17:00Sun 	 10c 	 1%
18:00Sun 	 9c 	 1%
19:00Sun 	 7c 	 0%
20:00Sun 	 6c 	 0%
21:00Sun 	 5c 	 0%
22:00Sun 	 4c 	 1%
23:00Sun 	 4c 	 1%
00:00Mon 	 3c 	 1%
01:00Mon 	 3c 	 1%
02:00Mon 	 3c 	 2%
03:00Mon 	 2c 	 3%
04:00Mon 	 2c 	 2%
05:00Mon 	 2c 	 1%

# /home/pi/Documents/bbc-weather-predictions/data/Mar21Sat/bbcweather_Saturday21stMarch_2020-03-21_1945.txt
# time 	 temp 	 rain
20:00Sat 	 5c 	 0%
21:00Sat 	 5c 	 1%
22:00Sat 	 4c 	 1%
23:00Sat 	 4c 	 1%
00:00Sun 	 4c 	 2%
01:00Sun 	 3c 	 2%
02:00Sun 	 3c 	 3%
03:00Sun 	 3c 	 3%
04:00Sun 	 3c 	 2%
05:00Sun 	 2c 	 1%
06:00Sun 	 2c 	 1%
07:00Sun 	 3c 	 1%
08:00Sun 	 4c 	 2%
09:00Sun 	 5c 	 2%
10:00Sun 	 7c 	 2%
11:00Sun 	 8c 	 1%
12:00Sun 	 9c 	 1%
13:00Sun 	 10c 	 2%
14:00Sun 	 11c 	 1%
15:00Sun 	 11c 	 1%
16:00Sun 	 11c 	 1%
17:00Sun 	 10c 	 1%
18:00Sun 	 9c 	 1%
19:00Sun 	 7c 	 0%
20:00Sun 	 6c 	 0%
21:00Sun 	 5c 	 0%
22:00Sun 	 4c 	 1%
23:00Sun 	 4c 	 1%
00:00Mon 	 3c 	 1%
01:00Mon 	 3c 	 1%
02:00Mon 	 3c 	 2%
03:00Mon 	 2c 	 3%
04:00Mon 	 2c 	 2%
05:00Mon 	 2c 	 1%

# /home/pi/Documents/bbc-weather-predictions/data/Mar21Sat/bbcweather_Saturday21stMarch_2020-03-21_2000.txt
# time 	 temp 	 rain
20:00Sat 	 5c 	 0%
21:00Sat 	 5c 	 1%
22:00Sat 	 4c 	 1%
23:00Sat 	 4c 	 1%
00:00Sun 	 4c 	 2%
01:00Sun 	 3c 	 2%
02:00Sun 	 3c 	 3%
03:00Sun 	 3c 	 3%
04:00Sun 	 3c 	 2%
05:00Sun 	 2c 	 1%
06:00Sun 	 2c 	 1%
07:00Sun 	 3c 	 1%
08:00Sun 	 4c 	 2%
09:00Sun 	 5c 	 2%
10:00Sun 	 7c 	 2%
11:00Sun 	 8c 	 1%
12:00Sun 	 9c 	 1%
13:00Sun 	 10c 	 2%
14:00Sun 	 11c 	 1%
15:00Sun 	 11c 	 1%
16:00Sun 	 11c 	 1%
17:00Sun 	 10c 	 1%
18:00Sun 	 9c 	 1%
19:00Sun 	 7c 	 0%
20:00Sun 	 6c 	 0%
21:00Sun 	 5c 	 0%
22:00Sun 	 4c 	 1%
23:00Sun 	 4c 	 1%
00:00Mon 	 3c 	 1%
01:00Mon 	 3c 	 1%
02:00Mon 	 3c 	 2%
03:00Mon 	 2c 	 3%
04:00Mon 	 2c 	 2%
05:00Mon 	 2c 	 1%

# /home/pi/Documents/bbc-weather-predictions/data/Mar21Sat/bbcweather_Saturday21stMarch_2020-03-21_2015.txt
# time 	 temp 	 rain
21:00Sat 	 5c 	 1%
22:00Sat 	 4c 	 1%
23:00Sat 	 4c 	 1%
00:00Sun 	 4c 	 2%
01:00Sun 	 3c 	 2%
02:00Sun 	 3c 	 3%
03:00Sun 	 3c 	 3%
04:00Sun 	 3c 	 2%
05:00Sun 	 2c 	 1%
06:00Sun 	 2c 	 1%
07:00Sun 	 3c 	 1%
08:00Sun 	 4c 	 2%
09:00Sun 	 5c 	 2%
10:00Sun 	 7c 	 2%
11:00Sun 	 8c 	 1%
12:00Sun 	 9c 	 1%
13:00Sun 	 10c 	 2%
14:00Sun 	 11c 	 1%
15:00Sun 	 11c 	 1%
16:00Sun 	 11c 	 1%
17:00Sun 	 10c 	 1%
18:00Sun 	 9c 	 1%
19:00Sun 	 7c 	 0%
20:00Sun 	 6c 	 0%
21:00Sun 	 5c 	 0%
22:00Sun 	 4c 	 1%
23:00Sun 	 4c 	 1%
00:00Mon 	 3c 	 1%
01:00Mon 	 3c 	 1%
02:00Mon 	 3c 	 2%
03:00Mon 	 2c 	 3%
04:00Mon 	 2c 	 2%
05:00Mon 	 2c 	 1%

# /home/pi/Documents/bbc-weather-predictions/data/Mar21Sat/bbcweather_Saturday21stMarch_2020-03-21_2030.txt
# time 	 temp 	 rain
21:00Sat 	 5c 	 1%
22:00Sat 	 4c 	 1%
23:00Sat 	 4c 	 1%
00:00Sun 	 4c 	 2%
01:00Sun 	 3c 	 2%
02:00Sun 	 3c 	 3%
03:00Sun 	 3c 	 3%
04:00Sun 	 3c 	 2%
05:00Sun 	 2c 	 1%
06:00Sun 	 2c 	 1%
07:00Sun 	 3c 	 1%
08:00Sun 	 4c 	 2%
09:00Sun 	 5c 	 2%
10:00Sun 	 7c 	 2%
11:00Sun 	 8c 	 1%
12:00Sun 	 9c 	 1%
13:00Sun 	 10c 	 2%
14:00Sun 	 11c 	 1%
15:00Sun 	 11c 	 1%
16:00Sun 	 11c 	 1%
17:00Sun 	 10c 	 1%
18:00Sun 	 9c 	 1%
19:00Sun 	 7c 	 0%
20:00Sun 	 6c 	 0%
21:00Sun 	 5c 	 0%
22:00Sun 	 4c 	 1%
23:00Sun 	 4c 	 1%
00:00Mon 	 3c 	 1%
01:00Mon 	 3c 	 1%
02:00Mon 	 3c 	 2%
03:00Mon 	 2c 	 3%
04:00Mon 	 2c 	 2%
05:00Mon 	 2c 	 1%

# /home/pi/Documents/bbc-weather-predictions/data/Mar21Sat/bbcweather_Saturday21stMarch_2020-03-21_2045.txt
# time 	 temp 	 rain
21:00Sat 	 5c 	 1%
22:00Sat 	 4c 	 1%
23:00Sat 	 4c 	 1%
00:00Sun 	 4c 	 2%
01:00Sun 	 3c 	 2%
02:00Sun 	 3c 	 3%
03:00Sun 	 3c 	 3%
04:00Sun 	 3c 	 2%
05:00Sun 	 2c 	 1%
06:00Sun 	 2c 	 1%
07:00Sun 	 3c 	 1%
08:00Sun 	 4c 	 2%
09:00Sun 	 5c 	 2%
10:00Sun 	 7c 	 2%
11:00Sun 	 8c 	 1%
12:00Sun 	 9c 	 1%
13:00Sun 	 10c 	 2%
14:00Sun 	 11c 	 1%
15:00Sun 	 11c 	 1%
16:00Sun 	 11c 	 1%
17:00Sun 	 10c 	 1%
18:00Sun 	 9c 	 1%
19:00Sun 	 7c 	 0%
20:00Sun 	 6c 	 0%
21:00Sun 	 5c 	 0%
22:00Sun 	 4c 	 1%
23:00Sun 	 4c 	 1%
00:00Mon 	 3c 	 1%
01:00Mon 	 3c 	 1%
02:00Mon 	 3c 	 2%
03:00Mon 	 2c 	 3%
04:00Mon 	 2c 	 2%
05:00Mon 	 2c 	 1%

# /home/pi/Documents/bbc-weather-predictions/data/Mar21Sat/bbcweather_Saturday21stMarch_2020-03-21_2100.txt
# time 	 temp 	 rain
21:00Sat 	 5c 	 1%
22:00Sat 	 4c 	 1%
23:00Sat 	 4c 	 1%
00:00Sun 	 4c 	 2%
01:00Sun 	 3c 	 2%
02:00Sun 	 3c 	 3%
03:00Sun 	 3c 	 3%
04:00Sun 	 3c 	 2%
05:00Sun 	 2c 	 1%
06:00Sun 	 2c 	 1%
07:00Sun 	 3c 	 1%
08:00Sun 	 4c 	 2%
09:00Sun 	 5c 	 2%
10:00Sun 	 7c 	 2%
11:00Sun 	 8c 	 1%
12:00Sun 	 9c 	 1%
13:00Sun 	 10c 	 2%
14:00Sun 	 11c 	 1%
15:00Sun 	 11c 	 1%
16:00Sun 	 11c 	 1%
17:00Sun 	 10c 	 1%
18:00Sun 	 9c 	 1%
19:00Sun 	 7c 	 0%
20:00Sun 	 6c 	 0%
21:00Sun 	 5c 	 0%
22:00Sun 	 4c 	 1%
23:00Sun 	 4c 	 1%
00:00Mon 	 3c 	 1%
01:00Mon 	 3c 	 1%
02:00Mon 	 3c 	 2%
03:00Mon 	 2c 	 3%
04:00Mon 	 2c 	 2%
05:00Mon 	 2c 	 1%

# /home/pi/Documents/bbc-weather-predictions/data/Mar21Sat/bbcweather_Saturday21stMarch_2020-03-21_2115.txt
# time 	 temp 	 rain
22:00Sat 	 4c 	 1%
23:00Sat 	 4c 	 1%
00:00Sun 	 4c 	 2%
01:00Sun 	 3c 	 2%
02:00Sun 	 3c 	 3%
03:00Sun 	 3c 	 3%
04:00Sun 	 3c 	 2%
05:00Sun 	 2c 	 1%
06:00Sun 	 2c 	 1%
07:00Sun 	 3c 	 1%
08:00Sun 	 4c 	 2%
09:00Sun 	 5c 	 2%
10:00Sun 	 7c 	 2%
11:00Sun 	 8c 	 1%
12:00Sun 	 9c 	 1%
13:00Sun 	 10c 	 2%
14:00Sun 	 11c 	 1%
15:00Sun 	 11c 	 1%
16:00Sun 	 11c 	 1%
17:00Sun 	 10c 	 1%
18:00Sun 	 9c 	 1%
19:00Sun 	 7c 	 0%
20:00Sun 	 6c 	 0%
21:00Sun 	 5c 	 0%
22:00Sun 	 4c 	 1%
23:00Sun 	 4c 	 1%
00:00Mon 	 3c 	 1%
01:00Mon 	 3c 	 1%
02:00Mon 	 3c 	 2%
03:00Mon 	 2c 	 3%
04:00Mon 	 2c 	 2%
05:00Mon 	 2c 	 1%

# /home/pi/Documents/bbc-weather-predictions/data/Mar21Sat/bbcweather_Saturday21stMarch_2020-03-21_2130.txt
# time 	 temp 	 rain
22:00Sat 	 4c 	 0%
23:00Sat 	 4c 	 1%
00:00Sun 	 4c 	 2%
01:00Sun 	 4c 	 2%
02:00Sun 	 3c 	 3%
03:00Sun 	 3c 	 3%
04:00Sun 	 3c 	 2%
05:00Sun 	 2c 	 1%
06:00Sun 	 2c 	 1%
07:00Sun 	 3c 	 1%
08:00Sun 	 4c 	 2%
09:00Sun 	 5c 	 2%
10:00Sun 	 7c 	 2%
11:00Sun 	 8c 	 1%
12:00Sun 	 9c 	 1%
13:00Sun 	 10c 	 2%
14:00Sun 	 11c 	 1%
15:00Sun 	 11c 	 1%
16:00Sun 	 11c 	 1%
17:00Sun 	 10c 	 1%
18:00Sun 	 9c 	 1%
19:00Sun 	 7c 	 0%
20:00Sun 	 6c 	 0%
21:00Sun 	 5c 	 0%
22:00Sun 	 4c 	 0%
23:00Sun 	 4c 	 1%
00:00Mon 	 3c 	 1%
01:00Mon 	 3c 	 1%
02:00Mon 	 3c 	 2%
03:00Mon 	 2c 	 3%
04:00Mon 	 2c 	 2%
05:00Mon 	 2c 	 1%

# /home/pi/Documents/bbc-weather-predictions/data/Mar21Sat/bbcweather_Saturday21stMarch_2020-03-21_2145.txt
# time 	 temp 	 rain
22:00Sat 	 4c 	 0%
23:00Sat 	 4c 	 1%
00:00Sun 	 4c 	 2%
01:00Sun 	 4c 	 2%
02:00Sun 	 3c 	 3%
03:00Sun 	 3c 	 3%
04:00Sun 	 3c 	 2%
05:00Sun 	 2c 	 1%
06:00Sun 	 2c 	 1%
07:00Sun 	 3c 	 1%
08:00Sun 	 4c 	 2%
09:00Sun 	 5c 	 2%
10:00Sun 	 7c 	 2%
11:00Sun 	 8c 	 1%
12:00Sun 	 9c 	 1%
13:00Sun 	 10c 	 2%
14:00Sun 	 11c 	 1%
15:00Sun 	 11c 	 1%
16:00Sun 	 11c 	 1%
17:00Sun 	 10c 	 1%
18:00Sun 	 9c 	 1%
19:00Sun 	 7c 	 0%
20:00Sun 	 6c 	 0%
21:00Sun 	 5c 	 0%
22:00Sun 	 4c 	 0%
23:00Sun 	 4c 	 1%
00:00Mon 	 3c 	 1%
01:00Mon 	 3c 	 1%
02:00Mon 	 3c 	 2%
03:00Mon 	 2c 	 3%
04:00Mon 	 2c 	 2%
05:00Mon 	 2c 	 1%

# /home/pi/Documents/bbc-weather-predictions/data/Mar21Sat/bbcweather_Saturday21stMarch_2020-03-21_2200.txt
# time 	 temp 	 rain
22:00Sat 	 4c 	 0%
23:00Sat 	 4c 	 1%
00:00Sun 	 4c 	 2%
01:00Sun 	 4c 	 2%
02:00Sun 	 3c 	 3%
03:00Sun 	 3c 	 3%
04:00Sun 	 3c 	 2%
05:00Sun 	 2c 	 1%
06:00Sun 	 2c 	 1%
07:00Sun 	 3c 	 1%
08:00Sun 	 4c 	 2%
09:00Sun 	 5c 	 2%
10:00Sun 	 7c 	 2%
11:00Sun 	 8c 	 1%
12:00Sun 	 9c 	 1%
13:00Sun 	 10c 	 2%
14:00Sun 	 11c 	 1%
15:00Sun 	 11c 	 1%
16:00Sun 	 11c 	 1%
17:00Sun 	 10c 	 1%
18:00Sun 	 9c 	 1%
19:00Sun 	 7c 	 0%
20:00Sun 	 6c 	 0%
21:00Sun 	 5c 	 0%
22:00Sun 	 4c 	 0%
23:00Sun 	 4c 	 1%
00:00Mon 	 3c 	 1%
01:00Mon 	 3c 	 1%
02:00Mon 	 3c 	 2%
03:00Mon 	 2c 	 3%
04:00Mon 	 2c 	 2%
05:00Mon 	 2c 	 1%

# /home/pi/Documents/bbc-weather-predictions/data/Mar21Sat/bbcweather_Saturday21stMarch_2020-03-21_2215.txt
# time 	 temp 	 rain
23:00Sat 	 4c 	 1%
00:00Sun 	 4c 	 2%
01:00Sun 	 4c 	 2%
02:00Sun 	 3c 	 3%
03:00Sun 	 3c 	 3%
04:00Sun 	 3c 	 2%
05:00Sun 	 2c 	 1%
06:00Sun 	 2c 	 1%
07:00Sun 	 3c 	 1%
08:00Sun 	 4c 	 2%
09:00Sun 	 5c 	 2%
10:00Sun 	 7c 	 2%
11:00Sun 	 8c 	 1%
12:00Sun 	 9c 	 1%
13:00Sun 	 10c 	 2%
14:00Sun 	 11c 	 1%
15:00Sun 	 11c 	 1%
16:00Sun 	 11c 	 1%
17:00Sun 	 10c 	 1%
18:00Sun 	 9c 	 1%
19:00Sun 	 7c 	 0%
20:00Sun 	 6c 	 0%
21:00Sun 	 5c 	 0%
22:00Sun 	 4c 	 0%
23:00Sun 	 4c 	 1%
00:00Mon 	 3c 	 1%
01:00Mon 	 3c 	 1%
02:00Mon 	 3c 	 2%
03:00Mon 	 2c 	 3%
04:00Mon 	 2c 	 2%
05:00Mon 	 2c 	 1%

# /home/pi/Documents/bbc-weather-predictions/data/Mar21Sat/bbcweather_Saturday21stMarch_2020-03-21_2230.txt
# time 	 temp 	 rain
23:00Sat 	 4c 	 0%
00:00Sun 	 4c 	 0%
01:00Sun 	 4c 	 2%
02:00Sun 	 3c 	 3%
03:00Sun 	 3c 	 3%
04:00Sun 	 3c 	 2%
05:00Sun 	 2c 	 1%
06:00Sun 	 2c 	 1%
07:00Sun 	 3c 	 1%
08:00Sun 	 4c 	 2%
09:00Sun 	 5c 	 2%
10:00Sun 	 7c 	 2%
11:00Sun 	 8c 	 1%
12:00Sun 	 9c 	 1%
13:00Sun 	 10c 	 2%
14:00Sun 	 11c 	 1%
15:00Sun 	 11c 	 1%
16:00Sun 	 11c 	 1%
17:00Sun 	 10c 	 1%
18:00Sun 	 9c 	 1%
19:00Sun 	 7c 	 0%
20:00Sun 	 6c 	 0%
21:00Sun 	 5c 	 0%
22:00Sun 	 4c 	 0%
23:00Sun 	 4c 	 1%
00:00Mon 	 3c 	 1%
01:00Mon 	 3c 	 1%
02:00Mon 	 3c 	 2%
03:00Mon 	 3c 	 3%
04:00Mon 	 2c 	 2%
05:00Mon 	 2c 	 1%

# /home/pi/Documents/bbc-weather-predictions/data/Mar21Sat/bbcweather_Saturday21stMarch_2020-03-21_2245.txt
# time 	 temp 	 rain
23:00Sat 	 4c 	 0%
00:00Sun 	 4c 	 0%
01:00Sun 	 4c 	 2%
02:00Sun 	 3c 	 3%
03:00Sun 	 3c 	 3%
04:00Sun 	 3c 	 2%
05:00Sun 	 2c 	 1%
06:00Sun 	 2c 	 1%
07:00Sun 	 3c 	 1%
08:00Sun 	 4c 	 2%
09:00Sun 	 5c 	 2%
10:00Sun 	 7c 	 2%
11:00Sun 	 8c 	 1%
12:00Sun 	 9c 	 1%
13:00Sun 	 10c 	 2%
14:00Sun 	 11c 	 1%
15:00Sun 	 11c 	 1%
16:00Sun 	 11c 	 1%
17:00Sun 	 10c 	 1%
18:00Sun 	 9c 	 1%
19:00Sun 	 7c 	 0%
20:00Sun 	 6c 	 0%
21:00Sun 	 5c 	 0%
22:00Sun 	 4c 	 0%
23:00Sun 	 4c 	 1%
00:00Mon 	 3c 	 1%
01:00Mon 	 3c 	 1%
02:00Mon 	 3c 	 2%
03:00Mon 	 3c 	 3%
04:00Mon 	 2c 	 2%
05:00Mon 	 2c 	 1%

# /home/pi/Documents/bbc-weather-predictions/data/Mar21Sat/bbcweather_Saturday21stMarch_2020-03-21_2300.txt
# time 	 temp 	 rain
23:00Sat 	 4c 	 0%
00:00Sun 	 4c 	 0%
01:00Sun 	 4c 	 2%
02:00Sun 	 3c 	 3%
03:00Sun 	 3c 	 3%
04:00Sun 	 3c 	 2%
05:00Sun 	 2c 	 1%
06:00Sun 	 2c 	 1%
07:00Sun 	 3c 	 1%
08:00Sun 	 4c 	 2%
09:00Sun 	 5c 	 2%
10:00Sun 	 7c 	 2%
11:00Sun 	 8c 	 1%
12:00Sun 	 9c 	 1%
13:00Sun 	 10c 	 2%
14:00Sun 	 11c 	 1%
15:00Sun 	 11c 	 1%
16:00Sun 	 11c 	 1%
17:00Sun 	 10c 	 1%
18:00Sun 	 9c 	 1%
19:00Sun 	 7c 	 0%
20:00Sun 	 6c 	 0%
21:00Sun 	 5c 	 0%
22:00Sun 	 4c 	 0%
23:00Sun 	 4c 	 1%
00:00Mon 	 3c 	 1%
01:00Mon 	 3c 	 1%
02:00Mon 	 3c 	 2%
03:00Mon 	 3c 	 3%
04:00Mon 	 2c 	 2%
05:00Mon 	 2c 	 1%

# /home/pi/Documents/bbc-weather-predictions/data/Mar21Sat/bbcweather_Saturday21stMarch_2020-03-21_2315.txt
# time 	 temp 	 rain
00:00Sun 	 4c 	 0%
01:00Sun 	 4c 	 2%
02:00Sun 	 3c 	 3%
03:00Sun 	 3c 	 3%
04:00Sun 	 3c 	 2%
05:00Sun 	 2c 	 1%
06:00Sun 	 2c 	 1%
07:00Sun 	 3c 	 1%
08:00Sun 	 4c 	 2%
09:00Sun 	 5c 	 2%
10:00Sun 	 7c 	 2%
11:00Sun 	 8c 	 1%
12:00Sun 	 9c 	 1%
13:00Sun 	 10c 	 2%
14:00Sun 	 11c 	 1%
15:00Sun 	 11c 	 1%
16:00Sun 	 11c 	 1%
17:00Sun 	 10c 	 1%
18:00Sun 	 9c 	 1%
19:00Sun 	 7c 	 0%
20:00Sun 	 6c 	 0%
21:00Sun 	 5c 	 0%
22:00Sun 	 4c 	 0%
23:00Sun 	 4c 	 1%
00:00Mon 	 3c 	 1%
01:00Mon 	 3c 	 1%
02:00Mon 	 3c 	 2%
03:00Mon 	 3c 	 3%
04:00Mon 	 2c 	 2%
05:00Mon 	 2c 	 1%

# /home/pi/Documents/bbc-weather-predictions/data/Mar21Sat/bbcweather_Saturday21stMarch_2020-03-21_2330.txt
# time 	 temp 	 rain
00:00Sun 	 4c 	 0%
01:00Sun 	 4c 	 1%
02:00Sun 	 3c 	 3%
03:00Sun 	 3c 	 3%
04:00Sun 	 3c 	 2%
05:00Sun 	 2c 	 1%
06:00Sun 	 2c 	 1%
07:00Sun 	 3c 	 1%
08:00Sun 	 4c 	 2%
09:00Sun 	 5c 	 2%
10:00Sun 	 7c 	 2%
11:00Sun 	 8c 	 1%
12:00Sun 	 9c 	 1%
13:00Sun 	 10c 	 2%
14:00Sun 	 11c 	 1%
15:00Sun 	 11c 	 1%
16:00Sun 	 11c 	 1%
17:00Sun 	 10c 	 1%
18:00Sun 	 9c 	 1%
19:00Sun 	 7c 	 0%
20:00Sun 	 6c 	 0%
21:00Sun 	 5c 	 0%
22:00Sun 	 4c 	 0%
23:00Sun 	 4c 	 1%
00:00Mon 	 3c 	 1%
01:00Mon 	 3c 	 1%
02:00Mon 	 3c 	 2%
03:00Mon 	 3c 	 3%
04:00Mon 	 2c 	 2%
05:00Mon 	 2c 	 1%

# /home/pi/Documents/bbc-weather-predictions/data/Mar21Sat/bbcweather_Saturday21stMarch_2020-03-21_2345.txt
# time 	 temp 	 rain
00:00Sun 	 4c 	 0%
01:00Sun 	 4c 	 1%
02:00Sun 	 3c 	 3%
03:00Sun 	 3c 	 3%
04:00Sun 	 3c 	 2%
05:00Sun 	 2c 	 1%
06:00Sun 	 2c 	 1%
07:00Sun 	 3c 	 1%
08:00Sun 	 4c 	 2%
09:00Sun 	 5c 	 2%
10:00Sun 	 7c 	 2%
11:00Sun 	 8c 	 1%
12:00Sun 	 9c 	 1%
13:00Sun 	 10c 	 2%
14:00Sun 	 11c 	 1%
15:00Sun 	 11c 	 1%
16:00Sun 	 11c 	 1%
17:00Sun 	 10c 	 1%
18:00Sun 	 9c 	 1%
19:00Sun 	 7c 	 0%
20:00Sun 	 6c 	 0%
21:00Sun 	 5c 	 0%
22:00Sun 	 4c 	 0%
23:00Sun 	 4c 	 1%
00:00Mon 	 3c 	 1%
01:00Mon 	 3c 	 1%
02:00Mon 	 3c 	 2%
03:00Mon 	 3c 	 3%
04:00Mon 	 2c 	 2%
05:00Mon 	 2c 	 1%
