
# /home/pi/Documents/bbc-weather-predictions/data/Nov03Tue/bbcweather_Monday2ndNovember_2020-11-03_0000.txt
# time 	 temp 	 rain
00:00Tue 	 7c 	 0%
01:00Tue 	 7c 	 13%
02:00Tue 	 7c 	 58%
03:00Tue 	 7c 	 84%
04:00Tue 	 7c 	 95%
05:00Tue 	 6c 	 97%
06:00Tue 	 5c 	 87%
07:00Tue 	 6c 	 63%
08:00Tue 	 7c 	 39%
09:00Tue 	 8c 	 21%
10:00Tue 	 8c 	 15%
11:00Tue 	 9c 	 16%
12:00Tue 	 10c 	 13%
13:00Tue 	 10c 	 9%
14:00Tue 	 10c 	 7%
15:00Tue 	 10c 	 9%
16:00Tue 	 9c 	 11%
17:00Tue 	 8c 	 10%
18:00Tue 	 7c 	 6%
19:00Tue 	 7c 	 5%
20:00Tue 	 7c 	 7%
21:00Tue 	 6c 	 6%
22:00Tue 	 6c 	 3%
23:00Tue 	 5c 	 1%
00:00Wed 	 5c 	 2%
01:00Wed 	 5c 	 1%
02:00Wed 	 5c 	 3%
03:00Wed 	 4c 	 5%
04:00Wed 	 4c 	 5%
05:00Wed 	 4c 	 4%

# /home/pi/Documents/bbc-weather-predictions/data/Nov03Tue/bbcweather_Monday2ndNovember_2020-11-03_0015.txt
# time 	 temp 	 rain
01:00Tue 	 7c 	 13%
02:00Tue 	 7c 	 58%
03:00Tue 	 7c 	 84%
04:00Tue 	 7c 	 95%
05:00Tue 	 6c 	 97%
06:00Tue 	 5c 	 87%
07:00Tue 	 6c 	 63%
08:00Tue 	 7c 	 39%
09:00Tue 	 8c 	 21%
10:00Tue 	 8c 	 15%
11:00Tue 	 9c 	 16%
12:00Tue 	 10c 	 13%
13:00Tue 	 10c 	 9%
14:00Tue 	 10c 	 7%
15:00Tue 	 10c 	 9%
16:00Tue 	 9c 	 11%
17:00Tue 	 8c 	 10%
18:00Tue 	 7c 	 6%
19:00Tue 	 7c 	 5%
20:00Tue 	 7c 	 7%
21:00Tue 	 6c 	 6%
22:00Tue 	 6c 	 3%
23:00Tue 	 5c 	 1%
00:00Wed 	 5c 	 2%
01:00Wed 	 5c 	 1%
02:00Wed 	 5c 	 3%
03:00Wed 	 4c 	 5%
04:00Wed 	 4c 	 5%
05:00Wed 	 4c 	 4%

# /home/pi/Documents/bbc-weather-predictions/data/Nov03Tue/bbcweather_Monday2ndNovember_2020-11-03_0030.txt
# time 	 temp 	 rain
01:00Tue 	 7c 	 1%
02:00Tue 	 7c 	 58%
03:00Tue 	 7c 	 84%
04:00Tue 	 7c 	 95%
05:00Tue 	 6c 	 97%
06:00Tue 	 5c 	 87%
07:00Tue 	 6c 	 63%
08:00Tue 	 7c 	 39%
09:00Tue 	 8c 	 21%
10:00Tue 	 8c 	 15%
11:00Tue 	 9c 	 16%
12:00Tue 	 10c 	 13%
13:00Tue 	 10c 	 9%
14:00Tue 	 10c 	 7%
15:00Tue 	 10c 	 9%
16:00Tue 	 9c 	 11%
17:00Tue 	 8c 	 10%
18:00Tue 	 7c 	 6%
19:00Tue 	 7c 	 5%
20:00Tue 	 7c 	 7%
21:00Tue 	 6c 	 6%
22:00Tue 	 6c 	 3%
23:00Tue 	 5c 	 1%
00:00Wed 	 5c 	 2%
01:00Wed 	 5c 	 1%
02:00Wed 	 5c 	 3%
03:00Wed 	 4c 	 5%
04:00Wed 	 4c 	 5%
05:00Wed 	 4c 	 4%

# /home/pi/Documents/bbc-weather-predictions/data/Nov03Tue/bbcweather_Monday2ndNovember_2020-11-03_0045.txt
# time 	 temp 	 rain
01:00Tue 	 7c 	 1%
02:00Tue 	 7c 	 58%
03:00Tue 	 7c 	 84%
04:00Tue 	 7c 	 95%
05:00Tue 	 6c 	 97%
06:00Tue 	 5c 	 87%
07:00Tue 	 6c 	 63%
08:00Tue 	 7c 	 39%
09:00Tue 	 8c 	 21%
10:00Tue 	 8c 	 15%
11:00Tue 	 9c 	 16%
12:00Tue 	 10c 	 13%
13:00Tue 	 10c 	 9%
14:00Tue 	 10c 	 7%
15:00Tue 	 10c 	 9%
16:00Tue 	 9c 	 11%
17:00Tue 	 8c 	 10%
18:00Tue 	 7c 	 6%
19:00Tue 	 7c 	 5%
20:00Tue 	 7c 	 7%
21:00Tue 	 6c 	 6%
22:00Tue 	 6c 	 3%
23:00Tue 	 5c 	 1%
00:00Wed 	 5c 	 2%
01:00Wed 	 5c 	 1%
02:00Wed 	 5c 	 3%
03:00Wed 	 4c 	 5%
04:00Wed 	 4c 	 5%
05:00Wed 	 4c 	 4%

# /home/pi/Documents/bbc-weather-predictions/data/Nov03Tue/bbcweather_Monday2ndNovember_2020-11-03_0100.txt
# time 	 temp 	 rain
01:00Tue 	 7c 	 1%
02:00Tue 	 7c 	 58%
03:00Tue 	 7c 	 84%
04:00Tue 	 7c 	 95%
05:00Tue 	 6c 	 97%
06:00Tue 	 5c 	 87%
07:00Tue 	 6c 	 63%
08:00Tue 	 7c 	 39%
09:00Tue 	 8c 	 21%
10:00Tue 	 8c 	 15%
11:00Tue 	 9c 	 16%
12:00Tue 	 10c 	 13%
13:00Tue 	 10c 	 9%
14:00Tue 	 10c 	 7%
15:00Tue 	 10c 	 9%
16:00Tue 	 9c 	 11%
17:00Tue 	 8c 	 10%
18:00Tue 	 7c 	 6%
19:00Tue 	 7c 	 5%
20:00Tue 	 7c 	 7%
21:00Tue 	 6c 	 6%
22:00Tue 	 6c 	 3%
23:00Tue 	 5c 	 1%
00:00Wed 	 5c 	 2%
01:00Wed 	 5c 	 1%
02:00Wed 	 5c 	 3%
03:00Wed 	 4c 	 5%
04:00Wed 	 4c 	 5%
05:00Wed 	 4c 	 4%

# /home/pi/Documents/bbc-weather-predictions/data/Nov03Tue/bbcweather_Monday2ndNovember_2020-11-03_0115.txt
# time 	 temp 	 rain
02:00Tue 	 7c 	 58%
03:00Tue 	 7c 	 84%
04:00Tue 	 7c 	 95%
05:00Tue 	 6c 	 97%
06:00Tue 	 5c 	 87%
07:00Tue 	 6c 	 63%
08:00Tue 	 7c 	 39%
09:00Tue 	 8c 	 21%
10:00Tue 	 8c 	 15%
11:00Tue 	 9c 	 16%
12:00Tue 	 10c 	 13%
13:00Tue 	 10c 	 9%
14:00Tue 	 10c 	 7%
15:00Tue 	 10c 	 9%
16:00Tue 	 9c 	 11%
17:00Tue 	 8c 	 10%
18:00Tue 	 7c 	 6%
19:00Tue 	 7c 	 5%
20:00Tue 	 7c 	 7%
21:00Tue 	 6c 	 6%
22:00Tue 	 6c 	 3%
23:00Tue 	 5c 	 1%
00:00Wed 	 5c 	 2%
01:00Wed 	 5c 	 1%
02:00Wed 	 5c 	 3%
03:00Wed 	 4c 	 5%
04:00Wed 	 4c 	 5%
05:00Wed 	 4c 	 4%

# /home/pi/Documents/bbc-weather-predictions/data/Nov03Tue/bbcweather_Monday2ndNovember_2020-11-03_0130.txt
# time 	 temp 	 rain
02:00Tue 	 7c 	 9%
03:00Tue 	 7c 	 88%
04:00Tue 	 7c 	 93%
05:00Tue 	 6c 	 97%
06:00Tue 	 5c 	 89%
07:00Tue 	 6c 	 63%
08:00Tue 	 7c 	 39%
09:00Tue 	 8c 	 21%
10:00Tue 	 8c 	 15%
11:00Tue 	 9c 	 16%
12:00Tue 	 10c 	 13%
13:00Tue 	 10c 	 9%
14:00Tue 	 10c 	 7%
15:00Tue 	 10c 	 9%
16:00Tue 	 9c 	 11%
17:00Tue 	 8c 	 10%
18:00Tue 	 7c 	 6%
19:00Tue 	 7c 	 5%
20:00Tue 	 7c 	 7%
21:00Tue 	 6c 	 6%
22:00Tue 	 6c 	 3%
23:00Tue 	 5c 	 1%
00:00Wed 	 5c 	 2%
01:00Wed 	 5c 	 1%
02:00Wed 	 5c 	 3%
03:00Wed 	 4c 	 5%
04:00Wed 	 4c 	 5%
05:00Wed 	 4c 	 4%

# /home/pi/Documents/bbc-weather-predictions/data/Nov03Tue/bbcweather_Monday2ndNovember_2020-11-03_0145.txt
# time 	 temp 	 rain
02:00Tue 	 7c 	 9%
03:00Tue 	 7c 	 88%
04:00Tue 	 7c 	 93%
05:00Tue 	 6c 	 97%
06:00Tue 	 5c 	 89%
07:00Tue 	 6c 	 63%
08:00Tue 	 7c 	 39%
09:00Tue 	 8c 	 21%
10:00Tue 	 8c 	 15%
11:00Tue 	 9c 	 16%
12:00Tue 	 10c 	 13%
13:00Tue 	 10c 	 9%
14:00Tue 	 10c 	 7%
15:00Tue 	 10c 	 9%
16:00Tue 	 9c 	 11%
17:00Tue 	 8c 	 10%
18:00Tue 	 7c 	 6%
19:00Tue 	 7c 	 5%
20:00Tue 	 7c 	 7%
21:00Tue 	 6c 	 6%
22:00Tue 	 6c 	 3%
23:00Tue 	 5c 	 1%
00:00Wed 	 5c 	 2%
01:00Wed 	 5c 	 1%
02:00Wed 	 5c 	 3%
03:00Wed 	 4c 	 5%
04:00Wed 	 4c 	 5%
05:00Wed 	 4c 	 4%

# /home/pi/Documents/bbc-weather-predictions/data/Nov03Tue/bbcweather_Monday2ndNovember_2020-11-03_0200.txt
# time 	 temp 	 rain
02:00Tue 	 7c 	 9%
03:00Tue 	 7c 	 88%
04:00Tue 	 7c 	 93%
05:00Tue 	 6c 	 97%
06:00Tue 	 5c 	 89%
07:00Tue 	 6c 	 63%
08:00Tue 	 7c 	 39%
09:00Tue 	 8c 	 21%
10:00Tue 	 8c 	 15%
11:00Tue 	 9c 	 16%
12:00Tue 	 10c 	 13%
13:00Tue 	 10c 	 9%
14:00Tue 	 10c 	 7%
15:00Tue 	 10c 	 9%
16:00Tue 	 9c 	 11%
17:00Tue 	 8c 	 10%
18:00Tue 	 7c 	 6%
19:00Tue 	 7c 	 5%
20:00Tue 	 7c 	 7%
21:00Tue 	 6c 	 6%
22:00Tue 	 6c 	 3%
23:00Tue 	 5c 	 1%
00:00Wed 	 5c 	 2%
01:00Wed 	 5c 	 1%
02:00Wed 	 5c 	 3%
03:00Wed 	 4c 	 5%
04:00Wed 	 4c 	 5%
05:00Wed 	 4c 	 4%

# /home/pi/Documents/bbc-weather-predictions/data/Nov03Tue/bbcweather_Monday2ndNovember_2020-11-03_0215.txt
# time 	 temp 	 rain
03:00Tue 	 7c 	 88%
04:00Tue 	 7c 	 93%
05:00Tue 	 6c 	 97%
06:00Tue 	 5c 	 89%
07:00Tue 	 6c 	 63%
08:00Tue 	 7c 	 39%
09:00Tue 	 8c 	 21%
10:00Tue 	 8c 	 15%
11:00Tue 	 9c 	 16%
12:00Tue 	 10c 	 13%
13:00Tue 	 10c 	 9%
14:00Tue 	 10c 	 7%
15:00Tue 	 10c 	 9%
16:00Tue 	 9c 	 11%
17:00Tue 	 8c 	 10%
18:00Tue 	 7c 	 6%
19:00Tue 	 7c 	 5%
20:00Tue 	 7c 	 7%
21:00Tue 	 6c 	 6%
22:00Tue 	 6c 	 3%
23:00Tue 	 5c 	 1%
00:00Wed 	 5c 	 2%
01:00Wed 	 5c 	 1%
02:00Wed 	 5c 	 3%
03:00Wed 	 4c 	 5%
04:00Wed 	 4c 	 5%
05:00Wed 	 4c 	 4%

# /home/pi/Documents/bbc-weather-predictions/data/Nov03Tue/bbcweather_Monday2ndNovember_2020-11-03_0230.txt
# time 	 temp 	 rain
03:00Tue 	 7c 	 99%
04:00Tue 	 7c 	 98%
05:00Tue 	 6c 	 97%
06:00Tue 	 5c 	 90%
07:00Tue 	 6c 	 65%
08:00Tue 	 7c 	 39%
09:00Tue 	 8c 	 21%
10:00Tue 	 8c 	 15%
11:00Tue 	 9c 	 16%
12:00Tue 	 10c 	 13%
13:00Tue 	 10c 	 9%
14:00Tue 	 10c 	 7%
15:00Tue 	 10c 	 9%
16:00Tue 	 9c 	 11%
17:00Tue 	 8c 	 10%
18:00Tue 	 7c 	 6%
19:00Tue 	 7c 	 5%
20:00Tue 	 7c 	 7%
21:00Tue 	 6c 	 6%
22:00Tue 	 6c 	 3%
23:00Tue 	 5c 	 1%
00:00Wed 	 5c 	 2%
01:00Wed 	 5c 	 1%
02:00Wed 	 5c 	 3%
03:00Wed 	 4c 	 5%
04:00Wed 	 4c 	 5%
05:00Wed 	 4c 	 4%

# /home/pi/Documents/bbc-weather-predictions/data/Nov03Tue/bbcweather_Monday2ndNovember_2020-11-03_0245.txt
# time 	 temp 	 rain
03:00Tue 	 7c 	 99%
04:00Tue 	 7c 	 98%
05:00Tue 	 6c 	 97%
06:00Tue 	 5c 	 90%
07:00Tue 	 6c 	 65%
08:00Tue 	 7c 	 39%
09:00Tue 	 8c 	 21%
10:00Tue 	 8c 	 15%
11:00Tue 	 9c 	 16%
12:00Tue 	 10c 	 13%
13:00Tue 	 10c 	 9%
14:00Tue 	 10c 	 7%
15:00Tue 	 10c 	 9%
16:00Tue 	 9c 	 11%
17:00Tue 	 8c 	 10%
18:00Tue 	 7c 	 6%
19:00Tue 	 7c 	 5%
20:00Tue 	 7c 	 7%
21:00Tue 	 6c 	 6%
22:00Tue 	 6c 	 3%
23:00Tue 	 5c 	 1%
00:00Wed 	 5c 	 2%
01:00Wed 	 5c 	 1%
02:00Wed 	 5c 	 3%
03:00Wed 	 4c 	 5%
04:00Wed 	 4c 	 5%
05:00Wed 	 4c 	 4%

# /home/pi/Documents/bbc-weather-predictions/data/Nov03Tue/bbcweather_Monday2ndNovember_2020-11-03_0300.txt
# time 	 temp 	 rain
03:00Tue 	 7c 	 99%
04:00Tue 	 7c 	 98%
05:00Tue 	 6c 	 97%
06:00Tue 	 5c 	 90%
07:00Tue 	 6c 	 65%
08:00Tue 	 7c 	 39%
09:00Tue 	 8c 	 21%
10:00Tue 	 8c 	 15%
11:00Tue 	 9c 	 16%
12:00Tue 	 10c 	 13%
13:00Tue 	 10c 	 9%
14:00Tue 	 10c 	 7%
15:00Tue 	 10c 	 9%
16:00Tue 	 9c 	 11%
17:00Tue 	 8c 	 10%
18:00Tue 	 7c 	 6%
19:00Tue 	 7c 	 5%
20:00Tue 	 7c 	 7%
21:00Tue 	 6c 	 6%
22:00Tue 	 6c 	 3%
23:00Tue 	 5c 	 1%
00:00Wed 	 5c 	 2%
01:00Wed 	 5c 	 1%
02:00Wed 	 5c 	 3%
03:00Wed 	 4c 	 5%
04:00Wed 	 4c 	 5%
05:00Wed 	 4c 	 4%

# /home/pi/Documents/bbc-weather-predictions/data/Nov03Tue/bbcweather_Monday2ndNovember_2020-11-03_0315.txt
# time 	 temp 	 rain
04:00Tue 	 7c 	 98%
05:00Tue 	 6c 	 97%
06:00Tue 	 5c 	 90%
07:00Tue 	 6c 	 65%
08:00Tue 	 7c 	 39%
09:00Tue 	 8c 	 21%
10:00Tue 	 8c 	 15%
11:00Tue 	 9c 	 16%
12:00Tue 	 10c 	 13%
13:00Tue 	 10c 	 9%
14:00Tue 	 10c 	 7%
15:00Tue 	 10c 	 9%
16:00Tue 	 9c 	 11%
17:00Tue 	 8c 	 10%
18:00Tue 	 7c 	 6%
19:00Tue 	 7c 	 5%
20:00Tue 	 7c 	 7%
21:00Tue 	 6c 	 6%
22:00Tue 	 6c 	 3%
23:00Tue 	 5c 	 1%
00:00Wed 	 5c 	 2%
01:00Wed 	 5c 	 1%
02:00Wed 	 5c 	 3%
03:00Wed 	 4c 	 5%
04:00Wed 	 4c 	 5%
05:00Wed 	 4c 	 4%

# /home/pi/Documents/bbc-weather-predictions/data/Nov03Tue/bbcweather_Monday2ndNovember_2020-11-03_0330.txt
# time 	 temp 	 rain
04:00Tue 	 7c 	 100%
05:00Tue 	 6c 	 88%
06:00Tue 	 5c 	 92%
07:00Tue 	 6c 	 70%
08:00Tue 	 7c 	 42%
09:00Tue 	 8c 	 21%
10:00Tue 	 8c 	 15%
11:00Tue 	 9c 	 16%
12:00Tue 	 10c 	 13%
13:00Tue 	 10c 	 9%
14:00Tue 	 10c 	 7%
15:00Tue 	 10c 	 9%
16:00Tue 	 9c 	 11%
17:00Tue 	 8c 	 10%
18:00Tue 	 7c 	 6%
19:00Tue 	 7c 	 5%
20:00Tue 	 7c 	 7%
21:00Tue 	 6c 	 6%
22:00Tue 	 6c 	 3%
23:00Tue 	 5c 	 1%
00:00Wed 	 5c 	 2%
01:00Wed 	 5c 	 1%
02:00Wed 	 5c 	 3%
03:00Wed 	 4c 	 5%
04:00Wed 	 4c 	 5%
05:00Wed 	 4c 	 4%

# /home/pi/Documents/bbc-weather-predictions/data/Nov03Tue/bbcweather_Monday2ndNovember_2020-11-03_0345.txt
# time 	 temp 	 rain
04:00Tue 	 7c 	 100%
05:00Tue 	 6c 	 88%
06:00Tue 	 5c 	 92%
07:00Tue 	 6c 	 70%
08:00Tue 	 7c 	 42%
09:00Tue 	 8c 	 21%
10:00Tue 	 8c 	 15%
11:00Tue 	 9c 	 16%
12:00Tue 	 10c 	 13%
13:00Tue 	 10c 	 9%
14:00Tue 	 10c 	 7%
15:00Tue 	 10c 	 9%
16:00Tue 	 9c 	 11%
17:00Tue 	 8c 	 10%
18:00Tue 	 7c 	 6%
19:00Tue 	 7c 	 5%
20:00Tue 	 7c 	 7%
21:00Tue 	 6c 	 6%
22:00Tue 	 6c 	 3%
23:00Tue 	 5c 	 1%
00:00Wed 	 5c 	 2%
01:00Wed 	 5c 	 1%
02:00Wed 	 5c 	 3%
03:00Wed 	 4c 	 5%
04:00Wed 	 4c 	 5%
05:00Wed 	 4c 	 4%

# /home/pi/Documents/bbc-weather-predictions/data/Nov03Tue/bbcweather_Monday2ndNovember_2020-11-03_0400.txt
# time 	 temp 	 rain
04:00Tue 	 7c 	 100%
05:00Tue 	 6c 	 88%
06:00Tue 	 5c 	 92%
07:00Tue 	 6c 	 70%
08:00Tue 	 7c 	 42%
09:00Tue 	 8c 	 21%
10:00Tue 	 8c 	 15%
11:00Tue 	 9c 	 16%
12:00Tue 	 10c 	 13%
13:00Tue 	 10c 	 9%
14:00Tue 	 10c 	 7%
15:00Tue 	 10c 	 9%
16:00Tue 	 9c 	 11%
17:00Tue 	 8c 	 10%
18:00Tue 	 7c 	 6%
19:00Tue 	 7c 	 5%
20:00Tue 	 7c 	 7%
21:00Tue 	 6c 	 6%
22:00Tue 	 6c 	 3%
23:00Tue 	 5c 	 1%
00:00Wed 	 5c 	 2%
01:00Wed 	 5c 	 1%
02:00Wed 	 5c 	 3%
03:00Wed 	 4c 	 5%
04:00Wed 	 4c 	 5%
05:00Wed 	 4c 	 4%

# /home/pi/Documents/bbc-weather-predictions/data/Nov03Tue/bbcweather_Monday2ndNovember_2020-11-03_0415.txt
# time 	 temp 	 rain
05:00Tue 	 6c 	 88%
06:00Tue 	 5c 	 92%
07:00Tue 	 6c 	 70%
08:00Tue 	 7c 	 42%
09:00Tue 	 8c 	 21%
10:00Tue 	 8c 	 15%
11:00Tue 	 9c 	 16%
12:00Tue 	 10c 	 13%
13:00Tue 	 10c 	 9%
14:00Tue 	 10c 	 7%
15:00Tue 	 10c 	 9%
16:00Tue 	 9c 	 11%
17:00Tue 	 8c 	 10%
18:00Tue 	 7c 	 6%
19:00Tue 	 7c 	 5%
20:00Tue 	 7c 	 7%
21:00Tue 	 6c 	 6%
22:00Tue 	 6c 	 3%
23:00Tue 	 5c 	 1%
00:00Wed 	 5c 	 2%
01:00Wed 	 5c 	 1%
02:00Wed 	 5c 	 3%
03:00Wed 	 4c 	 5%
04:00Wed 	 4c 	 5%
05:00Wed 	 4c 	 4%

# /home/pi/Documents/bbc-weather-predictions/data/Nov03Tue/bbcweather_Monday2ndNovember_2020-11-03_0430.txt
# time 	 temp 	 rain
05:00Tue 	 6c 	 61%
06:00Tue 	 5c 	 98%
07:00Tue 	 6c 	 70%
08:00Tue 	 6c 	 43%
09:00Tue 	 7c 	 23%
10:00Tue 	 8c 	 15%
11:00Tue 	 9c 	 16%
12:00Tue 	 10c 	 13%
13:00Tue 	 10c 	 9%
14:00Tue 	 10c 	 7%
15:00Tue 	 10c 	 9%
16:00Tue 	 9c 	 11%
17:00Tue 	 8c 	 10%
18:00Tue 	 6c 	 6%
19:00Tue 	 5c 	 5%
20:00Tue 	 5c 	 7%
21:00Tue 	 5c 	 6%
22:00Tue 	 4c 	 3%
23:00Tue 	 4c 	 1%
00:00Wed 	 3c 	 2%
01:00Wed 	 3c 	 1%
02:00Wed 	 3c 	 3%
03:00Wed 	 3c 	 5%
04:00Wed 	 3c 	 5%
05:00Wed 	 3c 	 4%

# /home/pi/Documents/bbc-weather-predictions/data/Nov03Tue/bbcweather_Monday2ndNovember_2020-11-03_0445.txt
# time 	 temp 	 rain
05:00Tue 	 6c 	 61%
06:00Tue 	 5c 	 98%
07:00Tue 	 6c 	 70%
08:00Tue 	 6c 	 43%
09:00Tue 	 7c 	 23%
10:00Tue 	 8c 	 15%
11:00Tue 	 9c 	 16%
12:00Tue 	 10c 	 13%
13:00Tue 	 10c 	 9%
14:00Tue 	 10c 	 7%
15:00Tue 	 10c 	 9%
16:00Tue 	 9c 	 11%
17:00Tue 	 8c 	 10%
18:00Tue 	 6c 	 6%
19:00Tue 	 5c 	 5%
20:00Tue 	 5c 	 7%
21:00Tue 	 5c 	 6%
22:00Tue 	 4c 	 3%
23:00Tue 	 4c 	 1%
00:00Wed 	 3c 	 2%
01:00Wed 	 3c 	 1%
02:00Wed 	 3c 	 3%
03:00Wed 	 3c 	 5%
04:00Wed 	 3c 	 5%
05:00Wed 	 3c 	 4%

# /home/pi/Documents/bbc-weather-predictions/data/Nov03Tue/bbcweather_Monday2ndNovember_2020-11-03_0500.txt
# time 	 temp 	 rain
05:00Tue 	 6c 	 61%
06:00Tue 	 5c 	 98%
07:00Tue 	 6c 	 70%
08:00Tue 	 6c 	 43%
09:00Tue 	 7c 	 23%
10:00Tue 	 8c 	 15%
11:00Tue 	 9c 	 16%
12:00Tue 	 10c 	 13%
13:00Tue 	 10c 	 9%
14:00Tue 	 10c 	 7%
15:00Tue 	 10c 	 9%
16:00Tue 	 9c 	 11%
17:00Tue 	 8c 	 10%
18:00Tue 	 6c 	 6%
19:00Tue 	 5c 	 5%
20:00Tue 	 5c 	 7%
21:00Tue 	 5c 	 6%
22:00Tue 	 4c 	 3%
23:00Tue 	 4c 	 1%
00:00Wed 	 3c 	 2%
01:00Wed 	 3c 	 1%
02:00Wed 	 3c 	 3%
03:00Wed 	 3c 	 5%
04:00Wed 	 3c 	 5%
05:00Wed 	 3c 	 4%

# /home/pi/Documents/bbc-weather-predictions/data/Nov03Tue/bbcweather_Tuesday3rdNovember_2020-11-03_0515.txt
# time 	 temp 	 rain
06:00Tue 	 5c 	 98%
07:00Tue 	 6c 	 70%
08:00Tue 	 6c 	 43%
09:00Tue 	 7c 	 23%
10:00Tue 	 8c 	 15%
11:00Tue 	 9c 	 16%
12:00Tue 	 10c 	 13%
13:00Tue 	 10c 	 9%
14:00Tue 	 10c 	 7%
15:00Tue 	 10c 	 9%
16:00Tue 	 9c 	 11%
17:00Tue 	 8c 	 10%
18:00Tue 	 6c 	 6%
19:00Tue 	 5c 	 5%
20:00Tue 	 5c 	 7%
21:00Tue 	 5c 	 6%
22:00Tue 	 4c 	 3%
23:00Tue 	 4c 	 1%
00:00Wed 	 3c 	 2%
01:00Wed 	 3c 	 1%
02:00Wed 	 3c 	 3%
03:00Wed 	 3c 	 5%
04:00Wed 	 3c 	 5%
05:00Wed 	 3c 	 4%
06:00Wed 	 3c 	 5%
07:00Wed 	 3c 	 6%
08:00Wed 	 5c 	 5%
09:00Wed 	 7c 	 3%
10:00Wed 	 8c 	 3%
11:00Wed 	 9c 	 5%
12:00Wed 	 10c 	 5%
13:00Wed 	 10c 	 2%
14:00Wed 	 11c 	 1%
15:00Wed 	 10c 	 4%
16:00Wed 	 10c 	 7%
17:00Wed 	 9c 	 7%
18:00Wed 	 8c 	 4%
19:00Wed 	 8c 	 3%
20:00Wed 	 7c 	 4%
21:00Wed 	 7c 	 2%
22:00Wed 	 6c 	 1%
23:00Wed 	 6c 	 1%
00:00Thu 	 5c 	 1%
01:00Thu 	 5c 	 2%
02:00Thu 	 4c 	 4%
03:00Thu 	 4c 	 5%
04:00Thu 	 4c 	 5%
05:00Thu 	 4c 	 5%

# /home/pi/Documents/bbc-weather-predictions/data/Nov03Tue/bbcweather_Tuesday3rdNovember_2020-11-03_0530.txt
# time 	 temp 	 rain
06:00Tue 	 5c 	 100%
07:00Tue 	 5c 	 94%
08:00Tue 	 6c 	 51%
09:00Tue 	 7c 	 28%
10:00Tue 	 8c 	 19%
11:00Tue 	 9c 	 16%
12:00Tue 	 10c 	 13%
13:00Tue 	 10c 	 9%
14:00Tue 	 10c 	 7%
15:00Tue 	 10c 	 9%
16:00Tue 	 9c 	 11%
17:00Tue 	 8c 	 10%
18:00Tue 	 6c 	 6%
19:00Tue 	 5c 	 5%
20:00Tue 	 5c 	 7%
21:00Tue 	 5c 	 6%
22:00Tue 	 4c 	 3%
23:00Tue 	 4c 	 1%
00:00Wed 	 3c 	 2%
01:00Wed 	 3c 	 1%
02:00Wed 	 3c 	 3%
03:00Wed 	 3c 	 5%
04:00Wed 	 3c 	 5%
05:00Wed 	 3c 	 4%
06:00Wed 	 3c 	 5%
07:00Wed 	 3c 	 6%
08:00Wed 	 5c 	 5%
09:00Wed 	 7c 	 3%
10:00Wed 	 8c 	 3%
11:00Wed 	 9c 	 5%
12:00Wed 	 10c 	 5%
13:00Wed 	 10c 	 2%
14:00Wed 	 11c 	 1%
15:00Wed 	 10c 	 4%
16:00Wed 	 10c 	 7%
17:00Wed 	 9c 	 7%
18:00Wed 	 8c 	 4%
19:00Wed 	 8c 	 3%
20:00Wed 	 7c 	 4%
21:00Wed 	 7c 	 2%
22:00Wed 	 6c 	 1%
23:00Wed 	 6c 	 1%
00:00Thu 	 5c 	 1%
01:00Thu 	 5c 	 2%
02:00Thu 	 4c 	 4%
03:00Thu 	 4c 	 5%
04:00Thu 	 4c 	 5%
05:00Thu 	 4c 	 5%

# /home/pi/Documents/bbc-weather-predictions/data/Nov03Tue/bbcweather_Tuesday3rdNovember_2020-11-03_0545.txt
# time 	 temp 	 rain
06:00Tue 	 5c 	 100%
07:00Tue 	 5c 	 94%
08:00Tue 	 6c 	 51%
09:00Tue 	 7c 	 28%
10:00Tue 	 8c 	 19%
11:00Tue 	 9c 	 16%
12:00Tue 	 10c 	 13%
13:00Tue 	 10c 	 9%
14:00Tue 	 10c 	 7%
15:00Tue 	 10c 	 9%
16:00Tue 	 9c 	 11%
17:00Tue 	 8c 	 10%
18:00Tue 	 6c 	 6%
19:00Tue 	 5c 	 5%
20:00Tue 	 5c 	 7%
21:00Tue 	 5c 	 6%
22:00Tue 	 4c 	 3%
23:00Tue 	 4c 	 1%
00:00Wed 	 3c 	 2%
01:00Wed 	 3c 	 1%
02:00Wed 	 3c 	 3%
03:00Wed 	 3c 	 5%
04:00Wed 	 3c 	 5%
05:00Wed 	 3c 	 4%
06:00Wed 	 3c 	 5%
07:00Wed 	 3c 	 6%
08:00Wed 	 5c 	 5%
09:00Wed 	 7c 	 3%
10:00Wed 	 8c 	 3%
11:00Wed 	 9c 	 5%
12:00Wed 	 10c 	 5%
13:00Wed 	 10c 	 2%
14:00Wed 	 11c 	 1%
15:00Wed 	 10c 	 4%
16:00Wed 	 10c 	 7%
17:00Wed 	 9c 	 7%
18:00Wed 	 8c 	 4%
19:00Wed 	 8c 	 3%
20:00Wed 	 7c 	 4%
21:00Wed 	 7c 	 2%
22:00Wed 	 6c 	 1%
23:00Wed 	 6c 	 1%
00:00Thu 	 5c 	 1%
01:00Thu 	 5c 	 2%
02:00Thu 	 4c 	 4%
03:00Thu 	 4c 	 5%
04:00Thu 	 4c 	 5%
05:00Thu 	 4c 	 5%

# /home/pi/Documents/bbc-weather-predictions/data/Nov03Tue/bbcweather_Tuesday3rdNovember_2020-11-03_0600.txt
# time 	 temp 	 rain
07:00Tue 	 5c 	 94%
08:00Tue 	 6c 	 51%
09:00Tue 	 7c 	 28%
10:00Tue 	 8c 	 19%
11:00Tue 	 9c 	 16%
12:00Tue 	 10c 	 13%
13:00Tue 	 10c 	 9%
14:00Tue 	 10c 	 7%
15:00Tue 	 10c 	 9%
16:00Tue 	 9c 	 11%
17:00Tue 	 8c 	 10%
18:00Tue 	 6c 	 6%
19:00Tue 	 5c 	 5%
20:00Tue 	 5c 	 7%
21:00Tue 	 5c 	 6%
22:00Tue 	 4c 	 3%
23:00Tue 	 4c 	 1%
00:00Wed 	 3c 	 2%
01:00Wed 	 3c 	 1%
02:00Wed 	 3c 	 3%
03:00Wed 	 3c 	 5%
04:00Wed 	 3c 	 5%
05:00Wed 	 3c 	 4%
06:00Wed 	 3c 	 5%
07:00Wed 	 3c 	 6%
08:00Wed 	 5c 	 5%
09:00Wed 	 7c 	 3%
10:00Wed 	 8c 	 3%
11:00Wed 	 9c 	 5%
12:00Wed 	 10c 	 5%
13:00Wed 	 10c 	 2%
14:00Wed 	 11c 	 1%
15:00Wed 	 10c 	 4%
16:00Wed 	 10c 	 7%
17:00Wed 	 9c 	 7%
18:00Wed 	 8c 	 4%
19:00Wed 	 8c 	 3%
20:00Wed 	 7c 	 4%
21:00Wed 	 7c 	 2%
22:00Wed 	 6c 	 1%
23:00Wed 	 6c 	 1%
00:00Thu 	 5c 	 1%
01:00Thu 	 5c 	 2%
02:00Thu 	 4c 	 4%
03:00Thu 	 4c 	 5%
04:00Thu 	 4c 	 5%
05:00Thu 	 4c 	 5%

# /home/pi/Documents/bbc-weather-predictions/data/Nov03Tue/bbcweather_Tuesday3rdNovember_2020-11-03_0615.txt
# time 	 temp 	 rain
07:00Tue 	 5c 	 94%
08:00Tue 	 6c 	 51%
09:00Tue 	 7c 	 28%
10:00Tue 	 8c 	 19%
11:00Tue 	 9c 	 16%
12:00Tue 	 10c 	 13%
13:00Tue 	 10c 	 9%
14:00Tue 	 10c 	 7%
15:00Tue 	 10c 	 9%
16:00Tue 	 9c 	 11%
17:00Tue 	 8c 	 10%
18:00Tue 	 6c 	 6%
19:00Tue 	 5c 	 5%
20:00Tue 	 5c 	 7%
21:00Tue 	 5c 	 6%
22:00Tue 	 4c 	 3%
23:00Tue 	 4c 	 1%
00:00Wed 	 3c 	 2%
01:00Wed 	 3c 	 1%
02:00Wed 	 3c 	 3%
03:00Wed 	 3c 	 5%
04:00Wed 	 3c 	 5%
05:00Wed 	 3c 	 4%
06:00Wed 	 3c 	 5%
07:00Wed 	 3c 	 6%
08:00Wed 	 5c 	 5%
09:00Wed 	 7c 	 3%
10:00Wed 	 8c 	 3%
11:00Wed 	 9c 	 5%
12:00Wed 	 10c 	 5%
13:00Wed 	 10c 	 2%
14:00Wed 	 11c 	 1%
15:00Wed 	 10c 	 4%
16:00Wed 	 10c 	 7%
17:00Wed 	 9c 	 7%
18:00Wed 	 8c 	 4%
19:00Wed 	 8c 	 3%
20:00Wed 	 7c 	 4%
21:00Wed 	 7c 	 2%
22:00Wed 	 6c 	 1%
23:00Wed 	 6c 	 1%
00:00Thu 	 5c 	 1%
01:00Thu 	 5c 	 2%
02:00Thu 	 4c 	 4%
03:00Thu 	 4c 	 5%
04:00Thu 	 4c 	 5%
05:00Thu 	 4c 	 5%

# /home/pi/Documents/bbc-weather-predictions/data/Nov03Tue/bbcweather_Tuesday3rdNovember_2020-11-03_0630.txt
# time 	 temp 	 rain
07:00Tue 	 6c 	 99%
08:00Tue 	 6c 	 88%
09:00Tue 	 7c 	 30%
10:00Tue 	 8c 	 22%
11:00Tue 	 9c 	 17%
12:00Tue 	 10c 	 13%
13:00Tue 	 10c 	 9%
14:00Tue 	 10c 	 7%
15:00Tue 	 10c 	 9%
16:00Tue 	 9c 	 11%
17:00Tue 	 8c 	 10%
18:00Tue 	 6c 	 6%
19:00Tue 	 5c 	 5%
20:00Tue 	 5c 	 7%
21:00Tue 	 5c 	 6%
22:00Tue 	 4c 	 3%
23:00Tue 	 4c 	 1%
00:00Wed 	 3c 	 2%
01:00Wed 	 3c 	 1%
02:00Wed 	 3c 	 3%
03:00Wed 	 3c 	 5%
04:00Wed 	 3c 	 5%
05:00Wed 	 3c 	 4%
06:00Wed 	 3c 	 5%
07:00Wed 	 3c 	 6%
08:00Wed 	 5c 	 5%
09:00Wed 	 7c 	 3%
10:00Wed 	 8c 	 3%
11:00Wed 	 9c 	 5%
12:00Wed 	 10c 	 5%
13:00Wed 	 10c 	 2%
14:00Wed 	 11c 	 1%
15:00Wed 	 10c 	 4%
16:00Wed 	 10c 	 7%
17:00Wed 	 9c 	 7%
18:00Wed 	 8c 	 4%
19:00Wed 	 8c 	 3%
20:00Wed 	 7c 	 4%
21:00Wed 	 7c 	 2%
22:00Wed 	 6c 	 1%
23:00Wed 	 6c 	 1%
00:00Thu 	 5c 	 1%
01:00Thu 	 5c 	 2%
02:00Thu 	 4c 	 4%
03:00Thu 	 4c 	 5%
04:00Thu 	 4c 	 5%
05:00Thu 	 4c 	 5%

# /home/pi/Documents/bbc-weather-predictions/data/Nov03Tue/bbcweather_Tuesday3rdNovember_2020-11-03_0645.txt
# time 	 temp 	 rain
07:00Tue 	 6c 	 99%
08:00Tue 	 6c 	 88%
09:00Tue 	 7c 	 30%
10:00Tue 	 8c 	 22%
11:00Tue 	 9c 	 17%
12:00Tue 	 10c 	 13%
13:00Tue 	 10c 	 9%
14:00Tue 	 10c 	 7%
15:00Tue 	 10c 	 9%
16:00Tue 	 9c 	 11%
17:00Tue 	 8c 	 10%
18:00Tue 	 6c 	 6%
19:00Tue 	 5c 	 5%
20:00Tue 	 5c 	 7%
21:00Tue 	 5c 	 6%
22:00Tue 	 4c 	 3%
23:00Tue 	 4c 	 1%
00:00Wed 	 3c 	 2%
01:00Wed 	 3c 	 1%
02:00Wed 	 3c 	 3%
03:00Wed 	 3c 	 5%
04:00Wed 	 3c 	 5%
05:00Wed 	 3c 	 4%
06:00Wed 	 3c 	 5%
07:00Wed 	 3c 	 6%
08:00Wed 	 5c 	 5%
09:00Wed 	 7c 	 3%
10:00Wed 	 8c 	 3%
11:00Wed 	 9c 	 5%
12:00Wed 	 10c 	 5%
13:00Wed 	 10c 	 2%
14:00Wed 	 11c 	 1%
15:00Wed 	 10c 	 4%
16:00Wed 	 10c 	 7%
17:00Wed 	 9c 	 7%
18:00Wed 	 8c 	 4%
19:00Wed 	 8c 	 3%
20:00Wed 	 7c 	 4%
21:00Wed 	 7c 	 2%
22:00Wed 	 6c 	 1%
23:00Wed 	 6c 	 1%
00:00Thu 	 5c 	 1%
01:00Thu 	 5c 	 2%
02:00Thu 	 4c 	 4%
03:00Thu 	 4c 	 5%
04:00Thu 	 4c 	 5%
05:00Thu 	 4c 	 5%

# /home/pi/Documents/bbc-weather-predictions/data/Nov03Tue/bbcweather_Tuesday3rdNovember_2020-11-03_0700.txt
# time 	 temp 	 rain
07:00Tue 	 6c 	 99%
08:00Tue 	 6c 	 88%
09:00Tue 	 7c 	 30%
10:00Tue 	 8c 	 22%
11:00Tue 	 9c 	 17%
12:00Tue 	 10c 	 13%
13:00Tue 	 10c 	 9%
14:00Tue 	 10c 	 7%
15:00Tue 	 10c 	 9%
16:00Tue 	 9c 	 11%
17:00Tue 	 8c 	 10%
18:00Tue 	 6c 	 6%
19:00Tue 	 5c 	 5%
20:00Tue 	 5c 	 7%
21:00Tue 	 5c 	 6%
22:00Tue 	 4c 	 3%
23:00Tue 	 4c 	 1%
00:00Wed 	 3c 	 2%
01:00Wed 	 3c 	 1%
02:00Wed 	 3c 	 3%
03:00Wed 	 3c 	 5%
04:00Wed 	 3c 	 5%
05:00Wed 	 3c 	 4%
06:00Wed 	 3c 	 5%
07:00Wed 	 3c 	 6%
08:00Wed 	 5c 	 5%
09:00Wed 	 7c 	 3%
10:00Wed 	 8c 	 3%
11:00Wed 	 9c 	 5%
12:00Wed 	 10c 	 5%
13:00Wed 	 10c 	 2%
14:00Wed 	 11c 	 1%
15:00Wed 	 10c 	 4%
16:00Wed 	 10c 	 7%
17:00Wed 	 9c 	 7%
18:00Wed 	 8c 	 4%
19:00Wed 	 8c 	 3%
20:00Wed 	 7c 	 4%
21:00Wed 	 7c 	 2%
22:00Wed 	 6c 	 1%
23:00Wed 	 6c 	 1%
00:00Thu 	 5c 	 1%
01:00Thu 	 5c 	 2%
02:00Thu 	 4c 	 4%
03:00Thu 	 4c 	 5%
04:00Thu 	 4c 	 5%
05:00Thu 	 4c 	 5%

# /home/pi/Documents/bbc-weather-predictions/data/Nov03Tue/bbcweather_Tuesday3rdNovember_2020-11-03_0715.txt
# time 	 temp 	 rain
08:00Tue 	 6c 	 88%
09:00Tue 	 7c 	 30%
10:00Tue 	 8c 	 22%
11:00Tue 	 9c 	 17%
12:00Tue 	 10c 	 13%
13:00Tue 	 10c 	 9%
14:00Tue 	 10c 	 7%
15:00Tue 	 10c 	 9%
16:00Tue 	 9c 	 11%
17:00Tue 	 8c 	 10%
18:00Tue 	 6c 	 6%
19:00Tue 	 5c 	 5%
20:00Tue 	 5c 	 7%
21:00Tue 	 5c 	 6%
22:00Tue 	 4c 	 3%
23:00Tue 	 4c 	 1%
00:00Wed 	 3c 	 2%
01:00Wed 	 3c 	 1%
02:00Wed 	 3c 	 3%
03:00Wed 	 3c 	 5%
04:00Wed 	 3c 	 5%
05:00Wed 	 3c 	 4%
06:00Wed 	 3c 	 5%
07:00Wed 	 3c 	 6%
08:00Wed 	 5c 	 5%
09:00Wed 	 7c 	 3%
10:00Wed 	 8c 	 3%
11:00Wed 	 9c 	 5%
12:00Wed 	 10c 	 5%
13:00Wed 	 10c 	 2%
14:00Wed 	 11c 	 1%
15:00Wed 	 10c 	 4%
16:00Wed 	 10c 	 7%
17:00Wed 	 9c 	 7%
18:00Wed 	 8c 	 4%
19:00Wed 	 8c 	 3%
20:00Wed 	 7c 	 4%
21:00Wed 	 7c 	 2%
22:00Wed 	 6c 	 1%
23:00Wed 	 6c 	 1%
00:00Thu 	 5c 	 1%
01:00Thu 	 5c 	 2%
02:00Thu 	 4c 	 4%
03:00Thu 	 4c 	 5%
04:00Thu 	 4c 	 5%
05:00Thu 	 4c 	 5%

# /home/pi/Documents/bbc-weather-predictions/data/Nov03Tue/bbcweather_Tuesday3rdNovember_2020-11-03_0730.txt
# time 	 temp 	 rain
08:00Tue 	 6c 	 17%
09:00Tue 	 7c 	 88%
10:00Tue 	 8c 	 36%
11:00Tue 	 9c 	 27%
12:00Tue 	 10c 	 20%
13:00Tue 	 10c 	 15%
14:00Tue 	 10c 	 11%
15:00Tue 	 9c 	 8%
16:00Tue 	 9c 	 7%
17:00Tue 	 8c 	 7%
18:00Tue 	 7c 	 6%
19:00Tue 	 7c 	 5%
20:00Tue 	 6c 	 6%
21:00Tue 	 6c 	 6%
22:00Tue 	 5c 	 5%
23:00Tue 	 5c 	 3%
00:00Wed 	 5c 	 2%
01:00Wed 	 4c 	 2%
02:00Wed 	 4c 	 3%
03:00Wed 	 4c 	 4%
04:00Wed 	 4c 	 5%
05:00Wed 	 4c 	 6%
06:00Wed 	 4c 	 7%
07:00Wed 	 4c 	 8%
08:00Wed 	 5c 	 7%
09:00Wed 	 6c 	 6%
10:00Wed 	 7c 	 9%
11:00Wed 	 9c 	 11%
12:00Wed 	 10c 	 10%
13:00Wed 	 10c 	 9%
14:00Wed 	 11c 	 8%
15:00Wed 	 11c 	 7%
16:00Wed 	 10c 	 6%
17:00Wed 	 9c 	 4%
18:00Wed 	 9c 	 2%
19:00Wed 	 8c 	 1%
20:00Wed 	 7c 	 2%
21:00Wed 	 7c 	 2%
22:00Wed 	 6c 	 1%
23:00Wed 	 6c 	 1%
00:00Thu 	 5c 	 1%
01:00Thu 	 5c 	 2%
02:00Thu 	 4c 	 4%
03:00Thu 	 4c 	 5%
04:00Thu 	 4c 	 5%
05:00Thu 	 4c 	 5%

# /home/pi/Documents/bbc-weather-predictions/data/Nov03Tue/bbcweather_Tuesday3rdNovember_2020-11-03_0745.txt
# time 	 temp 	 rain
08:00Tue 	 6c 	 17%
09:00Tue 	 7c 	 88%
10:00Tue 	 8c 	 36%
11:00Tue 	 9c 	 27%
12:00Tue 	 10c 	 20%
13:00Tue 	 10c 	 15%
14:00Tue 	 10c 	 11%
15:00Tue 	 9c 	 8%
16:00Tue 	 9c 	 7%
17:00Tue 	 8c 	 7%
18:00Tue 	 7c 	 6%
19:00Tue 	 7c 	 5%
20:00Tue 	 6c 	 6%
21:00Tue 	 6c 	 6%
22:00Tue 	 5c 	 5%
23:00Tue 	 5c 	 3%
00:00Wed 	 5c 	 2%
01:00Wed 	 4c 	 2%
02:00Wed 	 4c 	 3%
03:00Wed 	 4c 	 4%
04:00Wed 	 4c 	 5%
05:00Wed 	 4c 	 6%
06:00Wed 	 4c 	 7%
07:00Wed 	 4c 	 8%
08:00Wed 	 5c 	 7%
09:00Wed 	 6c 	 6%
10:00Wed 	 7c 	 9%
11:00Wed 	 9c 	 11%
12:00Wed 	 10c 	 10%
13:00Wed 	 10c 	 9%
14:00Wed 	 11c 	 8%
15:00Wed 	 11c 	 7%
16:00Wed 	 10c 	 6%
17:00Wed 	 9c 	 4%
18:00Wed 	 9c 	 2%
19:00Wed 	 8c 	 1%
20:00Wed 	 7c 	 2%
21:00Wed 	 7c 	 2%
22:00Wed 	 6c 	 1%
23:00Wed 	 6c 	 1%
00:00Thu 	 5c 	 1%
01:00Thu 	 5c 	 2%
02:00Thu 	 4c 	 4%
03:00Thu 	 4c 	 5%
04:00Thu 	 4c 	 5%
05:00Thu 	 4c 	 5%

# /home/pi/Documents/bbc-weather-predictions/data/Nov03Tue/bbcweather_Tuesday3rdNovember_2020-11-03_0800.txt
# time 	 temp 	 rain
08:00Tue 	 6c 	 17%
09:00Tue 	 7c 	 88%
10:00Tue 	 8c 	 36%
11:00Tue 	 9c 	 27%
12:00Tue 	 10c 	 20%
13:00Tue 	 10c 	 15%
14:00Tue 	 10c 	 11%
15:00Tue 	 9c 	 8%
16:00Tue 	 9c 	 7%
17:00Tue 	 8c 	 7%
18:00Tue 	 7c 	 6%
19:00Tue 	 7c 	 5%
20:00Tue 	 6c 	 6%
21:00Tue 	 6c 	 6%
22:00Tue 	 5c 	 5%
23:00Tue 	 5c 	 3%
00:00Wed 	 5c 	 2%
01:00Wed 	 4c 	 2%
02:00Wed 	 4c 	 3%
03:00Wed 	 4c 	 4%
04:00Wed 	 4c 	 5%
05:00Wed 	 4c 	 6%
06:00Wed 	 4c 	 7%
07:00Wed 	 4c 	 8%
08:00Wed 	 5c 	 7%
09:00Wed 	 6c 	 6%
10:00Wed 	 7c 	 9%
11:00Wed 	 9c 	 11%
12:00Wed 	 10c 	 10%
13:00Wed 	 10c 	 9%
14:00Wed 	 11c 	 8%
15:00Wed 	 11c 	 7%
16:00Wed 	 10c 	 6%
17:00Wed 	 9c 	 4%
18:00Wed 	 9c 	 2%
19:00Wed 	 8c 	 1%
20:00Wed 	 7c 	 2%
21:00Wed 	 7c 	 2%
22:00Wed 	 6c 	 1%
23:00Wed 	 6c 	 1%
00:00Thu 	 5c 	 1%
01:00Thu 	 5c 	 2%
02:00Thu 	 4c 	 4%
03:00Thu 	 4c 	 5%
04:00Thu 	 4c 	 5%
05:00Thu 	 4c 	 5%

# /home/pi/Documents/bbc-weather-predictions/data/Nov03Tue/bbcweather_Tuesday3rdNovember_2020-11-03_0815.txt
# time 	 temp 	 rain
09:00Tue 	 7c 	 88%
10:00Tue 	 8c 	 36%
11:00Tue 	 9c 	 27%
12:00Tue 	 10c 	 20%
13:00Tue 	 10c 	 15%
14:00Tue 	 10c 	 11%
15:00Tue 	 9c 	 8%
16:00Tue 	 9c 	 7%
17:00Tue 	 8c 	 7%
18:00Tue 	 7c 	 6%
19:00Tue 	 7c 	 5%
20:00Tue 	 6c 	 6%
21:00Tue 	 6c 	 6%
22:00Tue 	 5c 	 5%
23:00Tue 	 5c 	 3%
00:00Wed 	 5c 	 2%
01:00Wed 	 4c 	 2%
02:00Wed 	 4c 	 3%
03:00Wed 	 4c 	 4%
04:00Wed 	 4c 	 5%
05:00Wed 	 4c 	 6%
06:00Wed 	 4c 	 7%
07:00Wed 	 4c 	 8%
08:00Wed 	 5c 	 7%
09:00Wed 	 6c 	 6%
10:00Wed 	 7c 	 9%
11:00Wed 	 9c 	 11%
12:00Wed 	 10c 	 10%
13:00Wed 	 10c 	 9%
14:00Wed 	 11c 	 8%
15:00Wed 	 11c 	 7%
16:00Wed 	 10c 	 6%
17:00Wed 	 9c 	 4%
18:00Wed 	 9c 	 2%
19:00Wed 	 8c 	 1%
20:00Wed 	 7c 	 2%
21:00Wed 	 7c 	 2%
22:00Wed 	 6c 	 1%
23:00Wed 	 6c 	 1%
00:00Thu 	 5c 	 1%
01:00Thu 	 5c 	 2%
02:00Thu 	 4c 	 4%
03:00Thu 	 4c 	 5%
04:00Thu 	 4c 	 5%
05:00Thu 	 4c 	 5%

# /home/pi/Documents/bbc-weather-predictions/data/Nov03Tue/bbcweather_Tuesday3rdNovember_2020-11-03_0830.txt
# time 	 temp 	 rain
09:00Tue 	 7c 	 98%
10:00Tue 	 8c 	 40%
11:00Tue 	 9c 	 27%
12:00Tue 	 10c 	 20%
13:00Tue 	 10c 	 15%
14:00Tue 	 10c 	 11%
15:00Tue 	 9c 	 8%
16:00Tue 	 9c 	 7%
17:00Tue 	 8c 	 7%
18:00Tue 	 7c 	 6%
19:00Tue 	 7c 	 5%
20:00Tue 	 6c 	 6%
21:00Tue 	 6c 	 6%
22:00Tue 	 5c 	 5%
23:00Tue 	 5c 	 3%
00:00Wed 	 5c 	 2%
01:00Wed 	 4c 	 2%
02:00Wed 	 4c 	 3%
03:00Wed 	 4c 	 4%
04:00Wed 	 4c 	 5%
05:00Wed 	 4c 	 6%
06:00Wed 	 4c 	 7%
07:00Wed 	 4c 	 8%
08:00Wed 	 5c 	 7%
09:00Wed 	 6c 	 6%
10:00Wed 	 7c 	 9%
11:00Wed 	 9c 	 11%
12:00Wed 	 10c 	 10%
13:00Wed 	 10c 	 9%
14:00Wed 	 11c 	 8%
15:00Wed 	 11c 	 7%
16:00Wed 	 10c 	 6%
17:00Wed 	 9c 	 4%
18:00Wed 	 9c 	 2%
19:00Wed 	 8c 	 1%
20:00Wed 	 7c 	 2%
21:00Wed 	 7c 	 2%
22:00Wed 	 6c 	 1%
23:00Wed 	 6c 	 1%
00:00Thu 	 5c 	 1%
01:00Thu 	 5c 	 2%
02:00Thu 	 4c 	 4%
03:00Thu 	 4c 	 5%
04:00Thu 	 4c 	 5%
05:00Thu 	 4c 	 5%

# /home/pi/Documents/bbc-weather-predictions/data/Nov03Tue/bbcweather_Tuesday3rdNovember_2020-11-03_0845.txt
# time 	 temp 	 rain
09:00Tue 	 7c 	 98%
10:00Tue 	 8c 	 40%
11:00Tue 	 9c 	 27%
12:00Tue 	 10c 	 20%
13:00Tue 	 10c 	 15%
14:00Tue 	 10c 	 11%
15:00Tue 	 9c 	 8%
16:00Tue 	 9c 	 7%
17:00Tue 	 8c 	 7%
18:00Tue 	 7c 	 6%
19:00Tue 	 7c 	 5%
20:00Tue 	 6c 	 6%
21:00Tue 	 6c 	 6%
22:00Tue 	 5c 	 5%
23:00Tue 	 5c 	 3%
00:00Wed 	 5c 	 2%
01:00Wed 	 4c 	 2%
02:00Wed 	 4c 	 3%
03:00Wed 	 4c 	 4%
04:00Wed 	 4c 	 5%
05:00Wed 	 4c 	 6%
06:00Wed 	 4c 	 7%
07:00Wed 	 4c 	 8%
08:00Wed 	 5c 	 7%
09:00Wed 	 6c 	 6%
10:00Wed 	 7c 	 9%
11:00Wed 	 9c 	 11%
12:00Wed 	 10c 	 10%
13:00Wed 	 10c 	 9%
14:00Wed 	 11c 	 8%
15:00Wed 	 11c 	 7%
16:00Wed 	 10c 	 6%
17:00Wed 	 9c 	 4%
18:00Wed 	 9c 	 2%
19:00Wed 	 8c 	 1%
20:00Wed 	 7c 	 2%
21:00Wed 	 7c 	 2%
22:00Wed 	 6c 	 1%
23:00Wed 	 6c 	 1%
00:00Thu 	 5c 	 1%
01:00Thu 	 5c 	 2%
02:00Thu 	 4c 	 4%
03:00Thu 	 4c 	 5%
04:00Thu 	 4c 	 5%
05:00Thu 	 4c 	 5%

# /home/pi/Documents/bbc-weather-predictions/data/Nov03Tue/bbcweather_Tuesday3rdNovember_2020-11-03_0900.txt
# time 	 temp 	 rain
09:00Tue 	 7c 	 98%
10:00Tue 	 8c 	 40%
11:00Tue 	 9c 	 27%
12:00Tue 	 10c 	 20%
13:00Tue 	 10c 	 15%
14:00Tue 	 10c 	 11%
15:00Tue 	 9c 	 8%
16:00Tue 	 9c 	 7%
17:00Tue 	 8c 	 7%
18:00Tue 	 7c 	 6%
19:00Tue 	 7c 	 5%
20:00Tue 	 6c 	 6%
21:00Tue 	 6c 	 6%
22:00Tue 	 5c 	 5%
23:00Tue 	 5c 	 3%
00:00Wed 	 5c 	 2%
01:00Wed 	 4c 	 2%
02:00Wed 	 4c 	 3%
03:00Wed 	 4c 	 4%
04:00Wed 	 4c 	 5%
05:00Wed 	 4c 	 6%
06:00Wed 	 4c 	 7%
07:00Wed 	 4c 	 8%
08:00Wed 	 5c 	 7%
09:00Wed 	 6c 	 6%
10:00Wed 	 7c 	 9%
11:00Wed 	 9c 	 11%
12:00Wed 	 10c 	 10%
13:00Wed 	 10c 	 9%
14:00Wed 	 11c 	 8%
15:00Wed 	 11c 	 7%
16:00Wed 	 10c 	 6%
17:00Wed 	 9c 	 4%
18:00Wed 	 9c 	 2%
19:00Wed 	 8c 	 1%
20:00Wed 	 7c 	 2%
21:00Wed 	 7c 	 2%
22:00Wed 	 6c 	 1%
23:00Wed 	 6c 	 1%
00:00Thu 	 5c 	 1%
01:00Thu 	 5c 	 2%
02:00Thu 	 4c 	 4%
03:00Thu 	 4c 	 5%
04:00Thu 	 4c 	 5%
05:00Thu 	 4c 	 5%

# /home/pi/Documents/bbc-weather-predictions/data/Nov03Tue/bbcweather_Tuesday3rdNovember_2020-11-03_0915.txt
# time 	 temp 	 rain
10:00Tue 	 8c 	 40%
11:00Tue 	 9c 	 27%
12:00Tue 	 10c 	 20%
13:00Tue 	 10c 	 15%
14:00Tue 	 10c 	 11%
15:00Tue 	 9c 	 8%
16:00Tue 	 9c 	 7%
17:00Tue 	 8c 	 7%
18:00Tue 	 7c 	 6%
19:00Tue 	 7c 	 5%
20:00Tue 	 6c 	 6%
21:00Tue 	 6c 	 6%
22:00Tue 	 5c 	 5%
23:00Tue 	 5c 	 3%
00:00Wed 	 5c 	 2%
01:00Wed 	 4c 	 2%
02:00Wed 	 4c 	 3%
03:00Wed 	 4c 	 4%
04:00Wed 	 4c 	 5%
05:00Wed 	 4c 	 6%
06:00Wed 	 4c 	 7%
07:00Wed 	 4c 	 8%
08:00Wed 	 5c 	 7%
09:00Wed 	 6c 	 6%
10:00Wed 	 7c 	 9%
11:00Wed 	 9c 	 11%
12:00Wed 	 10c 	 10%
13:00Wed 	 10c 	 9%
14:00Wed 	 11c 	 8%
15:00Wed 	 11c 	 7%
16:00Wed 	 10c 	 6%
17:00Wed 	 9c 	 4%
18:00Wed 	 9c 	 2%
19:00Wed 	 8c 	 1%
20:00Wed 	 7c 	 2%
21:00Wed 	 7c 	 2%
22:00Wed 	 6c 	 1%
23:00Wed 	 6c 	 1%
00:00Thu 	 5c 	 1%
01:00Thu 	 5c 	 2%
02:00Thu 	 4c 	 4%
03:00Thu 	 4c 	 5%
04:00Thu 	 4c 	 5%
05:00Thu 	 4c 	 5%

# /home/pi/Documents/bbc-weather-predictions/data/Nov03Tue/bbcweather_Tuesday3rdNovember_2020-11-03_0930.txt
# time 	 temp 	 rain
10:00Tue 	 7c 	 2%
11:00Tue 	 9c 	 8%
12:00Tue 	 10c 	 19%
13:00Tue 	 10c 	 11%
14:00Tue 	 10c 	 7%
15:00Tue 	 9c 	 7%
16:00Tue 	 9c 	 9%
17:00Tue 	 8c 	 11%
18:00Tue 	 7c 	 7%
19:00Tue 	 7c 	 5%
20:00Tue 	 6c 	 5%
21:00Tue 	 5c 	 4%
22:00Tue 	 4c 	 2%
23:00Tue 	 4c 	 1%
00:00Wed 	 4c 	 1%
01:00Wed 	 3c 	 2%
02:00Wed 	 3c 	 3%
03:00Wed 	 3c 	 4%
04:00Wed 	 3c 	 3%
05:00Wed 	 2c 	 3%
06:00Wed 	 2c 	 6%
07:00Wed 	 2c 	 7%
08:00Wed 	 3c 	 5%
09:00Wed 	 5c 	 4%
10:00Wed 	 7c 	 6%
11:00Wed 	 9c 	 8%
12:00Wed 	 10c 	 8%
13:00Wed 	 10c 	 4%
14:00Wed 	 11c 	 3%
15:00Wed 	 11c 	 6%
16:00Wed 	 10c 	 8%
17:00Wed 	 9c 	 8%
18:00Wed 	 9c 	 4%
19:00Wed 	 8c 	 1%
20:00Wed 	 7c 	 3%
21:00Wed 	 6c 	 2%
22:00Wed 	 6c 	 1%
23:00Wed 	 5c 	 1%
00:00Thu 	 5c 	 1%
01:00Thu 	 4c 	 1%
02:00Thu 	 4c 	 2%
03:00Thu 	 4c 	 3%
04:00Thu 	 4c 	 5%
05:00Thu 	 3c 	 7%

# /home/pi/Documents/bbc-weather-predictions/data/Nov03Tue/bbcweather_Tuesday3rdNovember_2020-11-03_0945.txt
# time 	 temp 	 rain
10:00Tue 	 7c 	 2%
11:00Tue 	 9c 	 8%
12:00Tue 	 10c 	 19%
13:00Tue 	 10c 	 11%
14:00Tue 	 10c 	 7%
15:00Tue 	 9c 	 7%
16:00Tue 	 9c 	 9%
17:00Tue 	 8c 	 11%
18:00Tue 	 7c 	 7%
19:00Tue 	 7c 	 5%
20:00Tue 	 6c 	 5%
21:00Tue 	 5c 	 4%
22:00Tue 	 4c 	 2%
23:00Tue 	 4c 	 1%
00:00Wed 	 4c 	 1%
01:00Wed 	 3c 	 2%
02:00Wed 	 3c 	 3%
03:00Wed 	 3c 	 4%
04:00Wed 	 3c 	 3%
05:00Wed 	 2c 	 3%
06:00Wed 	 2c 	 6%
07:00Wed 	 2c 	 7%
08:00Wed 	 3c 	 5%
09:00Wed 	 5c 	 4%
10:00Wed 	 7c 	 6%
11:00Wed 	 9c 	 8%
12:00Wed 	 10c 	 8%
13:00Wed 	 10c 	 4%
14:00Wed 	 11c 	 3%
15:00Wed 	 11c 	 6%
16:00Wed 	 10c 	 8%
17:00Wed 	 9c 	 8%
18:00Wed 	 9c 	 4%
19:00Wed 	 8c 	 1%
20:00Wed 	 7c 	 3%
21:00Wed 	 6c 	 2%
22:00Wed 	 6c 	 1%
23:00Wed 	 5c 	 1%
00:00Thu 	 5c 	 1%
01:00Thu 	 4c 	 1%
02:00Thu 	 4c 	 2%
03:00Thu 	 4c 	 3%
04:00Thu 	 4c 	 5%
05:00Thu 	 3c 	 7%

# /home/pi/Documents/bbc-weather-predictions/data/Nov03Tue/bbcweather_Tuesday3rdNovember_2020-11-03_1000.txt
# time 	 temp 	 rain
10:00Tue 	 7c 	 2%
11:00Tue 	 9c 	 8%
12:00Tue 	 10c 	 19%
13:00Tue 	 10c 	 11%
14:00Tue 	 10c 	 7%
15:00Tue 	 9c 	 7%
16:00Tue 	 9c 	 9%
17:00Tue 	 8c 	 11%
18:00Tue 	 7c 	 7%
19:00Tue 	 7c 	 5%
20:00Tue 	 6c 	 5%
21:00Tue 	 5c 	 4%
22:00Tue 	 4c 	 2%
23:00Tue 	 4c 	 1%
00:00Wed 	 4c 	 1%
01:00Wed 	 3c 	 2%
02:00Wed 	 3c 	 3%
03:00Wed 	 3c 	 4%
04:00Wed 	 3c 	 3%
05:00Wed 	 2c 	 3%
06:00Wed 	 2c 	 6%
07:00Wed 	 2c 	 7%
08:00Wed 	 3c 	 5%
09:00Wed 	 5c 	 4%
10:00Wed 	 7c 	 6%
11:00Wed 	 9c 	 8%
12:00Wed 	 10c 	 8%
13:00Wed 	 10c 	 4%
14:00Wed 	 11c 	 3%
15:00Wed 	 11c 	 6%
16:00Wed 	 10c 	 8%
17:00Wed 	 9c 	 8%
18:00Wed 	 9c 	 4%
19:00Wed 	 8c 	 1%
20:00Wed 	 7c 	 3%
21:00Wed 	 6c 	 2%
22:00Wed 	 6c 	 1%
23:00Wed 	 5c 	 1%
00:00Thu 	 5c 	 1%
01:00Thu 	 4c 	 1%
02:00Thu 	 4c 	 2%
03:00Thu 	 4c 	 3%
04:00Thu 	 4c 	 5%
05:00Thu 	 3c 	 7%

# /home/pi/Documents/bbc-weather-predictions/data/Nov03Tue/bbcweather_Tuesday3rdNovember_2020-11-03_1015.txt
# time 	 temp 	 rain
11:00Tue 	 9c 	 8%
12:00Tue 	 10c 	 19%
13:00Tue 	 10c 	 11%
14:00Tue 	 10c 	 7%
15:00Tue 	 9c 	 7%
16:00Tue 	 9c 	 9%
17:00Tue 	 8c 	 11%
18:00Tue 	 7c 	 7%
19:00Tue 	 7c 	 5%
20:00Tue 	 6c 	 5%
21:00Tue 	 5c 	 4%
22:00Tue 	 4c 	 2%
23:00Tue 	 4c 	 1%
00:00Wed 	 4c 	 1%
01:00Wed 	 3c 	 2%
02:00Wed 	 3c 	 3%
03:00Wed 	 3c 	 4%
04:00Wed 	 3c 	 3%
05:00Wed 	 2c 	 3%
06:00Wed 	 2c 	 6%
07:00Wed 	 2c 	 7%
08:00Wed 	 3c 	 5%
09:00Wed 	 5c 	 4%
10:00Wed 	 7c 	 6%
11:00Wed 	 9c 	 8%
12:00Wed 	 10c 	 8%
13:00Wed 	 10c 	 4%
14:00Wed 	 11c 	 3%
15:00Wed 	 11c 	 6%
16:00Wed 	 10c 	 8%
17:00Wed 	 9c 	 8%
18:00Wed 	 9c 	 4%
19:00Wed 	 8c 	 1%
20:00Wed 	 7c 	 3%
21:00Wed 	 6c 	 2%
22:00Wed 	 6c 	 1%
23:00Wed 	 5c 	 1%
00:00Thu 	 5c 	 1%
01:00Thu 	 4c 	 1%
02:00Thu 	 4c 	 2%
03:00Thu 	 4c 	 3%
04:00Thu 	 4c 	 5%
05:00Thu 	 3c 	 7%

# /home/pi/Documents/bbc-weather-predictions/data/Nov03Tue/bbcweather_Tuesday3rdNovember_2020-11-03_1030.txt
# time 	 temp 	 rain
11:00Tue 	 8c 	 12%
12:00Tue 	 9c 	 28%
13:00Tue 	 10c 	 10%
14:00Tue 	 10c 	 7%
15:00Tue 	 9c 	 7%
16:00Tue 	 9c 	 9%
17:00Tue 	 8c 	 11%
18:00Tue 	 7c 	 7%
19:00Tue 	 7c 	 5%
20:00Tue 	 6c 	 5%
21:00Tue 	 5c 	 4%
22:00Tue 	 4c 	 2%
23:00Tue 	 4c 	 1%
00:00Wed 	 4c 	 1%
01:00Wed 	 3c 	 2%
02:00Wed 	 3c 	 3%
03:00Wed 	 3c 	 4%
04:00Wed 	 3c 	 3%
05:00Wed 	 2c 	 3%
06:00Wed 	 2c 	 6%
07:00Wed 	 2c 	 7%
08:00Wed 	 3c 	 5%
09:00Wed 	 5c 	 4%
10:00Wed 	 7c 	 6%
11:00Wed 	 9c 	 8%
12:00Wed 	 10c 	 8%
13:00Wed 	 10c 	 4%
14:00Wed 	 11c 	 3%
15:00Wed 	 11c 	 6%
16:00Wed 	 10c 	 8%
17:00Wed 	 9c 	 8%
18:00Wed 	 9c 	 4%
19:00Wed 	 8c 	 2%
20:00Wed 	 7c 	 3%
21:00Wed 	 6c 	 2%
22:00Wed 	 6c 	 1%
23:00Wed 	 5c 	 1%
00:00Thu 	 5c 	 1%
01:00Thu 	 4c 	 1%
02:00Thu 	 4c 	 2%
03:00Thu 	 4c 	 3%
04:00Thu 	 4c 	 5%
05:00Thu 	 3c 	 7%

# /home/pi/Documents/bbc-weather-predictions/data/Nov03Tue/bbcweather_Tuesday3rdNovember_2020-11-03_1045.txt
# time 	 temp 	 rain
11:00Tue 	 8c 	 12%
12:00Tue 	 9c 	 28%
13:00Tue 	 10c 	 10%
14:00Tue 	 10c 	 7%
15:00Tue 	 9c 	 7%
16:00Tue 	 9c 	 9%
17:00Tue 	 8c 	 11%
18:00Tue 	 7c 	 7%
19:00Tue 	 7c 	 5%
20:00Tue 	 6c 	 5%
21:00Tue 	 5c 	 4%
22:00Tue 	 4c 	 2%
23:00Tue 	 4c 	 1%
00:00Wed 	 4c 	 1%
01:00Wed 	 3c 	 2%
02:00Wed 	 3c 	 3%
03:00Wed 	 3c 	 4%
04:00Wed 	 3c 	 3%
05:00Wed 	 2c 	 3%
06:00Wed 	 2c 	 6%
07:00Wed 	 2c 	 7%
08:00Wed 	 3c 	 5%
09:00Wed 	 5c 	 4%
10:00Wed 	 7c 	 6%
11:00Wed 	 9c 	 8%
12:00Wed 	 10c 	 8%
13:00Wed 	 10c 	 4%
14:00Wed 	 11c 	 3%
15:00Wed 	 11c 	 6%
16:00Wed 	 10c 	 8%
17:00Wed 	 9c 	 8%
18:00Wed 	 9c 	 4%
19:00Wed 	 8c 	 2%
20:00Wed 	 7c 	 3%
21:00Wed 	 6c 	 2%
22:00Wed 	 6c 	 1%
23:00Wed 	 5c 	 1%
00:00Thu 	 5c 	 1%
01:00Thu 	 4c 	 1%
02:00Thu 	 4c 	 2%
03:00Thu 	 4c 	 3%
04:00Thu 	 4c 	 5%
05:00Thu 	 3c 	 7%

# /home/pi/Documents/bbc-weather-predictions/data/Nov03Tue/bbcweather_Tuesday3rdNovember_2020-11-03_1100.txt
# time 	 temp 	 rain
11:00Tue 	 8c 	 12%
12:00Tue 	 9c 	 28%
13:00Tue 	 10c 	 10%
14:00Tue 	 10c 	 7%
15:00Tue 	 9c 	 7%
16:00Tue 	 9c 	 9%
17:00Tue 	 8c 	 11%
18:00Tue 	 7c 	 7%
19:00Tue 	 7c 	 5%
20:00Tue 	 6c 	 5%
21:00Tue 	 5c 	 4%
22:00Tue 	 4c 	 2%
23:00Tue 	 4c 	 1%
00:00Wed 	 4c 	 1%
01:00Wed 	 3c 	 2%
02:00Wed 	 3c 	 3%
03:00Wed 	 3c 	 4%
04:00Wed 	 3c 	 3%
05:00Wed 	 2c 	 3%
06:00Wed 	 2c 	 6%
07:00Wed 	 2c 	 7%
08:00Wed 	 3c 	 5%
09:00Wed 	 5c 	 4%
10:00Wed 	 7c 	 6%
11:00Wed 	 9c 	 8%
12:00Wed 	 10c 	 8%
13:00Wed 	 10c 	 4%
14:00Wed 	 11c 	 3%
15:00Wed 	 11c 	 6%
16:00Wed 	 10c 	 8%
17:00Wed 	 9c 	 8%
18:00Wed 	 9c 	 4%
19:00Wed 	 8c 	 2%
20:00Wed 	 7c 	 3%
21:00Wed 	 6c 	 2%
22:00Wed 	 6c 	 1%
23:00Wed 	 5c 	 1%
00:00Thu 	 5c 	 1%
01:00Thu 	 4c 	 1%
02:00Thu 	 4c 	 2%
03:00Thu 	 4c 	 3%
04:00Thu 	 4c 	 5%
05:00Thu 	 3c 	 7%

# /home/pi/Documents/bbc-weather-predictions/data/Nov03Tue/bbcweather_Tuesday3rdNovember_2020-11-03_1115.txt
# time 	 temp 	 rain
12:00Tue 	 9c 	 28%
13:00Tue 	 10c 	 10%
14:00Tue 	 10c 	 7%
15:00Tue 	 9c 	 7%
16:00Tue 	 9c 	 9%
17:00Tue 	 8c 	 11%
18:00Tue 	 7c 	 7%
19:00Tue 	 7c 	 5%
20:00Tue 	 6c 	 5%
21:00Tue 	 5c 	 4%
22:00Tue 	 4c 	 2%
23:00Tue 	 4c 	 1%
00:00Wed 	 4c 	 1%
01:00Wed 	 3c 	 2%
02:00Wed 	 3c 	 3%
03:00Wed 	 3c 	 4%
04:00Wed 	 3c 	 3%
05:00Wed 	 2c 	 3%
06:00Wed 	 2c 	 6%
07:00Wed 	 2c 	 7%
08:00Wed 	 3c 	 5%
09:00Wed 	 5c 	 4%
10:00Wed 	 7c 	 6%
11:00Wed 	 9c 	 8%
12:00Wed 	 10c 	 8%
13:00Wed 	 10c 	 4%
14:00Wed 	 11c 	 3%
15:00Wed 	 11c 	 6%
16:00Wed 	 10c 	 8%
17:00Wed 	 9c 	 8%
18:00Wed 	 9c 	 4%
19:00Wed 	 8c 	 2%
20:00Wed 	 7c 	 3%
21:00Wed 	 6c 	 2%
22:00Wed 	 6c 	 1%
23:00Wed 	 5c 	 1%
00:00Thu 	 5c 	 1%
01:00Thu 	 4c 	 1%
02:00Thu 	 4c 	 2%
03:00Thu 	 4c 	 3%
04:00Thu 	 4c 	 5%
05:00Thu 	 3c 	 7%

# /home/pi/Documents/bbc-weather-predictions/data/Nov03Tue/bbcweather_Tuesday3rdNovember_2020-11-03_1130.txt
# time 	 temp 	 rain
12:00Tue 	 9c 	 1%
13:00Tue 	 10c 	 2%
14:00Tue 	 10c 	 7%
15:00Tue 	 9c 	 7%
16:00Tue 	 9c 	 9%
17:00Tue 	 8c 	 11%
18:00Tue 	 7c 	 7%
19:00Tue 	 7c 	 5%
20:00Tue 	 6c 	 5%
21:00Tue 	 5c 	 4%
22:00Tue 	 4c 	 2%
23:00Tue 	 4c 	 1%
00:00Wed 	 4c 	 1%
01:00Wed 	 3c 	 2%
02:00Wed 	 3c 	 3%
03:00Wed 	 3c 	 4%
04:00Wed 	 3c 	 3%
05:00Wed 	 2c 	 3%
06:00Wed 	 2c 	 6%
07:00Wed 	 2c 	 7%
08:00Wed 	 3c 	 5%
09:00Wed 	 5c 	 4%
10:00Wed 	 7c 	 6%
11:00Wed 	 9c 	 8%
12:00Wed 	 10c 	 8%
13:00Wed 	 10c 	 4%
14:00Wed 	 11c 	 3%
15:00Wed 	 11c 	 6%
16:00Wed 	 10c 	 8%
17:00Wed 	 9c 	 8%
18:00Wed 	 9c 	 4%
19:00Wed 	 8c 	 2%
20:00Wed 	 7c 	 3%
21:00Wed 	 6c 	 2%
22:00Wed 	 6c 	 1%
23:00Wed 	 5c 	 1%
00:00Thu 	 5c 	 1%
01:00Thu 	 4c 	 1%
02:00Thu 	 4c 	 2%
03:00Thu 	 4c 	 3%
04:00Thu 	 4c 	 5%
05:00Thu 	 3c 	 7%

# /home/pi/Documents/bbc-weather-predictions/data/Nov03Tue/bbcweather_Tuesday3rdNovember_2020-11-03_1145.txt
# time 	 temp 	 rain
12:00Tue 	 9c 	 1%
13:00Tue 	 10c 	 2%
14:00Tue 	 10c 	 7%
15:00Tue 	 9c 	 7%
16:00Tue 	 9c 	 9%
17:00Tue 	 8c 	 11%
18:00Tue 	 7c 	 7%
19:00Tue 	 7c 	 5%
20:00Tue 	 6c 	 5%
21:00Tue 	 5c 	 4%
22:00Tue 	 4c 	 2%
23:00Tue 	 4c 	 1%
00:00Wed 	 4c 	 1%
01:00Wed 	 3c 	 2%
02:00Wed 	 3c 	 3%
03:00Wed 	 3c 	 4%
04:00Wed 	 3c 	 3%
05:00Wed 	 2c 	 3%
06:00Wed 	 2c 	 6%
07:00Wed 	 2c 	 7%
08:00Wed 	 3c 	 5%
09:00Wed 	 5c 	 4%
10:00Wed 	 7c 	 6%
11:00Wed 	 9c 	 8%
12:00Wed 	 10c 	 8%
13:00Wed 	 10c 	 4%
14:00Wed 	 11c 	 3%
15:00Wed 	 11c 	 6%
16:00Wed 	 10c 	 8%
17:00Wed 	 9c 	 8%
18:00Wed 	 9c 	 4%
19:00Wed 	 8c 	 2%
20:00Wed 	 7c 	 3%
21:00Wed 	 6c 	 2%
22:00Wed 	 6c 	 1%
23:00Wed 	 5c 	 1%
00:00Thu 	 5c 	 1%
01:00Thu 	 4c 	 1%
02:00Thu 	 4c 	 2%
03:00Thu 	 4c 	 3%
04:00Thu 	 4c 	 5%
05:00Thu 	 3c 	 7%

# /home/pi/Documents/bbc-weather-predictions/data/Nov03Tue/bbcweather_Tuesday3rdNovember_2020-11-03_1200.txt
# time 	 temp 	 rain
12:00Tue 	 9c 	 1%
13:00Tue 	 10c 	 2%
14:00Tue 	 10c 	 7%
15:00Tue 	 9c 	 7%
16:00Tue 	 9c 	 9%
17:00Tue 	 8c 	 11%
18:00Tue 	 7c 	 7%
19:00Tue 	 7c 	 5%
20:00Tue 	 6c 	 5%
21:00Tue 	 5c 	 4%
22:00Tue 	 4c 	 2%
23:00Tue 	 4c 	 1%
00:00Wed 	 4c 	 1%
01:00Wed 	 3c 	 2%
02:00Wed 	 3c 	 3%
03:00Wed 	 3c 	 4%
04:00Wed 	 3c 	 3%
05:00Wed 	 2c 	 3%
06:00Wed 	 2c 	 6%
07:00Wed 	 2c 	 7%
08:00Wed 	 3c 	 5%
09:00Wed 	 5c 	 4%
10:00Wed 	 7c 	 6%
11:00Wed 	 9c 	 8%
12:00Wed 	 10c 	 8%
13:00Wed 	 10c 	 4%
14:00Wed 	 11c 	 3%
15:00Wed 	 11c 	 6%
16:00Wed 	 10c 	 8%
17:00Wed 	 9c 	 8%
18:00Wed 	 9c 	 4%
19:00Wed 	 8c 	 2%
20:00Wed 	 7c 	 3%
21:00Wed 	 6c 	 2%
22:00Wed 	 6c 	 1%
23:00Wed 	 5c 	 1%
00:00Thu 	 5c 	 1%
01:00Thu 	 4c 	 1%
02:00Thu 	 4c 	 2%
03:00Thu 	 4c 	 3%
04:00Thu 	 4c 	 5%
05:00Thu 	 3c 	 7%

# /home/pi/Documents/bbc-weather-predictions/data/Nov03Tue/bbcweather_Tuesday3rdNovember_2020-11-03_1215.txt
# time 	 temp 	 rain
13:00Tue 	 10c 	 2%
14:00Tue 	 10c 	 7%
15:00Tue 	 9c 	 7%
16:00Tue 	 9c 	 9%
17:00Tue 	 8c 	 11%
18:00Tue 	 7c 	 7%
19:00Tue 	 7c 	 5%
20:00Tue 	 6c 	 5%
21:00Tue 	 5c 	 4%
22:00Tue 	 4c 	 2%
23:00Tue 	 4c 	 1%
00:00Wed 	 4c 	 1%
01:00Wed 	 3c 	 2%
02:00Wed 	 3c 	 3%
03:00Wed 	 3c 	 4%
04:00Wed 	 3c 	 3%
05:00Wed 	 2c 	 3%
06:00Wed 	 2c 	 6%
07:00Wed 	 2c 	 7%
08:00Wed 	 3c 	 5%
09:00Wed 	 5c 	 4%
10:00Wed 	 7c 	 6%
11:00Wed 	 9c 	 8%
12:00Wed 	 10c 	 8%
13:00Wed 	 10c 	 4%
14:00Wed 	 11c 	 3%
15:00Wed 	 11c 	 6%
16:00Wed 	 10c 	 8%
17:00Wed 	 9c 	 8%
18:00Wed 	 9c 	 4%
19:00Wed 	 8c 	 2%
20:00Wed 	 7c 	 3%
21:00Wed 	 6c 	 2%
22:00Wed 	 6c 	 1%
23:00Wed 	 5c 	 1%
00:00Thu 	 5c 	 1%
01:00Thu 	 4c 	 1%
02:00Thu 	 4c 	 2%
03:00Thu 	 4c 	 3%
04:00Thu 	 4c 	 5%
05:00Thu 	 3c 	 7%

# /home/pi/Documents/bbc-weather-predictions/data/Nov03Tue/bbcweather_Tuesday3rdNovember_2020-11-03_1230.txt
# time 	 temp 	 rain
13:00Tue 	 10c 	 12%
14:00Tue 	 10c 	 3%
15:00Tue 	 9c 	 7%
16:00Tue 	 9c 	 9%
17:00Tue 	 8c 	 11%
18:00Tue 	 7c 	 7%
19:00Tue 	 7c 	 5%
20:00Tue 	 6c 	 5%
21:00Tue 	 5c 	 4%
22:00Tue 	 4c 	 2%
23:00Tue 	 4c 	 1%
00:00Wed 	 4c 	 1%
01:00Wed 	 3c 	 2%
02:00Wed 	 3c 	 3%
03:00Wed 	 3c 	 4%
04:00Wed 	 3c 	 3%
05:00Wed 	 2c 	 3%
06:00Wed 	 2c 	 6%
07:00Wed 	 2c 	 7%
08:00Wed 	 3c 	 5%
09:00Wed 	 5c 	 4%
10:00Wed 	 7c 	 6%
11:00Wed 	 9c 	 8%
12:00Wed 	 10c 	 8%
13:00Wed 	 10c 	 4%
14:00Wed 	 11c 	 3%
15:00Wed 	 11c 	 6%
16:00Wed 	 10c 	 8%
17:00Wed 	 9c 	 8%
18:00Wed 	 9c 	 4%
19:00Wed 	 8c 	 2%
20:00Wed 	 7c 	 3%
21:00Wed 	 6c 	 2%
22:00Wed 	 6c 	 1%
23:00Wed 	 5c 	 1%
00:00Thu 	 5c 	 1%
01:00Thu 	 4c 	 1%
02:00Thu 	 4c 	 2%
03:00Thu 	 4c 	 3%
04:00Thu 	 4c 	 5%
05:00Thu 	 3c 	 7%

# /home/pi/Documents/bbc-weather-predictions/data/Nov03Tue/bbcweather_Tuesday3rdNovember_2020-11-03_1245.txt
# time 	 temp 	 rain
13:00Tue 	 10c 	 12%
14:00Tue 	 10c 	 3%
15:00Tue 	 9c 	 7%
16:00Tue 	 9c 	 9%
17:00Tue 	 8c 	 11%
18:00Tue 	 7c 	 7%
19:00Tue 	 7c 	 5%
20:00Tue 	 6c 	 5%
21:00Tue 	 5c 	 4%
22:00Tue 	 4c 	 2%
23:00Tue 	 4c 	 1%
00:00Wed 	 4c 	 1%
01:00Wed 	 3c 	 2%
02:00Wed 	 3c 	 3%
03:00Wed 	 3c 	 4%
04:00Wed 	 3c 	 3%
05:00Wed 	 2c 	 3%
06:00Wed 	 2c 	 6%
07:00Wed 	 2c 	 7%
08:00Wed 	 3c 	 5%
09:00Wed 	 5c 	 4%
10:00Wed 	 7c 	 6%
11:00Wed 	 9c 	 8%
12:00Wed 	 10c 	 8%
13:00Wed 	 10c 	 4%
14:00Wed 	 11c 	 3%
15:00Wed 	 11c 	 6%
16:00Wed 	 10c 	 8%
17:00Wed 	 9c 	 8%
18:00Wed 	 9c 	 4%
19:00Wed 	 8c 	 2%
20:00Wed 	 7c 	 3%
21:00Wed 	 6c 	 2%
22:00Wed 	 6c 	 1%
23:00Wed 	 5c 	 1%
00:00Thu 	 5c 	 1%
01:00Thu 	 4c 	 1%
02:00Thu 	 4c 	 2%
03:00Thu 	 4c 	 3%
04:00Thu 	 4c 	 5%
05:00Thu 	 3c 	 7%

# /home/pi/Documents/bbc-weather-predictions/data/Nov03Tue/bbcweather_Tuesday3rdNovember_2020-11-03_1300.txt
# time 	 temp 	 rain
13:00Tue 	 10c 	 12%
14:00Tue 	 10c 	 3%
15:00Tue 	 9c 	 7%
16:00Tue 	 9c 	 9%
17:00Tue 	 8c 	 11%
18:00Tue 	 7c 	 7%
19:00Tue 	 7c 	 5%
20:00Tue 	 6c 	 5%
21:00Tue 	 5c 	 4%
22:00Tue 	 4c 	 2%
23:00Tue 	 4c 	 1%
00:00Wed 	 4c 	 1%
01:00Wed 	 3c 	 2%
02:00Wed 	 3c 	 3%
03:00Wed 	 3c 	 4%
04:00Wed 	 3c 	 3%
05:00Wed 	 2c 	 3%
06:00Wed 	 2c 	 6%
07:00Wed 	 2c 	 7%
08:00Wed 	 3c 	 5%
09:00Wed 	 5c 	 4%
10:00Wed 	 7c 	 6%
11:00Wed 	 9c 	 8%
12:00Wed 	 10c 	 8%
13:00Wed 	 10c 	 4%
14:00Wed 	 11c 	 3%
15:00Wed 	 11c 	 6%
16:00Wed 	 10c 	 8%
17:00Wed 	 9c 	 8%
18:00Wed 	 9c 	 4%
19:00Wed 	 8c 	 2%
20:00Wed 	 7c 	 3%
21:00Wed 	 6c 	 2%
22:00Wed 	 6c 	 1%
23:00Wed 	 5c 	 1%
00:00Thu 	 5c 	 1%
01:00Thu 	 4c 	 1%
02:00Thu 	 4c 	 2%
03:00Thu 	 4c 	 3%
04:00Thu 	 4c 	 5%
05:00Thu 	 3c 	 7%

# /home/pi/Documents/bbc-weather-predictions/data/Nov03Tue/bbcweather_Tuesday3rdNovember_2020-11-03_1315.txt
# time 	 temp 	 rain
14:00Tue 	 10c 	 3%
15:00Tue 	 9c 	 7%
16:00Tue 	 9c 	 9%
17:00Tue 	 8c 	 11%
18:00Tue 	 7c 	 7%
19:00Tue 	 7c 	 5%
20:00Tue 	 6c 	 5%
21:00Tue 	 5c 	 4%
22:00Tue 	 4c 	 2%
23:00Tue 	 4c 	 1%
00:00Wed 	 4c 	 1%
01:00Wed 	 3c 	 2%
02:00Wed 	 3c 	 3%
03:00Wed 	 3c 	 4%
04:00Wed 	 3c 	 3%
05:00Wed 	 2c 	 3%
06:00Wed 	 2c 	 6%
07:00Wed 	 2c 	 7%
08:00Wed 	 3c 	 5%
09:00Wed 	 5c 	 4%
10:00Wed 	 7c 	 6%
11:00Wed 	 9c 	 8%
12:00Wed 	 10c 	 8%
13:00Wed 	 10c 	 4%
14:00Wed 	 11c 	 3%
15:00Wed 	 11c 	 6%
16:00Wed 	 10c 	 8%
17:00Wed 	 9c 	 8%
18:00Wed 	 9c 	 4%
19:00Wed 	 8c 	 2%
20:00Wed 	 7c 	 3%
21:00Wed 	 6c 	 2%
22:00Wed 	 6c 	 1%
23:00Wed 	 5c 	 1%
00:00Thu 	 5c 	 1%
01:00Thu 	 4c 	 1%
02:00Thu 	 4c 	 2%
03:00Thu 	 4c 	 3%
04:00Thu 	 4c 	 5%
05:00Thu 	 3c 	 7%

# /home/pi/Documents/bbc-weather-predictions/data/Nov03Tue/bbcweather_Tuesday3rdNovember_2020-11-03_1330.txt
# time 	 temp 	 rain
14:00Tue 	 10c 	 33%
15:00Tue 	 10c 	 31%
16:00Tue 	 9c 	 10%
17:00Tue 	 8c 	 11%
18:00Tue 	 7c 	 7%
19:00Tue 	 7c 	 5%
20:00Tue 	 6c 	 5%
21:00Tue 	 5c 	 4%
22:00Tue 	 4c 	 2%
23:00Tue 	 4c 	 1%
00:00Wed 	 4c 	 1%
01:00Wed 	 3c 	 2%
02:00Wed 	 3c 	 3%
03:00Wed 	 3c 	 4%
04:00Wed 	 3c 	 3%
05:00Wed 	 2c 	 3%
06:00Wed 	 2c 	 6%
07:00Wed 	 2c 	 7%
08:00Wed 	 3c 	 5%
09:00Wed 	 5c 	 4%
10:00Wed 	 7c 	 6%
11:00Wed 	 9c 	 8%
12:00Wed 	 10c 	 8%
13:00Wed 	 10c 	 4%
14:00Wed 	 11c 	 3%
15:00Wed 	 11c 	 6%
16:00Wed 	 10c 	 8%
17:00Wed 	 9c 	 8%
18:00Wed 	 9c 	 4%
19:00Wed 	 8c 	 2%
20:00Wed 	 7c 	 3%
21:00Wed 	 6c 	 2%
22:00Wed 	 6c 	 1%
23:00Wed 	 5c 	 1%
00:00Thu 	 5c 	 1%
01:00Thu 	 4c 	 1%
02:00Thu 	 4c 	 2%
03:00Thu 	 4c 	 3%
04:00Thu 	 4c 	 5%
05:00Thu 	 3c 	 7%

# /home/pi/Documents/bbc-weather-predictions/data/Nov03Tue/bbcweather_Tuesday3rdNovember_2020-11-03_1345.txt
# time 	 temp 	 rain
14:00Tue 	 10c 	 33%
15:00Tue 	 10c 	 31%
16:00Tue 	 9c 	 10%
17:00Tue 	 8c 	 11%
18:00Tue 	 7c 	 7%
19:00Tue 	 7c 	 5%
20:00Tue 	 6c 	 5%
21:00Tue 	 5c 	 4%
22:00Tue 	 4c 	 2%
23:00Tue 	 4c 	 1%
00:00Wed 	 4c 	 1%
01:00Wed 	 3c 	 2%
02:00Wed 	 3c 	 3%
03:00Wed 	 3c 	 4%
04:00Wed 	 3c 	 3%
05:00Wed 	 2c 	 3%
06:00Wed 	 2c 	 6%
07:00Wed 	 2c 	 7%
08:00Wed 	 3c 	 5%
09:00Wed 	 5c 	 4%
10:00Wed 	 7c 	 6%
11:00Wed 	 9c 	 8%
12:00Wed 	 10c 	 8%
13:00Wed 	 10c 	 4%
14:00Wed 	 11c 	 3%
15:00Wed 	 11c 	 6%
16:00Wed 	 10c 	 8%
17:00Wed 	 9c 	 8%
18:00Wed 	 9c 	 4%
19:00Wed 	 8c 	 2%
20:00Wed 	 7c 	 3%
21:00Wed 	 6c 	 2%
22:00Wed 	 6c 	 1%
23:00Wed 	 5c 	 1%
00:00Thu 	 5c 	 1%
01:00Thu 	 4c 	 1%
02:00Thu 	 4c 	 2%
03:00Thu 	 4c 	 3%
04:00Thu 	 4c 	 5%
05:00Thu 	 3c 	 7%

# /home/pi/Documents/bbc-weather-predictions/data/Nov03Tue/bbcweather_Tuesday3rdNovember_2020-11-03_1400.txt
# time 	 temp 	 rain
14:00Tue 	 10c 	 33%
15:00Tue 	 10c 	 31%
16:00Tue 	 9c 	 10%
17:00Tue 	 8c 	 11%
18:00Tue 	 7c 	 7%
19:00Tue 	 7c 	 5%
20:00Tue 	 6c 	 5%
21:00Tue 	 5c 	 4%
22:00Tue 	 4c 	 2%
23:00Tue 	 4c 	 1%
00:00Wed 	 4c 	 1%
01:00Wed 	 3c 	 2%
02:00Wed 	 3c 	 3%
03:00Wed 	 3c 	 4%
04:00Wed 	 3c 	 3%
05:00Wed 	 2c 	 3%
06:00Wed 	 2c 	 6%
07:00Wed 	 2c 	 7%
08:00Wed 	 3c 	 5%
09:00Wed 	 5c 	 4%
10:00Wed 	 7c 	 6%
11:00Wed 	 9c 	 8%
12:00Wed 	 10c 	 8%
13:00Wed 	 10c 	 4%
14:00Wed 	 11c 	 3%
15:00Wed 	 11c 	 6%
16:00Wed 	 10c 	 8%
17:00Wed 	 9c 	 8%
18:00Wed 	 9c 	 4%
19:00Wed 	 8c 	 2%
20:00Wed 	 7c 	 3%
21:00Wed 	 6c 	 2%
22:00Wed 	 6c 	 1%
23:00Wed 	 5c 	 1%
00:00Thu 	 5c 	 1%
01:00Thu 	 4c 	 1%
02:00Thu 	 4c 	 2%
03:00Thu 	 4c 	 3%
04:00Thu 	 4c 	 5%
05:00Thu 	 3c 	 7%

# /home/pi/Documents/bbc-weather-predictions/data/Nov03Tue/bbcweather_Tuesday3rdNovember_2020-11-03_1415.txt
# time 	 temp 	 rain
15:00Tue 	 10c 	 31%
16:00Tue 	 9c 	 10%
17:00Tue 	 8c 	 11%
18:00Tue 	 7c 	 7%
19:00Tue 	 7c 	 5%
20:00Tue 	 6c 	 5%
21:00Tue 	 5c 	 4%
22:00Tue 	 4c 	 2%
23:00Tue 	 4c 	 1%
00:00Wed 	 4c 	 1%
01:00Wed 	 3c 	 2%
02:00Wed 	 3c 	 3%
03:00Wed 	 3c 	 4%
04:00Wed 	 3c 	 3%
05:00Wed 	 2c 	 3%
06:00Wed 	 2c 	 6%
07:00Wed 	 2c 	 7%
08:00Wed 	 3c 	 5%
09:00Wed 	 5c 	 4%
10:00Wed 	 7c 	 6%
11:00Wed 	 9c 	 8%
12:00Wed 	 10c 	 8%
13:00Wed 	 10c 	 4%
14:00Wed 	 11c 	 3%
15:00Wed 	 11c 	 6%
16:00Wed 	 10c 	 8%
17:00Wed 	 9c 	 8%
18:00Wed 	 9c 	 4%
19:00Wed 	 8c 	 2%
20:00Wed 	 7c 	 3%
21:00Wed 	 6c 	 2%
22:00Wed 	 6c 	 1%
23:00Wed 	 5c 	 1%
00:00Thu 	 5c 	 1%
01:00Thu 	 4c 	 1%
02:00Thu 	 4c 	 2%
03:00Thu 	 4c 	 3%
04:00Thu 	 4c 	 5%
05:00Thu 	 3c 	 7%

# /home/pi/Documents/bbc-weather-predictions/data/Nov03Tue/bbcweather_Tuesday3rdNovember_2020-11-03_1430.txt
# time 	 temp 	 rain
15:00Tue 	 10c 	 37%
16:00Tue 	 9c 	 34%
17:00Tue 	 8c 	 9%
18:00Tue 	 7c 	 7%
19:00Tue 	 7c 	 5%
20:00Tue 	 6c 	 5%
21:00Tue 	 5c 	 4%
22:00Tue 	 4c 	 2%
23:00Tue 	 4c 	 1%
00:00Wed 	 4c 	 1%
01:00Wed 	 3c 	 2%
02:00Wed 	 3c 	 3%
03:00Wed 	 3c 	 4%
04:00Wed 	 3c 	 3%
05:00Wed 	 2c 	 3%
06:00Wed 	 2c 	 6%
07:00Wed 	 2c 	 7%
08:00Wed 	 3c 	 5%
09:00Wed 	 5c 	 4%
10:00Wed 	 7c 	 6%
11:00Wed 	 9c 	 8%
12:00Wed 	 10c 	 8%
13:00Wed 	 10c 	 4%
14:00Wed 	 11c 	 3%
15:00Wed 	 11c 	 6%
16:00Wed 	 10c 	 8%
17:00Wed 	 9c 	 8%
18:00Wed 	 9c 	 4%
19:00Wed 	 8c 	 2%
20:00Wed 	 7c 	 3%
21:00Wed 	 6c 	 2%
22:00Wed 	 6c 	 1%
23:00Wed 	 5c 	 1%
00:00Thu 	 5c 	 1%
01:00Thu 	 4c 	 1%
02:00Thu 	 4c 	 2%
03:00Thu 	 4c 	 3%
04:00Thu 	 4c 	 5%
05:00Thu 	 3c 	 7%

# /home/pi/Documents/bbc-weather-predictions/data/Nov03Tue/bbcweather_Tuesday3rdNovember_2020-11-03_1445.txt
# time 	 temp 	 rain
15:00Tue 	 10c 	 37%
16:00Tue 	 9c 	 34%
17:00Tue 	 8c 	 9%
18:00Tue 	 7c 	 7%
19:00Tue 	 7c 	 5%
20:00Tue 	 6c 	 5%
21:00Tue 	 5c 	 4%
22:00Tue 	 4c 	 2%
23:00Tue 	 4c 	 1%
00:00Wed 	 4c 	 1%
01:00Wed 	 3c 	 2%
02:00Wed 	 3c 	 3%
03:00Wed 	 3c 	 4%
04:00Wed 	 3c 	 3%
05:00Wed 	 2c 	 3%
06:00Wed 	 2c 	 6%
07:00Wed 	 2c 	 7%
08:00Wed 	 3c 	 5%
09:00Wed 	 5c 	 4%
10:00Wed 	 7c 	 6%
11:00Wed 	 9c 	 8%
12:00Wed 	 10c 	 8%
13:00Wed 	 10c 	 4%
14:00Wed 	 11c 	 3%
15:00Wed 	 11c 	 6%
16:00Wed 	 10c 	 8%
17:00Wed 	 9c 	 8%
18:00Wed 	 9c 	 4%
19:00Wed 	 8c 	 2%
20:00Wed 	 7c 	 3%
21:00Wed 	 6c 	 2%
22:00Wed 	 6c 	 1%
23:00Wed 	 5c 	 1%
00:00Thu 	 5c 	 1%
01:00Thu 	 4c 	 1%
02:00Thu 	 4c 	 2%
03:00Thu 	 4c 	 3%
04:00Thu 	 4c 	 5%
05:00Thu 	 3c 	 7%

# /home/pi/Documents/bbc-weather-predictions/data/Nov03Tue/bbcweather_Tuesday3rdNovember_2020-11-03_1500.txt
# time 	 temp 	 rain
15:00Tue 	 10c 	 37%
16:00Tue 	 9c 	 34%
17:00Tue 	 8c 	 9%
18:00Tue 	 7c 	 7%
19:00Tue 	 7c 	 5%
20:00Tue 	 6c 	 5%
21:00Tue 	 5c 	 4%
22:00Tue 	 4c 	 2%
23:00Tue 	 4c 	 1%
00:00Wed 	 4c 	 1%
01:00Wed 	 3c 	 2%
02:00Wed 	 3c 	 3%
03:00Wed 	 3c 	 4%
04:00Wed 	 3c 	 3%
05:00Wed 	 2c 	 3%
06:00Wed 	 2c 	 6%
07:00Wed 	 2c 	 7%
08:00Wed 	 3c 	 5%
09:00Wed 	 5c 	 4%
10:00Wed 	 7c 	 6%
11:00Wed 	 9c 	 8%
12:00Wed 	 10c 	 8%
13:00Wed 	 10c 	 4%
14:00Wed 	 11c 	 3%
15:00Wed 	 11c 	 6%
16:00Wed 	 10c 	 8%
17:00Wed 	 9c 	 8%
18:00Wed 	 9c 	 4%
19:00Wed 	 8c 	 2%
20:00Wed 	 7c 	 3%
21:00Wed 	 6c 	 2%
22:00Wed 	 6c 	 1%
23:00Wed 	 5c 	 1%
00:00Thu 	 5c 	 1%
01:00Thu 	 4c 	 1%
02:00Thu 	 4c 	 2%
03:00Thu 	 4c 	 3%
04:00Thu 	 4c 	 5%
05:00Thu 	 3c 	 7%

# /home/pi/Documents/bbc-weather-predictions/data/Nov03Tue/bbcweather_Tuesday3rdNovember_2020-11-03_1515.txt
# time 	 temp 	 rain
16:00Tue 	 9c 	 34%
17:00Tue 	 8c 	 9%
18:00Tue 	 7c 	 7%
19:00Tue 	 7c 	 5%
20:00Tue 	 6c 	 5%
21:00Tue 	 5c 	 4%
22:00Tue 	 4c 	 2%
23:00Tue 	 4c 	 1%
00:00Wed 	 4c 	 1%
01:00Wed 	 3c 	 2%
02:00Wed 	 3c 	 3%
03:00Wed 	 3c 	 4%
04:00Wed 	 3c 	 3%
05:00Wed 	 2c 	 3%
06:00Wed 	 2c 	 6%
07:00Wed 	 2c 	 7%
08:00Wed 	 3c 	 5%
09:00Wed 	 5c 	 4%
10:00Wed 	 7c 	 6%
11:00Wed 	 9c 	 8%
12:00Wed 	 10c 	 8%
13:00Wed 	 10c 	 4%
14:00Wed 	 11c 	 3%
15:00Wed 	 11c 	 6%
16:00Wed 	 10c 	 8%
17:00Wed 	 9c 	 8%
18:00Wed 	 9c 	 4%
19:00Wed 	 8c 	 2%
20:00Wed 	 7c 	 3%
21:00Wed 	 6c 	 2%
22:00Wed 	 6c 	 1%
23:00Wed 	 5c 	 1%
00:00Thu 	 5c 	 1%
01:00Thu 	 4c 	 1%
02:00Thu 	 4c 	 2%
03:00Thu 	 4c 	 3%
04:00Thu 	 4c 	 5%
05:00Thu 	 3c 	 7%

# /home/pi/Documents/bbc-weather-predictions/data/Nov03Tue/bbcweather_Tuesday3rdNovember_2020-11-03_1530.txt
# time 	 temp 	 rain
16:00Tue 	 8c 	 21%
17:00Tue 	 8c 	 59%
18:00Tue 	 7c 	 6%
19:00Tue 	 7c 	 5%
20:00Tue 	 6c 	 5%
21:00Tue 	 5c 	 4%
22:00Tue 	 4c 	 2%
23:00Tue 	 4c 	 1%
00:00Wed 	 4c 	 1%
01:00Wed 	 3c 	 2%
02:00Wed 	 3c 	 3%
03:00Wed 	 3c 	 4%
04:00Wed 	 3c 	 3%
05:00Wed 	 2c 	 3%
06:00Wed 	 2c 	 6%
07:00Wed 	 2c 	 7%
08:00Wed 	 3c 	 5%
09:00Wed 	 5c 	 4%
10:00Wed 	 7c 	 6%
11:00Wed 	 9c 	 8%
12:00Wed 	 10c 	 8%
13:00Wed 	 10c 	 4%
14:00Wed 	 11c 	 3%
15:00Wed 	 11c 	 6%
16:00Wed 	 10c 	 8%
17:00Wed 	 9c 	 8%
18:00Wed 	 9c 	 4%
19:00Wed 	 8c 	 2%
20:00Wed 	 7c 	 3%
21:00Wed 	 6c 	 2%
22:00Wed 	 6c 	 1%
23:00Wed 	 5c 	 1%
00:00Thu 	 5c 	 1%
01:00Thu 	 4c 	 1%
02:00Thu 	 4c 	 2%
03:00Thu 	 4c 	 3%
04:00Thu 	 4c 	 5%
05:00Thu 	 3c 	 7%

# /home/pi/Documents/bbc-weather-predictions/data/Nov03Tue/bbcweather_Tuesday3rdNovember_2020-11-03_1545.txt
# time 	 temp 	 rain
16:00Tue 	 8c 	 21%
17:00Tue 	 8c 	 59%
18:00Tue 	 7c 	 6%
19:00Tue 	 7c 	 5%
20:00Tue 	 6c 	 5%
21:00Tue 	 5c 	 4%
22:00Tue 	 4c 	 2%
23:00Tue 	 4c 	 1%
00:00Wed 	 4c 	 1%
01:00Wed 	 3c 	 2%
02:00Wed 	 3c 	 3%
03:00Wed 	 3c 	 4%
04:00Wed 	 3c 	 3%
05:00Wed 	 2c 	 3%
06:00Wed 	 2c 	 6%
07:00Wed 	 2c 	 7%
08:00Wed 	 3c 	 5%
09:00Wed 	 5c 	 4%
10:00Wed 	 7c 	 6%
11:00Wed 	 9c 	 8%
12:00Wed 	 10c 	 8%
13:00Wed 	 10c 	 4%
14:00Wed 	 11c 	 3%
15:00Wed 	 11c 	 6%
16:00Wed 	 10c 	 8%
17:00Wed 	 9c 	 8%
18:00Wed 	 9c 	 4%
19:00Wed 	 8c 	 2%
20:00Wed 	 7c 	 3%
21:00Wed 	 6c 	 2%
22:00Wed 	 6c 	 1%
23:00Wed 	 5c 	 1%
00:00Thu 	 5c 	 1%
01:00Thu 	 4c 	 1%
02:00Thu 	 4c 	 2%
03:00Thu 	 4c 	 3%
04:00Thu 	 4c 	 5%
05:00Thu 	 3c 	 7%

# /home/pi/Documents/bbc-weather-predictions/data/Nov03Tue/bbcweather_Tuesday3rdNovember_2020-11-03_1600.txt
# time 	 temp 	 rain
16:00Tue 	 8c 	 21%
17:00Tue 	 8c 	 59%
18:00Tue 	 7c 	 6%
19:00Tue 	 7c 	 5%
20:00Tue 	 6c 	 5%
21:00Tue 	 5c 	 4%
22:00Tue 	 4c 	 2%
23:00Tue 	 4c 	 1%
00:00Wed 	 4c 	 1%
01:00Wed 	 3c 	 2%
02:00Wed 	 3c 	 3%
03:00Wed 	 3c 	 4%
04:00Wed 	 3c 	 3%
05:00Wed 	 2c 	 3%
06:00Wed 	 2c 	 6%
07:00Wed 	 2c 	 7%
08:00Wed 	 3c 	 5%
09:00Wed 	 5c 	 4%
10:00Wed 	 7c 	 6%
11:00Wed 	 9c 	 8%
12:00Wed 	 10c 	 8%
13:00Wed 	 10c 	 4%
14:00Wed 	 11c 	 3%
15:00Wed 	 11c 	 6%
16:00Wed 	 10c 	 8%
17:00Wed 	 9c 	 8%
18:00Wed 	 9c 	 4%
19:00Wed 	 8c 	 2%
20:00Wed 	 7c 	 3%
21:00Wed 	 6c 	 2%
22:00Wed 	 6c 	 1%
23:00Wed 	 5c 	 1%
00:00Thu 	 5c 	 1%
01:00Thu 	 4c 	 1%
02:00Thu 	 4c 	 2%
03:00Thu 	 4c 	 3%
04:00Thu 	 4c 	 5%
05:00Thu 	 3c 	 7%

# /home/pi/Documents/bbc-weather-predictions/data/Nov03Tue/bbcweather_Tuesday3rdNovember_2020-11-03_1615.txt
# time 	 temp 	 rain
17:00Tue 	 8c 	 59%
18:00Tue 	 7c 	 6%
19:00Tue 	 7c 	 5%
20:00Tue 	 6c 	 5%
21:00Tue 	 5c 	 4%
22:00Tue 	 4c 	 2%
23:00Tue 	 4c 	 1%
00:00Wed 	 4c 	 1%
01:00Wed 	 3c 	 2%
02:00Wed 	 3c 	 3%
03:00Wed 	 3c 	 4%
04:00Wed 	 3c 	 3%
05:00Wed 	 2c 	 3%
06:00Wed 	 2c 	 6%
07:00Wed 	 2c 	 7%
08:00Wed 	 3c 	 5%
09:00Wed 	 5c 	 4%
10:00Wed 	 7c 	 6%
11:00Wed 	 9c 	 8%
12:00Wed 	 10c 	 8%
13:00Wed 	 10c 	 4%
14:00Wed 	 11c 	 3%
15:00Wed 	 11c 	 6%
16:00Wed 	 10c 	 8%
17:00Wed 	 9c 	 8%
18:00Wed 	 9c 	 4%
19:00Wed 	 8c 	 2%
20:00Wed 	 7c 	 3%
21:00Wed 	 6c 	 2%
22:00Wed 	 6c 	 1%
23:00Wed 	 5c 	 1%
00:00Thu 	 5c 	 1%
01:00Thu 	 4c 	 1%
02:00Thu 	 4c 	 2%
03:00Thu 	 4c 	 3%
04:00Thu 	 4c 	 5%
05:00Thu 	 3c 	 7%

# /home/pi/Documents/bbc-weather-predictions/data/Nov03Tue/bbcweather_Tuesday3rdNovember_2020-11-03_1630.txt
# time 	 temp 	 rain
17:00Tue 	 8c 	 17%
18:00Tue 	 7c 	 14%
19:00Tue 	 7c 	 6%
20:00Tue 	 6c 	 6%
21:00Tue 	 5c 	 4%
22:00Tue 	 4c 	 2%
23:00Tue 	 4c 	 1%
00:00Wed 	 4c 	 1%
01:00Wed 	 3c 	 2%
02:00Wed 	 3c 	 3%
03:00Wed 	 3c 	 4%
04:00Wed 	 3c 	 3%
05:00Wed 	 2c 	 3%
06:00Wed 	 2c 	 6%
07:00Wed 	 2c 	 7%
08:00Wed 	 3c 	 5%
09:00Wed 	 5c 	 4%
10:00Wed 	 7c 	 6%
11:00Wed 	 9c 	 8%
12:00Wed 	 10c 	 8%
13:00Wed 	 10c 	 4%
14:00Wed 	 11c 	 3%
15:00Wed 	 11c 	 6%
16:00Wed 	 10c 	 8%
17:00Wed 	 9c 	 8%
18:00Wed 	 9c 	 4%
19:00Wed 	 8c 	 2%
20:00Wed 	 7c 	 3%
21:00Wed 	 6c 	 2%
22:00Wed 	 6c 	 1%
23:00Wed 	 5c 	 1%
00:00Thu 	 5c 	 1%
01:00Thu 	 4c 	 1%
02:00Thu 	 4c 	 2%
03:00Thu 	 4c 	 3%
04:00Thu 	 4c 	 5%
05:00Thu 	 3c 	 7%

# /home/pi/Documents/bbc-weather-predictions/data/Nov03Tue/bbcweather_Tuesday3rdNovember_2020-11-03_1645.txt
# time 	 temp 	 rain
17:00Tue 	 8c 	 17%
18:00Tue 	 7c 	 14%
19:00Tue 	 7c 	 6%
20:00Tue 	 6c 	 6%
21:00Tue 	 5c 	 4%
22:00Tue 	 4c 	 2%
23:00Tue 	 4c 	 1%
00:00Wed 	 4c 	 1%
01:00Wed 	 3c 	 2%
02:00Wed 	 3c 	 3%
03:00Wed 	 3c 	 4%
04:00Wed 	 3c 	 3%
05:00Wed 	 2c 	 3%
06:00Wed 	 2c 	 6%
07:00Wed 	 2c 	 7%
08:00Wed 	 3c 	 5%
09:00Wed 	 5c 	 4%
10:00Wed 	 7c 	 6%
11:00Wed 	 9c 	 8%
12:00Wed 	 10c 	 8%
13:00Wed 	 10c 	 4%
14:00Wed 	 11c 	 3%
15:00Wed 	 11c 	 6%
16:00Wed 	 10c 	 8%
17:00Wed 	 9c 	 8%
18:00Wed 	 9c 	 4%
19:00Wed 	 8c 	 2%
20:00Wed 	 7c 	 3%
21:00Wed 	 6c 	 2%
22:00Wed 	 6c 	 1%
23:00Wed 	 5c 	 1%
00:00Thu 	 5c 	 1%
01:00Thu 	 4c 	 1%
02:00Thu 	 4c 	 2%
03:00Thu 	 4c 	 3%
04:00Thu 	 4c 	 5%
05:00Thu 	 3c 	 7%

# /home/pi/Documents/bbc-weather-predictions/data/Nov03Tue/bbcweather_Tuesday3rdNovember_2020-11-03_1700.txt
# time 	 temp 	 rain
17:00Tue 	 8c 	 17%
18:00Tue 	 7c 	 14%
19:00Tue 	 7c 	 6%
20:00Tue 	 6c 	 6%
21:00Tue 	 5c 	 4%
22:00Tue 	 4c 	 2%
23:00Tue 	 4c 	 1%
00:00Wed 	 4c 	 1%
01:00Wed 	 3c 	 2%
02:00Wed 	 3c 	 3%
03:00Wed 	 3c 	 4%
04:00Wed 	 3c 	 3%
05:00Wed 	 2c 	 3%
06:00Wed 	 2c 	 6%
07:00Wed 	 2c 	 7%
08:00Wed 	 3c 	 5%
09:00Wed 	 5c 	 4%
10:00Wed 	 7c 	 6%
11:00Wed 	 9c 	 8%
12:00Wed 	 10c 	 8%
13:00Wed 	 10c 	 4%
14:00Wed 	 11c 	 3%
15:00Wed 	 11c 	 6%
16:00Wed 	 10c 	 8%
17:00Wed 	 9c 	 8%
18:00Wed 	 9c 	 4%
19:00Wed 	 8c 	 2%
20:00Wed 	 7c 	 3%
21:00Wed 	 6c 	 2%
22:00Wed 	 6c 	 1%
23:00Wed 	 5c 	 1%
00:00Thu 	 5c 	 1%
01:00Thu 	 4c 	 1%
02:00Thu 	 4c 	 2%
03:00Thu 	 4c 	 3%
04:00Thu 	 4c 	 5%
05:00Thu 	 3c 	 7%

# /home/pi/Documents/bbc-weather-predictions/data/Nov03Tue/bbcweather_Tuesday3rdNovember_2020-11-03_1715.txt
# time 	 temp 	 rain
18:00Tue 	 7c 	 14%
19:00Tue 	 7c 	 6%
20:00Tue 	 6c 	 6%
21:00Tue 	 5c 	 4%
22:00Tue 	 4c 	 2%
23:00Tue 	 4c 	 1%
00:00Wed 	 4c 	 1%
01:00Wed 	 3c 	 2%
02:00Wed 	 3c 	 3%
03:00Wed 	 3c 	 4%
04:00Wed 	 3c 	 3%
05:00Wed 	 2c 	 3%
06:00Wed 	 2c 	 6%
07:00Wed 	 2c 	 7%
08:00Wed 	 3c 	 5%
09:00Wed 	 5c 	 4%
10:00Wed 	 7c 	 6%
11:00Wed 	 9c 	 8%
12:00Wed 	 10c 	 8%
13:00Wed 	 10c 	 4%
14:00Wed 	 11c 	 3%
15:00Wed 	 11c 	 6%
16:00Wed 	 10c 	 8%
17:00Wed 	 9c 	 8%
18:00Wed 	 9c 	 4%
19:00Wed 	 8c 	 2%
20:00Wed 	 7c 	 3%
21:00Wed 	 6c 	 2%
22:00Wed 	 6c 	 1%
23:00Wed 	 5c 	 1%
00:00Thu 	 5c 	 1%
01:00Thu 	 4c 	 1%
02:00Thu 	 4c 	 2%
03:00Thu 	 4c 	 3%
04:00Thu 	 4c 	 5%
05:00Thu 	 3c 	 7%

# /home/pi/Documents/bbc-weather-predictions/data/Nov03Tue/bbcweather_Tuesday3rdNovember_2020-11-03_1730.txt
# time 	 temp 	 rain
18:00Tue 	 7c 	 16%
19:00Tue 	 7c 	 44%
20:00Tue 	 6c 	 6%
21:00Tue 	 6c 	 4%
22:00Tue 	 5c 	 2%
23:00Tue 	 4c 	 1%
00:00Wed 	 4c 	 1%
01:00Wed 	 3c 	 2%
02:00Wed 	 3c 	 3%
03:00Wed 	 3c 	 4%
04:00Wed 	 3c 	 3%
05:00Wed 	 2c 	 3%
06:00Wed 	 2c 	 6%
07:00Wed 	 2c 	 7%
08:00Wed 	 3c 	 5%
09:00Wed 	 5c 	 4%
10:00Wed 	 7c 	 6%
11:00Wed 	 9c 	 8%
12:00Wed 	 10c 	 8%
13:00Wed 	 10c 	 4%
14:00Wed 	 11c 	 3%
15:00Wed 	 11c 	 6%
16:00Wed 	 10c 	 8%
17:00Wed 	 9c 	 8%
18:00Wed 	 9c 	 4%
19:00Wed 	 8c 	 2%
20:00Wed 	 7c 	 3%
21:00Wed 	 6c 	 2%
22:00Wed 	 6c 	 1%
23:00Wed 	 5c 	 1%
00:00Thu 	 5c 	 1%
01:00Thu 	 4c 	 1%
02:00Thu 	 4c 	 2%
03:00Thu 	 4c 	 3%
04:00Thu 	 4c 	 5%
05:00Thu 	 3c 	 7%

# /home/pi/Documents/bbc-weather-predictions/data/Nov03Tue/bbcweather_Tuesday3rdNovember_2020-11-03_1745.txt
# time 	 temp 	 rain
18:00Tue 	 7c 	 16%
19:00Tue 	 7c 	 44%
20:00Tue 	 6c 	 6%
21:00Tue 	 6c 	 4%
22:00Tue 	 5c 	 2%
23:00Tue 	 4c 	 1%
00:00Wed 	 4c 	 1%
01:00Wed 	 3c 	 2%
02:00Wed 	 3c 	 3%
03:00Wed 	 3c 	 4%
04:00Wed 	 3c 	 3%
05:00Wed 	 2c 	 3%
06:00Wed 	 2c 	 6%
07:00Wed 	 2c 	 7%
08:00Wed 	 3c 	 5%
09:00Wed 	 5c 	 4%
10:00Wed 	 7c 	 6%
11:00Wed 	 9c 	 8%
12:00Wed 	 10c 	 8%
13:00Wed 	 10c 	 4%
14:00Wed 	 11c 	 3%
15:00Wed 	 11c 	 6%
16:00Wed 	 10c 	 8%
17:00Wed 	 9c 	 8%
18:00Wed 	 9c 	 4%
19:00Wed 	 8c 	 2%
20:00Wed 	 7c 	 3%
21:00Wed 	 6c 	 2%
22:00Wed 	 6c 	 1%
23:00Wed 	 5c 	 1%
00:00Thu 	 5c 	 1%
01:00Thu 	 4c 	 1%
02:00Thu 	 4c 	 2%
03:00Thu 	 4c 	 3%
04:00Thu 	 4c 	 5%
05:00Thu 	 3c 	 7%

# /home/pi/Documents/bbc-weather-predictions/data/Nov03Tue/bbcweather_Tuesday3rdNovember_2020-11-03_1800.txt
# time 	 temp 	 rain
18:00Tue 	 7c 	 16%
19:00Tue 	 7c 	 44%
20:00Tue 	 6c 	 6%
21:00Tue 	 6c 	 4%
22:00Tue 	 5c 	 2%
23:00Tue 	 4c 	 1%
00:00Wed 	 4c 	 1%
01:00Wed 	 3c 	 2%
02:00Wed 	 3c 	 3%
03:00Wed 	 3c 	 4%
04:00Wed 	 3c 	 3%
05:00Wed 	 2c 	 3%
06:00Wed 	 2c 	 6%
07:00Wed 	 2c 	 7%
08:00Wed 	 3c 	 5%
09:00Wed 	 5c 	 4%
10:00Wed 	 7c 	 6%
11:00Wed 	 9c 	 8%
12:00Wed 	 10c 	 8%
13:00Wed 	 10c 	 4%
14:00Wed 	 11c 	 3%
15:00Wed 	 11c 	 6%
16:00Wed 	 10c 	 8%
17:00Wed 	 9c 	 8%
18:00Wed 	 9c 	 4%
19:00Wed 	 8c 	 2%
20:00Wed 	 7c 	 3%
21:00Wed 	 6c 	 2%
22:00Wed 	 6c 	 1%
23:00Wed 	 5c 	 1%
00:00Thu 	 5c 	 1%
01:00Thu 	 4c 	 1%
02:00Thu 	 4c 	 2%
03:00Thu 	 4c 	 3%
04:00Thu 	 4c 	 5%
05:00Thu 	 3c 	 7%

# /home/pi/Documents/bbc-weather-predictions/data/Nov03Tue/bbcweather_Tuesday3rdNovember_2020-11-03_1815.txt
# time 	 temp 	 rain
19:00Tue 	 7c 	 44%
20:00Tue 	 6c 	 6%
21:00Tue 	 6c 	 4%
22:00Tue 	 5c 	 2%
23:00Tue 	 4c 	 1%
00:00Wed 	 4c 	 1%
01:00Wed 	 3c 	 2%
02:00Wed 	 3c 	 3%
03:00Wed 	 3c 	 4%
04:00Wed 	 3c 	 3%
05:00Wed 	 2c 	 3%
06:00Wed 	 2c 	 6%
07:00Wed 	 2c 	 7%
08:00Wed 	 3c 	 5%
09:00Wed 	 5c 	 4%
10:00Wed 	 7c 	 6%
11:00Wed 	 9c 	 8%
12:00Wed 	 10c 	 8%
13:00Wed 	 10c 	 4%
14:00Wed 	 11c 	 3%
15:00Wed 	 11c 	 6%
16:00Wed 	 10c 	 8%
17:00Wed 	 9c 	 8%
18:00Wed 	 9c 	 4%
19:00Wed 	 8c 	 2%
20:00Wed 	 7c 	 3%
21:00Wed 	 6c 	 2%
22:00Wed 	 6c 	 1%
23:00Wed 	 5c 	 1%
00:00Thu 	 5c 	 1%
01:00Thu 	 4c 	 1%
02:00Thu 	 4c 	 2%
03:00Thu 	 4c 	 3%
04:00Thu 	 4c 	 5%
05:00Thu 	 3c 	 7%

# /home/pi/Documents/bbc-weather-predictions/data/Nov03Tue/bbcweather_Tuesday3rdNovember_2020-11-03_1830.txt
# time 	 temp 	 rain
19:00Tue 	 7c 	 25%
20:00Tue 	 6c 	 44%
21:00Tue 	 6c 	 4%
22:00Tue 	 5c 	 2%
23:00Tue 	 4c 	 1%
00:00Wed 	 4c 	 1%
01:00Wed 	 3c 	 2%
02:00Wed 	 3c 	 3%
03:00Wed 	 3c 	 4%
04:00Wed 	 3c 	 3%
05:00Wed 	 2c 	 3%
06:00Wed 	 2c 	 6%
07:00Wed 	 2c 	 7%
08:00Wed 	 3c 	 5%
09:00Wed 	 5c 	 4%
10:00Wed 	 7c 	 6%
11:00Wed 	 9c 	 8%
12:00Wed 	 10c 	 8%
13:00Wed 	 10c 	 4%
14:00Wed 	 11c 	 3%
15:00Wed 	 11c 	 6%
16:00Wed 	 10c 	 8%
17:00Wed 	 9c 	 8%
18:00Wed 	 9c 	 4%
19:00Wed 	 8c 	 2%
20:00Wed 	 7c 	 3%
21:00Wed 	 6c 	 2%
22:00Wed 	 6c 	 1%
23:00Wed 	 5c 	 1%
00:00Thu 	 5c 	 1%
01:00Thu 	 4c 	 1%
02:00Thu 	 4c 	 2%
03:00Thu 	 4c 	 3%
04:00Thu 	 4c 	 5%
05:00Thu 	 3c 	 7%

# /home/pi/Documents/bbc-weather-predictions/data/Nov03Tue/bbcweather_Tuesday3rdNovember_2020-11-03_1845.txt
# time 	 temp 	 rain
19:00Tue 	 7c 	 25%
20:00Tue 	 6c 	 44%
21:00Tue 	 6c 	 4%
22:00Tue 	 5c 	 2%
23:00Tue 	 4c 	 1%
00:00Wed 	 4c 	 1%
01:00Wed 	 3c 	 2%
02:00Wed 	 3c 	 3%
03:00Wed 	 3c 	 4%
04:00Wed 	 3c 	 3%
05:00Wed 	 2c 	 3%
06:00Wed 	 2c 	 6%
07:00Wed 	 2c 	 7%
08:00Wed 	 3c 	 5%
09:00Wed 	 5c 	 4%
10:00Wed 	 7c 	 6%
11:00Wed 	 9c 	 8%
12:00Wed 	 10c 	 8%
13:00Wed 	 10c 	 4%
14:00Wed 	 11c 	 3%
15:00Wed 	 11c 	 6%
16:00Wed 	 10c 	 8%
17:00Wed 	 9c 	 8%
18:00Wed 	 9c 	 4%
19:00Wed 	 8c 	 2%
20:00Wed 	 7c 	 3%
21:00Wed 	 6c 	 2%
22:00Wed 	 6c 	 1%
23:00Wed 	 5c 	 1%
00:00Thu 	 5c 	 1%
01:00Thu 	 4c 	 1%
02:00Thu 	 4c 	 2%
03:00Thu 	 4c 	 3%
04:00Thu 	 4c 	 5%
05:00Thu 	 3c 	 7%

# /home/pi/Documents/bbc-weather-predictions/data/Nov03Tue/bbcweather_Tuesday3rdNovember_2020-11-03_1900.txt
# time 	 temp 	 rain
20:00Tue 	 6c 	 44%
21:00Tue 	 6c 	 4%
22:00Tue 	 5c 	 2%
23:00Tue 	 4c 	 1%
00:00Wed 	 4c 	 1%
01:00Wed 	 3c 	 2%
02:00Wed 	 3c 	 3%
03:00Wed 	 3c 	 4%
04:00Wed 	 3c 	 3%
05:00Wed 	 2c 	 3%
06:00Wed 	 2c 	 6%
07:00Wed 	 2c 	 7%
08:00Wed 	 3c 	 5%
09:00Wed 	 5c 	 4%
10:00Wed 	 7c 	 6%
11:00Wed 	 9c 	 8%
12:00Wed 	 10c 	 8%
13:00Wed 	 10c 	 4%
14:00Wed 	 11c 	 3%
15:00Wed 	 11c 	 6%
16:00Wed 	 10c 	 8%
17:00Wed 	 9c 	 8%
18:00Wed 	 9c 	 4%
19:00Wed 	 8c 	 2%
20:00Wed 	 7c 	 3%
21:00Wed 	 6c 	 2%
22:00Wed 	 6c 	 1%
23:00Wed 	 5c 	 1%
00:00Thu 	 5c 	 1%
01:00Thu 	 4c 	 1%
02:00Thu 	 4c 	 2%
03:00Thu 	 4c 	 3%
04:00Thu 	 4c 	 5%
05:00Thu 	 3c 	 7%

# /home/pi/Documents/bbc-weather-predictions/data/Nov03Tue/bbcweather_Tuesday3rdNovember_2020-11-03_1915.txt
# time 	 temp 	 rain
20:00Tue 	 6c 	 44%
21:00Tue 	 6c 	 4%
22:00Tue 	 5c 	 2%
23:00Tue 	 4c 	 1%
00:00Wed 	 4c 	 1%
01:00Wed 	 3c 	 2%
02:00Wed 	 3c 	 3%
03:00Wed 	 3c 	 4%
04:00Wed 	 3c 	 3%
05:00Wed 	 2c 	 3%
06:00Wed 	 2c 	 6%
07:00Wed 	 2c 	 7%
08:00Wed 	 3c 	 5%
09:00Wed 	 5c 	 4%
10:00Wed 	 7c 	 6%
11:00Wed 	 9c 	 8%
12:00Wed 	 10c 	 8%
13:00Wed 	 10c 	 4%
14:00Wed 	 11c 	 3%
15:00Wed 	 11c 	 6%
16:00Wed 	 10c 	 8%
17:00Wed 	 9c 	 8%
18:00Wed 	 9c 	 4%
19:00Wed 	 8c 	 2%
20:00Wed 	 7c 	 3%
21:00Wed 	 6c 	 2%
22:00Wed 	 6c 	 1%
23:00Wed 	 5c 	 1%
00:00Thu 	 5c 	 1%
01:00Thu 	 4c 	 1%
02:00Thu 	 4c 	 2%
03:00Thu 	 4c 	 3%
04:00Thu 	 4c 	 5%
05:00Thu 	 3c 	 7%

# /home/pi/Documents/bbc-weather-predictions/data/Nov03Tue/bbcweather_Tuesday3rdNovember_2020-11-03_1930.txt
# time 	 temp 	 rain
20:00Tue 	 6c 	 2%
21:00Tue 	 6c 	 11%
22:00Tue 	 5c 	 2%
23:00Tue 	 4c 	 1%
00:00Wed 	 4c 	 1%
01:00Wed 	 3c 	 2%
02:00Wed 	 3c 	 3%
03:00Wed 	 3c 	 4%
04:00Wed 	 3c 	 3%
05:00Wed 	 2c 	 3%
06:00Wed 	 2c 	 6%
07:00Wed 	 2c 	 7%
08:00Wed 	 3c 	 5%
09:00Wed 	 5c 	 4%
10:00Wed 	 7c 	 6%
11:00Wed 	 9c 	 8%
12:00Wed 	 10c 	 8%
13:00Wed 	 10c 	 4%
14:00Wed 	 11c 	 3%
15:00Wed 	 11c 	 6%
16:00Wed 	 10c 	 8%
17:00Wed 	 9c 	 8%
18:00Wed 	 9c 	 4%
19:00Wed 	 8c 	 2%
20:00Wed 	 7c 	 3%
21:00Wed 	 6c 	 2%
22:00Wed 	 6c 	 1%
23:00Wed 	 5c 	 1%
00:00Thu 	 5c 	 1%
01:00Thu 	 4c 	 1%
02:00Thu 	 4c 	 2%
03:00Thu 	 4c 	 3%
04:00Thu 	 4c 	 5%
05:00Thu 	 3c 	 7%

# /home/pi/Documents/bbc-weather-predictions/data/Nov03Tue/bbcweather_Tuesday3rdNovember_2020-11-03_1945.txt
# time 	 temp 	 rain
20:00Tue 	 6c 	 2%
21:00Tue 	 6c 	 11%
22:00Tue 	 5c 	 2%
23:00Tue 	 4c 	 1%
00:00Wed 	 4c 	 1%
01:00Wed 	 3c 	 2%
02:00Wed 	 3c 	 3%
03:00Wed 	 3c 	 4%
04:00Wed 	 3c 	 3%
05:00Wed 	 2c 	 3%
06:00Wed 	 2c 	 6%
07:00Wed 	 2c 	 7%
08:00Wed 	 3c 	 5%
09:00Wed 	 5c 	 4%
10:00Wed 	 7c 	 6%
11:00Wed 	 9c 	 8%
12:00Wed 	 10c 	 8%
13:00Wed 	 10c 	 4%
14:00Wed 	 11c 	 3%
15:00Wed 	 11c 	 6%
16:00Wed 	 10c 	 8%
17:00Wed 	 9c 	 8%
18:00Wed 	 9c 	 4%
19:00Wed 	 8c 	 2%
20:00Wed 	 7c 	 3%
21:00Wed 	 6c 	 2%
22:00Wed 	 6c 	 1%
23:00Wed 	 5c 	 1%
00:00Thu 	 5c 	 1%
01:00Thu 	 4c 	 1%
02:00Thu 	 4c 	 2%
03:00Thu 	 4c 	 3%
04:00Thu 	 4c 	 5%
05:00Thu 	 3c 	 7%

# /home/pi/Documents/bbc-weather-predictions/data/Nov03Tue/bbcweather_Tuesday3rdNovember_2020-11-03_2000.txt
# time 	 temp 	 rain
20:00Tue 	 6c 	 2%
21:00Tue 	 6c 	 11%
22:00Tue 	 5c 	 2%
23:00Tue 	 4c 	 1%
00:00Wed 	 4c 	 1%
01:00Wed 	 3c 	 2%
02:00Wed 	 3c 	 3%
03:00Wed 	 3c 	 4%
04:00Wed 	 3c 	 3%
05:00Wed 	 2c 	 3%
06:00Wed 	 2c 	 6%
07:00Wed 	 2c 	 7%
08:00Wed 	 3c 	 5%
09:00Wed 	 5c 	 4%
10:00Wed 	 7c 	 6%
11:00Wed 	 9c 	 8%
12:00Wed 	 10c 	 8%
13:00Wed 	 10c 	 4%
14:00Wed 	 11c 	 3%
15:00Wed 	 11c 	 6%
16:00Wed 	 10c 	 8%
17:00Wed 	 9c 	 8%
18:00Wed 	 9c 	 4%
19:00Wed 	 8c 	 2%
20:00Wed 	 7c 	 3%
21:00Wed 	 6c 	 2%
22:00Wed 	 6c 	 1%
23:00Wed 	 5c 	 1%
00:00Thu 	 5c 	 1%
01:00Thu 	 4c 	 1%
02:00Thu 	 4c 	 2%
03:00Thu 	 4c 	 3%
04:00Thu 	 4c 	 5%
05:00Thu 	 3c 	 7%

# /home/pi/Documents/bbc-weather-predictions/data/Nov03Tue/bbcweather_Tuesday3rdNovember_2020-11-03_2015.txt
# time 	 temp 	 rain
21:00Tue 	 6c 	 11%
22:00Tue 	 5c 	 2%
23:00Tue 	 4c 	 1%
00:00Wed 	 4c 	 1%
01:00Wed 	 3c 	 2%
02:00Wed 	 3c 	 3%
03:00Wed 	 3c 	 4%
04:00Wed 	 3c 	 3%
05:00Wed 	 2c 	 3%
06:00Wed 	 2c 	 6%
07:00Wed 	 2c 	 7%
08:00Wed 	 3c 	 5%
09:00Wed 	 5c 	 4%
10:00Wed 	 7c 	 6%
11:00Wed 	 9c 	 8%
12:00Wed 	 10c 	 8%
13:00Wed 	 10c 	 4%
14:00Wed 	 11c 	 3%
15:00Wed 	 11c 	 6%
16:00Wed 	 10c 	 8%
17:00Wed 	 9c 	 8%
18:00Wed 	 9c 	 4%
19:00Wed 	 8c 	 2%
20:00Wed 	 7c 	 3%
21:00Wed 	 6c 	 2%
22:00Wed 	 6c 	 1%
23:00Wed 	 5c 	 1%
00:00Thu 	 5c 	 1%
01:00Thu 	 4c 	 1%
02:00Thu 	 4c 	 2%
03:00Thu 	 4c 	 3%
04:00Thu 	 4c 	 5%
05:00Thu 	 3c 	 7%

# /home/pi/Documents/bbc-weather-predictions/data/Nov03Tue/bbcweather_Tuesday3rdNovember_2020-11-03_2030.txt
# time 	 temp 	 rain
21:00Tue 	 6c 	 0%
22:00Tue 	 5c 	 11%
23:00Tue 	 5c 	 1%
00:00Wed 	 4c 	 1%
01:00Wed 	 4c 	 2%
02:00Wed 	 3c 	 3%
03:00Wed 	 3c 	 4%
04:00Wed 	 3c 	 3%
05:00Wed 	 2c 	 3%
06:00Wed 	 2c 	 6%
07:00Wed 	 2c 	 7%
08:00Wed 	 3c 	 5%
09:00Wed 	 5c 	 4%
10:00Wed 	 7c 	 6%
11:00Wed 	 9c 	 8%
12:00Wed 	 10c 	 8%
13:00Wed 	 10c 	 4%
14:00Wed 	 11c 	 3%
15:00Wed 	 11c 	 6%
16:00Wed 	 10c 	 8%
17:00Wed 	 9c 	 8%
18:00Wed 	 9c 	 4%
19:00Wed 	 8c 	 2%
20:00Wed 	 7c 	 3%
21:00Wed 	 6c 	 2%
22:00Wed 	 6c 	 1%
23:00Wed 	 5c 	 1%
00:00Thu 	 5c 	 1%
01:00Thu 	 4c 	 1%
02:00Thu 	 4c 	 2%
03:00Thu 	 3c 	 4%
04:00Thu 	 3c 	 5%
05:00Thu 	 3c 	 7%

# /home/pi/Documents/bbc-weather-predictions/data/Nov03Tue/bbcweather_Tuesday3rdNovember_2020-11-03_2045.txt
# time 	 temp 	 rain
21:00Tue 	 6c 	 0%
22:00Tue 	 5c 	 11%
23:00Tue 	 5c 	 1%
00:00Wed 	 4c 	 1%
01:00Wed 	 4c 	 2%
02:00Wed 	 3c 	 3%
03:00Wed 	 3c 	 4%
04:00Wed 	 3c 	 3%
05:00Wed 	 2c 	 3%
06:00Wed 	 2c 	 6%
07:00Wed 	 2c 	 7%
08:00Wed 	 3c 	 5%
09:00Wed 	 5c 	 4%
10:00Wed 	 7c 	 6%
11:00Wed 	 9c 	 8%
12:00Wed 	 10c 	 8%
13:00Wed 	 10c 	 4%
14:00Wed 	 11c 	 3%
15:00Wed 	 11c 	 6%
16:00Wed 	 10c 	 8%
17:00Wed 	 9c 	 8%
18:00Wed 	 9c 	 4%
19:00Wed 	 8c 	 2%
20:00Wed 	 7c 	 3%
21:00Wed 	 6c 	 2%
22:00Wed 	 6c 	 1%
23:00Wed 	 5c 	 1%
00:00Thu 	 5c 	 1%
01:00Thu 	 4c 	 1%
02:00Thu 	 4c 	 2%
03:00Thu 	 3c 	 4%
04:00Thu 	 3c 	 5%
05:00Thu 	 3c 	 7%

# /home/pi/Documents/bbc-weather-predictions/data/Nov03Tue/bbcweather_Tuesday3rdNovember_2020-11-03_2100.txt
# time 	 temp 	 rain
21:00Tue 	 6c 	 0%
22:00Tue 	 5c 	 11%
23:00Tue 	 5c 	 1%
00:00Wed 	 4c 	 1%
01:00Wed 	 4c 	 2%
02:00Wed 	 3c 	 3%
03:00Wed 	 3c 	 4%
04:00Wed 	 3c 	 3%
05:00Wed 	 2c 	 3%
06:00Wed 	 2c 	 6%
07:00Wed 	 2c 	 7%
08:00Wed 	 3c 	 5%
09:00Wed 	 5c 	 4%
10:00Wed 	 7c 	 6%
11:00Wed 	 9c 	 8%
12:00Wed 	 10c 	 8%
13:00Wed 	 10c 	 4%
14:00Wed 	 11c 	 3%
15:00Wed 	 11c 	 6%
16:00Wed 	 10c 	 8%
17:00Wed 	 9c 	 8%
18:00Wed 	 9c 	 4%
19:00Wed 	 8c 	 2%
20:00Wed 	 7c 	 3%
21:00Wed 	 6c 	 2%
22:00Wed 	 6c 	 1%
23:00Wed 	 5c 	 1%
00:00Thu 	 5c 	 1%
01:00Thu 	 4c 	 1%
02:00Thu 	 4c 	 2%
03:00Thu 	 3c 	 4%
04:00Thu 	 3c 	 5%
05:00Thu 	 3c 	 7%

# /home/pi/Documents/bbc-weather-predictions/data/Nov03Tue/bbcweather_Tuesday3rdNovember_2020-11-03_2115.txt
# time 	 temp 	 rain
22:00Tue 	 5c 	 11%
23:00Tue 	 5c 	 1%
00:00Wed 	 4c 	 1%
01:00Wed 	 4c 	 2%
02:00Wed 	 3c 	 3%
03:00Wed 	 3c 	 4%
04:00Wed 	 3c 	 3%
05:00Wed 	 2c 	 3%
06:00Wed 	 2c 	 6%
07:00Wed 	 2c 	 7%
08:00Wed 	 3c 	 5%
09:00Wed 	 5c 	 4%
10:00Wed 	 7c 	 6%
11:00Wed 	 9c 	 8%
12:00Wed 	 10c 	 8%
13:00Wed 	 10c 	 4%
14:00Wed 	 11c 	 3%
15:00Wed 	 11c 	 6%
16:00Wed 	 10c 	 8%
17:00Wed 	 9c 	 8%
18:00Wed 	 9c 	 4%
19:00Wed 	 8c 	 2%
20:00Wed 	 7c 	 3%
21:00Wed 	 6c 	 2%
22:00Wed 	 6c 	 1%
23:00Wed 	 5c 	 1%
00:00Thu 	 5c 	 1%
01:00Thu 	 4c 	 1%
02:00Thu 	 4c 	 2%
03:00Thu 	 3c 	 4%
04:00Thu 	 3c 	 5%
05:00Thu 	 3c 	 7%

# /home/pi/Documents/bbc-weather-predictions/data/Nov03Tue/bbcweather_Tuesday3rdNovember_2020-11-03_2130.txt
# time 	 temp 	 rain
22:00Tue 	 5c 	 0%
23:00Tue 	 5c 	 0%
00:00Wed 	 4c 	 1%
01:00Wed 	 4c 	 2%
02:00Wed 	 3c 	 3%
03:00Wed 	 3c 	 4%
04:00Wed 	 3c 	 3%
05:00Wed 	 2c 	 3%
06:00Wed 	 2c 	 6%
07:00Wed 	 2c 	 7%
08:00Wed 	 3c 	 5%
09:00Wed 	 5c 	 4%
10:00Wed 	 7c 	 6%
11:00Wed 	 9c 	 8%
12:00Wed 	 10c 	 8%
13:00Wed 	 10c 	 4%
14:00Wed 	 11c 	 3%
15:00Wed 	 11c 	 6%
16:00Wed 	 10c 	 8%
17:00Wed 	 9c 	 8%
18:00Wed 	 9c 	 4%
19:00Wed 	 8c 	 2%
20:00Wed 	 7c 	 3%
21:00Wed 	 6c 	 2%
22:00Wed 	 6c 	 1%
23:00Wed 	 5c 	 1%
00:00Thu 	 5c 	 1%
01:00Thu 	 4c 	 1%
02:00Thu 	 4c 	 2%
03:00Thu 	 3c 	 4%
04:00Thu 	 3c 	 5%
05:00Thu 	 3c 	 7%

# /home/pi/Documents/bbc-weather-predictions/data/Nov03Tue/bbcweather_Tuesday3rdNovember_2020-11-03_2145.txt
# time 	 temp 	 rain
22:00Tue 	 5c 	 0%
23:00Tue 	 5c 	 0%
00:00Wed 	 4c 	 1%
01:00Wed 	 4c 	 2%
02:00Wed 	 3c 	 3%
03:00Wed 	 3c 	 4%
04:00Wed 	 3c 	 3%
05:00Wed 	 2c 	 3%
06:00Wed 	 2c 	 6%
07:00Wed 	 2c 	 7%
08:00Wed 	 3c 	 5%
09:00Wed 	 5c 	 4%
10:00Wed 	 7c 	 6%
11:00Wed 	 9c 	 8%
12:00Wed 	 10c 	 8%
13:00Wed 	 10c 	 4%
14:00Wed 	 11c 	 3%
15:00Wed 	 11c 	 6%
16:00Wed 	 10c 	 8%
17:00Wed 	 9c 	 8%
18:00Wed 	 9c 	 4%
19:00Wed 	 8c 	 2%
20:00Wed 	 7c 	 3%
21:00Wed 	 6c 	 2%
22:00Wed 	 6c 	 1%
23:00Wed 	 5c 	 1%
00:00Thu 	 5c 	 1%
01:00Thu 	 4c 	 1%
02:00Thu 	 4c 	 2%
03:00Thu 	 3c 	 4%
04:00Thu 	 3c 	 5%
05:00Thu 	 3c 	 7%

# /home/pi/Documents/bbc-weather-predictions/data/Nov03Tue/bbcweather_Tuesday3rdNovember_2020-11-03_2200.txt
# time 	 temp 	 rain
22:00Tue 	 5c 	 0%
23:00Tue 	 5c 	 0%
00:00Wed 	 4c 	 1%
01:00Wed 	 4c 	 2%
02:00Wed 	 3c 	 3%
03:00Wed 	 3c 	 4%
04:00Wed 	 3c 	 3%
05:00Wed 	 2c 	 3%
06:00Wed 	 2c 	 6%
07:00Wed 	 2c 	 7%
08:00Wed 	 3c 	 5%
09:00Wed 	 5c 	 4%
10:00Wed 	 7c 	 6%
11:00Wed 	 9c 	 8%
12:00Wed 	 10c 	 8%
13:00Wed 	 10c 	 4%
14:00Wed 	 11c 	 3%
15:00Wed 	 11c 	 6%
16:00Wed 	 10c 	 8%
17:00Wed 	 9c 	 8%
18:00Wed 	 9c 	 4%
19:00Wed 	 8c 	 2%
20:00Wed 	 7c 	 3%
21:00Wed 	 6c 	 2%
22:00Wed 	 6c 	 1%
23:00Wed 	 5c 	 1%
00:00Thu 	 5c 	 1%
01:00Thu 	 4c 	 1%
02:00Thu 	 4c 	 2%
03:00Thu 	 3c 	 4%
04:00Thu 	 3c 	 5%
05:00Thu 	 3c 	 7%

# /home/pi/Documents/bbc-weather-predictions/data/Nov03Tue/bbcweather_Tuesday3rdNovember_2020-11-03_2215.txt
# time 	 temp 	 rain
23:00Tue 	 5c 	 0%
00:00Wed 	 4c 	 1%
01:00Wed 	 4c 	 2%
02:00Wed 	 3c 	 3%
03:00Wed 	 3c 	 4%
04:00Wed 	 3c 	 3%
05:00Wed 	 2c 	 3%
06:00Wed 	 2c 	 6%
07:00Wed 	 2c 	 7%
08:00Wed 	 3c 	 5%
09:00Wed 	 5c 	 4%
10:00Wed 	 7c 	 6%
11:00Wed 	 9c 	 8%
12:00Wed 	 10c 	 8%
13:00Wed 	 10c 	 4%
14:00Wed 	 11c 	 3%
15:00Wed 	 11c 	 6%
16:00Wed 	 10c 	 8%
17:00Wed 	 9c 	 8%
18:00Wed 	 9c 	 4%
19:00Wed 	 8c 	 2%
20:00Wed 	 7c 	 3%
21:00Wed 	 6c 	 2%
22:00Wed 	 6c 	 1%
23:00Wed 	 5c 	 1%
00:00Thu 	 5c 	 1%
01:00Thu 	 4c 	 1%
02:00Thu 	 4c 	 2%
03:00Thu 	 3c 	 4%
04:00Thu 	 3c 	 5%
05:00Thu 	 3c 	 7%

# /home/pi/Documents/bbc-weather-predictions/data/Nov03Tue/bbcweather_Tuesday3rdNovember_2020-11-03_2230.txt
# time 	 temp 	 rain
23:00Tue 	 5c 	 0%
00:00Wed 	 5c 	 0%
01:00Wed 	 4c 	 2%
02:00Wed 	 3c 	 3%
03:00Wed 	 3c 	 4%
04:00Wed 	 3c 	 3%
05:00Wed 	 2c 	 3%
06:00Wed 	 2c 	 6%
07:00Wed 	 2c 	 7%
08:00Wed 	 3c 	 5%
09:00Wed 	 5c 	 4%
10:00Wed 	 7c 	 6%
11:00Wed 	 9c 	 8%
12:00Wed 	 10c 	 8%
13:00Wed 	 10c 	 4%
14:00Wed 	 11c 	 3%
15:00Wed 	 11c 	 6%
16:00Wed 	 10c 	 8%
17:00Wed 	 9c 	 8%
18:00Wed 	 9c 	 4%
19:00Wed 	 8c 	 2%
20:00Wed 	 7c 	 3%
21:00Wed 	 6c 	 2%
22:00Wed 	 6c 	 1%
23:00Wed 	 5c 	 1%
00:00Thu 	 4c 	 1%
01:00Thu 	 4c 	 1%
02:00Thu 	 3c 	 2%
03:00Thu 	 3c 	 4%
04:00Thu 	 3c 	 6%
05:00Thu 	 3c 	 8%

# /home/pi/Documents/bbc-weather-predictions/data/Nov03Tue/bbcweather_Tuesday3rdNovember_2020-11-03_2245.txt
# time 	 temp 	 rain
23:00Tue 	 5c 	 0%
00:00Wed 	 5c 	 0%
01:00Wed 	 4c 	 2%
02:00Wed 	 3c 	 3%
03:00Wed 	 3c 	 4%
04:00Wed 	 3c 	 3%
05:00Wed 	 2c 	 3%
06:00Wed 	 2c 	 6%
07:00Wed 	 2c 	 7%
08:00Wed 	 3c 	 5%
09:00Wed 	 5c 	 4%
10:00Wed 	 7c 	 6%
11:00Wed 	 9c 	 8%
12:00Wed 	 10c 	 8%
13:00Wed 	 10c 	 4%
14:00Wed 	 11c 	 3%
15:00Wed 	 11c 	 6%
16:00Wed 	 10c 	 8%
17:00Wed 	 9c 	 8%
18:00Wed 	 9c 	 4%
19:00Wed 	 8c 	 2%
20:00Wed 	 7c 	 3%
21:00Wed 	 6c 	 2%
22:00Wed 	 6c 	 1%
23:00Wed 	 5c 	 1%
00:00Thu 	 4c 	 1%
01:00Thu 	 4c 	 1%
02:00Thu 	 3c 	 2%
03:00Thu 	 3c 	 4%
04:00Thu 	 3c 	 6%
05:00Thu 	 3c 	 8%

# /home/pi/Documents/bbc-weather-predictions/data/Nov03Tue/bbcweather_Tuesday3rdNovember_2020-11-03_2300.txt
# time 	 temp 	 rain
23:00Tue 	 5c 	 0%
00:00Wed 	 5c 	 0%
01:00Wed 	 4c 	 2%
02:00Wed 	 3c 	 3%
03:00Wed 	 3c 	 4%
04:00Wed 	 3c 	 3%
05:00Wed 	 2c 	 3%
06:00Wed 	 2c 	 6%
07:00Wed 	 2c 	 7%
08:00Wed 	 3c 	 5%
09:00Wed 	 5c 	 4%
10:00Wed 	 7c 	 6%
11:00Wed 	 9c 	 8%
12:00Wed 	 10c 	 8%
13:00Wed 	 10c 	 4%
14:00Wed 	 11c 	 3%
15:00Wed 	 11c 	 6%
16:00Wed 	 10c 	 8%
17:00Wed 	 9c 	 8%
18:00Wed 	 9c 	 4%
19:00Wed 	 8c 	 2%
20:00Wed 	 7c 	 3%
21:00Wed 	 6c 	 2%
22:00Wed 	 6c 	 1%
23:00Wed 	 5c 	 1%
00:00Thu 	 4c 	 1%
01:00Thu 	 4c 	 1%
02:00Thu 	 3c 	 2%
03:00Thu 	 3c 	 4%
04:00Thu 	 3c 	 6%
05:00Thu 	 3c 	 8%

# /home/pi/Documents/bbc-weather-predictions/data/Nov03Tue/bbcweather_Tuesday3rdNovember_2020-11-03_2315.txt
# time 	 temp 	 rain
00:00Wed 	 5c 	 0%
01:00Wed 	 4c 	 2%
02:00Wed 	 3c 	 3%
03:00Wed 	 3c 	 4%
04:00Wed 	 3c 	 3%
05:00Wed 	 2c 	 3%
06:00Wed 	 2c 	 6%
07:00Wed 	 2c 	 7%
08:00Wed 	 3c 	 5%
09:00Wed 	 5c 	 4%
10:00Wed 	 7c 	 6%
11:00Wed 	 9c 	 8%
12:00Wed 	 10c 	 8%
13:00Wed 	 10c 	 4%
14:00Wed 	 11c 	 3%
15:00Wed 	 11c 	 6%
16:00Wed 	 10c 	 8%
17:00Wed 	 9c 	 8%
18:00Wed 	 9c 	 4%
19:00Wed 	 8c 	 2%
20:00Wed 	 7c 	 3%
21:00Wed 	 6c 	 2%
22:00Wed 	 6c 	 1%
23:00Wed 	 5c 	 1%
00:00Thu 	 4c 	 1%
01:00Thu 	 4c 	 1%
02:00Thu 	 3c 	 2%
03:00Thu 	 3c 	 4%
04:00Thu 	 3c 	 6%
05:00Thu 	 3c 	 8%

# /home/pi/Documents/bbc-weather-predictions/data/Nov03Tue/bbcweather_Tuesday3rdNovember_2020-11-03_2330.txt
# time 	 temp 	 rain
00:00Wed 	 5c 	 0%
01:00Wed 	 4c 	 1%
02:00Wed 	 4c 	 3%
03:00Wed 	 3c 	 4%
04:00Wed 	 3c 	 3%
05:00Wed 	 2c 	 3%
06:00Wed 	 2c 	 6%
07:00Wed 	 2c 	 7%
08:00Wed 	 3c 	 5%
09:00Wed 	 5c 	 4%
10:00Wed 	 7c 	 6%
11:00Wed 	 9c 	 8%
12:00Wed 	 10c 	 8%
13:00Wed 	 10c 	 4%
14:00Wed 	 11c 	 3%
15:00Wed 	 11c 	 6%
16:00Wed 	 10c 	 8%
17:00Wed 	 9c 	 8%
18:00Wed 	 9c 	 4%
19:00Wed 	 8c 	 2%
20:00Wed 	 7c 	 3%
21:00Wed 	 6c 	 2%
22:00Wed 	 6c 	 1%
23:00Wed 	 5c 	 1%
00:00Thu 	 4c 	 1%
01:00Thu 	 4c 	 1%
02:00Thu 	 3c 	 2%
03:00Thu 	 3c 	 4%
04:00Thu 	 3c 	 6%
05:00Thu 	 3c 	 8%

# /home/pi/Documents/bbc-weather-predictions/data/Nov03Tue/bbcweather_Tuesday3rdNovember_2020-11-03_2345.txt
# time 	 temp 	 rain
00:00Wed 	 5c 	 0%
01:00Wed 	 4c 	 1%
02:00Wed 	 4c 	 3%
03:00Wed 	 3c 	 4%
04:00Wed 	 3c 	 3%
05:00Wed 	 2c 	 3%
06:00Wed 	 2c 	 6%
07:00Wed 	 2c 	 7%
08:00Wed 	 3c 	 5%
09:00Wed 	 5c 	 4%
10:00Wed 	 7c 	 6%
11:00Wed 	 9c 	 8%
12:00Wed 	 10c 	 8%
13:00Wed 	 10c 	 4%
14:00Wed 	 11c 	 3%
15:00Wed 	 11c 	 6%
16:00Wed 	 10c 	 8%
17:00Wed 	 9c 	 8%
18:00Wed 	 9c 	 4%
19:00Wed 	 8c 	 2%
20:00Wed 	 7c 	 3%
21:00Wed 	 6c 	 2%
22:00Wed 	 6c 	 1%
23:00Wed 	 5c 	 1%
00:00Thu 	 4c 	 1%
01:00Thu 	 4c 	 1%
02:00Thu 	 3c 	 2%
03:00Thu 	 3c 	 4%
04:00Thu 	 3c 	 6%
05:00Thu 	 3c 	 8%
