00:00Sat 	 14c 	 7%
01:00Sat 	 13c 	 9%
02:00Sat 	 13c 	 11%
03:00Sat 	 13c 	 16%
04:00Sat 	 13c 	 21%
05:00Sat 	 13c 	 22%
06:00Sat 	 13c 	 23%
07:00Sat 	 14c 	 22%
08:00Sat 	 14c 	 20%
09:00Sat 	 15c 	 17%
10:00Sat 	 16c 	 15%
11:00Sat 	 16c 	 13%
12:00Sat 	 17c 	 10%
13:00Sat 	 17c 	 7%
14:00Sat 	 18c 	 5%
15:00Sat 	 18c 	 5%
16:00Sat 	 17c 	 6%
17:00Sat 	 17c 	 7%
18:00Sat 	 16c 	 7%
19:00Sat 	 16c 	 6%
20:00Sat 	 15c 	 5%
21:00Sat 	 15c 	 5%
22:00Sat 	 14c 	 4%
23:00Sat 	 14c 	 3%


00:00Sat 	 14c 	 7%
01:00Sat 	 13c 	 9%
02:00Sat 	 13c 	 11%
03:00Sat 	 13c 	 16%
04:00Sat 	 13c 	 21%
05:00Sat 	 13c 	 22%
06:00Sat 	 13c 	 23%
07:00Sat 	 14c 	 22%
08:00Sat 	 14c 	 20%
09:00Sat 	 15c 	 17%
10:00Sat 	 16c 	 15%
11:00Sat 	 16c 	 13%
12:00Sat 	 17c 	 10%
13:00Sat 	 17c 	 7%
14:00Sat 	 18c 	 5%
15:00Sat 	 18c 	 5%
16:00Sat 	 17c 	 6%
17:00Sat 	 17c 	 7%
18:00Sat 	 16c 	 7%
19:00Sat 	 16c 	 6%
20:00Sat 	 15c 	 5%
21:00Sat 	 15c 	 5%
22:00Sat 	 14c 	 4%
23:00Sat 	 14c 	 3%


00:00Sat 	 14c 	 7%
01:00Sat 	 13c 	 9%
02:00Sat 	 13c 	 11%
03:00Sat 	 13c 	 16%
04:00Sat 	 13c 	 21%
05:00Sat 	 13c 	 22%
06:00Sat 	 13c 	 23%
07:00Sat 	 14c 	 22%
08:00Sat 	 14c 	 20%
09:00Sat 	 15c 	 17%
10:00Sat 	 16c 	 15%
11:00Sat 	 16c 	 13%
12:00Sat 	 17c 	 10%
13:00Sat 	 17c 	 7%
14:00Sat 	 18c 	 5%
15:00Sat 	 18c 	 5%
16:00Sat 	 17c 	 6%
17:00Sat 	 17c 	 7%
18:00Sat 	 16c 	 7%
19:00Sat 	 16c 	 6%
20:00Sat 	 15c 	 5%
21:00Sat 	 15c 	 5%
22:00Sat 	 14c 	 4%
23:00Sat 	 14c 	 3%


00:00Sat 	 14c 	 7%
01:00Sat 	 13c 	 9%
02:00Sat 	 13c 	 11%
03:00Sat 	 13c 	 16%
04:00Sat 	 13c 	 21%
05:00Sat 	 13c 	 22%
06:00Sat 	 13c 	 23%
07:00Sat 	 14c 	 22%
08:00Sat 	 14c 	 20%
09:00Sat 	 15c 	 17%
10:00Sat 	 16c 	 15%
11:00Sat 	 16c 	 13%
12:00Sat 	 17c 	 10%
13:00Sat 	 17c 	 7%
14:00Sat 	 18c 	 5%
15:00Sat 	 18c 	 5%
16:00Sat 	 17c 	 6%
17:00Sat 	 17c 	 7%
18:00Sat 	 16c 	 7%
19:00Sat 	 16c 	 6%
20:00Sat 	 15c 	 5%
21:00Sat 	 15c 	 5%
22:00Sat 	 14c 	 4%
23:00Sat 	 14c 	 3%


00:00Sat 	 14c 	 7%
01:00Sat 	 13c 	 9%
02:00Sat 	 13c 	 11%
03:00Sat 	 13c 	 16%
04:00Sat 	 13c 	 21%
05:00Sat 	 13c 	 22%
06:00Sat 	 13c 	 23%
07:00Sat 	 14c 	 22%
08:00Sat 	 14c 	 20%
09:00Sat 	 15c 	 17%
10:00Sat 	 16c 	 15%
11:00Sat 	 16c 	 13%
12:00Sat 	 17c 	 10%
13:00Sat 	 17c 	 7%
14:00Sat 	 18c 	 5%
15:00Sat 	 18c 	 5%
16:00Sat 	 17c 	 6%
17:00Sat 	 17c 	 7%
18:00Sat 	 16c 	 7%
19:00Sat 	 16c 	 6%
20:00Sat 	 15c 	 5%
21:00Sat 	 15c 	 5%
22:00Sat 	 14c 	 4%
23:00Sat 	 14c 	 3%


00:00Sat 	 14c 	 7%
01:00Sat 	 13c 	 9%
02:00Sat 	 13c 	 11%
03:00Sat 	 13c 	 16%
04:00Sat 	 13c 	 21%
05:00Sat 	 13c 	 22%
06:00Sat 	 13c 	 23%
07:00Sat 	 14c 	 22%
08:00Sat 	 14c 	 20%
09:00Sat 	 15c 	 17%
10:00Sat 	 16c 	 15%
11:00Sat 	 16c 	 13%
12:00Sat 	 17c 	 10%
13:00Sat 	 17c 	 7%
14:00Sat 	 18c 	 5%
15:00Sat 	 18c 	 5%
16:00Sat 	 17c 	 6%
17:00Sat 	 17c 	 7%
18:00Sat 	 16c 	 7%
19:00Sat 	 16c 	 6%
20:00Sat 	 15c 	 5%
21:00Sat 	 15c 	 5%
22:00Sat 	 14c 	 4%
23:00Sat 	 14c 	 3%


00:00Sat 	 14c 	 7%
01:00Sat 	 13c 	 9%
02:00Sat 	 13c 	 11%
03:00Sat 	 13c 	 16%
04:00Sat 	 13c 	 21%
05:00Sat 	 13c 	 22%
06:00Sat 	 13c 	 23%
07:00Sat 	 14c 	 22%
08:00Sat 	 14c 	 20%
09:00Sat 	 15c 	 17%
10:00Sat 	 16c 	 15%
11:00Sat 	 16c 	 13%
12:00Sat 	 17c 	 10%
13:00Sat 	 17c 	 7%
14:00Sat 	 18c 	 5%
15:00Sat 	 18c 	 5%
16:00Sat 	 17c 	 6%
17:00Sat 	 17c 	 7%
18:00Sat 	 16c 	 7%
19:00Sat 	 16c 	 6%
20:00Sat 	 15c 	 5%
21:00Sat 	 15c 	 5%
22:00Sat 	 14c 	 4%
23:00Sat 	 14c 	 3%


00:00Sat 	 14c 	 7%
01:00Sat 	 13c 	 9%
02:00Sat 	 13c 	 11%
03:00Sat 	 13c 	 16%
04:00Sat 	 13c 	 21%
05:00Sat 	 13c 	 22%
06:00Sat 	 13c 	 23%
07:00Sat 	 14c 	 22%
08:00Sat 	 14c 	 20%
09:00Sat 	 15c 	 17%
10:00Sat 	 16c 	 15%
11:00Sat 	 16c 	 13%
12:00Sat 	 17c 	 10%
13:00Sat 	 17c 	 7%
14:00Sat 	 18c 	 5%
15:00Sat 	 18c 	 5%
16:00Sat 	 17c 	 6%
17:00Sat 	 17c 	 7%
18:00Sat 	 16c 	 7%
19:00Sat 	 16c 	 6%
20:00Sat 	 15c 	 5%
21:00Sat 	 15c 	 5%
22:00Sat 	 14c 	 4%
23:00Sat 	 14c 	 3%


00:00Sat 	 14c 	 7%
01:00Sat 	 13c 	 9%
02:00Sat 	 13c 	 11%
03:00Sat 	 13c 	 16%
04:00Sat 	 13c 	 21%
05:00Sat 	 13c 	 22%
06:00Sat 	 13c 	 23%
07:00Sat 	 14c 	 22%
08:00Sat 	 14c 	 20%
09:00Sat 	 15c 	 17%
10:00Sat 	 16c 	 15%
11:00Sat 	 16c 	 13%
12:00Sat 	 17c 	 10%
13:00Sat 	 17c 	 7%
14:00Sat 	 18c 	 5%
15:00Sat 	 18c 	 5%
16:00Sat 	 17c 	 6%
17:00Sat 	 17c 	 7%
18:00Sat 	 16c 	 7%
19:00Sat 	 16c 	 6%
20:00Sat 	 15c 	 5%
21:00Sat 	 15c 	 5%
22:00Sat 	 14c 	 4%
23:00Sat 	 14c 	 3%


00:00Sat 	 14c 	 7%
01:00Sat 	 13c 	 9%
02:00Sat 	 13c 	 11%
03:00Sat 	 13c 	 16%
04:00Sat 	 13c 	 21%
05:00Sat 	 13c 	 22%
06:00Sat 	 13c 	 23%
07:00Sat 	 14c 	 22%
08:00Sat 	 14c 	 20%
09:00Sat 	 15c 	 17%
10:00Sat 	 16c 	 15%
11:00Sat 	 16c 	 13%
12:00Sat 	 17c 	 10%
13:00Sat 	 17c 	 7%
14:00Sat 	 18c 	 5%
15:00Sat 	 18c 	 5%
16:00Sat 	 17c 	 6%
17:00Sat 	 17c 	 7%
18:00Sat 	 16c 	 7%
19:00Sat 	 16c 	 6%
20:00Sat 	 15c 	 5%
21:00Sat 	 15c 	 5%
22:00Sat 	 14c 	 4%
23:00Sat 	 14c 	 3%


00:00Sat 	 14c 	 7%
01:00Sat 	 13c 	 9%
02:00Sat 	 13c 	 11%
03:00Sat 	 13c 	 16%
04:00Sat 	 13c 	 21%
05:00Sat 	 13c 	 22%
06:00Sat 	 13c 	 23%
07:00Sat 	 14c 	 22%
08:00Sat 	 14c 	 20%
09:00Sat 	 15c 	 17%
10:00Sat 	 16c 	 15%
11:00Sat 	 16c 	 13%
12:00Sat 	 17c 	 10%
13:00Sat 	 17c 	 7%
14:00Sat 	 18c 	 5%
15:00Sat 	 18c 	 5%
16:00Sat 	 17c 	 6%
17:00Sat 	 17c 	 7%
18:00Sat 	 16c 	 7%
19:00Sat 	 16c 	 6%
20:00Sat 	 15c 	 5%
21:00Sat 	 15c 	 5%
22:00Sat 	 14c 	 4%
23:00Sat 	 14c 	 3%


00:00Sat 	 14c 	 7%
01:00Sat 	 13c 	 9%
02:00Sat 	 13c 	 11%
03:00Sat 	 13c 	 16%
04:00Sat 	 13c 	 21%
05:00Sat 	 13c 	 22%
06:00Sat 	 13c 	 23%
07:00Sat 	 14c 	 22%
08:00Sat 	 14c 	 20%
09:00Sat 	 15c 	 17%
10:00Sat 	 16c 	 15%
11:00Sat 	 16c 	 13%
12:00Sat 	 17c 	 10%
13:00Sat 	 17c 	 7%
14:00Sat 	 18c 	 5%
15:00Sat 	 18c 	 5%
16:00Sat 	 17c 	 6%
17:00Sat 	 17c 	 7%
18:00Sat 	 16c 	 7%
19:00Sat 	 16c 	 6%
20:00Sat 	 15c 	 5%
21:00Sat 	 15c 	 5%
22:00Sat 	 14c 	 4%
23:00Sat 	 14c 	 3%


00:00Sat 	 14c 	 7%
01:00Sat 	 13c 	 9%
02:00Sat 	 13c 	 11%
03:00Sat 	 13c 	 16%
04:00Sat 	 13c 	 21%
05:00Sat 	 13c 	 22%
06:00Sat 	 13c 	 23%
07:00Sat 	 14c 	 22%
08:00Sat 	 14c 	 20%
09:00Sat 	 15c 	 17%
10:00Sat 	 16c 	 15%
11:00Sat 	 16c 	 13%
12:00Sat 	 17c 	 10%
13:00Sat 	 17c 	 7%
14:00Sat 	 18c 	 5%
15:00Sat 	 18c 	 5%
16:00Sat 	 17c 	 6%
17:00Sat 	 17c 	 7%
18:00Sat 	 16c 	 7%
19:00Sat 	 16c 	 6%
20:00Sat 	 15c 	 5%
21:00Sat 	 15c 	 5%
22:00Sat 	 14c 	 4%
23:00Sat 	 14c 	 3%


00:00Sat 	 14c 	 8%
01:00Sat 	 13c 	 10%
02:00Sat 	 13c 	 14%
03:00Sat 	 13c 	 18%
04:00Sat 	 13c 	 21%
05:00Sat 	 13c 	 22%
06:00Sat 	 13c 	 23%
07:00Sat 	 14c 	 21%
08:00Sat 	 14c 	 17%
09:00Sat 	 15c 	 12%
10:00Sat 	 15c 	 9%
11:00Sat 	 16c 	 7%
12:00Sat 	 17c 	 6%
13:00Sat 	 18c 	 4%
14:00Sat 	 18c 	 3%
15:00Sat 	 18c 	 3%
16:00Sat 	 18c 	 3%
17:00Sat 	 17c 	 4%
18:00Sat 	 17c 	 4%
19:00Sat 	 16c 	 3%
20:00Sat 	 15c 	 3%
21:00Sat 	 15c 	 3%
22:00Sat 	 14c 	 3%
23:00Sat 	 14c 	 3%


00:00Sat 	 14c 	 8%
01:00Sat 	 13c 	 10%
02:00Sat 	 13c 	 14%
03:00Sat 	 13c 	 18%
04:00Sat 	 13c 	 21%
05:00Sat 	 13c 	 22%
06:00Sat 	 13c 	 23%
07:00Sat 	 14c 	 21%
08:00Sat 	 14c 	 17%
09:00Sat 	 15c 	 12%
10:00Sat 	 15c 	 9%
11:00Sat 	 16c 	 7%
12:00Sat 	 17c 	 6%
13:00Sat 	 18c 	 4%
14:00Sat 	 18c 	 3%
15:00Sat 	 18c 	 3%
16:00Sat 	 18c 	 3%
17:00Sat 	 17c 	 4%
18:00Sat 	 17c 	 4%
19:00Sat 	 16c 	 3%
20:00Sat 	 15c 	 3%
21:00Sat 	 15c 	 3%
22:00Sat 	 14c 	 3%
23:00Sat 	 14c 	 3%


00:00Sat 	 14c 	 8%
01:00Sat 	 13c 	 10%
02:00Sat 	 13c 	 14%
03:00Sat 	 13c 	 18%
04:00Sat 	 13c 	 21%
05:00Sat 	 13c 	 22%
06:00Sat 	 13c 	 23%
07:00Sat 	 14c 	 21%
08:00Sat 	 14c 	 17%
09:00Sat 	 15c 	 12%
10:00Sat 	 15c 	 9%
11:00Sat 	 16c 	 7%
12:00Sat 	 17c 	 6%
13:00Sat 	 18c 	 4%
14:00Sat 	 18c 	 3%
15:00Sat 	 18c 	 3%
16:00Sat 	 18c 	 3%
17:00Sat 	 17c 	 4%
18:00Sat 	 17c 	 4%
19:00Sat 	 16c 	 3%
20:00Sat 	 15c 	 3%
21:00Sat 	 15c 	 3%
22:00Sat 	 14c 	 3%
23:00Sat 	 14c 	 3%


00:00Sat 	 14c 	 8%
01:00Sat 	 13c 	 10%
02:00Sat 	 13c 	 14%
03:00Sat 	 13c 	 18%
04:00Sat 	 13c 	 21%
05:00Sat 	 13c 	 22%
06:00Sat 	 13c 	 23%
07:00Sat 	 14c 	 21%
08:00Sat 	 14c 	 17%
09:00Sat 	 15c 	 12%
10:00Sat 	 15c 	 9%
11:00Sat 	 16c 	 7%
12:00Sat 	 17c 	 6%
13:00Sat 	 18c 	 4%
14:00Sat 	 18c 	 3%
15:00Sat 	 18c 	 3%
16:00Sat 	 18c 	 3%
17:00Sat 	 17c 	 4%
18:00Sat 	 17c 	 4%
19:00Sat 	 16c 	 3%
20:00Sat 	 15c 	 3%
21:00Sat 	 15c 	 3%
22:00Sat 	 14c 	 3%
23:00Sat 	 14c 	 3%


00:00Sat 	 14c 	 8%
01:00Sat 	 13c 	 10%
02:00Sat 	 13c 	 14%
03:00Sat 	 13c 	 18%
04:00Sat 	 13c 	 20%
05:00Sat 	 13c 	 22%
06:00Sat 	 13c 	 22%
07:00Sat 	 14c 	 21%
08:00Sat 	 14c 	 17%
09:00Sat 	 15c 	 12%
10:00Sat 	 15c 	 9%
11:00Sat 	 16c 	 7%
12:00Sat 	 17c 	 6%
13:00Sat 	 18c 	 4%
14:00Sat 	 18c 	 3%
15:00Sat 	 18c 	 3%
16:00Sat 	 18c 	 3%
17:00Sat 	 17c 	 4%
18:00Sat 	 17c 	 4%
19:00Sat 	 16c 	 3%
20:00Sat 	 15c 	 2%
21:00Sat 	 15c 	 2%
22:00Sat 	 14c 	 2%
23:00Sat 	 14c 	 2%


00:00Sat 	 14c 	 8%
01:00Sat 	 13c 	 10%
02:00Sat 	 13c 	 14%
03:00Sat 	 13c 	 18%
04:00Sat 	 13c 	 20%
05:00Sat 	 13c 	 22%
06:00Sat 	 13c 	 22%
07:00Sat 	 14c 	 21%
08:00Sat 	 14c 	 17%
09:00Sat 	 15c 	 12%
10:00Sat 	 15c 	 9%
11:00Sat 	 16c 	 7%
12:00Sat 	 17c 	 6%
13:00Sat 	 18c 	 4%
14:00Sat 	 18c 	 3%
15:00Sat 	 18c 	 3%
16:00Sat 	 18c 	 3%
17:00Sat 	 17c 	 4%
18:00Sat 	 17c 	 4%
19:00Sat 	 16c 	 3%
20:00Sat 	 15c 	 2%
21:00Sat 	 15c 	 2%
22:00Sat 	 14c 	 2%
23:00Sat 	 14c 	 2%


00:00Sat 	 14c 	 8%
01:00Sat 	 13c 	 10%
02:00Sat 	 13c 	 14%
03:00Sat 	 13c 	 18%
04:00Sat 	 13c 	 20%
05:00Sat 	 13c 	 22%
06:00Sat 	 13c 	 22%
07:00Sat 	 14c 	 21%
08:00Sat 	 14c 	 17%
09:00Sat 	 15c 	 12%
10:00Sat 	 15c 	 9%
11:00Sat 	 16c 	 7%
12:00Sat 	 17c 	 6%
13:00Sat 	 18c 	 4%
14:00Sat 	 18c 	 3%
15:00Sat 	 18c 	 3%
16:00Sat 	 18c 	 3%
17:00Sat 	 17c 	 4%
18:00Sat 	 17c 	 4%
19:00Sat 	 16c 	 3%
20:00Sat 	 15c 	 2%
21:00Sat 	 15c 	 2%
22:00Sat 	 14c 	 2%
23:00Sat 	 14c 	 2%


00:00Sat 	 14c 	 8%
01:00Sat 	 13c 	 10%
02:00Sat 	 13c 	 14%
03:00Sat 	 13c 	 18%
04:00Sat 	 13c 	 20%
05:00Sat 	 13c 	 22%
06:00Sat 	 13c 	 22%
07:00Sat 	 14c 	 21%
08:00Sat 	 14c 	 17%
09:00Sat 	 15c 	 12%
10:00Sat 	 15c 	 9%
11:00Sat 	 16c 	 7%
12:00Sat 	 17c 	 6%
13:00Sat 	 18c 	 4%
14:00Sat 	 18c 	 3%
15:00Sat 	 18c 	 3%
16:00Sat 	 18c 	 3%
17:00Sat 	 17c 	 4%
18:00Sat 	 17c 	 4%
19:00Sat 	 16c 	 3%
20:00Sat 	 15c 	 2%
21:00Sat 	 15c 	 2%
22:00Sat 	 14c 	 2%
23:00Sat 	 14c 	 2%


00:00Sat 	 14c 	 8%
01:00Sat 	 13c 	 10%
02:00Sat 	 13c 	 14%
03:00Sat 	 13c 	 18%
04:00Sat 	 13c 	 20%
05:00Sat 	 13c 	 22%
06:00Sat 	 13c 	 22%
07:00Sat 	 14c 	 21%
08:00Sat 	 14c 	 17%
09:00Sat 	 15c 	 12%
10:00Sat 	 15c 	 9%
11:00Sat 	 16c 	 7%
12:00Sat 	 17c 	 6%
13:00Sat 	 18c 	 4%
14:00Sat 	 18c 	 3%
15:00Sat 	 18c 	 3%
16:00Sat 	 18c 	 3%
17:00Sat 	 17c 	 4%
18:00Sat 	 17c 	 4%
19:00Sat 	 16c 	 3%
20:00Sat 	 15c 	 2%
21:00Sat 	 15c 	 2%
22:00Sat 	 14c 	 2%
23:00Sat 	 14c 	 2%


00:00Sat 	 14c 	 8%
01:00Sat 	 13c 	 10%
02:00Sat 	 13c 	 14%
03:00Sat 	 13c 	 18%
04:00Sat 	 13c 	 20%
05:00Sat 	 13c 	 22%
06:00Sat 	 13c 	 22%
07:00Sat 	 14c 	 21%
08:00Sat 	 14c 	 17%
09:00Sat 	 15c 	 12%
10:00Sat 	 15c 	 9%
11:00Sat 	 16c 	 7%
12:00Sat 	 17c 	 6%
13:00Sat 	 18c 	 4%
14:00Sat 	 18c 	 3%
15:00Sat 	 18c 	 3%
16:00Sat 	 18c 	 3%
17:00Sat 	 17c 	 4%
18:00Sat 	 17c 	 4%
19:00Sat 	 16c 	 3%
20:00Sat 	 15c 	 2%
21:00Sat 	 15c 	 2%
22:00Sat 	 14c 	 2%
23:00Sat 	 14c 	 2%


00:00Sat 	 14c 	 8%
01:00Sat 	 13c 	 10%
02:00Sat 	 13c 	 14%
03:00Sat 	 13c 	 18%
04:00Sat 	 13c 	 20%
05:00Sat 	 13c 	 22%
06:00Sat 	 13c 	 22%
07:00Sat 	 14c 	 21%
08:00Sat 	 14c 	 17%
09:00Sat 	 15c 	 12%
10:00Sat 	 15c 	 9%
11:00Sat 	 16c 	 7%
12:00Sat 	 17c 	 6%
13:00Sat 	 18c 	 4%
14:00Sat 	 18c 	 3%
15:00Sat 	 18c 	 3%
16:00Sat 	 18c 	 3%
17:00Sat 	 17c 	 4%
18:00Sat 	 17c 	 4%
19:00Sat 	 16c 	 3%
20:00Sat 	 15c 	 2%
21:00Sat 	 15c 	 2%
22:00Sat 	 14c 	 2%
23:00Sat 	 14c 	 2%


00:00Sat 	 14c 	 8%
01:00Sat 	 13c 	 10%
02:00Sat 	 13c 	 14%
03:00Sat 	 13c 	 18%
04:00Sat 	 13c 	 20%
05:00Sat 	 13c 	 22%
06:00Sat 	 13c 	 22%
07:00Sat 	 14c 	 21%
08:00Sat 	 14c 	 17%
09:00Sat 	 15c 	 12%
10:00Sat 	 15c 	 9%
11:00Sat 	 16c 	 7%
12:00Sat 	 17c 	 6%
13:00Sat 	 18c 	 4%
14:00Sat 	 18c 	 3%
15:00Sat 	 18c 	 3%
16:00Sat 	 18c 	 3%
17:00Sat 	 17c 	 4%
18:00Sat 	 17c 	 4%
19:00Sat 	 16c 	 3%
20:00Sat 	 15c 	 2%
21:00Sat 	 15c 	 2%
22:00Sat 	 14c 	 2%
23:00Sat 	 14c 	 2%


00:00Sat 	 14c 	 8%
01:00Sat 	 13c 	 10%
02:00Sat 	 13c 	 14%
03:00Sat 	 13c 	 18%
04:00Sat 	 13c 	 20%
05:00Sat 	 13c 	 22%
06:00Sat 	 13c 	 22%
07:00Sat 	 14c 	 21%
08:00Sat 	 14c 	 17%
09:00Sat 	 15c 	 12%
10:00Sat 	 15c 	 9%
11:00Sat 	 16c 	 7%
12:00Sat 	 17c 	 6%
13:00Sat 	 18c 	 4%
14:00Sat 	 18c 	 3%
15:00Sat 	 18c 	 3%
16:00Sat 	 18c 	 3%
17:00Sat 	 17c 	 4%
18:00Sat 	 17c 	 4%
19:00Sat 	 16c 	 3%
20:00Sat 	 15c 	 2%
21:00Sat 	 15c 	 2%
22:00Sat 	 14c 	 2%
23:00Sat 	 14c 	 2%


00:00Sat 	 14c 	 8%
01:00Sat 	 13c 	 10%
02:00Sat 	 13c 	 14%
03:00Sat 	 13c 	 18%
04:00Sat 	 13c 	 20%
05:00Sat 	 13c 	 22%
06:00Sat 	 13c 	 22%
07:00Sat 	 14c 	 21%
08:00Sat 	 14c 	 17%
09:00Sat 	 15c 	 12%
10:00Sat 	 15c 	 9%
11:00Sat 	 16c 	 7%
12:00Sat 	 17c 	 6%
13:00Sat 	 18c 	 4%
14:00Sat 	 18c 	 3%
15:00Sat 	 18c 	 3%
16:00Sat 	 18c 	 3%
17:00Sat 	 17c 	 4%
18:00Sat 	 17c 	 4%
19:00Sat 	 16c 	 3%
20:00Sat 	 15c 	 2%
21:00Sat 	 15c 	 2%
22:00Sat 	 14c 	 2%
23:00Sat 	 14c 	 2%


00:00Sat 	 14c 	 8%
01:00Sat 	 13c 	 10%
02:00Sat 	 13c 	 14%
03:00Sat 	 13c 	 18%
04:00Sat 	 13c 	 20%
05:00Sat 	 13c 	 22%
06:00Sat 	 13c 	 22%
07:00Sat 	 14c 	 21%
08:00Sat 	 14c 	 17%
09:00Sat 	 15c 	 12%
10:00Sat 	 15c 	 9%
11:00Sat 	 16c 	 7%
12:00Sat 	 17c 	 6%
13:00Sat 	 18c 	 4%
14:00Sat 	 18c 	 3%
15:00Sat 	 18c 	 3%
16:00Sat 	 18c 	 3%
17:00Sat 	 17c 	 4%
18:00Sat 	 17c 	 4%
19:00Sat 	 16c 	 3%
20:00Sat 	 15c 	 2%
21:00Sat 	 15c 	 2%
22:00Sat 	 14c 	 2%
23:00Sat 	 14c 	 2%


00:00Sat 	 14c 	 8%
01:00Sat 	 13c 	 10%
02:00Sat 	 13c 	 14%
03:00Sat 	 13c 	 18%
04:00Sat 	 13c 	 20%
05:00Sat 	 13c 	 22%
06:00Sat 	 13c 	 22%
07:00Sat 	 14c 	 21%
08:00Sat 	 14c 	 17%
09:00Sat 	 15c 	 12%
10:00Sat 	 15c 	 9%
11:00Sat 	 16c 	 7%
12:00Sat 	 17c 	 6%
13:00Sat 	 18c 	 4%
14:00Sat 	 18c 	 3%
15:00Sat 	 18c 	 3%
16:00Sat 	 18c 	 3%
17:00Sat 	 17c 	 4%
18:00Sat 	 17c 	 4%
19:00Sat 	 16c 	 3%
20:00Sat 	 15c 	 2%
21:00Sat 	 15c 	 2%
22:00Sat 	 14c 	 2%
23:00Sat 	 14c 	 2%


00:00Sat 	 14c 	 8%
01:00Sat 	 13c 	 10%
02:00Sat 	 13c 	 14%
03:00Sat 	 13c 	 18%
04:00Sat 	 13c 	 20%
05:00Sat 	 13c 	 22%
06:00Sat 	 13c 	 22%
07:00Sat 	 14c 	 21%
08:00Sat 	 14c 	 17%
09:00Sat 	 15c 	 12%
10:00Sat 	 15c 	 9%
11:00Sat 	 16c 	 7%
12:00Sat 	 17c 	 6%
13:00Sat 	 18c 	 4%
14:00Sat 	 18c 	 3%
15:00Sat 	 18c 	 3%
16:00Sat 	 18c 	 3%
17:00Sat 	 17c 	 4%
18:00Sat 	 17c 	 4%
19:00Sat 	 16c 	 3%
20:00Sat 	 15c 	 2%
21:00Sat 	 15c 	 2%
22:00Sat 	 14c 	 2%
23:00Sat 	 14c 	 2%


00:00Sat 	 14c 	 8%
01:00Sat 	 13c 	 10%
02:00Sat 	 13c 	 14%
03:00Sat 	 13c 	 18%
04:00Sat 	 13c 	 20%
05:00Sat 	 13c 	 22%
06:00Sat 	 13c 	 22%
07:00Sat 	 14c 	 21%
08:00Sat 	 14c 	 17%
09:00Sat 	 15c 	 12%
10:00Sat 	 15c 	 9%
11:00Sat 	 16c 	 7%
12:00Sat 	 17c 	 6%
13:00Sat 	 18c 	 4%
14:00Sat 	 18c 	 3%
15:00Sat 	 18c 	 3%
16:00Sat 	 18c 	 3%
17:00Sat 	 17c 	 4%
18:00Sat 	 17c 	 4%
19:00Sat 	 16c 	 3%
20:00Sat 	 15c 	 2%
21:00Sat 	 15c 	 2%
22:00Sat 	 14c 	 2%
23:00Sat 	 14c 	 2%


00:00Sat 	 14c 	 8%
01:00Sat 	 13c 	 10%
02:00Sat 	 13c 	 14%
03:00Sat 	 13c 	 18%
04:00Sat 	 13c 	 20%
05:00Sat 	 13c 	 22%
06:00Sat 	 13c 	 22%
07:00Sat 	 14c 	 21%
08:00Sat 	 14c 	 17%
09:00Sat 	 15c 	 12%
10:00Sat 	 15c 	 9%
11:00Sat 	 16c 	 7%
12:00Sat 	 17c 	 6%
13:00Sat 	 18c 	 4%
14:00Sat 	 18c 	 3%
15:00Sat 	 18c 	 3%
16:00Sat 	 18c 	 3%
17:00Sat 	 17c 	 4%
18:00Sat 	 17c 	 4%
19:00Sat 	 16c 	 3%
20:00Sat 	 15c 	 2%
21:00Sat 	 15c 	 2%
22:00Sat 	 14c 	 2%
23:00Sat 	 14c 	 2%


00:00Sat 	 14c 	 8%
01:00Sat 	 13c 	 10%
02:00Sat 	 13c 	 14%
03:00Sat 	 13c 	 18%
04:00Sat 	 13c 	 20%
05:00Sat 	 13c 	 22%
06:00Sat 	 13c 	 22%
07:00Sat 	 14c 	 21%
08:00Sat 	 14c 	 17%
09:00Sat 	 15c 	 12%
10:00Sat 	 15c 	 9%
11:00Sat 	 16c 	 7%
12:00Sat 	 17c 	 6%
13:00Sat 	 18c 	 4%
14:00Sat 	 18c 	 3%
15:00Sat 	 18c 	 3%
16:00Sat 	 18c 	 3%
17:00Sat 	 17c 	 4%
18:00Sat 	 17c 	 4%
19:00Sat 	 16c 	 3%
20:00Sat 	 15c 	 2%
21:00Sat 	 15c 	 2%
22:00Sat 	 14c 	 2%
23:00Sat 	 14c 	 2%


00:00Sat 	 14c 	 8%
01:00Sat 	 13c 	 10%
02:00Sat 	 13c 	 14%
03:00Sat 	 13c 	 18%
04:00Sat 	 13c 	 20%
05:00Sat 	 13c 	 22%
06:00Sat 	 13c 	 22%
07:00Sat 	 14c 	 21%
08:00Sat 	 14c 	 17%
09:00Sat 	 15c 	 12%
10:00Sat 	 15c 	 9%
11:00Sat 	 16c 	 7%
12:00Sat 	 17c 	 6%
13:00Sat 	 18c 	 4%
14:00Sat 	 18c 	 3%
15:00Sat 	 18c 	 3%
16:00Sat 	 18c 	 3%
17:00Sat 	 17c 	 4%
18:00Sat 	 17c 	 4%
19:00Sat 	 16c 	 3%
20:00Sat 	 15c 	 2%
21:00Sat 	 15c 	 2%
22:00Sat 	 14c 	 2%
23:00Sat 	 14c 	 2%


00:00Sat 	 14c 	 8%
01:00Sat 	 13c 	 10%
02:00Sat 	 13c 	 14%
03:00Sat 	 13c 	 18%
04:00Sat 	 13c 	 20%
05:00Sat 	 13c 	 22%
06:00Sat 	 13c 	 22%
07:00Sat 	 14c 	 21%
08:00Sat 	 14c 	 17%
09:00Sat 	 15c 	 12%
10:00Sat 	 15c 	 9%
11:00Sat 	 16c 	 7%
12:00Sat 	 17c 	 6%
13:00Sat 	 18c 	 4%
14:00Sat 	 18c 	 3%
15:00Sat 	 18c 	 3%
16:00Sat 	 18c 	 3%
17:00Sat 	 17c 	 4%
18:00Sat 	 17c 	 4%
19:00Sat 	 16c 	 3%
20:00Sat 	 15c 	 2%
21:00Sat 	 15c 	 2%
22:00Sat 	 14c 	 2%
23:00Sat 	 14c 	 2%


00:00Sat 	 14c 	 8%
01:00Sat 	 13c 	 10%
02:00Sat 	 13c 	 14%
03:00Sat 	 13c 	 18%
04:00Sat 	 13c 	 20%
05:00Sat 	 13c 	 22%
06:00Sat 	 13c 	 22%
07:00Sat 	 14c 	 21%
08:00Sat 	 14c 	 17%
09:00Sat 	 15c 	 12%
10:00Sat 	 15c 	 9%
11:00Sat 	 16c 	 7%
12:00Sat 	 17c 	 6%
13:00Sat 	 18c 	 4%
14:00Sat 	 18c 	 3%
15:00Sat 	 18c 	 3%
16:00Sat 	 18c 	 3%
17:00Sat 	 17c 	 4%
18:00Sat 	 17c 	 4%
19:00Sat 	 16c 	 3%
20:00Sat 	 15c 	 2%
21:00Sat 	 15c 	 2%
22:00Sat 	 14c 	 2%
23:00Sat 	 14c 	 2%


00:00Sat 	 14c 	 8%
01:00Sat 	 13c 	 10%
02:00Sat 	 13c 	 14%
03:00Sat 	 13c 	 18%
04:00Sat 	 13c 	 20%
05:00Sat 	 13c 	 22%
06:00Sat 	 13c 	 22%
07:00Sat 	 14c 	 21%
08:00Sat 	 14c 	 17%
09:00Sat 	 15c 	 12%
10:00Sat 	 15c 	 9%
11:00Sat 	 16c 	 7%
12:00Sat 	 17c 	 6%
13:00Sat 	 18c 	 4%
14:00Sat 	 18c 	 3%
15:00Sat 	 18c 	 3%
16:00Sat 	 18c 	 3%
17:00Sat 	 17c 	 4%
18:00Sat 	 17c 	 4%
19:00Sat 	 16c 	 3%
20:00Sat 	 15c 	 2%
21:00Sat 	 15c 	 2%
22:00Sat 	 14c 	 2%
23:00Sat 	 14c 	 2%


00:00Sat 	 14c 	 8%
01:00Sat 	 13c 	 10%
02:00Sat 	 13c 	 14%
03:00Sat 	 13c 	 18%
04:00Sat 	 13c 	 20%
05:00Sat 	 13c 	 22%
06:00Sat 	 13c 	 22%
07:00Sat 	 14c 	 21%
08:00Sat 	 14c 	 17%
09:00Sat 	 15c 	 12%
10:00Sat 	 15c 	 9%
11:00Sat 	 16c 	 7%
12:00Sat 	 17c 	 6%
13:00Sat 	 18c 	 4%
14:00Sat 	 18c 	 3%
15:00Sat 	 18c 	 3%
16:00Sat 	 18c 	 3%
17:00Sat 	 17c 	 4%
18:00Sat 	 17c 	 4%
19:00Sat 	 16c 	 3%
20:00Sat 	 15c 	 2%
21:00Sat 	 15c 	 2%
22:00Sat 	 14c 	 2%
23:00Sat 	 14c 	 2%


00:00Sat 	 14c 	 8%
01:00Sat 	 13c 	 10%
02:00Sat 	 13c 	 14%
03:00Sat 	 13c 	 18%
04:00Sat 	 13c 	 20%
05:00Sat 	 13c 	 22%
06:00Sat 	 13c 	 22%
07:00Sat 	 14c 	 21%
08:00Sat 	 14c 	 17%
09:00Sat 	 15c 	 12%
10:00Sat 	 15c 	 9%
11:00Sat 	 16c 	 7%
12:00Sat 	 17c 	 6%
13:00Sat 	 18c 	 4%
14:00Sat 	 18c 	 3%
15:00Sat 	 18c 	 3%
16:00Sat 	 18c 	 3%
17:00Sat 	 17c 	 4%
18:00Sat 	 17c 	 4%
19:00Sat 	 16c 	 3%
20:00Sat 	 15c 	 2%
21:00Sat 	 15c 	 2%
22:00Sat 	 14c 	 2%
23:00Sat 	 14c 	 2%


00:00Sat 	 14c 	 8%
01:00Sat 	 13c 	 10%
02:00Sat 	 13c 	 14%
03:00Sat 	 13c 	 18%
04:00Sat 	 13c 	 20%
05:00Sat 	 13c 	 22%
06:00Sat 	 13c 	 22%
07:00Sat 	 14c 	 21%
08:00Sat 	 14c 	 17%
09:00Sat 	 15c 	 12%
10:00Sat 	 15c 	 9%
11:00Sat 	 16c 	 7%
12:00Sat 	 17c 	 6%
13:00Sat 	 18c 	 4%
14:00Sat 	 18c 	 3%
15:00Sat 	 18c 	 3%
16:00Sat 	 18c 	 3%
17:00Sat 	 17c 	 4%
18:00Sat 	 17c 	 4%
19:00Sat 	 16c 	 3%
20:00Sat 	 15c 	 2%
21:00Sat 	 15c 	 2%
22:00Sat 	 14c 	 2%
23:00Sat 	 14c 	 2%


00:00Sat 	 14c 	 8%
01:00Sat 	 13c 	 10%
02:00Sat 	 13c 	 14%
03:00Sat 	 13c 	 18%
04:00Sat 	 13c 	 20%
05:00Sat 	 13c 	 22%
06:00Sat 	 13c 	 22%
07:00Sat 	 14c 	 21%
08:00Sat 	 14c 	 17%
09:00Sat 	 15c 	 12%
10:00Sat 	 15c 	 9%
11:00Sat 	 16c 	 7%
12:00Sat 	 17c 	 6%
13:00Sat 	 18c 	 4%
14:00Sat 	 18c 	 3%
15:00Sat 	 18c 	 3%
16:00Sat 	 18c 	 3%
17:00Sat 	 17c 	 4%
18:00Sat 	 17c 	 4%
19:00Sat 	 16c 	 3%
20:00Sat 	 15c 	 2%
21:00Sat 	 15c 	 2%
22:00Sat 	 14c 	 2%
23:00Sat 	 14c 	 2%


00:00Sat 	 14c 	 8%
01:00Sat 	 13c 	 10%
02:00Sat 	 13c 	 14%
03:00Sat 	 13c 	 18%
04:00Sat 	 13c 	 20%
05:00Sat 	 13c 	 22%
06:00Sat 	 13c 	 22%
07:00Sat 	 14c 	 21%
08:00Sat 	 14c 	 17%
09:00Sat 	 15c 	 12%
10:00Sat 	 15c 	 9%
11:00Sat 	 16c 	 7%
12:00Sat 	 17c 	 6%
13:00Sat 	 18c 	 4%
14:00Sat 	 18c 	 3%
15:00Sat 	 18c 	 3%
16:00Sat 	 18c 	 3%
17:00Sat 	 17c 	 4%
18:00Sat 	 17c 	 4%
19:00Sat 	 16c 	 3%
20:00Sat 	 15c 	 2%
21:00Sat 	 15c 	 2%
22:00Sat 	 14c 	 2%
23:00Sat 	 14c 	 2%


00:00Sat 	 14c 	 8%
01:00Sat 	 13c 	 10%
02:00Sat 	 13c 	 14%
03:00Sat 	 13c 	 18%
04:00Sat 	 13c 	 20%
05:00Sat 	 13c 	 22%
06:00Sat 	 13c 	 22%
07:00Sat 	 14c 	 21%
08:00Sat 	 14c 	 17%
09:00Sat 	 15c 	 12%
10:00Sat 	 15c 	 9%
11:00Sat 	 16c 	 7%
12:00Sat 	 17c 	 6%
13:00Sat 	 18c 	 4%
14:00Sat 	 18c 	 3%
15:00Sat 	 18c 	 3%
16:00Sat 	 18c 	 3%
17:00Sat 	 17c 	 4%
18:00Sat 	 17c 	 4%
19:00Sat 	 16c 	 3%
20:00Sat 	 15c 	 2%
21:00Sat 	 15c 	 2%
22:00Sat 	 14c 	 2%
23:00Sat 	 14c 	 2%


00:00Sat 	 14c 	 8%
01:00Sat 	 13c 	 10%
02:00Sat 	 13c 	 14%
03:00Sat 	 13c 	 18%
04:00Sat 	 13c 	 20%
05:00Sat 	 13c 	 22%
06:00Sat 	 13c 	 22%
07:00Sat 	 14c 	 21%
08:00Sat 	 14c 	 17%
09:00Sat 	 15c 	 12%
10:00Sat 	 15c 	 9%
11:00Sat 	 16c 	 7%
12:00Sat 	 17c 	 6%
13:00Sat 	 18c 	 4%
14:00Sat 	 18c 	 3%
15:00Sat 	 18c 	 3%
16:00Sat 	 18c 	 3%
17:00Sat 	 17c 	 4%
18:00Sat 	 17c 	 4%
19:00Sat 	 16c 	 3%
20:00Sat 	 15c 	 2%
21:00Sat 	 15c 	 2%
22:00Sat 	 14c 	 2%
23:00Sat 	 14c 	 2%


00:00Sat 	 14c 	 8%
01:00Sat 	 13c 	 10%
02:00Sat 	 13c 	 14%
03:00Sat 	 13c 	 18%
04:00Sat 	 13c 	 20%
05:00Sat 	 13c 	 22%
06:00Sat 	 13c 	 22%
07:00Sat 	 14c 	 21%
08:00Sat 	 14c 	 17%
09:00Sat 	 15c 	 12%
10:00Sat 	 15c 	 9%
11:00Sat 	 16c 	 7%
12:00Sat 	 17c 	 6%
13:00Sat 	 18c 	 4%
14:00Sat 	 18c 	 3%
15:00Sat 	 18c 	 3%
16:00Sat 	 18c 	 3%
17:00Sat 	 17c 	 4%
18:00Sat 	 17c 	 4%
19:00Sat 	 16c 	 3%
20:00Sat 	 15c 	 2%
21:00Sat 	 15c 	 2%
22:00Sat 	 14c 	 2%
23:00Sat 	 14c 	 2%


00:00Sat 	 14c 	 8%
01:00Sat 	 13c 	 10%
02:00Sat 	 13c 	 14%
03:00Sat 	 13c 	 18%
04:00Sat 	 13c 	 20%
05:00Sat 	 13c 	 22%
06:00Sat 	 13c 	 22%
07:00Sat 	 14c 	 21%
08:00Sat 	 14c 	 17%
09:00Sat 	 15c 	 12%
10:00Sat 	 15c 	 9%
11:00Sat 	 16c 	 7%
12:00Sat 	 17c 	 6%
13:00Sat 	 18c 	 4%
14:00Sat 	 18c 	 3%
15:00Sat 	 18c 	 3%
16:00Sat 	 18c 	 3%
17:00Sat 	 17c 	 4%
18:00Sat 	 17c 	 4%
19:00Sat 	 16c 	 3%
20:00Sat 	 15c 	 2%
21:00Sat 	 15c 	 2%
22:00Sat 	 14c 	 2%
23:00Sat 	 14c 	 2%


00:00Sat 	 14c 	 8%
01:00Sat 	 13c 	 10%
02:00Sat 	 13c 	 14%
03:00Sat 	 13c 	 18%
04:00Sat 	 13c 	 20%
05:00Sat 	 13c 	 22%
06:00Sat 	 13c 	 22%
07:00Sat 	 14c 	 21%
08:00Sat 	 14c 	 17%
09:00Sat 	 15c 	 12%
10:00Sat 	 15c 	 9%
11:00Sat 	 16c 	 7%
12:00Sat 	 17c 	 6%
13:00Sat 	 18c 	 4%
14:00Sat 	 18c 	 3%
15:00Sat 	 18c 	 3%
16:00Sat 	 18c 	 3%
17:00Sat 	 17c 	 4%
18:00Sat 	 17c 	 4%
19:00Sat 	 16c 	 3%
20:00Sat 	 15c 	 2%
21:00Sat 	 15c 	 2%
22:00Sat 	 14c 	 2%
23:00Sat 	 14c 	 2%


00:00Sat 	 14c 	 8%
01:00Sat 	 13c 	 10%
02:00Sat 	 13c 	 14%
03:00Sat 	 13c 	 18%
04:00Sat 	 13c 	 20%
05:00Sat 	 13c 	 22%
06:00Sat 	 13c 	 22%
07:00Sat 	 14c 	 21%
08:00Sat 	 14c 	 17%
09:00Sat 	 15c 	 12%
10:00Sat 	 15c 	 9%
11:00Sat 	 16c 	 7%
12:00Sat 	 17c 	 6%
13:00Sat 	 18c 	 4%
14:00Sat 	 18c 	 3%
15:00Sat 	 18c 	 3%
16:00Sat 	 18c 	 3%
17:00Sat 	 17c 	 4%
18:00Sat 	 17c 	 4%
19:00Sat 	 16c 	 3%
20:00Sat 	 15c 	 2%
21:00Sat 	 15c 	 2%
22:00Sat 	 14c 	 2%
23:00Sat 	 14c 	 2%


00:00Sat 	 14c 	 8%
01:00Sat 	 13c 	 10%
02:00Sat 	 13c 	 14%
03:00Sat 	 13c 	 18%
04:00Sat 	 13c 	 20%
05:00Sat 	 13c 	 22%
06:00Sat 	 13c 	 22%
07:00Sat 	 14c 	 21%
08:00Sat 	 14c 	 17%
09:00Sat 	 15c 	 12%
10:00Sat 	 15c 	 9%
11:00Sat 	 16c 	 7%
12:00Sat 	 17c 	 6%
13:00Sat 	 18c 	 4%
14:00Sat 	 18c 	 3%
15:00Sat 	 18c 	 3%
16:00Sat 	 18c 	 3%
17:00Sat 	 17c 	 4%
18:00Sat 	 17c 	 4%
19:00Sat 	 16c 	 3%
20:00Sat 	 15c 	 2%
21:00Sat 	 15c 	 2%
22:00Sat 	 14c 	 2%
23:00Sat 	 14c 	 2%


00:00Sat 	 14c 	 8%
01:00Sat 	 13c 	 10%
02:00Sat 	 13c 	 14%
03:00Sat 	 13c 	 18%
04:00Sat 	 13c 	 20%
05:00Sat 	 13c 	 22%
06:00Sat 	 13c 	 22%
07:00Sat 	 14c 	 21%
08:00Sat 	 14c 	 17%
09:00Sat 	 15c 	 12%
10:00Sat 	 15c 	 9%
11:00Sat 	 16c 	 7%
12:00Sat 	 17c 	 6%
13:00Sat 	 18c 	 4%
14:00Sat 	 18c 	 3%
15:00Sat 	 18c 	 3%
16:00Sat 	 18c 	 3%
17:00Sat 	 17c 	 4%
18:00Sat 	 17c 	 4%
19:00Sat 	 16c 	 3%
20:00Sat 	 15c 	 2%
21:00Sat 	 15c 	 2%
22:00Sat 	 14c 	 2%
23:00Sat 	 14c 	 2%


00:00Sat 	 14c 	 8%
01:00Sat 	 13c 	 10%
02:00Sat 	 13c 	 14%
03:00Sat 	 13c 	 18%
04:00Sat 	 13c 	 20%
05:00Sat 	 13c 	 22%
06:00Sat 	 13c 	 22%
07:00Sat 	 14c 	 21%
08:00Sat 	 14c 	 17%
09:00Sat 	 15c 	 12%
10:00Sat 	 15c 	 9%
11:00Sat 	 16c 	 7%
12:00Sat 	 17c 	 6%
13:00Sat 	 18c 	 4%
14:00Sat 	 18c 	 3%
15:00Sat 	 18c 	 3%
16:00Sat 	 18c 	 3%
17:00Sat 	 17c 	 4%
18:00Sat 	 17c 	 4%
19:00Sat 	 16c 	 3%
20:00Sat 	 15c 	 2%
21:00Sat 	 15c 	 2%
22:00Sat 	 14c 	 2%
23:00Sat 	 14c 	 2%


00:00Sat 	 14c 	 8%
01:00Sat 	 13c 	 10%
02:00Sat 	 13c 	 14%
03:00Sat 	 13c 	 18%
04:00Sat 	 13c 	 20%
05:00Sat 	 13c 	 22%
06:00Sat 	 13c 	 22%
07:00Sat 	 14c 	 21%
08:00Sat 	 14c 	 17%
09:00Sat 	 15c 	 12%
10:00Sat 	 15c 	 9%
11:00Sat 	 16c 	 7%
12:00Sat 	 17c 	 6%
13:00Sat 	 18c 	 4%
14:00Sat 	 18c 	 3%
15:00Sat 	 18c 	 3%
16:00Sat 	 18c 	 3%
17:00Sat 	 17c 	 4%
18:00Sat 	 17c 	 4%
19:00Sat 	 16c 	 3%
20:00Sat 	 15c 	 2%
21:00Sat 	 15c 	 2%
22:00Sat 	 14c 	 2%
23:00Sat 	 14c 	 2%


00:00Sat 	 14c 	 8%
01:00Sat 	 13c 	 10%
02:00Sat 	 13c 	 14%
03:00Sat 	 13c 	 18%
04:00Sat 	 13c 	 20%
05:00Sat 	 13c 	 22%
06:00Sat 	 13c 	 22%
07:00Sat 	 14c 	 21%
08:00Sat 	 14c 	 17%
09:00Sat 	 15c 	 12%
10:00Sat 	 15c 	 9%
11:00Sat 	 16c 	 7%
12:00Sat 	 17c 	 6%
13:00Sat 	 18c 	 4%
14:00Sat 	 18c 	 3%
15:00Sat 	 18c 	 3%
16:00Sat 	 18c 	 3%
17:00Sat 	 17c 	 4%
18:00Sat 	 17c 	 4%
19:00Sat 	 16c 	 3%
20:00Sat 	 15c 	 2%
21:00Sat 	 15c 	 2%
22:00Sat 	 14c 	 2%
23:00Sat 	 14c 	 2%


00:00Sat 	 14c 	 8%
01:00Sat 	 13c 	 10%
02:00Sat 	 13c 	 14%
03:00Sat 	 13c 	 18%
04:00Sat 	 13c 	 20%
05:00Sat 	 13c 	 22%
06:00Sat 	 13c 	 22%
07:00Sat 	 14c 	 21%
08:00Sat 	 14c 	 17%
09:00Sat 	 15c 	 12%
10:00Sat 	 15c 	 9%
11:00Sat 	 16c 	 7%
12:00Sat 	 17c 	 6%
13:00Sat 	 18c 	 4%
14:00Sat 	 18c 	 3%
15:00Sat 	 18c 	 3%
16:00Sat 	 18c 	 3%
17:00Sat 	 17c 	 4%
18:00Sat 	 17c 	 4%
19:00Sat 	 16c 	 3%
20:00Sat 	 15c 	 2%
21:00Sat 	 15c 	 2%
22:00Sat 	 14c 	 2%
23:00Sat 	 14c 	 2%


00:00Sat 	 14c 	 8%
01:00Sat 	 13c 	 10%
02:00Sat 	 13c 	 14%
03:00Sat 	 13c 	 18%
04:00Sat 	 13c 	 20%
05:00Sat 	 13c 	 22%
06:00Sat 	 13c 	 22%
07:00Sat 	 14c 	 21%
08:00Sat 	 14c 	 17%
09:00Sat 	 15c 	 12%
10:00Sat 	 15c 	 9%
11:00Sat 	 16c 	 7%
12:00Sat 	 17c 	 6%
13:00Sat 	 18c 	 4%
14:00Sat 	 18c 	 3%
15:00Sat 	 18c 	 3%
16:00Sat 	 18c 	 3%
17:00Sat 	 17c 	 4%
18:00Sat 	 17c 	 4%
19:00Sat 	 16c 	 3%
20:00Sat 	 15c 	 2%
21:00Sat 	 15c 	 2%
22:00Sat 	 14c 	 2%
23:00Sat 	 14c 	 2%


00:00Sat 	 14c 	 8%
01:00Sat 	 13c 	 10%
02:00Sat 	 13c 	 14%
03:00Sat 	 13c 	 18%
04:00Sat 	 13c 	 20%
05:00Sat 	 13c 	 22%
06:00Sat 	 13c 	 22%
07:00Sat 	 14c 	 21%
08:00Sat 	 14c 	 17%
09:00Sat 	 15c 	 12%
10:00Sat 	 15c 	 9%
11:00Sat 	 16c 	 7%
12:00Sat 	 17c 	 6%
13:00Sat 	 18c 	 4%
14:00Sat 	 18c 	 3%
15:00Sat 	 18c 	 3%
16:00Sat 	 18c 	 3%
17:00Sat 	 17c 	 4%
18:00Sat 	 17c 	 4%
19:00Sat 	 16c 	 3%
20:00Sat 	 15c 	 2%
21:00Sat 	 15c 	 2%
22:00Sat 	 14c 	 2%
23:00Sat 	 14c 	 2%


00:00Sat 	 14c 	 8%
01:00Sat 	 13c 	 10%
02:00Sat 	 13c 	 14%
03:00Sat 	 13c 	 18%
04:00Sat 	 13c 	 20%
05:00Sat 	 13c 	 22%
06:00Sat 	 13c 	 22%
07:00Sat 	 14c 	 21%
08:00Sat 	 14c 	 17%
09:00Sat 	 15c 	 12%
10:00Sat 	 15c 	 9%
11:00Sat 	 16c 	 7%
12:00Sat 	 17c 	 6%
13:00Sat 	 18c 	 4%
14:00Sat 	 18c 	 3%
15:00Sat 	 18c 	 3%
16:00Sat 	 18c 	 3%
17:00Sat 	 17c 	 4%
18:00Sat 	 17c 	 4%
19:00Sat 	 16c 	 3%
20:00Sat 	 15c 	 2%
21:00Sat 	 15c 	 2%
22:00Sat 	 14c 	 2%
23:00Sat 	 14c 	 2%


00:00Sat 	 14c 	 7%
01:00Sat 	 13c 	 10%
02:00Sat 	 13c 	 14%
03:00Sat 	 13c 	 18%
04:00Sat 	 13c 	 20%
05:00Sat 	 13c 	 22%
06:00Sat 	 13c 	 22%
07:00Sat 	 14c 	 21%
08:00Sat 	 14c 	 17%
09:00Sat 	 15c 	 12%
10:00Sat 	 15c 	 9%
11:00Sat 	 16c 	 7%
12:00Sat 	 17c 	 6%
13:00Sat 	 18c 	 4%
14:00Sat 	 18c 	 3%
15:00Sat 	 18c 	 3%
16:00Sat 	 18c 	 3%
17:00Sat 	 17c 	 4%
18:00Sat 	 17c 	 4%
19:00Sat 	 16c 	 3%
20:00Sat 	 15c 	 2%
21:00Sat 	 15c 	 2%
22:00Sat 	 14c 	 2%
23:00Sat 	 14c 	 2%


00:00Sat 	 14c 	 7%
01:00Sat 	 13c 	 10%
02:00Sat 	 13c 	 14%
03:00Sat 	 13c 	 18%
04:00Sat 	 13c 	 20%
05:00Sat 	 13c 	 22%
06:00Sat 	 13c 	 22%
07:00Sat 	 14c 	 21%
08:00Sat 	 14c 	 17%
09:00Sat 	 15c 	 12%
10:00Sat 	 15c 	 9%
11:00Sat 	 16c 	 7%
12:00Sat 	 17c 	 6%
13:00Sat 	 18c 	 4%
14:00Sat 	 18c 	 3%
15:00Sat 	 18c 	 3%
16:00Sat 	 18c 	 3%
17:00Sat 	 17c 	 4%
18:00Sat 	 17c 	 4%
19:00Sat 	 16c 	 3%
20:00Sat 	 15c 	 2%
21:00Sat 	 15c 	 2%
22:00Sat 	 14c 	 2%
23:00Sat 	 14c 	 2%


00:00Sat 	 14c 	 7%
01:00Sat 	 13c 	 10%
02:00Sat 	 13c 	 14%
03:00Sat 	 13c 	 18%
04:00Sat 	 13c 	 20%
05:00Sat 	 13c 	 22%
06:00Sat 	 13c 	 22%
07:00Sat 	 14c 	 21%
08:00Sat 	 14c 	 17%
09:00Sat 	 15c 	 12%
10:00Sat 	 15c 	 9%
11:00Sat 	 16c 	 7%
12:00Sat 	 17c 	 6%
13:00Sat 	 18c 	 4%
14:00Sat 	 18c 	 3%
15:00Sat 	 18c 	 3%
16:00Sat 	 18c 	 3%
17:00Sat 	 17c 	 4%
18:00Sat 	 17c 	 4%
19:00Sat 	 16c 	 3%
20:00Sat 	 15c 	 2%
21:00Sat 	 15c 	 2%
22:00Sat 	 14c 	 2%
23:00Sat 	 14c 	 2%


00:00Sat 	 14c 	 7%
01:00Sat 	 13c 	 10%
02:00Sat 	 13c 	 14%
03:00Sat 	 13c 	 18%
04:00Sat 	 13c 	 20%
05:00Sat 	 13c 	 22%
06:00Sat 	 13c 	 22%
07:00Sat 	 14c 	 21%
08:00Sat 	 14c 	 17%
09:00Sat 	 15c 	 12%
10:00Sat 	 15c 	 9%
11:00Sat 	 16c 	 7%
12:00Sat 	 17c 	 6%
13:00Sat 	 18c 	 4%
14:00Sat 	 18c 	 3%
15:00Sat 	 18c 	 3%
16:00Sat 	 18c 	 3%
17:00Sat 	 17c 	 4%
18:00Sat 	 17c 	 4%
19:00Sat 	 16c 	 3%
20:00Sat 	 15c 	 2%
21:00Sat 	 15c 	 2%
22:00Sat 	 14c 	 2%
23:00Sat 	 14c 	 2%


00:00Sat 	 14c 	 6%
01:00Sat 	 13c 	 7%
02:00Sat 	 13c 	 11%
03:00Sat 	 13c 	 14%
04:00Sat 	 13c 	 16%
05:00Sat 	 13c 	 18%
06:00Sat 	 13c 	 20%
07:00Sat 	 14c 	 18%
08:00Sat 	 14c 	 14%
09:00Sat 	 15c 	 10%
10:00Sat 	 16c 	 7%
11:00Sat 	 16c 	 7%
12:00Sat 	 17c 	 5%
13:00Sat 	 18c 	 3%
14:00Sat 	 18c 	 2%
15:00Sat 	 18c 	 3%
16:00Sat 	 18c 	 3%
17:00Sat 	 17c 	 4%
18:00Sat 	 17c 	 4%
19:00Sat 	 16c 	 3%
20:00Sat 	 15c 	 2%
21:00Sat 	 14c 	 2%
22:00Sat 	 14c 	 2%
23:00Sat 	 14c 	 2%


00:00Sat 	 14c 	 6%
01:00Sat 	 13c 	 7%
02:00Sat 	 13c 	 11%
03:00Sat 	 13c 	 14%
04:00Sat 	 13c 	 16%
05:00Sat 	 13c 	 18%
06:00Sat 	 13c 	 20%
07:00Sat 	 14c 	 18%
08:00Sat 	 14c 	 14%
09:00Sat 	 15c 	 10%
10:00Sat 	 16c 	 7%
11:00Sat 	 16c 	 7%
12:00Sat 	 17c 	 5%
13:00Sat 	 18c 	 3%
14:00Sat 	 18c 	 2%
15:00Sat 	 18c 	 3%
16:00Sat 	 18c 	 3%
17:00Sat 	 17c 	 4%
18:00Sat 	 17c 	 4%
19:00Sat 	 16c 	 3%
20:00Sat 	 15c 	 2%
21:00Sat 	 14c 	 2%
22:00Sat 	 14c 	 2%
23:00Sat 	 14c 	 2%


00:00Sat 	 14c 	 6%
01:00Sat 	 13c 	 7%
02:00Sat 	 13c 	 11%
03:00Sat 	 13c 	 14%
04:00Sat 	 13c 	 16%
05:00Sat 	 13c 	 18%
06:00Sat 	 13c 	 20%
07:00Sat 	 14c 	 18%
08:00Sat 	 14c 	 14%
09:00Sat 	 15c 	 10%
10:00Sat 	 16c 	 7%
11:00Sat 	 16c 	 7%
12:00Sat 	 17c 	 5%
13:00Sat 	 18c 	 3%
14:00Sat 	 18c 	 2%
15:00Sat 	 18c 	 3%
16:00Sat 	 18c 	 3%
17:00Sat 	 17c 	 4%
18:00Sat 	 17c 	 4%
19:00Sat 	 16c 	 3%
20:00Sat 	 15c 	 2%
21:00Sat 	 14c 	 2%
22:00Sat 	 14c 	 2%
23:00Sat 	 14c 	 2%


00:00Sat 	 14c 	 6%
01:00Sat 	 13c 	 7%
02:00Sat 	 13c 	 11%
03:00Sat 	 13c 	 14%
04:00Sat 	 13c 	 16%
05:00Sat 	 13c 	 18%
06:00Sat 	 13c 	 20%
07:00Sat 	 14c 	 18%
08:00Sat 	 14c 	 14%
09:00Sat 	 15c 	 10%
10:00Sat 	 16c 	 7%
11:00Sat 	 16c 	 7%
12:00Sat 	 17c 	 5%
13:00Sat 	 18c 	 3%
14:00Sat 	 18c 	 2%
15:00Sat 	 18c 	 3%
16:00Sat 	 18c 	 3%
17:00Sat 	 17c 	 4%
18:00Sat 	 17c 	 4%
19:00Sat 	 16c 	 3%
20:00Sat 	 15c 	 2%
21:00Sat 	 14c 	 2%
22:00Sat 	 14c 	 2%
23:00Sat 	 14c 	 2%


00:00Sat 	 14c 	 6%
01:00Sat 	 13c 	 7%
02:00Sat 	 13c 	 11%
03:00Sat 	 13c 	 14%
04:00Sat 	 13c 	 16%
05:00Sat 	 13c 	 18%
06:00Sat 	 13c 	 20%
07:00Sat 	 14c 	 18%
08:00Sat 	 14c 	 14%
09:00Sat 	 15c 	 10%
10:00Sat 	 16c 	 7%
11:00Sat 	 16c 	 7%
12:00Sat 	 17c 	 5%
13:00Sat 	 18c 	 3%
14:00Sat 	 18c 	 2%
15:00Sat 	 18c 	 3%
16:00Sat 	 18c 	 3%
17:00Sat 	 17c 	 4%
18:00Sat 	 17c 	 4%
19:00Sat 	 16c 	 3%
20:00Sat 	 15c 	 2%
21:00Sat 	 14c 	 2%
22:00Sat 	 14c 	 2%
23:00Sat 	 14c 	 2%


00:00Sat 	 14c 	 6%
01:00Sat 	 13c 	 7%
02:00Sat 	 13c 	 11%
03:00Sat 	 13c 	 14%
04:00Sat 	 13c 	 16%
05:00Sat 	 13c 	 18%
06:00Sat 	 13c 	 20%
07:00Sat 	 14c 	 18%
08:00Sat 	 14c 	 14%
09:00Sat 	 15c 	 10%
10:00Sat 	 16c 	 7%
11:00Sat 	 16c 	 7%
12:00Sat 	 17c 	 5%
13:00Sat 	 18c 	 3%
14:00Sat 	 18c 	 2%
15:00Sat 	 18c 	 3%
16:00Sat 	 18c 	 3%
17:00Sat 	 17c 	 4%
18:00Sat 	 17c 	 4%
19:00Sat 	 16c 	 3%
20:00Sat 	 15c 	 2%
21:00Sat 	 14c 	 2%
22:00Sat 	 14c 	 2%
23:00Sat 	 14c 	 2%


00:00Sat 	 14c 	 6%
01:00Sat 	 13c 	 7%
02:00Sat 	 13c 	 11%
03:00Sat 	 13c 	 14%
04:00Sat 	 13c 	 16%
05:00Sat 	 13c 	 18%
06:00Sat 	 13c 	 20%
07:00Sat 	 14c 	 18%
08:00Sat 	 14c 	 14%
09:00Sat 	 15c 	 10%
10:00Sat 	 16c 	 7%
11:00Sat 	 16c 	 7%
12:00Sat 	 17c 	 5%
13:00Sat 	 18c 	 3%
14:00Sat 	 18c 	 2%
15:00Sat 	 18c 	 3%
16:00Sat 	 18c 	 3%
17:00Sat 	 17c 	 4%
18:00Sat 	 17c 	 4%
19:00Sat 	 16c 	 3%
20:00Sat 	 15c 	 2%
21:00Sat 	 14c 	 2%
22:00Sat 	 14c 	 2%
23:00Sat 	 14c 	 2%


00:00Sat 	 14c 	 6%
01:00Sat 	 13c 	 7%
02:00Sat 	 13c 	 11%
03:00Sat 	 13c 	 14%
04:00Sat 	 13c 	 16%
05:00Sat 	 13c 	 18%
06:00Sat 	 13c 	 20%
07:00Sat 	 14c 	 18%
08:00Sat 	 14c 	 14%
09:00Sat 	 15c 	 10%
10:00Sat 	 16c 	 7%
11:00Sat 	 16c 	 7%
12:00Sat 	 17c 	 5%
13:00Sat 	 18c 	 3%
14:00Sat 	 18c 	 2%
15:00Sat 	 18c 	 3%
16:00Sat 	 18c 	 3%
17:00Sat 	 17c 	 4%
18:00Sat 	 17c 	 4%
19:00Sat 	 16c 	 3%
20:00Sat 	 15c 	 2%
21:00Sat 	 14c 	 2%
22:00Sat 	 14c 	 2%
23:00Sat 	 14c 	 2%


00:00Sat 	 14c 	 0%
01:00Sat 	 13c 	 4%
02:00Sat 	 13c 	 11%
03:00Sat 	 13c 	 14%
04:00Sat 	 13c 	 16%
05:00Sat 	 13c 	 18%
06:00Sat 	 13c 	 20%
07:00Sat 	 14c 	 18%
08:00Sat 	 14c 	 14%
09:00Sat 	 15c 	 10%
10:00Sat 	 16c 	 7%
11:00Sat 	 16c 	 7%
12:00Sat 	 17c 	 5%
13:00Sat 	 18c 	 3%
14:00Sat 	 18c 	 2%
15:00Sat 	 18c 	 3%
16:00Sat 	 18c 	 3%
17:00Sat 	 17c 	 4%
18:00Sat 	 17c 	 4%
19:00Sat 	 16c 	 3%
20:00Sat 	 15c 	 2%
21:00Sat 	 14c 	 2%
22:00Sat 	 14c 	 2%
23:00Sat 	 14c 	 2%


00:00Sat 	 14c 	 0%
01:00Sat 	 13c 	 4%
02:00Sat 	 13c 	 11%
03:00Sat 	 13c 	 14%
04:00Sat 	 13c 	 16%
05:00Sat 	 13c 	 18%
06:00Sat 	 13c 	 20%
07:00Sat 	 14c 	 18%
08:00Sat 	 14c 	 14%
09:00Sat 	 15c 	 10%
10:00Sat 	 16c 	 7%
11:00Sat 	 16c 	 7%
12:00Sat 	 17c 	 5%
13:00Sat 	 18c 	 3%
14:00Sat 	 18c 	 2%
15:00Sat 	 18c 	 3%
16:00Sat 	 18c 	 3%
17:00Sat 	 17c 	 4%
18:00Sat 	 17c 	 4%
19:00Sat 	 16c 	 3%
20:00Sat 	 15c 	 2%
21:00Sat 	 14c 	 2%
22:00Sat 	 14c 	 2%
23:00Sat 	 14c 	 2%


00:00Sat 	 14c 	 0%
01:00Sat 	 13c 	 4%
02:00Sat 	 13c 	 11%
03:00Sat 	 13c 	 14%
04:00Sat 	 13c 	 16%
05:00Sat 	 13c 	 18%
06:00Sat 	 13c 	 20%
07:00Sat 	 14c 	 18%
08:00Sat 	 14c 	 14%
09:00Sat 	 15c 	 10%
10:00Sat 	 16c 	 7%
11:00Sat 	 16c 	 7%
12:00Sat 	 17c 	 5%
13:00Sat 	 18c 	 3%
14:00Sat 	 18c 	 2%
15:00Sat 	 18c 	 3%
16:00Sat 	 18c 	 3%
17:00Sat 	 17c 	 4%
18:00Sat 	 17c 	 4%
19:00Sat 	 16c 	 3%
20:00Sat 	 15c 	 2%
21:00Sat 	 14c 	 2%
22:00Sat 	 14c 	 2%
23:00Sat 	 14c 	 2%


00:00Sat 	 14c 	 0%
01:00Sat 	 13c 	 4%
02:00Sat 	 13c 	 11%
03:00Sat 	 13c 	 14%
04:00Sat 	 13c 	 16%
05:00Sat 	 13c 	 18%
06:00Sat 	 13c 	 20%
07:00Sat 	 14c 	 18%
08:00Sat 	 14c 	 14%
09:00Sat 	 15c 	 10%
10:00Sat 	 16c 	 7%
11:00Sat 	 16c 	 7%
12:00Sat 	 17c 	 5%
13:00Sat 	 18c 	 3%
14:00Sat 	 18c 	 2%
15:00Sat 	 18c 	 3%
16:00Sat 	 18c 	 3%
17:00Sat 	 17c 	 4%
18:00Sat 	 17c 	 4%
19:00Sat 	 16c 	 3%
20:00Sat 	 15c 	 2%
21:00Sat 	 14c 	 2%
22:00Sat 	 14c 	 2%
23:00Sat 	 14c 	 2%


00:00Sat 	 13c 	 1%
01:00Sat 	 13c 	 3%
02:00Sat 	 13c 	 11%
03:00Sat 	 13c 	 14%
04:00Sat 	 13c 	 16%
05:00Sat 	 13c 	 18%
06:00Sat 	 13c 	 20%
07:00Sat 	 14c 	 18%
08:00Sat 	 14c 	 14%
09:00Sat 	 15c 	 10%
10:00Sat 	 16c 	 7%
11:00Sat 	 16c 	 7%
12:00Sat 	 17c 	 5%
13:00Sat 	 18c 	 3%
14:00Sat 	 18c 	 2%
15:00Sat 	 18c 	 3%
16:00Sat 	 18c 	 3%
17:00Sat 	 17c 	 4%
18:00Sat 	 17c 	 4%
19:00Sat 	 16c 	 3%
20:00Sat 	 15c 	 2%
21:00Sat 	 14c 	 2%
22:00Sat 	 14c 	 2%
23:00Sat 	 14c 	 2%


00:00Sat 	 13c 	 1%
01:00Sat 	 13c 	 3%
02:00Sat 	 13c 	 11%
03:00Sat 	 13c 	 14%
04:00Sat 	 13c 	 16%
05:00Sat 	 13c 	 18%
06:00Sat 	 13c 	 20%
07:00Sat 	 14c 	 18%
08:00Sat 	 14c 	 14%
09:00Sat 	 15c 	 10%
10:00Sat 	 16c 	 7%
11:00Sat 	 16c 	 7%
12:00Sat 	 17c 	 5%
13:00Sat 	 18c 	 3%
14:00Sat 	 18c 	 2%
15:00Sat 	 18c 	 3%
16:00Sat 	 18c 	 3%
17:00Sat 	 17c 	 4%
18:00Sat 	 17c 	 4%
19:00Sat 	 16c 	 3%
20:00Sat 	 15c 	 2%
21:00Sat 	 14c 	 2%
22:00Sat 	 14c 	 2%
23:00Sat 	 14c 	 2%


00:00Sat 	 14c 	 7%
01:00Sat 	 13c 	 9%
02:00Sat 	 13c 	 11%
03:00Sat 	 13c 	 16%
04:00Sat 	 13c 	 21%
05:00Sat 	 13c 	 22%
00:00Sat 	 14c 	 7%
01:00Sat 	 13c 	 9%
02:00Sat 	 13c 	 11%
03:00Sat 	 13c 	 16%
04:00Sat 	 13c 	 21%
05:00Sat 	 13c 	 22%
00:00Sat 	 14c 	 7%
01:00Sat 	 13c 	 9%
02:00Sat 	 13c 	 11%
03:00Sat 	 13c 	 16%
04:00Sat 	 13c 	 21%
05:00Sat 	 13c 	 22%
00:00Sat 	 14c 	 7%
01:00Sat 	 13c 	 9%
02:00Sat 	 13c 	 11%
03:00Sat 	 13c 	 16%
04:00Sat 	 13c 	 21%
05:00Sat 	 13c 	 22%
00:00Sat 	 14c 	 7%
01:00Sat 	 13c 	 9%
02:00Sat 	 13c 	 11%
03:00Sat 	 13c 	 16%
04:00Sat 	 13c 	 21%
05:00Sat 	 13c 	 22%
00:00Sat 	 14c 	 7%
01:00Sat 	 13c 	 9%
02:00Sat 	 13c 	 11%
03:00Sat 	 13c 	 16%
04:00Sat 	 13c 	 21%
05:00Sat 	 13c 	 22%
00:00Sat 	 14c 	 7%
01:00Sat 	 13c 	 9%
02:00Sat 	 13c 	 11%
03:00Sat 	 13c 	 16%
04:00Sat 	 13c 	 21%
05:00Sat 	 13c 	 22%
00:00Sat 	 14c 	 7%
01:00Sat 	 13c 	 9%
02:00Sat 	 13c 	 11%
03:00Sat 	 13c 	 16%
04:00Sat 	 13c 	 21%
05:00Sat 	 13c 	 22%
00:00Sat 	 14c 	 7%
01:00Sat 	 13c 	 9%
02:00Sat 	 13c 	 11%
03:00Sat 	 13c 	 16%
04:00Sat 	 13c 	 21%
05:00Sat 	 13c 	 22%
00:00Sat 	 14c 	 7%
01:00Sat 	 13c 	 9%
02:00Sat 	 13c 	 11%
03:00Sat 	 13c 	 16%
04:00Sat 	 13c 	 21%
05:00Sat 	 13c 	 22%
00:00Sat 	 14c 	 7%
01:00Sat 	 13c 	 9%
02:00Sat 	 13c 	 11%
03:00Sat 	 13c 	 16%
04:00Sat 	 13c 	 21%
05:00Sat 	 13c 	 22%
00:00Sat 	 14c 	 7%
01:00Sat 	 13c 	 9%
02:00Sat 	 13c 	 11%
03:00Sat 	 13c 	 16%
04:00Sat 	 13c 	 21%
05:00Sat 	 13c 	 22%
00:00Sat 	 14c 	 7%
01:00Sat 	 13c 	 9%
02:00Sat 	 13c 	 11%
03:00Sat 	 13c 	 16%
04:00Sat 	 13c 	 21%
05:00Sat 	 13c 	 22%
00:00Sat 	 14c 	 7%
01:00Sat 	 13c 	 9%
02:00Sat 	 13c 	 11%
03:00Sat 	 13c 	 16%
04:00Sat 	 13c 	 21%
05:00Sat 	 13c 	 22%
00:00Sat 	 14c 	 7%
01:00Sat 	 13c 	 9%
02:00Sat 	 13c 	 11%
03:00Sat 	 13c 	 16%
04:00Sat 	 13c 	 21%
05:00Sat 	 13c 	 22%
00:00Sat 	 14c 	 7%
01:00Sat 	 13c 	 9%
02:00Sat 	 13c 	 11%
03:00Sat 	 13c 	 16%
04:00Sat 	 13c 	 21%
05:00Sat 	 13c 	 22%
00:00Sat 	 14c 	 7%
01:00Sat 	 13c 	 9%
02:00Sat 	 13c 	 11%
03:00Sat 	 13c 	 16%
04:00Sat 	 13c 	 21%
05:00Sat 	 13c 	 22%
00:00Sat 	 14c 	 7%
01:00Sat 	 13c 	 9%
02:00Sat 	 13c 	 11%
03:00Sat 	 13c 	 16%
04:00Sat 	 13c 	 21%
05:00Sat 	 13c 	 22%
00:00Sat 	 14c 	 7%
01:00Sat 	 13c 	 9%
02:00Sat 	 13c 	 11%
03:00Sat 	 13c 	 16%
04:00Sat 	 13c 	 21%
05:00Sat 	 13c 	 22%
00:00Sat 	 14c 	 7%
01:00Sat 	 13c 	 9%
02:00Sat 	 13c 	 11%
03:00Sat 	 13c 	 16%
04:00Sat 	 13c 	 21%
05:00Sat 	 13c 	 22%
00:00Sat 	 14c 	 7%
01:00Sat 	 13c 	 9%
02:00Sat 	 13c 	 11%
03:00Sat 	 13c 	 16%
04:00Sat 	 13c 	 21%
05:00Sat 	 13c 	 22%
