
# /home/pi/Documents/bbc-weather-predictions/data/Sep25Wed/bbcweather_Tuesday24thSeptember_2019-09-25_0000.txt
# time 	 temp 	 rain
00:00Wed 	 14c 	 99%
01:00Wed 	 14c 	 95%
02:00Wed 	 15c 	 92%
03:00Wed 	 15c 	 95%
04:00Wed 	 15c 	 96%
05:00Wed 	 15c 	 94%
06:00Wed 	 15c 	 89%
07:00Wed 	 15c 	 77%
08:00Wed 	 15c 	 57%
09:00Wed 	 16c 	 39%
10:00Wed 	 16c 	 26%
11:00Wed 	 17c 	 24%
12:00Wed 	 18c 	 26%
13:00Wed 	 18c 	 25%
14:00Wed 	 19c 	 23%
15:00Wed 	 18c 	 23%
16:00Wed 	 18c 	 24%
17:00Wed 	 17c 	 23%
18:00Wed 	 17c 	 21%
19:00Wed 	 16c 	 18%
20:00Wed 	 16c 	 20%
21:00Wed 	 15c 	 25%
22:00Wed 	 15c 	 28%
23:00Wed 	 15c 	 35%
00:00Thu 	 15c 	 49%
01:00Thu 	 16c 	 61%
02:00Thu 	 16c 	 69%
03:00Thu 	 16c 	 82%
04:00Thu 	 16c 	 90%
05:00Thu 	 16c 	 89%

# /home/pi/Documents/bbc-weather-predictions/data/Sep25Wed/bbcweather_Tuesday24thSeptember_2019-09-25_0015.txt
# time 	 temp 	 rain
01:00Wed 	 14c 	 100%
02:00Wed 	 15c 	 98%
03:00Wed 	 15c 	 95%
04:00Wed 	 15c 	 96%
05:00Wed 	 15c 	 94%
06:00Wed 	 15c 	 89%
07:00Wed 	 15c 	 77%
08:00Wed 	 15c 	 57%
09:00Wed 	 16c 	 39%
10:00Wed 	 16c 	 26%
11:00Wed 	 17c 	 24%
12:00Wed 	 18c 	 26%
13:00Wed 	 18c 	 25%
14:00Wed 	 19c 	 23%
15:00Wed 	 18c 	 23%
16:00Wed 	 18c 	 24%
17:00Wed 	 17c 	 23%
18:00Wed 	 17c 	 21%
19:00Wed 	 16c 	 18%
20:00Wed 	 16c 	 20%
21:00Wed 	 15c 	 25%
22:00Wed 	 15c 	 28%
23:00Wed 	 15c 	 35%
00:00Thu 	 15c 	 49%
01:00Thu 	 16c 	 61%
02:00Thu 	 16c 	 69%
03:00Thu 	 16c 	 82%
04:00Thu 	 16c 	 90%
05:00Thu 	 16c 	 89%

# /home/pi/Documents/bbc-weather-predictions/data/Sep25Wed/bbcweather_Tuesday24thSeptember_2019-09-25_0030.txt
# time 	 temp 	 rain
01:00Wed 	 14c 	 100%
02:00Wed 	 15c 	 98%
03:00Wed 	 15c 	 95%
04:00Wed 	 15c 	 96%
05:00Wed 	 15c 	 94%
06:00Wed 	 15c 	 89%
07:00Wed 	 15c 	 77%
08:00Wed 	 15c 	 57%
09:00Wed 	 16c 	 39%
10:00Wed 	 16c 	 26%
11:00Wed 	 17c 	 24%
12:00Wed 	 18c 	 26%
13:00Wed 	 18c 	 25%
14:00Wed 	 19c 	 23%
15:00Wed 	 18c 	 23%
16:00Wed 	 18c 	 24%
17:00Wed 	 17c 	 23%
18:00Wed 	 17c 	 21%
19:00Wed 	 16c 	 18%
20:00Wed 	 16c 	 20%
21:00Wed 	 15c 	 25%
22:00Wed 	 15c 	 28%
23:00Wed 	 15c 	 35%
00:00Thu 	 15c 	 49%
01:00Thu 	 16c 	 61%
02:00Thu 	 16c 	 69%
03:00Thu 	 16c 	 82%
04:00Thu 	 16c 	 90%
05:00Thu 	 16c 	 89%

# /home/pi/Documents/bbc-weather-predictions/data/Sep25Wed/bbcweather_Tuesday24thSeptember_2019-09-25_0045.txt
# time 	 temp 	 rain
01:00Wed 	 14c 	 100%
02:00Wed 	 15c 	 98%
03:00Wed 	 15c 	 95%
04:00Wed 	 15c 	 96%
05:00Wed 	 15c 	 94%
06:00Wed 	 15c 	 89%
07:00Wed 	 15c 	 77%
08:00Wed 	 15c 	 57%
09:00Wed 	 16c 	 39%
10:00Wed 	 16c 	 26%
11:00Wed 	 17c 	 24%
12:00Wed 	 18c 	 26%
13:00Wed 	 18c 	 25%
14:00Wed 	 19c 	 23%
15:00Wed 	 18c 	 23%
16:00Wed 	 18c 	 24%
17:00Wed 	 17c 	 23%
18:00Wed 	 17c 	 21%
19:00Wed 	 16c 	 18%
20:00Wed 	 16c 	 20%
21:00Wed 	 15c 	 25%
22:00Wed 	 15c 	 28%
23:00Wed 	 15c 	 35%
00:00Thu 	 15c 	 49%
01:00Thu 	 16c 	 61%
02:00Thu 	 16c 	 69%
03:00Thu 	 16c 	 82%
04:00Thu 	 16c 	 90%
05:00Thu 	 16c 	 89%

# /home/pi/Documents/bbc-weather-predictions/data/Sep25Wed/bbcweather_Tuesday24thSeptember_2019-09-25_0100.txt
# time 	 temp 	 rain
01:00Wed 	 14c 	 100%
02:00Wed 	 15c 	 100%
03:00Wed 	 15c 	 99%
04:00Wed 	 15c 	 96%
05:00Wed 	 15c 	 94%
06:00Wed 	 15c 	 89%
07:00Wed 	 15c 	 77%
08:00Wed 	 15c 	 57%
09:00Wed 	 16c 	 39%
10:00Wed 	 16c 	 26%
11:00Wed 	 17c 	 24%
12:00Wed 	 18c 	 26%
13:00Wed 	 18c 	 25%
14:00Wed 	 19c 	 23%
15:00Wed 	 18c 	 23%
16:00Wed 	 18c 	 24%
17:00Wed 	 17c 	 23%
18:00Wed 	 17c 	 21%
19:00Wed 	 16c 	 18%
20:00Wed 	 16c 	 20%
21:00Wed 	 15c 	 25%
22:00Wed 	 15c 	 28%
23:00Wed 	 15c 	 35%
00:00Thu 	 15c 	 49%
01:00Thu 	 16c 	 61%
02:00Thu 	 16c 	 69%
03:00Thu 	 16c 	 82%
04:00Thu 	 16c 	 90%
05:00Thu 	 16c 	 89%

# /home/pi/Documents/bbc-weather-predictions/data/Sep25Wed/bbcweather_Tuesday24thSeptember_2019-09-25_0115.txt
# time 	 temp 	 rain
02:00Wed 	 15c 	 100%
03:00Wed 	 15c 	 99%
04:00Wed 	 15c 	 96%
05:00Wed 	 15c 	 94%
06:00Wed 	 15c 	 89%
07:00Wed 	 15c 	 77%
08:00Wed 	 15c 	 57%
09:00Wed 	 16c 	 39%
10:00Wed 	 16c 	 26%
11:00Wed 	 17c 	 24%
12:00Wed 	 18c 	 26%
13:00Wed 	 18c 	 25%
14:00Wed 	 19c 	 23%
15:00Wed 	 18c 	 23%
16:00Wed 	 18c 	 24%
17:00Wed 	 17c 	 23%
18:00Wed 	 17c 	 21%
19:00Wed 	 16c 	 18%
20:00Wed 	 16c 	 20%
21:00Wed 	 15c 	 25%
22:00Wed 	 15c 	 28%
23:00Wed 	 15c 	 35%
00:00Thu 	 15c 	 49%
01:00Thu 	 16c 	 61%
02:00Thu 	 16c 	 69%
03:00Thu 	 16c 	 82%
04:00Thu 	 16c 	 90%
05:00Thu 	 16c 	 89%

# /home/pi/Documents/bbc-weather-predictions/data/Sep25Wed/bbcweather_Tuesday24thSeptember_2019-09-25_0130.txt
# time 	 temp 	 rain
02:00Wed 	 15c 	 100%
03:00Wed 	 15c 	 99%
04:00Wed 	 15c 	 96%
05:00Wed 	 15c 	 94%
06:00Wed 	 15c 	 89%
07:00Wed 	 15c 	 77%
08:00Wed 	 15c 	 57%
09:00Wed 	 16c 	 39%
10:00Wed 	 16c 	 26%
11:00Wed 	 17c 	 24%
12:00Wed 	 18c 	 26%
13:00Wed 	 18c 	 25%
14:00Wed 	 19c 	 23%
15:00Wed 	 18c 	 23%
16:00Wed 	 18c 	 24%
17:00Wed 	 17c 	 23%
18:00Wed 	 17c 	 21%
19:00Wed 	 16c 	 18%
20:00Wed 	 16c 	 20%
21:00Wed 	 15c 	 25%
22:00Wed 	 15c 	 28%
23:00Wed 	 15c 	 35%
00:00Thu 	 15c 	 49%
01:00Thu 	 16c 	 61%
02:00Thu 	 16c 	 69%
03:00Thu 	 16c 	 82%
04:00Thu 	 16c 	 90%
05:00Thu 	 16c 	 89%

# /home/pi/Documents/bbc-weather-predictions/data/Sep25Wed/bbcweather_Tuesday24thSeptember_2019-09-25_0145.txt
# time 	 temp 	 rain
02:00Wed 	 15c 	 100%
03:00Wed 	 15c 	 99%
04:00Wed 	 15c 	 96%
05:00Wed 	 15c 	 94%
06:00Wed 	 15c 	 89%
07:00Wed 	 15c 	 77%
08:00Wed 	 15c 	 57%
09:00Wed 	 16c 	 39%
10:00Wed 	 16c 	 26%
11:00Wed 	 17c 	 24%
12:00Wed 	 18c 	 26%
13:00Wed 	 18c 	 25%
14:00Wed 	 19c 	 23%
15:00Wed 	 18c 	 23%
16:00Wed 	 18c 	 24%
17:00Wed 	 17c 	 23%
18:00Wed 	 17c 	 21%
19:00Wed 	 16c 	 18%
20:00Wed 	 16c 	 20%
21:00Wed 	 15c 	 25%
22:00Wed 	 15c 	 28%
23:00Wed 	 15c 	 35%
00:00Thu 	 15c 	 49%
01:00Thu 	 16c 	 61%
02:00Thu 	 16c 	 69%
03:00Thu 	 16c 	 82%
04:00Thu 	 16c 	 90%
05:00Thu 	 16c 	 89%

# /home/pi/Documents/bbc-weather-predictions/data/Sep25Wed/bbcweather_Tuesday24thSeptember_2019-09-25_0200.txt
# time 	 temp 	 rain
02:00Wed 	 15c 	 100%
03:00Wed 	 15c 	 100%
04:00Wed 	 15c 	 99%
05:00Wed 	 15c 	 96%
06:00Wed 	 15c 	 91%
07:00Wed 	 15c 	 78%
08:00Wed 	 15c 	 57%
09:00Wed 	 16c 	 39%
10:00Wed 	 16c 	 26%
11:00Wed 	 17c 	 24%
12:00Wed 	 18c 	 26%
13:00Wed 	 18c 	 25%
14:00Wed 	 19c 	 23%
15:00Wed 	 18c 	 23%
16:00Wed 	 18c 	 24%
17:00Wed 	 17c 	 23%
18:00Wed 	 17c 	 21%
19:00Wed 	 16c 	 18%
20:00Wed 	 16c 	 20%
21:00Wed 	 15c 	 25%
22:00Wed 	 15c 	 28%
23:00Wed 	 15c 	 35%
00:00Thu 	 15c 	 49%
01:00Thu 	 16c 	 61%
02:00Thu 	 16c 	 69%
03:00Thu 	 16c 	 82%
04:00Thu 	 16c 	 90%
05:00Thu 	 16c 	 89%

# /home/pi/Documents/bbc-weather-predictions/data/Sep25Wed/bbcweather_Tuesday24thSeptember_2019-09-25_0215.txt
# time 	 temp 	 rain
03:00Wed 	 15c 	 100%
04:00Wed 	 15c 	 99%
05:00Wed 	 15c 	 96%
06:00Wed 	 15c 	 91%
07:00Wed 	 15c 	 78%
08:00Wed 	 15c 	 57%
09:00Wed 	 16c 	 39%
10:00Wed 	 16c 	 26%
11:00Wed 	 17c 	 24%
12:00Wed 	 18c 	 26%
13:00Wed 	 18c 	 25%
14:00Wed 	 19c 	 23%
15:00Wed 	 18c 	 23%
16:00Wed 	 18c 	 24%
17:00Wed 	 17c 	 23%
18:00Wed 	 17c 	 21%
19:00Wed 	 16c 	 18%
20:00Wed 	 16c 	 20%
21:00Wed 	 15c 	 25%
22:00Wed 	 15c 	 28%
23:00Wed 	 15c 	 35%
00:00Thu 	 15c 	 49%
01:00Thu 	 16c 	 61%
02:00Thu 	 16c 	 69%
03:00Thu 	 16c 	 82%
04:00Thu 	 16c 	 90%
05:00Thu 	 16c 	 89%

# /home/pi/Documents/bbc-weather-predictions/data/Sep25Wed/bbcweather_Tuesday24thSeptember_2019-09-25_0230.txt
# time 	 temp 	 rain
03:00Wed 	 15c 	 100%
04:00Wed 	 15c 	 99%
05:00Wed 	 15c 	 96%
06:00Wed 	 15c 	 91%
07:00Wed 	 15c 	 78%
08:00Wed 	 15c 	 57%
09:00Wed 	 16c 	 39%
10:00Wed 	 16c 	 26%
11:00Wed 	 17c 	 24%
12:00Wed 	 18c 	 26%
13:00Wed 	 18c 	 25%
14:00Wed 	 19c 	 23%
15:00Wed 	 18c 	 23%
16:00Wed 	 18c 	 24%
17:00Wed 	 17c 	 23%
18:00Wed 	 17c 	 21%
19:00Wed 	 16c 	 18%
20:00Wed 	 16c 	 20%
21:00Wed 	 15c 	 25%
22:00Wed 	 15c 	 28%
23:00Wed 	 15c 	 35%
00:00Thu 	 15c 	 49%
01:00Thu 	 16c 	 61%
02:00Thu 	 16c 	 69%
03:00Thu 	 16c 	 82%
04:00Thu 	 16c 	 90%
05:00Thu 	 16c 	 89%

# /home/pi/Documents/bbc-weather-predictions/data/Sep25Wed/bbcweather_Tuesday24thSeptember_2019-09-25_0245.txt
# time 	 temp 	 rain
03:00Wed 	 15c 	 100%
04:00Wed 	 15c 	 99%
05:00Wed 	 15c 	 96%
06:00Wed 	 15c 	 91%
07:00Wed 	 15c 	 78%
08:00Wed 	 15c 	 57%
09:00Wed 	 16c 	 39%
10:00Wed 	 16c 	 26%
11:00Wed 	 17c 	 24%
12:00Wed 	 18c 	 26%
13:00Wed 	 18c 	 25%
14:00Wed 	 19c 	 23%
15:00Wed 	 18c 	 23%
16:00Wed 	 18c 	 24%
17:00Wed 	 17c 	 23%
18:00Wed 	 17c 	 21%
19:00Wed 	 16c 	 18%
20:00Wed 	 16c 	 20%
21:00Wed 	 15c 	 25%
22:00Wed 	 15c 	 28%
23:00Wed 	 15c 	 35%
00:00Thu 	 15c 	 49%
01:00Thu 	 16c 	 61%
02:00Thu 	 16c 	 69%
03:00Thu 	 16c 	 82%
04:00Thu 	 16c 	 90%
05:00Thu 	 16c 	 89%

# /home/pi/Documents/bbc-weather-predictions/data/Sep25Wed/bbcweather_Tuesday24thSeptember_2019-09-25_0300.txt
# time 	 temp 	 rain
03:00Wed 	 15c 	 100%
04:00Wed 	 15c 	 99%
05:00Wed 	 15c 	 96%
06:00Wed 	 15c 	 91%
07:00Wed 	 15c 	 78%
08:00Wed 	 15c 	 57%
09:00Wed 	 16c 	 39%
10:00Wed 	 16c 	 26%
11:00Wed 	 17c 	 24%
12:00Wed 	 18c 	 26%
13:00Wed 	 18c 	 25%
14:00Wed 	 19c 	 23%
15:00Wed 	 18c 	 23%
16:00Wed 	 18c 	 24%
17:00Wed 	 17c 	 23%
18:00Wed 	 17c 	 21%
19:00Wed 	 16c 	 18%
20:00Wed 	 16c 	 20%
21:00Wed 	 15c 	 25%
22:00Wed 	 15c 	 28%
23:00Wed 	 15c 	 35%
00:00Thu 	 15c 	 49%
01:00Thu 	 16c 	 61%
02:00Thu 	 16c 	 69%
03:00Thu 	 16c 	 82%
04:00Thu 	 16c 	 90%
05:00Thu 	 16c 	 89%

# /home/pi/Documents/bbc-weather-predictions/data/Sep25Wed/bbcweather_Tuesday24thSeptember_2019-09-25_0315.txt
# time 	 temp 	 rain
04:00Wed 	 15c 	 91%
05:00Wed 	 15c 	 95%
06:00Wed 	 15c 	 93%
07:00Wed 	 15c 	 81%
08:00Wed 	 15c 	 59%
09:00Wed 	 16c 	 39%
10:00Wed 	 16c 	 26%
11:00Wed 	 17c 	 24%
12:00Wed 	 18c 	 26%
13:00Wed 	 18c 	 25%
14:00Wed 	 19c 	 23%
15:00Wed 	 18c 	 23%
16:00Wed 	 18c 	 24%
17:00Wed 	 17c 	 23%
18:00Wed 	 17c 	 21%
19:00Wed 	 16c 	 18%
20:00Wed 	 16c 	 20%
21:00Wed 	 15c 	 25%
22:00Wed 	 15c 	 28%
23:00Wed 	 15c 	 35%
00:00Thu 	 15c 	 49%
01:00Thu 	 16c 	 61%
02:00Thu 	 16c 	 69%
03:00Thu 	 16c 	 82%
04:00Thu 	 16c 	 90%
05:00Thu 	 16c 	 89%

# /home/pi/Documents/bbc-weather-predictions/data/Sep25Wed/bbcweather_Tuesday24thSeptember_2019-09-25_0330.txt
# time 	 temp 	 rain
04:00Wed 	 15c 	 91%
05:00Wed 	 15c 	 95%
06:00Wed 	 15c 	 93%
07:00Wed 	 15c 	 81%
08:00Wed 	 15c 	 59%
09:00Wed 	 16c 	 39%
10:00Wed 	 16c 	 26%
11:00Wed 	 17c 	 24%
12:00Wed 	 18c 	 26%
13:00Wed 	 18c 	 25%
14:00Wed 	 19c 	 23%
15:00Wed 	 18c 	 23%
16:00Wed 	 18c 	 24%
17:00Wed 	 17c 	 23%
18:00Wed 	 17c 	 21%
19:00Wed 	 16c 	 18%
20:00Wed 	 16c 	 20%
21:00Wed 	 15c 	 25%
22:00Wed 	 15c 	 28%
23:00Wed 	 15c 	 35%
00:00Thu 	 15c 	 49%
01:00Thu 	 16c 	 61%
02:00Thu 	 16c 	 69%
03:00Thu 	 16c 	 82%
04:00Thu 	 16c 	 90%
05:00Thu 	 16c 	 89%

# /home/pi/Documents/bbc-weather-predictions/data/Sep25Wed/bbcweather_Tuesday24thSeptember_2019-09-25_0345.txt
# time 	 temp 	 rain
04:00Wed 	 15c 	 91%
05:00Wed 	 15c 	 95%
06:00Wed 	 15c 	 93%
07:00Wed 	 15c 	 81%
08:00Wed 	 15c 	 59%
09:00Wed 	 16c 	 39%
10:00Wed 	 16c 	 26%
11:00Wed 	 17c 	 24%
12:00Wed 	 18c 	 26%
13:00Wed 	 18c 	 25%
14:00Wed 	 19c 	 23%
15:00Wed 	 18c 	 23%
16:00Wed 	 18c 	 24%
17:00Wed 	 17c 	 23%
18:00Wed 	 17c 	 21%
19:00Wed 	 16c 	 18%
20:00Wed 	 16c 	 20%
21:00Wed 	 15c 	 25%
22:00Wed 	 15c 	 28%
23:00Wed 	 15c 	 35%
00:00Thu 	 15c 	 49%
01:00Thu 	 16c 	 61%
02:00Thu 	 16c 	 69%
03:00Thu 	 16c 	 82%
04:00Thu 	 16c 	 90%
05:00Thu 	 16c 	 89%

# /home/pi/Documents/bbc-weather-predictions/data/Sep25Wed/bbcweather_Tuesday24thSeptember_2019-09-25_0400.txt
# time 	 temp 	 rain
04:00Wed 	 15c 	 100%
05:00Wed 	 15c 	 100%
06:00Wed 	 15c 	 97%
07:00Wed 	 15c 	 83%
08:00Wed 	 15c 	 61%
09:00Wed 	 16c 	 40%
10:00Wed 	 16c 	 26%
11:00Wed 	 17c 	 24%
12:00Wed 	 18c 	 26%
13:00Wed 	 18c 	 25%
14:00Wed 	 19c 	 23%
15:00Wed 	 18c 	 23%
16:00Wed 	 18c 	 24%
17:00Wed 	 17c 	 23%
18:00Wed 	 17c 	 21%
19:00Wed 	 16c 	 18%
20:00Wed 	 16c 	 20%
21:00Wed 	 15c 	 25%
22:00Wed 	 15c 	 28%
23:00Wed 	 15c 	 35%
00:00Thu 	 15c 	 49%
01:00Thu 	 16c 	 61%
02:00Thu 	 16c 	 69%
03:00Thu 	 16c 	 82%
04:00Thu 	 16c 	 90%
05:00Thu 	 16c 	 89%

# /home/pi/Documents/bbc-weather-predictions/data/Sep25Wed/bbcweather_Tuesday24thSeptember_2019-09-25_0415.txt
# time 	 temp 	 rain
05:00Wed 	 15c 	 100%
06:00Wed 	 15c 	 97%
07:00Wed 	 15c 	 83%
08:00Wed 	 15c 	 61%
09:00Wed 	 16c 	 40%
10:00Wed 	 16c 	 26%
11:00Wed 	 17c 	 24%
12:00Wed 	 18c 	 26%
13:00Wed 	 18c 	 25%
14:00Wed 	 19c 	 23%
15:00Wed 	 18c 	 23%
16:00Wed 	 18c 	 24%
17:00Wed 	 17c 	 23%
18:00Wed 	 17c 	 21%
19:00Wed 	 16c 	 18%
20:00Wed 	 16c 	 20%
21:00Wed 	 15c 	 25%
22:00Wed 	 15c 	 28%
23:00Wed 	 15c 	 35%
00:00Thu 	 15c 	 49%
01:00Thu 	 16c 	 61%
02:00Thu 	 16c 	 69%
03:00Thu 	 16c 	 82%
04:00Thu 	 16c 	 90%
05:00Thu 	 16c 	 89%

# /home/pi/Documents/bbc-weather-predictions/data/Sep25Wed/bbcweather_Tuesday24thSeptember_2019-09-25_0430.txt
# time 	 temp 	 rain
05:00Wed 	 15c 	 100%
06:00Wed 	 15c 	 97%
07:00Wed 	 15c 	 83%
08:00Wed 	 15c 	 61%
09:00Wed 	 16c 	 40%
10:00Wed 	 16c 	 26%
11:00Wed 	 17c 	 24%
12:00Wed 	 18c 	 26%
13:00Wed 	 18c 	 25%
14:00Wed 	 19c 	 23%
15:00Wed 	 18c 	 23%
16:00Wed 	 18c 	 24%
17:00Wed 	 17c 	 23%
18:00Wed 	 17c 	 21%
19:00Wed 	 16c 	 18%
20:00Wed 	 16c 	 20%
21:00Wed 	 15c 	 25%
22:00Wed 	 15c 	 28%
23:00Wed 	 15c 	 35%
00:00Thu 	 15c 	 49%
01:00Thu 	 16c 	 61%
02:00Thu 	 16c 	 69%
03:00Thu 	 16c 	 82%
04:00Thu 	 16c 	 90%
05:00Thu 	 16c 	 89%

# /home/pi/Documents/bbc-weather-predictions/data/Sep25Wed/bbcweather_Tuesday24thSeptember_2019-09-25_0445.txt
# time 	 temp 	 rain
05:00Wed 	 15c 	 100%
06:00Wed 	 15c 	 97%
07:00Wed 	 15c 	 83%
08:00Wed 	 15c 	 61%
09:00Wed 	 16c 	 40%
10:00Wed 	 16c 	 26%
11:00Wed 	 17c 	 24%
12:00Wed 	 18c 	 26%
13:00Wed 	 18c 	 25%
14:00Wed 	 19c 	 23%
15:00Wed 	 18c 	 23%
16:00Wed 	 18c 	 24%
17:00Wed 	 17c 	 23%
18:00Wed 	 17c 	 21%
19:00Wed 	 16c 	 18%
20:00Wed 	 16c 	 20%
21:00Wed 	 15c 	 25%
22:00Wed 	 15c 	 28%
23:00Wed 	 15c 	 35%
00:00Thu 	 15c 	 49%
01:00Thu 	 16c 	 61%
02:00Thu 	 16c 	 69%
03:00Thu 	 16c 	 82%
04:00Thu 	 16c 	 90%
05:00Thu 	 16c 	 89%

# /home/pi/Documents/bbc-weather-predictions/data/Sep25Wed/bbcweather_Tuesday24thSeptember_2019-09-25_0500.txt
# time 	 temp 	 rain
05:00Wed 	 15c 	 100%
06:00Wed 	 15c 	 100%
07:00Wed 	 15c 	 91%
08:00Wed 	 15c 	 64%
09:00Wed 	 16c 	 41%
10:00Wed 	 16c 	 26%
11:00Wed 	 17c 	 24%
12:00Wed 	 18c 	 26%
13:00Wed 	 18c 	 25%
14:00Wed 	 19c 	 23%
15:00Wed 	 18c 	 23%
16:00Wed 	 18c 	 24%
17:00Wed 	 17c 	 23%
18:00Wed 	 17c 	 21%
19:00Wed 	 16c 	 18%
20:00Wed 	 16c 	 20%
21:00Wed 	 15c 	 25%
22:00Wed 	 15c 	 28%
23:00Wed 	 15c 	 35%
00:00Thu 	 15c 	 49%
01:00Thu 	 16c 	 61%
02:00Thu 	 16c 	 69%
03:00Thu 	 16c 	 82%
04:00Thu 	 16c 	 90%
05:00Thu 	 16c 	 89%

# /home/pi/Documents/bbc-weather-predictions/data/Sep25Wed/bbcweather_Wednesday25thSeptember_2019-09-25_0515.txt
# time 	 temp 	 rain
06:00Wed 	 15c 	 100%
07:00Wed 	 15c 	 91%
08:00Wed 	 15c 	 64%
09:00Wed 	 16c 	 41%
10:00Wed 	 16c 	 26%
11:00Wed 	 17c 	 24%
12:00Wed 	 18c 	 26%
13:00Wed 	 18c 	 25%
14:00Wed 	 19c 	 23%
15:00Wed 	 18c 	 23%
16:00Wed 	 18c 	 24%
17:00Wed 	 17c 	 23%
18:00Wed 	 17c 	 21%
19:00Wed 	 16c 	 18%
20:00Wed 	 16c 	 20%
21:00Wed 	 15c 	 25%
22:00Wed 	 15c 	 28%
23:00Wed 	 15c 	 35%
00:00Thu 	 15c 	 49%
01:00Thu 	 16c 	 61%
02:00Thu 	 16c 	 69%
03:00Thu 	 16c 	 82%
04:00Thu 	 16c 	 90%
05:00Thu 	 16c 	 89%
06:00Thu 	 16c 	 85%
07:00Thu 	 16c 	 80%
08:00Thu 	 16c 	 71%
09:00Thu 	 16c 	 63%
10:00Thu 	 16c 	 56%
11:00Thu 	 16c 	 51%
12:00Thu 	 16c 	 44%
13:00Thu 	 16c 	 35%
14:00Thu 	 17c 	 31%
15:00Thu 	 17c 	 32%
16:00Thu 	 16c 	 32%
17:00Thu 	 16c 	 32%
18:00Thu 	 15c 	 33%
19:00Thu 	 15c 	 33%
20:00Thu 	 14c 	 33%
21:00Thu 	 14c 	 33%
22:00Thu 	 14c 	 30%
23:00Thu 	 13c 	 26%
00:00Fri 	 13c 	 25%
01:00Fri 	 13c 	 26%
02:00Fri 	 13c 	 29%
03:00Fri 	 13c 	 37%
04:00Fri 	 13c 	 44%
05:00Fri 	 13c 	 48%

# /home/pi/Documents/bbc-weather-predictions/data/Sep25Wed/bbcweather_Wednesday25thSeptember_2019-09-25_0530.txt
# time 	 temp 	 rain
06:00Wed 	 15c 	 100%
07:00Wed 	 15c 	 91%
08:00Wed 	 15c 	 64%
09:00Wed 	 16c 	 41%
10:00Wed 	 16c 	 26%
11:00Wed 	 17c 	 24%
12:00Wed 	 18c 	 26%
13:00Wed 	 18c 	 25%
14:00Wed 	 19c 	 23%
15:00Wed 	 18c 	 23%
16:00Wed 	 18c 	 24%
17:00Wed 	 17c 	 23%
18:00Wed 	 17c 	 21%
19:00Wed 	 16c 	 18%
20:00Wed 	 16c 	 20%
21:00Wed 	 15c 	 25%
22:00Wed 	 15c 	 28%
23:00Wed 	 15c 	 35%
00:00Thu 	 15c 	 49%
01:00Thu 	 16c 	 61%
02:00Thu 	 16c 	 69%
03:00Thu 	 16c 	 82%
04:00Thu 	 16c 	 90%
05:00Thu 	 16c 	 89%
06:00Thu 	 16c 	 85%
07:00Thu 	 16c 	 80%
08:00Thu 	 16c 	 71%
09:00Thu 	 16c 	 63%
10:00Thu 	 16c 	 56%
11:00Thu 	 16c 	 51%
12:00Thu 	 16c 	 44%
13:00Thu 	 16c 	 35%
14:00Thu 	 17c 	 31%
15:00Thu 	 17c 	 32%
16:00Thu 	 16c 	 32%
17:00Thu 	 16c 	 32%
18:00Thu 	 15c 	 33%
19:00Thu 	 15c 	 33%
20:00Thu 	 14c 	 33%
21:00Thu 	 14c 	 33%
22:00Thu 	 14c 	 30%
23:00Thu 	 13c 	 26%
00:00Fri 	 13c 	 25%
01:00Fri 	 13c 	 26%
02:00Fri 	 13c 	 29%
03:00Fri 	 13c 	 37%
04:00Fri 	 13c 	 44%
05:00Fri 	 13c 	 48%

# /home/pi/Documents/bbc-weather-predictions/data/Sep25Wed/bbcweather_Wednesday25thSeptember_2019-09-25_0545.txt
# time 	 temp 	 rain
06:00Wed 	 15c 	 100%
07:00Wed 	 15c 	 91%
08:00Wed 	 15c 	 64%
09:00Wed 	 16c 	 41%
10:00Wed 	 16c 	 26%
11:00Wed 	 17c 	 24%
12:00Wed 	 18c 	 26%
13:00Wed 	 18c 	 25%
14:00Wed 	 19c 	 23%
15:00Wed 	 18c 	 23%
16:00Wed 	 18c 	 24%
17:00Wed 	 17c 	 23%
18:00Wed 	 17c 	 21%
19:00Wed 	 16c 	 18%
20:00Wed 	 16c 	 20%
21:00Wed 	 15c 	 25%
22:00Wed 	 15c 	 28%
23:00Wed 	 15c 	 35%
00:00Thu 	 15c 	 49%
01:00Thu 	 16c 	 61%
02:00Thu 	 16c 	 69%
03:00Thu 	 16c 	 82%
04:00Thu 	 16c 	 90%
05:00Thu 	 16c 	 89%
06:00Thu 	 16c 	 85%
07:00Thu 	 16c 	 80%
08:00Thu 	 16c 	 71%
09:00Thu 	 16c 	 63%
10:00Thu 	 16c 	 56%
11:00Thu 	 16c 	 51%
12:00Thu 	 16c 	 44%
13:00Thu 	 16c 	 35%
14:00Thu 	 17c 	 31%
15:00Thu 	 17c 	 32%
16:00Thu 	 16c 	 32%
17:00Thu 	 16c 	 32%
18:00Thu 	 15c 	 33%
19:00Thu 	 15c 	 33%
20:00Thu 	 14c 	 33%
21:00Thu 	 14c 	 33%
22:00Thu 	 14c 	 30%
23:00Thu 	 13c 	 26%
00:00Fri 	 13c 	 25%
01:00Fri 	 13c 	 26%
02:00Fri 	 13c 	 29%
03:00Fri 	 13c 	 37%
04:00Fri 	 13c 	 44%
05:00Fri 	 13c 	 48%

# /home/pi/Documents/bbc-weather-predictions/data/Sep25Wed/bbcweather_Wednesday25thSeptember_2019-09-25_0600.txt
# time 	 temp 	 rain
06:00Wed 	 15c 	 97%
07:00Wed 	 15c 	 28%
08:00Wed 	 15c 	 47%
09:00Wed 	 16c 	 42%
10:00Wed 	 16c 	 26%
11:00Wed 	 17c 	 23%
12:00Wed 	 18c 	 26%
13:00Wed 	 18c 	 25%
14:00Wed 	 19c 	 23%
15:00Wed 	 18c 	 23%
16:00Wed 	 18c 	 24%
17:00Wed 	 17c 	 23%
18:00Wed 	 17c 	 21%
19:00Wed 	 16c 	 18%
20:00Wed 	 16c 	 20%
21:00Wed 	 15c 	 25%
22:00Wed 	 15c 	 28%
23:00Wed 	 15c 	 35%
00:00Thu 	 15c 	 49%
01:00Thu 	 16c 	 61%
02:00Thu 	 16c 	 69%
03:00Thu 	 16c 	 82%
04:00Thu 	 16c 	 90%
05:00Thu 	 16c 	 89%
06:00Thu 	 16c 	 85%
07:00Thu 	 16c 	 80%
08:00Thu 	 16c 	 71%
09:00Thu 	 16c 	 63%
10:00Thu 	 16c 	 56%
11:00Thu 	 16c 	 51%
12:00Thu 	 16c 	 44%
13:00Thu 	 16c 	 35%
14:00Thu 	 17c 	 31%
15:00Thu 	 17c 	 32%
16:00Thu 	 16c 	 32%
17:00Thu 	 16c 	 32%
18:00Thu 	 15c 	 33%
19:00Thu 	 15c 	 33%
20:00Thu 	 14c 	 33%
21:00Thu 	 14c 	 33%
22:00Thu 	 14c 	 30%
23:00Thu 	 13c 	 26%
00:00Fri 	 13c 	 25%
01:00Fri 	 13c 	 26%
02:00Fri 	 13c 	 29%
03:00Fri 	 13c 	 37%
04:00Fri 	 13c 	 44%
05:00Fri 	 13c 	 48%

# /home/pi/Documents/bbc-weather-predictions/data/Sep25Wed/bbcweather_Wednesday25thSeptember_2019-09-25_0615.txt
# time 	 temp 	 rain
07:00Wed 	 15c 	 28%
08:00Wed 	 15c 	 47%
09:00Wed 	 16c 	 42%
10:00Wed 	 16c 	 26%
11:00Wed 	 17c 	 23%
12:00Wed 	 18c 	 26%
13:00Wed 	 18c 	 25%
14:00Wed 	 19c 	 23%
15:00Wed 	 18c 	 23%
16:00Wed 	 18c 	 24%
17:00Wed 	 17c 	 23%
18:00Wed 	 17c 	 21%
19:00Wed 	 16c 	 18%
20:00Wed 	 16c 	 20%
21:00Wed 	 15c 	 25%
22:00Wed 	 15c 	 28%
23:00Wed 	 15c 	 35%
00:00Thu 	 15c 	 49%
01:00Thu 	 16c 	 61%
02:00Thu 	 16c 	 69%
03:00Thu 	 16c 	 82%
04:00Thu 	 16c 	 90%
05:00Thu 	 16c 	 89%
06:00Thu 	 16c 	 85%
07:00Thu 	 16c 	 80%
08:00Thu 	 16c 	 71%
09:00Thu 	 16c 	 63%
10:00Thu 	 16c 	 56%
11:00Thu 	 16c 	 51%
12:00Thu 	 16c 	 44%
13:00Thu 	 16c 	 35%
14:00Thu 	 17c 	 31%
15:00Thu 	 17c 	 32%
16:00Thu 	 16c 	 32%
17:00Thu 	 16c 	 32%
18:00Thu 	 15c 	 33%
19:00Thu 	 15c 	 33%
20:00Thu 	 14c 	 33%
21:00Thu 	 14c 	 33%
22:00Thu 	 14c 	 30%
23:00Thu 	 13c 	 26%
00:00Fri 	 13c 	 25%
01:00Fri 	 13c 	 26%
02:00Fri 	 13c 	 29%
03:00Fri 	 13c 	 37%
04:00Fri 	 13c 	 44%
05:00Fri 	 13c 	 48%

# /home/pi/Documents/bbc-weather-predictions/data/Sep25Wed/bbcweather_Wednesday25thSeptember_2019-09-25_0630.txt
# time 	 temp 	 rain
07:00Wed 	 15c 	 28%
08:00Wed 	 15c 	 47%
09:00Wed 	 16c 	 42%
10:00Wed 	 16c 	 26%
11:00Wed 	 17c 	 23%
12:00Wed 	 18c 	 26%
13:00Wed 	 18c 	 25%
14:00Wed 	 19c 	 23%
15:00Wed 	 18c 	 23%
16:00Wed 	 18c 	 24%
17:00Wed 	 17c 	 23%
18:00Wed 	 17c 	 21%
19:00Wed 	 16c 	 18%
20:00Wed 	 16c 	 20%
21:00Wed 	 15c 	 25%
22:00Wed 	 15c 	 28%
23:00Wed 	 15c 	 35%
00:00Thu 	 15c 	 49%
01:00Thu 	 16c 	 61%
02:00Thu 	 16c 	 69%
03:00Thu 	 16c 	 82%
04:00Thu 	 16c 	 90%
05:00Thu 	 16c 	 89%
06:00Thu 	 16c 	 85%
07:00Thu 	 16c 	 80%
08:00Thu 	 16c 	 71%
09:00Thu 	 16c 	 63%
10:00Thu 	 16c 	 56%
11:00Thu 	 16c 	 51%
12:00Thu 	 16c 	 44%
13:00Thu 	 16c 	 35%
14:00Thu 	 17c 	 31%
15:00Thu 	 17c 	 32%
16:00Thu 	 16c 	 32%
17:00Thu 	 16c 	 32%
18:00Thu 	 15c 	 33%
19:00Thu 	 15c 	 33%
20:00Thu 	 14c 	 33%
21:00Thu 	 14c 	 33%
22:00Thu 	 14c 	 30%
23:00Thu 	 13c 	 26%
00:00Fri 	 13c 	 25%
01:00Fri 	 13c 	 26%
02:00Fri 	 13c 	 29%
03:00Fri 	 13c 	 37%
04:00Fri 	 13c 	 44%
05:00Fri 	 13c 	 48%

# /home/pi/Documents/bbc-weather-predictions/data/Sep25Wed/bbcweather_Wednesday25thSeptember_2019-09-25_0645.txt
# time 	 temp 	 rain
07:00Wed 	 15c 	 28%
08:00Wed 	 15c 	 47%
09:00Wed 	 16c 	 42%
10:00Wed 	 16c 	 26%
11:00Wed 	 17c 	 23%
12:00Wed 	 18c 	 26%
13:00Wed 	 18c 	 25%
14:00Wed 	 19c 	 23%
15:00Wed 	 18c 	 23%
16:00Wed 	 18c 	 24%
17:00Wed 	 17c 	 23%
18:00Wed 	 17c 	 21%
19:00Wed 	 16c 	 18%
20:00Wed 	 16c 	 20%
21:00Wed 	 15c 	 25%
22:00Wed 	 15c 	 28%
23:00Wed 	 15c 	 35%
00:00Thu 	 15c 	 49%
01:00Thu 	 16c 	 61%
02:00Thu 	 16c 	 69%
03:00Thu 	 16c 	 82%
04:00Thu 	 16c 	 90%
05:00Thu 	 16c 	 89%
06:00Thu 	 16c 	 85%
07:00Thu 	 16c 	 80%
08:00Thu 	 16c 	 71%
09:00Thu 	 16c 	 63%
10:00Thu 	 16c 	 56%
11:00Thu 	 16c 	 51%
12:00Thu 	 16c 	 44%
13:00Thu 	 16c 	 35%
14:00Thu 	 17c 	 31%
15:00Thu 	 17c 	 32%
16:00Thu 	 16c 	 32%
17:00Thu 	 16c 	 32%
18:00Thu 	 15c 	 33%
19:00Thu 	 15c 	 33%
20:00Thu 	 14c 	 33%
21:00Thu 	 14c 	 33%
22:00Thu 	 14c 	 30%
23:00Thu 	 13c 	 26%
00:00Fri 	 13c 	 25%
01:00Fri 	 13c 	 26%
02:00Fri 	 13c 	 29%
03:00Fri 	 13c 	 37%
04:00Fri 	 13c 	 44%
05:00Fri 	 13c 	 48%

# /home/pi/Documents/bbc-weather-predictions/data/Sep25Wed/bbcweather_Wednesday25thSeptember_2019-09-25_0700.txt
# time 	 temp 	 rain
07:00Wed 	 15c 	 26%
08:00Wed 	 16c 	 51%
09:00Wed 	 16c 	 39%
10:00Wed 	 16c 	 26%
11:00Wed 	 17c 	 22%
12:00Wed 	 18c 	 25%
13:00Wed 	 18c 	 25%
14:00Wed 	 19c 	 23%
15:00Wed 	 18c 	 23%
16:00Wed 	 18c 	 24%
17:00Wed 	 17c 	 23%
18:00Wed 	 17c 	 21%
19:00Wed 	 16c 	 18%
20:00Wed 	 16c 	 20%
21:00Wed 	 15c 	 25%
22:00Wed 	 15c 	 28%
23:00Wed 	 15c 	 35%
00:00Thu 	 15c 	 49%
01:00Thu 	 16c 	 61%
02:00Thu 	 16c 	 69%
03:00Thu 	 16c 	 82%
04:00Thu 	 16c 	 90%
05:00Thu 	 16c 	 89%
06:00Thu 	 16c 	 85%
07:00Thu 	 16c 	 80%
08:00Thu 	 16c 	 71%
09:00Thu 	 16c 	 63%
10:00Thu 	 16c 	 56%
11:00Thu 	 16c 	 51%
12:00Thu 	 16c 	 44%
13:00Thu 	 16c 	 35%
14:00Thu 	 17c 	 31%
15:00Thu 	 17c 	 32%
16:00Thu 	 16c 	 32%
17:00Thu 	 16c 	 32%
18:00Thu 	 15c 	 33%
19:00Thu 	 15c 	 33%
20:00Thu 	 14c 	 33%
21:00Thu 	 14c 	 33%
22:00Thu 	 14c 	 30%
23:00Thu 	 13c 	 26%
00:00Fri 	 13c 	 25%
01:00Fri 	 13c 	 26%
02:00Fri 	 13c 	 29%
03:00Fri 	 13c 	 37%
04:00Fri 	 13c 	 44%
05:00Fri 	 13c 	 48%

# /home/pi/Documents/bbc-weather-predictions/data/Sep25Wed/bbcweather_Wednesday25thSeptember_2019-09-25_0715.txt
# time 	 temp 	 rain
08:00Wed 	 16c 	 51%
09:00Wed 	 16c 	 39%
10:00Wed 	 16c 	 26%
11:00Wed 	 17c 	 22%
12:00Wed 	 18c 	 25%
13:00Wed 	 18c 	 25%
14:00Wed 	 19c 	 23%
15:00Wed 	 18c 	 23%
16:00Wed 	 18c 	 24%
17:00Wed 	 17c 	 23%
18:00Wed 	 17c 	 21%
19:00Wed 	 16c 	 18%
20:00Wed 	 16c 	 20%
21:00Wed 	 15c 	 25%
22:00Wed 	 15c 	 28%
23:00Wed 	 15c 	 35%
00:00Thu 	 15c 	 49%
01:00Thu 	 16c 	 61%
02:00Thu 	 16c 	 69%
03:00Thu 	 16c 	 82%
04:00Thu 	 16c 	 90%
05:00Thu 	 16c 	 89%
06:00Thu 	 16c 	 85%
07:00Thu 	 16c 	 80%
08:00Thu 	 16c 	 71%
09:00Thu 	 16c 	 63%
10:00Thu 	 16c 	 56%
11:00Thu 	 16c 	 51%
12:00Thu 	 16c 	 44%
13:00Thu 	 16c 	 35%
14:00Thu 	 17c 	 31%
15:00Thu 	 17c 	 32%
16:00Thu 	 16c 	 32%
17:00Thu 	 16c 	 32%
18:00Thu 	 15c 	 33%
19:00Thu 	 15c 	 33%
20:00Thu 	 14c 	 33%
21:00Thu 	 14c 	 33%
22:00Thu 	 14c 	 30%
23:00Thu 	 13c 	 26%
00:00Fri 	 13c 	 25%
01:00Fri 	 13c 	 26%
02:00Fri 	 13c 	 29%
03:00Fri 	 13c 	 37%
04:00Fri 	 13c 	 44%
05:00Fri 	 13c 	 48%

# /home/pi/Documents/bbc-weather-predictions/data/Sep25Wed/bbcweather_Wednesday25thSeptember_2019-09-25_0730.txt
# time 	 temp 	 rain
08:00Wed 	 16c 	 51%
09:00Wed 	 16c 	 39%
10:00Wed 	 16c 	 26%
11:00Wed 	 17c 	 22%
12:00Wed 	 18c 	 25%
13:00Wed 	 18c 	 25%
14:00Wed 	 19c 	 23%
15:00Wed 	 18c 	 23%
16:00Wed 	 18c 	 24%
17:00Wed 	 17c 	 23%
18:00Wed 	 17c 	 21%
19:00Wed 	 16c 	 18%
20:00Wed 	 16c 	 20%
21:00Wed 	 15c 	 25%
22:00Wed 	 15c 	 28%
23:00Wed 	 15c 	 35%
00:00Thu 	 15c 	 49%
01:00Thu 	 16c 	 61%
02:00Thu 	 16c 	 69%
03:00Thu 	 16c 	 82%
04:00Thu 	 16c 	 90%
05:00Thu 	 16c 	 89%
06:00Thu 	 16c 	 85%
07:00Thu 	 16c 	 80%
08:00Thu 	 16c 	 71%
09:00Thu 	 16c 	 63%
10:00Thu 	 16c 	 56%
11:00Thu 	 16c 	 51%
12:00Thu 	 16c 	 44%
13:00Thu 	 16c 	 35%
14:00Thu 	 17c 	 31%
15:00Thu 	 17c 	 32%
16:00Thu 	 16c 	 32%
17:00Thu 	 16c 	 32%
18:00Thu 	 15c 	 33%
19:00Thu 	 15c 	 33%
20:00Thu 	 14c 	 33%
21:00Thu 	 14c 	 33%
22:00Thu 	 14c 	 30%
23:00Thu 	 13c 	 26%
00:00Fri 	 13c 	 25%
01:00Fri 	 13c 	 26%
02:00Fri 	 13c 	 29%
03:00Fri 	 13c 	 37%
04:00Fri 	 13c 	 44%
05:00Fri 	 13c 	 48%

# /home/pi/Documents/bbc-weather-predictions/data/Sep25Wed/bbcweather_Wednesday25thSeptember_2019-09-25_0745.txt
# time 	 temp 	 rain
08:00Wed 	 16c 	 51%
09:00Wed 	 16c 	 39%
10:00Wed 	 16c 	 26%
11:00Wed 	 17c 	 22%
12:00Wed 	 18c 	 25%
13:00Wed 	 18c 	 25%
14:00Wed 	 19c 	 23%
15:00Wed 	 18c 	 23%
16:00Wed 	 18c 	 24%
17:00Wed 	 17c 	 23%
18:00Wed 	 17c 	 21%
19:00Wed 	 16c 	 18%
20:00Wed 	 16c 	 20%
21:00Wed 	 15c 	 25%
22:00Wed 	 15c 	 28%
23:00Wed 	 15c 	 35%
00:00Thu 	 15c 	 49%
01:00Thu 	 16c 	 61%
02:00Thu 	 16c 	 69%
03:00Thu 	 16c 	 82%
04:00Thu 	 16c 	 90%
05:00Thu 	 16c 	 89%
06:00Thu 	 16c 	 85%
07:00Thu 	 16c 	 80%
08:00Thu 	 16c 	 71%
09:00Thu 	 16c 	 63%
10:00Thu 	 16c 	 56%
11:00Thu 	 16c 	 51%
12:00Thu 	 16c 	 44%
13:00Thu 	 16c 	 35%
14:00Thu 	 17c 	 31%
15:00Thu 	 17c 	 32%
16:00Thu 	 16c 	 32%
17:00Thu 	 16c 	 32%
18:00Thu 	 15c 	 33%
19:00Thu 	 15c 	 33%
20:00Thu 	 14c 	 33%
21:00Thu 	 14c 	 33%
22:00Thu 	 14c 	 30%
23:00Thu 	 13c 	 26%
00:00Fri 	 13c 	 25%
01:00Fri 	 13c 	 26%
02:00Fri 	 13c 	 29%
03:00Fri 	 13c 	 37%
04:00Fri 	 13c 	 44%
05:00Fri 	 13c 	 48%

# /home/pi/Documents/bbc-weather-predictions/data/Sep25Wed/bbcweather_Wednesday25thSeptember_2019-09-25_0800.txt
# time 	 temp 	 rain
08:00Wed 	 16c 	 51%
09:00Wed 	 16c 	 39%
10:00Wed 	 16c 	 26%
11:00Wed 	 17c 	 22%
12:00Wed 	 18c 	 25%
13:00Wed 	 18c 	 25%
14:00Wed 	 19c 	 23%
15:00Wed 	 18c 	 23%
16:00Wed 	 18c 	 24%
17:00Wed 	 17c 	 23%
18:00Wed 	 17c 	 21%
19:00Wed 	 16c 	 18%
20:00Wed 	 16c 	 20%
21:00Wed 	 15c 	 25%
22:00Wed 	 15c 	 28%
23:00Wed 	 15c 	 35%
00:00Thu 	 15c 	 49%
01:00Thu 	 16c 	 61%
02:00Thu 	 16c 	 69%
03:00Thu 	 16c 	 82%
04:00Thu 	 16c 	 90%
05:00Thu 	 16c 	 89%
06:00Thu 	 16c 	 85%
07:00Thu 	 16c 	 80%
08:00Thu 	 16c 	 71%
09:00Thu 	 16c 	 63%
10:00Thu 	 16c 	 56%
11:00Thu 	 16c 	 51%
12:00Thu 	 16c 	 44%
13:00Thu 	 16c 	 35%
14:00Thu 	 17c 	 31%
15:00Thu 	 17c 	 32%
16:00Thu 	 16c 	 32%
17:00Thu 	 16c 	 32%
18:00Thu 	 15c 	 33%
19:00Thu 	 15c 	 33%
20:00Thu 	 14c 	 33%
21:00Thu 	 14c 	 33%
22:00Thu 	 14c 	 30%
23:00Thu 	 13c 	 26%
00:00Fri 	 13c 	 25%
01:00Fri 	 13c 	 26%
02:00Fri 	 13c 	 29%
03:00Fri 	 13c 	 37%
04:00Fri 	 13c 	 44%
05:00Fri 	 13c 	 48%

# /home/pi/Documents/bbc-weather-predictions/data/Sep25Wed/bbcweather_Wednesday25thSeptember_2019-09-25_0815.txt
# time 	 temp 	 rain
09:00Wed 	 16c 	 3%
10:00Wed 	 17c 	 13%
11:00Wed 	 17c 	 43%
12:00Wed 	 18c 	 32%
13:00Wed 	 18c 	 26%
14:00Wed 	 18c 	 27%
15:00Wed 	 18c 	 29%
16:00Wed 	 18c 	 30%
17:00Wed 	 17c 	 31%
18:00Wed 	 17c 	 32%
19:00Wed 	 16c 	 34%
20:00Wed 	 16c 	 38%
21:00Wed 	 16c 	 43%
22:00Wed 	 16c 	 47%
23:00Wed 	 16c 	 51%
00:00Thu 	 16c 	 55%
01:00Thu 	 16c 	 60%
02:00Thu 	 16c 	 66%
03:00Thu 	 16c 	 75%
04:00Thu 	 16c 	 85%
05:00Thu 	 16c 	 93%
06:00Thu 	 16c 	 97%
07:00Thu 	 16c 	 91%
08:00Thu 	 16c 	 76%
09:00Thu 	 15c 	 52%
10:00Thu 	 16c 	 32%
11:00Thu 	 16c 	 36%
12:00Thu 	 16c 	 42%
13:00Thu 	 16c 	 41%
14:00Thu 	 17c 	 39%
15:00Thu 	 17c 	 37%
16:00Thu 	 16c 	 34%
17:00Thu 	 16c 	 32%
18:00Thu 	 15c 	 28%
19:00Thu 	 15c 	 25%
20:00Thu 	 14c 	 28%
21:00Thu 	 14c 	 31%
22:00Thu 	 14c 	 30%
23:00Thu 	 13c 	 26%
00:00Fri 	 13c 	 25%
01:00Fri 	 13c 	 26%
02:00Fri 	 13c 	 29%
03:00Fri 	 13c 	 37%
04:00Fri 	 13c 	 44%
05:00Fri 	 13c 	 48%

# /home/pi/Documents/bbc-weather-predictions/data/Sep25Wed/bbcweather_Wednesday25thSeptember_2019-09-25_0830.txt
# time 	 temp 	 rain
09:00Wed 	 16c 	 3%
10:00Wed 	 17c 	 13%
11:00Wed 	 17c 	 43%
12:00Wed 	 18c 	 32%
13:00Wed 	 18c 	 26%
14:00Wed 	 18c 	 27%
15:00Wed 	 18c 	 29%
16:00Wed 	 18c 	 30%
17:00Wed 	 17c 	 31%
18:00Wed 	 17c 	 32%
19:00Wed 	 16c 	 34%
20:00Wed 	 16c 	 38%
21:00Wed 	 16c 	 43%
22:00Wed 	 16c 	 47%
23:00Wed 	 16c 	 51%
00:00Thu 	 16c 	 55%
01:00Thu 	 16c 	 60%
02:00Thu 	 16c 	 66%
03:00Thu 	 16c 	 75%
04:00Thu 	 16c 	 85%
05:00Thu 	 16c 	 93%
06:00Thu 	 16c 	 97%
07:00Thu 	 16c 	 91%
08:00Thu 	 16c 	 76%
09:00Thu 	 15c 	 52%
10:00Thu 	 16c 	 32%
11:00Thu 	 16c 	 36%
12:00Thu 	 16c 	 42%
13:00Thu 	 16c 	 41%
14:00Thu 	 17c 	 39%
15:00Thu 	 17c 	 37%
16:00Thu 	 16c 	 34%
17:00Thu 	 16c 	 32%
18:00Thu 	 15c 	 28%
19:00Thu 	 15c 	 25%
20:00Thu 	 14c 	 28%
21:00Thu 	 14c 	 31%
22:00Thu 	 14c 	 30%
23:00Thu 	 13c 	 26%
00:00Fri 	 13c 	 25%
01:00Fri 	 13c 	 26%
02:00Fri 	 13c 	 29%
03:00Fri 	 13c 	 37%
04:00Fri 	 13c 	 44%
05:00Fri 	 13c 	 48%

# /home/pi/Documents/bbc-weather-predictions/data/Sep25Wed/bbcweather_Wednesday25thSeptember_2019-09-25_0845.txt
# time 	 temp 	 rain
09:00Wed 	 16c 	 3%
10:00Wed 	 17c 	 13%
11:00Wed 	 17c 	 43%
12:00Wed 	 18c 	 32%
13:00Wed 	 18c 	 26%
14:00Wed 	 18c 	 27%
15:00Wed 	 18c 	 29%
16:00Wed 	 18c 	 30%
17:00Wed 	 17c 	 31%
18:00Wed 	 17c 	 32%
19:00Wed 	 16c 	 34%
20:00Wed 	 16c 	 38%
21:00Wed 	 16c 	 43%
22:00Wed 	 16c 	 47%
23:00Wed 	 16c 	 51%
00:00Thu 	 16c 	 55%
01:00Thu 	 16c 	 60%
02:00Thu 	 16c 	 66%
03:00Thu 	 16c 	 75%
04:00Thu 	 16c 	 85%
05:00Thu 	 16c 	 93%
06:00Thu 	 16c 	 97%
07:00Thu 	 16c 	 91%
08:00Thu 	 16c 	 76%
09:00Thu 	 15c 	 52%
10:00Thu 	 16c 	 32%
11:00Thu 	 16c 	 36%
12:00Thu 	 16c 	 42%
13:00Thu 	 16c 	 41%
14:00Thu 	 17c 	 39%
15:00Thu 	 17c 	 37%
16:00Thu 	 16c 	 34%
17:00Thu 	 16c 	 32%
18:00Thu 	 15c 	 28%
19:00Thu 	 15c 	 25%
20:00Thu 	 14c 	 28%
21:00Thu 	 14c 	 31%
22:00Thu 	 14c 	 30%
23:00Thu 	 13c 	 26%
00:00Fri 	 13c 	 25%
01:00Fri 	 13c 	 26%
02:00Fri 	 13c 	 29%
03:00Fri 	 13c 	 37%
04:00Fri 	 13c 	 44%
05:00Fri 	 13c 	 48%

# /home/pi/Documents/bbc-weather-predictions/data/Sep25Wed/bbcweather_Wednesday25thSeptember_2019-09-25_0900.txt
# time 	 temp 	 rain
09:00Wed 	 16c 	 1%
10:00Wed 	 17c 	 11%
11:00Wed 	 17c 	 49%
12:00Wed 	 18c 	 32%
13:00Wed 	 18c 	 26%
14:00Wed 	 18c 	 27%
15:00Wed 	 18c 	 29%
16:00Wed 	 18c 	 30%
17:00Wed 	 17c 	 31%
18:00Wed 	 17c 	 32%
19:00Wed 	 16c 	 34%
20:00Wed 	 16c 	 38%
21:00Wed 	 16c 	 43%
22:00Wed 	 16c 	 47%
23:00Wed 	 16c 	 51%
00:00Thu 	 16c 	 55%
01:00Thu 	 16c 	 60%
02:00Thu 	 16c 	 66%
03:00Thu 	 16c 	 75%
04:00Thu 	 16c 	 85%
05:00Thu 	 16c 	 93%
06:00Thu 	 16c 	 97%
07:00Thu 	 16c 	 91%
08:00Thu 	 16c 	 76%
09:00Thu 	 15c 	 52%
10:00Thu 	 16c 	 32%
11:00Thu 	 16c 	 36%
12:00Thu 	 16c 	 42%
13:00Thu 	 16c 	 41%
14:00Thu 	 17c 	 39%
15:00Thu 	 17c 	 37%
16:00Thu 	 16c 	 34%
17:00Thu 	 16c 	 32%
18:00Thu 	 15c 	 28%
19:00Thu 	 15c 	 25%
20:00Thu 	 14c 	 28%
21:00Thu 	 14c 	 31%
22:00Thu 	 14c 	 30%
23:00Thu 	 13c 	 26%
00:00Fri 	 13c 	 25%
01:00Fri 	 13c 	 26%
02:00Fri 	 13c 	 29%
03:00Fri 	 13c 	 37%
04:00Fri 	 13c 	 44%
05:00Fri 	 13c 	 48%

# /home/pi/Documents/bbc-weather-predictions/data/Sep25Wed/bbcweather_Wednesday25thSeptember_2019-09-25_0915.txt
# time 	 temp 	 rain
10:00Wed 	 17c 	 11%
11:00Wed 	 17c 	 49%
12:00Wed 	 18c 	 32%
13:00Wed 	 18c 	 26%
14:00Wed 	 18c 	 27%
15:00Wed 	 18c 	 29%
16:00Wed 	 18c 	 30%
17:00Wed 	 17c 	 31%
18:00Wed 	 17c 	 32%
19:00Wed 	 16c 	 34%
20:00Wed 	 16c 	 38%
21:00Wed 	 16c 	 43%
22:00Wed 	 16c 	 47%
23:00Wed 	 16c 	 51%
00:00Thu 	 16c 	 55%
01:00Thu 	 16c 	 60%
02:00Thu 	 16c 	 66%
03:00Thu 	 16c 	 75%
04:00Thu 	 16c 	 85%
05:00Thu 	 16c 	 93%
06:00Thu 	 16c 	 97%
07:00Thu 	 16c 	 91%
08:00Thu 	 16c 	 76%
09:00Thu 	 15c 	 52%
10:00Thu 	 16c 	 32%
11:00Thu 	 16c 	 36%
12:00Thu 	 16c 	 42%
13:00Thu 	 16c 	 41%
14:00Thu 	 17c 	 39%
15:00Thu 	 17c 	 37%
16:00Thu 	 16c 	 34%
17:00Thu 	 16c 	 32%
18:00Thu 	 15c 	 28%
19:00Thu 	 15c 	 25%
20:00Thu 	 14c 	 28%
21:00Thu 	 14c 	 31%
22:00Thu 	 14c 	 30%
23:00Thu 	 13c 	 26%
00:00Fri 	 13c 	 25%
01:00Fri 	 13c 	 26%
02:00Fri 	 13c 	 29%
03:00Fri 	 13c 	 37%
04:00Fri 	 13c 	 44%
05:00Fri 	 13c 	 48%

# /home/pi/Documents/bbc-weather-predictions/data/Sep25Wed/bbcweather_Wednesday25thSeptember_2019-09-25_0930.txt
# time 	 temp 	 rain
10:00Wed 	 17c 	 11%
11:00Wed 	 17c 	 49%
12:00Wed 	 18c 	 32%
13:00Wed 	 18c 	 26%
14:00Wed 	 18c 	 27%
15:00Wed 	 18c 	 29%
16:00Wed 	 18c 	 30%
17:00Wed 	 17c 	 31%
18:00Wed 	 17c 	 32%
19:00Wed 	 16c 	 34%
20:00Wed 	 16c 	 38%
21:00Wed 	 16c 	 43%
22:00Wed 	 16c 	 47%
23:00Wed 	 16c 	 51%
00:00Thu 	 16c 	 55%
01:00Thu 	 16c 	 60%
02:00Thu 	 16c 	 66%
03:00Thu 	 16c 	 75%
04:00Thu 	 16c 	 85%
05:00Thu 	 16c 	 93%
06:00Thu 	 16c 	 97%
07:00Thu 	 16c 	 91%
08:00Thu 	 16c 	 76%
09:00Thu 	 15c 	 52%
10:00Thu 	 16c 	 32%
11:00Thu 	 16c 	 36%
12:00Thu 	 16c 	 42%
13:00Thu 	 16c 	 41%
14:00Thu 	 17c 	 39%
15:00Thu 	 17c 	 37%
16:00Thu 	 16c 	 34%
17:00Thu 	 16c 	 32%
18:00Thu 	 15c 	 28%
19:00Thu 	 15c 	 25%
20:00Thu 	 14c 	 28%
21:00Thu 	 14c 	 31%
22:00Thu 	 14c 	 30%
23:00Thu 	 13c 	 26%
00:00Fri 	 13c 	 25%
01:00Fri 	 13c 	 26%
02:00Fri 	 13c 	 29%
03:00Fri 	 13c 	 37%
04:00Fri 	 13c 	 44%
05:00Fri 	 13c 	 48%

# /home/pi/Documents/bbc-weather-predictions/data/Sep25Wed/bbcweather_Wednesday25thSeptember_2019-09-25_0945.txt
# time 	 temp 	 rain
10:00Wed 	 17c 	 11%
11:00Wed 	 17c 	 49%
12:00Wed 	 18c 	 32%
13:00Wed 	 18c 	 26%
14:00Wed 	 18c 	 27%
15:00Wed 	 18c 	 29%
16:00Wed 	 18c 	 30%
17:00Wed 	 17c 	 31%
18:00Wed 	 17c 	 32%
19:00Wed 	 16c 	 34%
20:00Wed 	 16c 	 38%
21:00Wed 	 16c 	 43%
22:00Wed 	 16c 	 47%
23:00Wed 	 16c 	 51%
00:00Thu 	 16c 	 55%
01:00Thu 	 16c 	 60%
02:00Thu 	 16c 	 66%
03:00Thu 	 16c 	 75%
04:00Thu 	 16c 	 85%
05:00Thu 	 16c 	 93%
06:00Thu 	 16c 	 97%
07:00Thu 	 16c 	 91%
08:00Thu 	 16c 	 76%
09:00Thu 	 15c 	 52%
10:00Thu 	 16c 	 32%
11:00Thu 	 16c 	 36%
12:00Thu 	 16c 	 42%
13:00Thu 	 16c 	 41%
14:00Thu 	 17c 	 39%
15:00Thu 	 17c 	 37%
16:00Thu 	 16c 	 34%
17:00Thu 	 16c 	 32%
18:00Thu 	 15c 	 28%
19:00Thu 	 15c 	 25%
20:00Thu 	 14c 	 28%
21:00Thu 	 14c 	 31%
22:00Thu 	 14c 	 30%
23:00Thu 	 13c 	 26%
00:00Fri 	 13c 	 25%
01:00Fri 	 13c 	 26%
02:00Fri 	 13c 	 29%
03:00Fri 	 13c 	 37%
04:00Fri 	 13c 	 44%
05:00Fri 	 13c 	 48%

# /home/pi/Documents/bbc-weather-predictions/data/Sep25Wed/bbcweather_Wednesday25thSeptember_2019-09-25_1000.txt
# time 	 temp 	 rain
10:00Wed 	 17c 	 11%
11:00Wed 	 17c 	 49%
12:00Wed 	 18c 	 32%
13:00Wed 	 18c 	 26%
14:00Wed 	 18c 	 27%
15:00Wed 	 18c 	 29%
16:00Wed 	 18c 	 30%
17:00Wed 	 17c 	 31%
18:00Wed 	 17c 	 32%
19:00Wed 	 16c 	 34%
20:00Wed 	 16c 	 38%
21:00Wed 	 16c 	 43%
22:00Wed 	 16c 	 47%
23:00Wed 	 16c 	 51%
00:00Thu 	 16c 	 55%
01:00Thu 	 16c 	 60%
02:00Thu 	 16c 	 66%
03:00Thu 	 16c 	 75%
04:00Thu 	 16c 	 85%
05:00Thu 	 16c 	 93%
06:00Thu 	 16c 	 97%
07:00Thu 	 16c 	 91%
08:00Thu 	 16c 	 76%
09:00Thu 	 15c 	 52%
10:00Thu 	 16c 	 32%
11:00Thu 	 16c 	 36%
12:00Thu 	 16c 	 42%
13:00Thu 	 16c 	 41%
14:00Thu 	 17c 	 39%
15:00Thu 	 17c 	 37%
16:00Thu 	 16c 	 34%
17:00Thu 	 16c 	 32%
18:00Thu 	 15c 	 28%
19:00Thu 	 15c 	 25%
20:00Thu 	 14c 	 28%
21:00Thu 	 14c 	 31%
22:00Thu 	 14c 	 30%
23:00Thu 	 13c 	 26%
00:00Fri 	 13c 	 25%
01:00Fri 	 13c 	 26%
02:00Fri 	 13c 	 29%
03:00Fri 	 13c 	 37%
04:00Fri 	 13c 	 44%
05:00Fri 	 13c 	 48%

# /home/pi/Documents/bbc-weather-predictions/data/Sep25Wed/bbcweather_Wednesday25thSeptember_2019-09-25_1015.txt
# time 	 temp 	 rain
11:00Wed 	 17c 	 1%
12:00Wed 	 18c 	 9%
13:00Wed 	 18c 	 24%
14:00Wed 	 18c 	 24%
15:00Wed 	 18c 	 27%
16:00Wed 	 18c 	 28%
17:00Wed 	 17c 	 27%
18:00Wed 	 17c 	 26%
19:00Wed 	 16c 	 27%
20:00Wed 	 16c 	 29%
21:00Wed 	 16c 	 33%
22:00Wed 	 16c 	 37%
23:00Wed 	 16c 	 44%
00:00Thu 	 16c 	 52%
01:00Thu 	 16c 	 61%
02:00Thu 	 16c 	 69%
03:00Thu 	 16c 	 79%
04:00Thu 	 16c 	 90%
05:00Thu 	 16c 	 96%
06:00Thu 	 16c 	 97%
07:00Thu 	 16c 	 89%
08:00Thu 	 16c 	 73%
09:00Thu 	 16c 	 49%
10:00Thu 	 16c 	 30%
11:00Thu 	 16c 	 33%
12:00Thu 	 16c 	 41%
13:00Thu 	 16c 	 41%
14:00Thu 	 17c 	 41%
15:00Thu 	 17c 	 39%
16:00Thu 	 17c 	 35%
17:00Thu 	 16c 	 32%
18:00Thu 	 15c 	 27%
19:00Thu 	 15c 	 24%
20:00Thu 	 14c 	 28%
21:00Thu 	 14c 	 35%
22:00Thu 	 14c 	 39%
23:00Thu 	 14c 	 37%
00:00Fri 	 13c 	 33%
01:00Fri 	 13c 	 32%
02:00Fri 	 13c 	 37%
03:00Fri 	 13c 	 49%
04:00Fri 	 13c 	 59%
05:00Fri 	 13c 	 56%

# /home/pi/Documents/bbc-weather-predictions/data/Sep25Wed/bbcweather_Wednesday25thSeptember_2019-09-25_1030.txt
# time 	 temp 	 rain
11:00Wed 	 17c 	 1%
12:00Wed 	 18c 	 9%
13:00Wed 	 18c 	 24%
14:00Wed 	 18c 	 24%
15:00Wed 	 18c 	 27%
16:00Wed 	 18c 	 28%
17:00Wed 	 17c 	 27%
18:00Wed 	 17c 	 26%
19:00Wed 	 16c 	 27%
20:00Wed 	 16c 	 29%
21:00Wed 	 16c 	 33%
22:00Wed 	 16c 	 37%
23:00Wed 	 16c 	 44%
00:00Thu 	 16c 	 52%
01:00Thu 	 16c 	 61%
02:00Thu 	 16c 	 69%
03:00Thu 	 16c 	 79%
04:00Thu 	 16c 	 90%
05:00Thu 	 16c 	 96%
06:00Thu 	 16c 	 97%
07:00Thu 	 16c 	 89%
08:00Thu 	 16c 	 73%
09:00Thu 	 16c 	 49%
10:00Thu 	 16c 	 30%
11:00Thu 	 16c 	 33%
12:00Thu 	 16c 	 41%
13:00Thu 	 16c 	 41%
14:00Thu 	 17c 	 41%
15:00Thu 	 17c 	 39%
16:00Thu 	 17c 	 35%
17:00Thu 	 16c 	 32%
18:00Thu 	 15c 	 27%
19:00Thu 	 15c 	 24%
20:00Thu 	 14c 	 28%
21:00Thu 	 14c 	 35%
22:00Thu 	 14c 	 39%
23:00Thu 	 14c 	 37%
00:00Fri 	 13c 	 33%
01:00Fri 	 13c 	 32%
02:00Fri 	 13c 	 37%
03:00Fri 	 13c 	 49%
04:00Fri 	 13c 	 59%
05:00Fri 	 13c 	 56%

# /home/pi/Documents/bbc-weather-predictions/data/Sep25Wed/bbcweather_Wednesday25thSeptember_2019-09-25_1045.txt
# time 	 temp 	 rain
11:00Wed 	 17c 	 1%
12:00Wed 	 18c 	 9%
13:00Wed 	 18c 	 24%
14:00Wed 	 18c 	 24%
15:00Wed 	 18c 	 27%
16:00Wed 	 18c 	 28%
17:00Wed 	 17c 	 27%
18:00Wed 	 17c 	 26%
19:00Wed 	 16c 	 27%
20:00Wed 	 16c 	 29%
21:00Wed 	 16c 	 33%
22:00Wed 	 16c 	 37%
23:00Wed 	 16c 	 44%
00:00Thu 	 16c 	 52%
01:00Thu 	 16c 	 61%
02:00Thu 	 16c 	 69%
03:00Thu 	 16c 	 79%
04:00Thu 	 16c 	 90%
05:00Thu 	 16c 	 96%
06:00Thu 	 16c 	 97%
07:00Thu 	 16c 	 89%
08:00Thu 	 16c 	 73%
09:00Thu 	 16c 	 49%
10:00Thu 	 16c 	 30%
11:00Thu 	 16c 	 33%
12:00Thu 	 16c 	 41%
13:00Thu 	 16c 	 41%
14:00Thu 	 17c 	 41%
15:00Thu 	 17c 	 39%
16:00Thu 	 17c 	 35%
17:00Thu 	 16c 	 32%
18:00Thu 	 15c 	 27%
19:00Thu 	 15c 	 24%
20:00Thu 	 14c 	 28%
21:00Thu 	 14c 	 35%
22:00Thu 	 14c 	 39%
23:00Thu 	 14c 	 37%
00:00Fri 	 13c 	 33%
01:00Fri 	 13c 	 32%
02:00Fri 	 13c 	 37%
03:00Fri 	 13c 	 49%
04:00Fri 	 13c 	 59%
05:00Fri 	 13c 	 56%

# /home/pi/Documents/bbc-weather-predictions/data/Sep25Wed/bbcweather_Wednesday25thSeptember_2019-09-25_1100.txt
# time 	 temp 	 rain
11:00Wed 	 17c 	 1%
12:00Wed 	 18c 	 9%
13:00Wed 	 18c 	 24%
14:00Wed 	 18c 	 24%
15:00Wed 	 18c 	 27%
16:00Wed 	 18c 	 28%
17:00Wed 	 17c 	 27%
18:00Wed 	 17c 	 26%
19:00Wed 	 16c 	 27%
20:00Wed 	 16c 	 29%
21:00Wed 	 16c 	 33%
22:00Wed 	 16c 	 37%
23:00Wed 	 16c 	 44%
00:00Thu 	 16c 	 52%
01:00Thu 	 16c 	 61%
02:00Thu 	 16c 	 69%
03:00Thu 	 16c 	 79%
04:00Thu 	 16c 	 90%
05:00Thu 	 16c 	 96%
06:00Thu 	 16c 	 97%
07:00Thu 	 16c 	 89%
08:00Thu 	 16c 	 73%
09:00Thu 	 16c 	 49%
10:00Thu 	 16c 	 30%
11:00Thu 	 16c 	 33%
12:00Thu 	 16c 	 41%
13:00Thu 	 16c 	 41%
14:00Thu 	 17c 	 41%
15:00Thu 	 17c 	 39%
16:00Thu 	 17c 	 35%
17:00Thu 	 16c 	 32%
18:00Thu 	 15c 	 27%
19:00Thu 	 15c 	 24%
20:00Thu 	 14c 	 28%
21:00Thu 	 14c 	 35%
22:00Thu 	 14c 	 39%
23:00Thu 	 14c 	 37%
00:00Fri 	 13c 	 33%
01:00Fri 	 13c 	 32%
02:00Fri 	 13c 	 37%
03:00Fri 	 13c 	 49%
04:00Fri 	 13c 	 59%
05:00Fri 	 13c 	 56%

# /home/pi/Documents/bbc-weather-predictions/data/Sep25Wed/bbcweather_Wednesday25thSeptember_2019-09-25_1115.txt
# time 	 temp 	 rain
12:00Wed 	 18c 	 2%
13:00Wed 	 18c 	 46%
14:00Wed 	 18c 	 24%
15:00Wed 	 18c 	 27%
16:00Wed 	 18c 	 28%
17:00Wed 	 17c 	 27%
18:00Wed 	 17c 	 26%
19:00Wed 	 16c 	 27%
20:00Wed 	 16c 	 29%
21:00Wed 	 16c 	 33%
22:00Wed 	 16c 	 37%
23:00Wed 	 16c 	 44%
00:00Thu 	 16c 	 52%
01:00Thu 	 16c 	 61%
02:00Thu 	 16c 	 69%
03:00Thu 	 16c 	 79%
04:00Thu 	 16c 	 90%
05:00Thu 	 16c 	 96%
06:00Thu 	 16c 	 97%
07:00Thu 	 16c 	 89%
08:00Thu 	 16c 	 73%
09:00Thu 	 16c 	 49%
10:00Thu 	 16c 	 30%
11:00Thu 	 16c 	 33%
12:00Thu 	 16c 	 41%
13:00Thu 	 16c 	 41%
14:00Thu 	 17c 	 41%
15:00Thu 	 17c 	 39%
16:00Thu 	 17c 	 35%
17:00Thu 	 16c 	 32%
18:00Thu 	 15c 	 27%
19:00Thu 	 15c 	 24%
20:00Thu 	 14c 	 28%
21:00Thu 	 14c 	 35%
22:00Thu 	 14c 	 39%
23:00Thu 	 14c 	 37%
00:00Fri 	 13c 	 33%
01:00Fri 	 13c 	 32%
02:00Fri 	 13c 	 37%
03:00Fri 	 13c 	 49%
04:00Fri 	 13c 	 59%
05:00Fri 	 13c 	 56%

# /home/pi/Documents/bbc-weather-predictions/data/Sep25Wed/bbcweather_Wednesday25thSeptember_2019-09-25_1130.txt
# time 	 temp 	 rain
12:00Wed 	 18c 	 2%
13:00Wed 	 18c 	 46%
14:00Wed 	 18c 	 24%
15:00Wed 	 18c 	 27%
16:00Wed 	 18c 	 28%
17:00Wed 	 17c 	 27%
18:00Wed 	 17c 	 26%
19:00Wed 	 16c 	 27%
20:00Wed 	 16c 	 29%
21:00Wed 	 16c 	 33%
22:00Wed 	 16c 	 37%
23:00Wed 	 16c 	 44%
00:00Thu 	 16c 	 52%
01:00Thu 	 16c 	 61%
02:00Thu 	 16c 	 69%
03:00Thu 	 16c 	 79%
04:00Thu 	 16c 	 90%
05:00Thu 	 16c 	 96%
06:00Thu 	 16c 	 97%
07:00Thu 	 16c 	 89%
08:00Thu 	 16c 	 73%
09:00Thu 	 16c 	 49%
10:00Thu 	 16c 	 30%
11:00Thu 	 16c 	 33%
12:00Thu 	 16c 	 41%
13:00Thu 	 16c 	 41%
14:00Thu 	 17c 	 41%
15:00Thu 	 17c 	 39%
16:00Thu 	 17c 	 35%
17:00Thu 	 16c 	 32%
18:00Thu 	 15c 	 27%
19:00Thu 	 15c 	 24%
20:00Thu 	 14c 	 28%
21:00Thu 	 14c 	 35%
22:00Thu 	 14c 	 39%
23:00Thu 	 14c 	 37%
00:00Fri 	 13c 	 33%
01:00Fri 	 13c 	 32%
02:00Fri 	 13c 	 37%
03:00Fri 	 13c 	 49%
04:00Fri 	 13c 	 59%
05:00Fri 	 13c 	 56%

# /home/pi/Documents/bbc-weather-predictions/data/Sep25Wed/bbcweather_Wednesday25thSeptember_2019-09-25_1145.txt
# time 	 temp 	 rain
12:00Wed 	 18c 	 2%
13:00Wed 	 18c 	 46%
14:00Wed 	 18c 	 24%
15:00Wed 	 18c 	 27%
16:00Wed 	 18c 	 28%
17:00Wed 	 17c 	 27%
18:00Wed 	 17c 	 26%
19:00Wed 	 16c 	 27%
20:00Wed 	 16c 	 29%
21:00Wed 	 16c 	 33%
22:00Wed 	 16c 	 37%
23:00Wed 	 16c 	 44%
00:00Thu 	 16c 	 52%
01:00Thu 	 16c 	 61%
02:00Thu 	 16c 	 69%
03:00Thu 	 16c 	 79%
04:00Thu 	 16c 	 90%
05:00Thu 	 16c 	 96%
06:00Thu 	 16c 	 97%
07:00Thu 	 16c 	 89%
08:00Thu 	 16c 	 73%
09:00Thu 	 16c 	 49%
10:00Thu 	 16c 	 30%
11:00Thu 	 16c 	 33%
12:00Thu 	 16c 	 41%
13:00Thu 	 16c 	 41%
14:00Thu 	 17c 	 41%
15:00Thu 	 17c 	 39%
16:00Thu 	 17c 	 35%
17:00Thu 	 16c 	 32%
18:00Thu 	 15c 	 27%
19:00Thu 	 15c 	 24%
20:00Thu 	 14c 	 28%
21:00Thu 	 14c 	 35%
22:00Thu 	 14c 	 39%
23:00Thu 	 14c 	 37%
00:00Fri 	 13c 	 33%
01:00Fri 	 13c 	 32%
02:00Fri 	 13c 	 37%
03:00Fri 	 13c 	 49%
04:00Fri 	 13c 	 59%
05:00Fri 	 13c 	 56%

# /home/pi/Documents/bbc-weather-predictions/data/Sep25Wed/bbcweather_Wednesday25thSeptember_2019-09-25_1200.txt
# time 	 temp 	 rain
12:00Wed 	 18c 	 2%
13:00Wed 	 18c 	 46%
14:00Wed 	 18c 	 24%
15:00Wed 	 18c 	 27%
16:00Wed 	 18c 	 28%
17:00Wed 	 17c 	 27%
18:00Wed 	 17c 	 26%
19:00Wed 	 16c 	 27%
20:00Wed 	 16c 	 29%
21:00Wed 	 16c 	 33%
22:00Wed 	 16c 	 37%
23:00Wed 	 16c 	 44%
00:00Thu 	 16c 	 52%
01:00Thu 	 16c 	 61%
02:00Thu 	 16c 	 69%
03:00Thu 	 16c 	 79%
04:00Thu 	 16c 	 90%
05:00Thu 	 16c 	 96%
06:00Thu 	 16c 	 97%
07:00Thu 	 16c 	 89%
08:00Thu 	 16c 	 73%
09:00Thu 	 16c 	 49%
10:00Thu 	 16c 	 30%
11:00Thu 	 16c 	 33%
12:00Thu 	 16c 	 41%
13:00Thu 	 16c 	 41%
14:00Thu 	 17c 	 41%
15:00Thu 	 17c 	 39%
16:00Thu 	 17c 	 35%
17:00Thu 	 16c 	 32%
18:00Thu 	 15c 	 27%
19:00Thu 	 15c 	 24%
20:00Thu 	 14c 	 28%
21:00Thu 	 14c 	 35%
22:00Thu 	 14c 	 39%
23:00Thu 	 14c 	 37%
00:00Fri 	 13c 	 33%
01:00Fri 	 13c 	 32%
02:00Fri 	 13c 	 37%
03:00Fri 	 13c 	 49%
04:00Fri 	 13c 	 59%
05:00Fri 	 13c 	 56%

# /home/pi/Documents/bbc-weather-predictions/data/Sep25Wed/bbcweather_Wednesday25thSeptember_2019-09-25_1215.txt
# time 	 temp 	 rain
13:00Wed 	 18c 	 22%
14:00Wed 	 18c 	 79%
15:00Wed 	 18c 	 26%
16:00Wed 	 18c 	 28%
17:00Wed 	 17c 	 27%
18:00Wed 	 17c 	 26%
19:00Wed 	 16c 	 27%
20:00Wed 	 16c 	 29%
21:00Wed 	 16c 	 33%
22:00Wed 	 16c 	 37%
23:00Wed 	 16c 	 44%
00:00Thu 	 16c 	 52%
01:00Thu 	 16c 	 61%
02:00Thu 	 16c 	 69%
03:00Thu 	 16c 	 79%
04:00Thu 	 16c 	 90%
05:00Thu 	 16c 	 96%
06:00Thu 	 16c 	 97%
07:00Thu 	 16c 	 89%
08:00Thu 	 16c 	 73%
09:00Thu 	 16c 	 49%
10:00Thu 	 16c 	 30%
11:00Thu 	 16c 	 33%
12:00Thu 	 16c 	 41%
13:00Thu 	 16c 	 41%
14:00Thu 	 17c 	 41%
15:00Thu 	 17c 	 39%
16:00Thu 	 17c 	 35%
17:00Thu 	 16c 	 32%
18:00Thu 	 15c 	 27%
19:00Thu 	 15c 	 24%
20:00Thu 	 14c 	 30%
21:00Thu 	 14c 	 41%
22:00Thu 	 14c 	 48%
23:00Thu 	 14c 	 48%
00:00Fri 	 13c 	 47%
01:00Fri 	 13c 	 48%
02:00Fri 	 13c 	 50%
03:00Fri 	 13c 	 57%
04:00Fri 	 13c 	 63%
05:00Fri 	 13c 	 59%

# /home/pi/Documents/bbc-weather-predictions/data/Sep25Wed/bbcweather_Wednesday25thSeptember_2019-09-25_1230.txt
# time 	 temp 	 rain
13:00Wed 	 18c 	 22%
14:00Wed 	 18c 	 79%
15:00Wed 	 18c 	 26%
16:00Wed 	 18c 	 28%
17:00Wed 	 17c 	 27%
18:00Wed 	 17c 	 26%
19:00Wed 	 16c 	 27%
20:00Wed 	 16c 	 29%
21:00Wed 	 16c 	 33%
22:00Wed 	 16c 	 37%
23:00Wed 	 16c 	 44%
00:00Thu 	 16c 	 52%
01:00Thu 	 16c 	 61%
02:00Thu 	 16c 	 69%
03:00Thu 	 16c 	 79%
04:00Thu 	 16c 	 90%
05:00Thu 	 16c 	 96%
06:00Thu 	 16c 	 97%
07:00Thu 	 16c 	 89%
08:00Thu 	 16c 	 73%
09:00Thu 	 16c 	 49%
10:00Thu 	 16c 	 30%
11:00Thu 	 16c 	 33%
12:00Thu 	 16c 	 41%
13:00Thu 	 16c 	 41%
14:00Thu 	 17c 	 41%
15:00Thu 	 17c 	 39%
16:00Thu 	 17c 	 35%
17:00Thu 	 16c 	 32%
18:00Thu 	 15c 	 27%
19:00Thu 	 15c 	 24%
20:00Thu 	 14c 	 30%
21:00Thu 	 14c 	 41%
22:00Thu 	 14c 	 48%
23:00Thu 	 14c 	 48%
00:00Fri 	 13c 	 47%
01:00Fri 	 13c 	 48%
02:00Fri 	 13c 	 50%
03:00Fri 	 13c 	 57%
04:00Fri 	 13c 	 63%
05:00Fri 	 13c 	 59%

# /home/pi/Documents/bbc-weather-predictions/data/Sep25Wed/bbcweather_Wednesday25thSeptember_2019-09-25_1245.txt
# time 	 temp 	 rain
13:00Wed 	 18c 	 22%
14:00Wed 	 18c 	 79%
15:00Wed 	 18c 	 26%
16:00Wed 	 18c 	 28%
17:00Wed 	 17c 	 27%
18:00Wed 	 17c 	 26%
19:00Wed 	 16c 	 27%
20:00Wed 	 16c 	 29%
21:00Wed 	 16c 	 33%
22:00Wed 	 16c 	 37%
23:00Wed 	 16c 	 44%
00:00Thu 	 16c 	 52%
01:00Thu 	 16c 	 61%
02:00Thu 	 16c 	 69%
03:00Thu 	 16c 	 79%
04:00Thu 	 16c 	 90%
05:00Thu 	 16c 	 96%
06:00Thu 	 16c 	 97%
07:00Thu 	 16c 	 89%
08:00Thu 	 16c 	 73%
09:00Thu 	 16c 	 49%
10:00Thu 	 16c 	 30%
11:00Thu 	 16c 	 33%
12:00Thu 	 16c 	 41%
13:00Thu 	 16c 	 41%
14:00Thu 	 17c 	 41%
15:00Thu 	 17c 	 39%
16:00Thu 	 17c 	 35%
17:00Thu 	 16c 	 32%
18:00Thu 	 15c 	 27%
19:00Thu 	 15c 	 24%
20:00Thu 	 14c 	 30%
21:00Thu 	 14c 	 41%
22:00Thu 	 14c 	 48%
23:00Thu 	 14c 	 48%
00:00Fri 	 13c 	 47%
01:00Fri 	 13c 	 48%
02:00Fri 	 13c 	 50%
03:00Fri 	 13c 	 57%
04:00Fri 	 13c 	 63%
05:00Fri 	 13c 	 59%

# /home/pi/Documents/bbc-weather-predictions/data/Sep25Wed/bbcweather_Wednesday25thSeptember_2019-09-25_1300.txt
# time 	 temp 	 rain
13:00Wed 	 18c 	 22%
14:00Wed 	 18c 	 79%
15:00Wed 	 18c 	 26%
16:00Wed 	 18c 	 28%
17:00Wed 	 17c 	 27%
18:00Wed 	 17c 	 26%
19:00Wed 	 16c 	 27%
20:00Wed 	 16c 	 29%
21:00Wed 	 16c 	 33%
22:00Wed 	 16c 	 37%
23:00Wed 	 16c 	 44%
00:00Thu 	 16c 	 52%
01:00Thu 	 16c 	 61%
02:00Thu 	 16c 	 69%
03:00Thu 	 16c 	 79%
04:00Thu 	 16c 	 90%
05:00Thu 	 16c 	 96%
06:00Thu 	 16c 	 97%
07:00Thu 	 16c 	 89%
08:00Thu 	 16c 	 73%
09:00Thu 	 16c 	 49%
10:00Thu 	 16c 	 30%
11:00Thu 	 16c 	 33%
12:00Thu 	 16c 	 41%
13:00Thu 	 16c 	 41%
14:00Thu 	 17c 	 41%
15:00Thu 	 17c 	 39%
16:00Thu 	 17c 	 35%
17:00Thu 	 16c 	 32%
18:00Thu 	 15c 	 27%
19:00Thu 	 15c 	 24%
20:00Thu 	 14c 	 30%
21:00Thu 	 14c 	 41%
22:00Thu 	 14c 	 48%
23:00Thu 	 14c 	 48%
00:00Fri 	 13c 	 47%
01:00Fri 	 13c 	 48%
02:00Fri 	 13c 	 50%
03:00Fri 	 13c 	 57%
04:00Fri 	 13c 	 63%
05:00Fri 	 13c 	 59%

# /home/pi/Documents/bbc-weather-predictions/data/Sep25Wed/bbcweather_Wednesday25thSeptember_2019-09-25_1315.txt
# time 	 temp 	 rain
14:00Wed 	 18c 	 61%
15:00Wed 	 18c 	 70%
16:00Wed 	 18c 	 27%
17:00Wed 	 17c 	 26%
18:00Wed 	 17c 	 26%
19:00Wed 	 16c 	 27%
20:00Wed 	 16c 	 29%
21:00Wed 	 16c 	 33%
22:00Wed 	 16c 	 37%
23:00Wed 	 16c 	 44%
00:00Thu 	 16c 	 52%
01:00Thu 	 16c 	 61%
02:00Thu 	 16c 	 69%
03:00Thu 	 16c 	 79%
04:00Thu 	 16c 	 90%
05:00Thu 	 16c 	 96%
06:00Thu 	 16c 	 97%
07:00Thu 	 16c 	 89%
08:00Thu 	 16c 	 73%
09:00Thu 	 16c 	 49%
10:00Thu 	 16c 	 30%
11:00Thu 	 16c 	 33%
12:00Thu 	 16c 	 41%
13:00Thu 	 16c 	 41%
14:00Thu 	 17c 	 41%
15:00Thu 	 17c 	 39%
16:00Thu 	 17c 	 35%
17:00Thu 	 16c 	 32%
18:00Thu 	 15c 	 27%
19:00Thu 	 15c 	 24%
20:00Thu 	 14c 	 30%
21:00Thu 	 14c 	 41%
22:00Thu 	 14c 	 48%
23:00Thu 	 14c 	 48%
00:00Fri 	 13c 	 47%
01:00Fri 	 13c 	 48%
02:00Fri 	 13c 	 50%
03:00Fri 	 13c 	 57%
04:00Fri 	 13c 	 63%
05:00Fri 	 13c 	 59%

# /home/pi/Documents/bbc-weather-predictions/data/Sep25Wed/bbcweather_Wednesday25thSeptember_2019-09-25_1330.txt
# time 	 temp 	 rain
14:00Wed 	 18c 	 61%
15:00Wed 	 18c 	 70%
16:00Wed 	 18c 	 27%
17:00Wed 	 17c 	 26%
18:00Wed 	 17c 	 26%
19:00Wed 	 16c 	 27%
20:00Wed 	 16c 	 29%
21:00Wed 	 16c 	 33%
22:00Wed 	 16c 	 37%
23:00Wed 	 16c 	 44%
00:00Thu 	 16c 	 52%
01:00Thu 	 16c 	 61%
02:00Thu 	 16c 	 69%
03:00Thu 	 16c 	 79%
04:00Thu 	 16c 	 90%
05:00Thu 	 16c 	 96%
06:00Thu 	 16c 	 97%
07:00Thu 	 16c 	 89%
08:00Thu 	 16c 	 73%
09:00Thu 	 16c 	 49%
10:00Thu 	 16c 	 30%
11:00Thu 	 16c 	 33%
12:00Thu 	 16c 	 41%
13:00Thu 	 16c 	 41%
14:00Thu 	 17c 	 41%
15:00Thu 	 17c 	 39%
16:00Thu 	 17c 	 35%
17:00Thu 	 16c 	 32%
18:00Thu 	 15c 	 27%
19:00Thu 	 15c 	 24%
20:00Thu 	 14c 	 30%
21:00Thu 	 14c 	 41%
22:00Thu 	 14c 	 48%
23:00Thu 	 14c 	 48%
00:00Fri 	 13c 	 47%
01:00Fri 	 13c 	 48%
02:00Fri 	 13c 	 50%
03:00Fri 	 13c 	 57%
04:00Fri 	 13c 	 63%
05:00Fri 	 13c 	 59%

# /home/pi/Documents/bbc-weather-predictions/data/Sep25Wed/bbcweather_Wednesday25thSeptember_2019-09-25_1345.txt
# time 	 temp 	 rain
14:00Wed 	 18c 	 61%
15:00Wed 	 18c 	 70%
16:00Wed 	 18c 	 27%
17:00Wed 	 17c 	 26%
18:00Wed 	 17c 	 26%
19:00Wed 	 16c 	 27%
20:00Wed 	 16c 	 29%
21:00Wed 	 16c 	 33%
22:00Wed 	 16c 	 37%
23:00Wed 	 16c 	 44%
00:00Thu 	 16c 	 52%
01:00Thu 	 16c 	 61%
02:00Thu 	 16c 	 69%
03:00Thu 	 16c 	 79%
04:00Thu 	 16c 	 90%
05:00Thu 	 16c 	 96%
06:00Thu 	 16c 	 97%
07:00Thu 	 16c 	 89%
08:00Thu 	 16c 	 73%
09:00Thu 	 16c 	 49%
10:00Thu 	 16c 	 30%
11:00Thu 	 16c 	 33%
12:00Thu 	 16c 	 41%
13:00Thu 	 16c 	 41%
14:00Thu 	 17c 	 41%
15:00Thu 	 17c 	 39%
16:00Thu 	 17c 	 35%
17:00Thu 	 16c 	 32%
18:00Thu 	 15c 	 27%
19:00Thu 	 15c 	 24%
20:00Thu 	 14c 	 30%
21:00Thu 	 14c 	 41%
22:00Thu 	 14c 	 48%
23:00Thu 	 14c 	 48%
00:00Fri 	 13c 	 47%
01:00Fri 	 13c 	 48%
02:00Fri 	 13c 	 50%
03:00Fri 	 13c 	 57%
04:00Fri 	 13c 	 63%
05:00Fri 	 13c 	 59%

# /home/pi/Documents/bbc-weather-predictions/data/Sep25Wed/bbcweather_Wednesday25thSeptember_2019-09-25_1400.txt
# time 	 temp 	 rain
14:00Wed 	 18c 	 61%
15:00Wed 	 18c 	 70%
16:00Wed 	 18c 	 27%
17:00Wed 	 17c 	 26%
18:00Wed 	 17c 	 26%
19:00Wed 	 16c 	 27%
20:00Wed 	 16c 	 29%
21:00Wed 	 16c 	 33%
22:00Wed 	 16c 	 37%
23:00Wed 	 16c 	 44%
00:00Thu 	 16c 	 52%
01:00Thu 	 16c 	 61%
02:00Thu 	 16c 	 69%
03:00Thu 	 16c 	 79%
04:00Thu 	 16c 	 90%
05:00Thu 	 16c 	 96%
06:00Thu 	 16c 	 97%
07:00Thu 	 16c 	 89%
08:00Thu 	 16c 	 73%
09:00Thu 	 16c 	 49%
10:00Thu 	 16c 	 30%
11:00Thu 	 16c 	 33%
12:00Thu 	 16c 	 41%
13:00Thu 	 16c 	 41%
14:00Thu 	 17c 	 41%
15:00Thu 	 17c 	 39%
16:00Thu 	 17c 	 35%
17:00Thu 	 16c 	 32%
18:00Thu 	 15c 	 27%
19:00Thu 	 15c 	 24%
20:00Thu 	 14c 	 30%
21:00Thu 	 14c 	 41%
22:00Thu 	 14c 	 48%
23:00Thu 	 14c 	 48%
00:00Fri 	 13c 	 47%
01:00Fri 	 13c 	 48%
02:00Fri 	 13c 	 50%
03:00Fri 	 13c 	 57%
04:00Fri 	 13c 	 63%
05:00Fri 	 13c 	 59%

# /home/pi/Documents/bbc-weather-predictions/data/Sep25Wed/bbcweather_Wednesday25thSeptember_2019-09-25_1415.txt
# time 	 temp 	 rain
15:00Wed 	 18c 	 23%
16:00Wed 	 17c 	 68%
17:00Wed 	 17c 	 36%
18:00Wed 	 17c 	 32%
19:00Wed 	 16c 	 28%
20:00Wed 	 16c 	 29%
21:00Wed 	 16c 	 33%
22:00Wed 	 16c 	 37%
23:00Wed 	 16c 	 44%
00:00Thu 	 16c 	 52%
01:00Thu 	 16c 	 61%
02:00Thu 	 16c 	 69%
03:00Thu 	 16c 	 79%
04:00Thu 	 16c 	 90%
05:00Thu 	 16c 	 96%
06:00Thu 	 16c 	 97%
07:00Thu 	 16c 	 89%
08:00Thu 	 16c 	 73%
09:00Thu 	 16c 	 49%
10:00Thu 	 16c 	 30%
11:00Thu 	 16c 	 33%
12:00Thu 	 16c 	 41%
13:00Thu 	 16c 	 41%
14:00Thu 	 17c 	 41%
15:00Thu 	 17c 	 39%
16:00Thu 	 17c 	 35%
17:00Thu 	 16c 	 32%
18:00Thu 	 15c 	 27%
19:00Thu 	 15c 	 24%
20:00Thu 	 14c 	 30%
21:00Thu 	 14c 	 41%
22:00Thu 	 14c 	 48%
23:00Thu 	 14c 	 48%
00:00Fri 	 13c 	 47%
01:00Fri 	 13c 	 48%
02:00Fri 	 13c 	 50%
03:00Fri 	 13c 	 57%
04:00Fri 	 13c 	 63%
05:00Fri 	 13c 	 59%

# /home/pi/Documents/bbc-weather-predictions/data/Sep25Wed/bbcweather_Wednesday25thSeptember_2019-09-25_1430.txt
# time 	 temp 	 rain
15:00Wed 	 18c 	 23%
16:00Wed 	 17c 	 68%
17:00Wed 	 17c 	 36%
18:00Wed 	 17c 	 32%
19:00Wed 	 16c 	 28%
20:00Wed 	 16c 	 29%
21:00Wed 	 16c 	 33%
22:00Wed 	 16c 	 37%
23:00Wed 	 16c 	 44%
00:00Thu 	 16c 	 52%
01:00Thu 	 16c 	 61%
02:00Thu 	 16c 	 69%
03:00Thu 	 16c 	 79%
04:00Thu 	 16c 	 90%
05:00Thu 	 16c 	 96%
06:00Thu 	 16c 	 97%
07:00Thu 	 16c 	 89%
08:00Thu 	 16c 	 73%
09:00Thu 	 16c 	 49%
10:00Thu 	 16c 	 30%
11:00Thu 	 16c 	 33%
12:00Thu 	 16c 	 41%
13:00Thu 	 16c 	 41%
14:00Thu 	 17c 	 41%
15:00Thu 	 17c 	 39%
16:00Thu 	 17c 	 35%
17:00Thu 	 16c 	 32%
18:00Thu 	 15c 	 27%
19:00Thu 	 15c 	 24%
20:00Thu 	 14c 	 30%
21:00Thu 	 14c 	 41%
22:00Thu 	 14c 	 48%
23:00Thu 	 14c 	 48%
00:00Fri 	 13c 	 47%
01:00Fri 	 13c 	 48%
02:00Fri 	 13c 	 50%
03:00Fri 	 13c 	 57%
04:00Fri 	 13c 	 63%
05:00Fri 	 13c 	 59%

# /home/pi/Documents/bbc-weather-predictions/data/Sep25Wed/bbcweather_Wednesday25thSeptember_2019-09-25_1445.txt
# time 	 temp 	 rain
15:00Wed 	 18c 	 23%
16:00Wed 	 17c 	 68%
17:00Wed 	 17c 	 36%
18:00Wed 	 17c 	 32%
19:00Wed 	 16c 	 28%
20:00Wed 	 16c 	 29%
21:00Wed 	 16c 	 33%
22:00Wed 	 16c 	 37%
23:00Wed 	 16c 	 44%
00:00Thu 	 16c 	 52%
01:00Thu 	 16c 	 61%
02:00Thu 	 16c 	 69%
03:00Thu 	 16c 	 79%
04:00Thu 	 16c 	 90%
05:00Thu 	 16c 	 96%
06:00Thu 	 16c 	 97%
07:00Thu 	 16c 	 89%
08:00Thu 	 16c 	 73%
09:00Thu 	 16c 	 49%
10:00Thu 	 16c 	 30%
11:00Thu 	 16c 	 33%
12:00Thu 	 16c 	 41%
13:00Thu 	 16c 	 41%
14:00Thu 	 17c 	 41%
15:00Thu 	 17c 	 39%
16:00Thu 	 17c 	 35%
17:00Thu 	 16c 	 32%
18:00Thu 	 15c 	 27%
19:00Thu 	 15c 	 24%
20:00Thu 	 14c 	 30%
21:00Thu 	 14c 	 41%
22:00Thu 	 14c 	 48%
23:00Thu 	 14c 	 48%
00:00Fri 	 13c 	 47%
01:00Fri 	 13c 	 48%
02:00Fri 	 13c 	 50%
03:00Fri 	 13c 	 57%
04:00Fri 	 13c 	 63%
05:00Fri 	 13c 	 59%

# /home/pi/Documents/bbc-weather-predictions/data/Sep25Wed/bbcweather_Wednesday25thSeptember_2019-09-25_1500.txt
# time 	 temp 	 rain
15:00Wed 	 18c 	 23%
16:00Wed 	 17c 	 68%
17:00Wed 	 17c 	 36%
18:00Wed 	 17c 	 32%
19:00Wed 	 16c 	 28%
20:00Wed 	 16c 	 29%
21:00Wed 	 16c 	 33%
22:00Wed 	 16c 	 37%
23:00Wed 	 16c 	 44%
00:00Thu 	 16c 	 52%
01:00Thu 	 16c 	 61%
02:00Thu 	 16c 	 69%
03:00Thu 	 16c 	 79%
04:00Thu 	 16c 	 90%
05:00Thu 	 16c 	 96%
06:00Thu 	 16c 	 97%
07:00Thu 	 16c 	 89%
08:00Thu 	 16c 	 73%
09:00Thu 	 16c 	 49%
10:00Thu 	 16c 	 30%
11:00Thu 	 16c 	 33%
12:00Thu 	 16c 	 41%
13:00Thu 	 16c 	 41%
14:00Thu 	 17c 	 41%
15:00Thu 	 17c 	 39%
16:00Thu 	 17c 	 35%
17:00Thu 	 16c 	 32%
18:00Thu 	 15c 	 27%
19:00Thu 	 15c 	 24%
20:00Thu 	 14c 	 30%
21:00Thu 	 14c 	 41%
22:00Thu 	 14c 	 48%
23:00Thu 	 14c 	 48%
00:00Fri 	 13c 	 47%
01:00Fri 	 13c 	 48%
02:00Fri 	 13c 	 50%
03:00Fri 	 13c 	 57%
04:00Fri 	 13c 	 63%
05:00Fri 	 13c 	 59%

# /home/pi/Documents/bbc-weather-predictions/data/Sep25Wed/bbcweather_Wednesday25thSeptember_2019-09-25_1515.txt
# time 	 temp 	 rain
16:00Wed 	 17c 	 90%
17:00Wed 	 17c 	 57%
18:00Wed 	 17c 	 30%
19:00Wed 	 16c 	 29%
20:00Wed 	 16c 	 30%
21:00Wed 	 16c 	 33%
22:00Wed 	 16c 	 37%
23:00Wed 	 16c 	 44%
00:00Thu 	 16c 	 52%
01:00Thu 	 16c 	 61%
02:00Thu 	 16c 	 69%
03:00Thu 	 16c 	 79%
04:00Thu 	 16c 	 90%
05:00Thu 	 16c 	 96%
06:00Thu 	 16c 	 97%
07:00Thu 	 16c 	 89%
08:00Thu 	 16c 	 73%
09:00Thu 	 16c 	 49%
10:00Thu 	 16c 	 30%
11:00Thu 	 16c 	 33%
12:00Thu 	 16c 	 41%
13:00Thu 	 16c 	 41%
14:00Thu 	 17c 	 41%
15:00Thu 	 17c 	 39%
16:00Thu 	 17c 	 35%
17:00Thu 	 16c 	 32%
18:00Thu 	 15c 	 27%
19:00Thu 	 15c 	 24%
20:00Thu 	 14c 	 30%
21:00Thu 	 14c 	 41%
22:00Thu 	 14c 	 48%
23:00Thu 	 14c 	 48%
00:00Fri 	 13c 	 47%
01:00Fri 	 13c 	 48%
02:00Fri 	 13c 	 50%
03:00Fri 	 13c 	 57%
04:00Fri 	 13c 	 63%
05:00Fri 	 13c 	 59%

# /home/pi/Documents/bbc-weather-predictions/data/Sep25Wed/bbcweather_Wednesday25thSeptember_2019-09-25_1530.txt
# time 	 temp 	 rain
16:00Wed 	 17c 	 90%
17:00Wed 	 17c 	 57%
18:00Wed 	 17c 	 30%
19:00Wed 	 16c 	 29%
20:00Wed 	 16c 	 30%
21:00Wed 	 16c 	 33%
22:00Wed 	 16c 	 37%
23:00Wed 	 16c 	 44%
00:00Thu 	 16c 	 52%
01:00Thu 	 16c 	 61%
02:00Thu 	 16c 	 69%
03:00Thu 	 16c 	 79%
04:00Thu 	 16c 	 90%
05:00Thu 	 16c 	 96%
06:00Thu 	 16c 	 97%
07:00Thu 	 16c 	 89%
08:00Thu 	 16c 	 73%
09:00Thu 	 16c 	 49%
10:00Thu 	 16c 	 30%
11:00Thu 	 16c 	 33%
12:00Thu 	 16c 	 41%
13:00Thu 	 16c 	 41%
14:00Thu 	 17c 	 41%
15:00Thu 	 17c 	 39%
16:00Thu 	 17c 	 35%
17:00Thu 	 16c 	 32%
18:00Thu 	 15c 	 27%
19:00Thu 	 15c 	 24%
20:00Thu 	 14c 	 30%
21:00Thu 	 14c 	 41%
22:00Thu 	 14c 	 48%
23:00Thu 	 14c 	 48%
00:00Fri 	 13c 	 47%
01:00Fri 	 13c 	 48%
02:00Fri 	 13c 	 50%
03:00Fri 	 13c 	 57%
04:00Fri 	 13c 	 63%
05:00Fri 	 13c 	 59%

# /home/pi/Documents/bbc-weather-predictions/data/Sep25Wed/bbcweather_Wednesday25thSeptember_2019-09-25_1545.txt
# time 	 temp 	 rain
16:00Wed 	 17c 	 90%
17:00Wed 	 17c 	 57%
18:00Wed 	 17c 	 30%
19:00Wed 	 16c 	 29%
20:00Wed 	 16c 	 30%
21:00Wed 	 16c 	 33%
22:00Wed 	 16c 	 37%
23:00Wed 	 16c 	 44%
00:00Thu 	 16c 	 52%
01:00Thu 	 16c 	 61%
02:00Thu 	 16c 	 69%
03:00Thu 	 16c 	 79%
04:00Thu 	 16c 	 90%
05:00Thu 	 16c 	 96%
06:00Thu 	 16c 	 97%
07:00Thu 	 16c 	 89%
08:00Thu 	 16c 	 73%
09:00Thu 	 16c 	 49%
10:00Thu 	 16c 	 30%
11:00Thu 	 16c 	 33%
12:00Thu 	 16c 	 41%
13:00Thu 	 16c 	 41%
14:00Thu 	 17c 	 41%
15:00Thu 	 17c 	 39%
16:00Thu 	 17c 	 35%
17:00Thu 	 16c 	 32%
18:00Thu 	 15c 	 27%
19:00Thu 	 15c 	 24%
20:00Thu 	 14c 	 30%
21:00Thu 	 14c 	 41%
22:00Thu 	 14c 	 48%
23:00Thu 	 14c 	 48%
00:00Fri 	 13c 	 47%
01:00Fri 	 13c 	 48%
02:00Fri 	 13c 	 50%
03:00Fri 	 13c 	 57%
04:00Fri 	 13c 	 63%
05:00Fri 	 13c 	 59%

# /home/pi/Documents/bbc-weather-predictions/data/Sep25Wed/bbcweather_Wednesday25thSeptember_2019-09-25_1600.txt
# time 	 temp 	 rain
16:00Wed 	 17c 	 90%
17:00Wed 	 17c 	 57%
18:00Wed 	 17c 	 30%
19:00Wed 	 16c 	 29%
20:00Wed 	 16c 	 30%
21:00Wed 	 16c 	 33%
22:00Wed 	 16c 	 37%
23:00Wed 	 16c 	 44%
00:00Thu 	 16c 	 52%
01:00Thu 	 16c 	 61%
02:00Thu 	 16c 	 69%
03:00Thu 	 16c 	 79%
04:00Thu 	 16c 	 90%
05:00Thu 	 16c 	 96%
06:00Thu 	 16c 	 97%
07:00Thu 	 16c 	 89%
08:00Thu 	 16c 	 73%
09:00Thu 	 16c 	 49%
10:00Thu 	 16c 	 30%
11:00Thu 	 16c 	 33%
12:00Thu 	 16c 	 41%
13:00Thu 	 16c 	 41%
14:00Thu 	 17c 	 41%
15:00Thu 	 17c 	 39%
16:00Thu 	 17c 	 35%
17:00Thu 	 16c 	 32%
18:00Thu 	 15c 	 27%
19:00Thu 	 15c 	 24%
20:00Thu 	 14c 	 30%
21:00Thu 	 14c 	 41%
22:00Thu 	 14c 	 48%
23:00Thu 	 14c 	 48%
00:00Fri 	 13c 	 47%
01:00Fri 	 13c 	 48%
02:00Fri 	 13c 	 50%
03:00Fri 	 13c 	 57%
04:00Fri 	 13c 	 63%
05:00Fri 	 13c 	 59%

# /home/pi/Documents/bbc-weather-predictions/data/Sep25Wed/bbcweather_Wednesday25thSeptember_2019-09-25_1615.txt
# time 	 temp 	 rain
17:00Wed 	 17c 	 17%
18:00Wed 	 17c 	 9%
19:00Wed 	 16c 	 27%
20:00Wed 	 16c 	 28%
21:00Wed 	 16c 	 29%
22:00Wed 	 16c 	 31%
23:00Wed 	 16c 	 37%
00:00Thu 	 16c 	 45%
01:00Thu 	 16c 	 54%
02:00Thu 	 16c 	 62%
03:00Thu 	 16c 	 75%
04:00Thu 	 16c 	 88%
05:00Thu 	 16c 	 96%
06:00Thu 	 16c 	 97%
07:00Thu 	 16c 	 89%
08:00Thu 	 16c 	 73%
09:00Thu 	 16c 	 49%
10:00Thu 	 16c 	 30%
11:00Thu 	 16c 	 32%
12:00Thu 	 16c 	 39%
13:00Thu 	 16c 	 39%
14:00Thu 	 17c 	 39%
15:00Thu 	 17c 	 38%
16:00Thu 	 16c 	 35%
17:00Thu 	 16c 	 32%
18:00Thu 	 15c 	 27%
19:00Thu 	 15c 	 23%
20:00Thu 	 14c 	 28%
21:00Thu 	 14c 	 38%
22:00Thu 	 14c 	 44%
23:00Thu 	 14c 	 43%
00:00Fri 	 13c 	 41%
01:00Fri 	 13c 	 42%
02:00Fri 	 13c 	 44%
03:00Fri 	 13c 	 52%
04:00Fri 	 13c 	 58%
05:00Fri 	 13c 	 54%

# /home/pi/Documents/bbc-weather-predictions/data/Sep25Wed/bbcweather_Wednesday25thSeptember_2019-09-25_1630.txt
# time 	 temp 	 rain
17:00Wed 	 17c 	 17%
18:00Wed 	 17c 	 9%
19:00Wed 	 16c 	 27%
20:00Wed 	 16c 	 28%
21:00Wed 	 16c 	 29%
22:00Wed 	 16c 	 31%
23:00Wed 	 16c 	 37%
00:00Thu 	 16c 	 45%
01:00Thu 	 16c 	 54%
02:00Thu 	 16c 	 62%
03:00Thu 	 16c 	 75%
04:00Thu 	 16c 	 88%
05:00Thu 	 16c 	 96%
06:00Thu 	 16c 	 97%
07:00Thu 	 16c 	 89%
08:00Thu 	 16c 	 73%
09:00Thu 	 16c 	 49%
10:00Thu 	 16c 	 30%
11:00Thu 	 16c 	 32%
12:00Thu 	 16c 	 39%
13:00Thu 	 16c 	 39%
14:00Thu 	 17c 	 39%
15:00Thu 	 17c 	 38%
16:00Thu 	 16c 	 35%
17:00Thu 	 16c 	 32%
18:00Thu 	 15c 	 27%
19:00Thu 	 15c 	 23%
20:00Thu 	 14c 	 28%
21:00Thu 	 14c 	 38%
22:00Thu 	 14c 	 44%
23:00Thu 	 14c 	 43%
00:00Fri 	 13c 	 41%
01:00Fri 	 13c 	 42%
02:00Fri 	 13c 	 44%
03:00Fri 	 13c 	 52%
04:00Fri 	 13c 	 58%
05:00Fri 	 13c 	 54%

# /home/pi/Documents/bbc-weather-predictions/data/Sep25Wed/bbcweather_Wednesday25thSeptember_2019-09-25_1645.txt
# time 	 temp 	 rain
17:00Wed 	 17c 	 17%
18:00Wed 	 17c 	 9%
19:00Wed 	 16c 	 27%
20:00Wed 	 16c 	 28%
21:00Wed 	 16c 	 29%
22:00Wed 	 16c 	 31%
23:00Wed 	 16c 	 37%
00:00Thu 	 16c 	 45%
01:00Thu 	 16c 	 54%
02:00Thu 	 16c 	 62%
03:00Thu 	 16c 	 75%
04:00Thu 	 16c 	 88%
05:00Thu 	 16c 	 96%
06:00Thu 	 16c 	 97%
07:00Thu 	 16c 	 89%
08:00Thu 	 16c 	 73%
09:00Thu 	 16c 	 49%
10:00Thu 	 16c 	 30%
11:00Thu 	 16c 	 32%
12:00Thu 	 16c 	 39%
13:00Thu 	 16c 	 39%
14:00Thu 	 17c 	 39%
15:00Thu 	 17c 	 38%
16:00Thu 	 16c 	 35%
17:00Thu 	 16c 	 32%
18:00Thu 	 15c 	 27%
19:00Thu 	 15c 	 23%
20:00Thu 	 14c 	 28%
21:00Thu 	 14c 	 38%
22:00Thu 	 14c 	 44%
23:00Thu 	 14c 	 43%
00:00Fri 	 13c 	 41%
01:00Fri 	 13c 	 42%
02:00Fri 	 13c 	 44%
03:00Fri 	 13c 	 52%
04:00Fri 	 13c 	 58%
05:00Fri 	 13c 	 54%

# /home/pi/Documents/bbc-weather-predictions/data/Sep25Wed/bbcweather_Wednesday25thSeptember_2019-09-25_1700.txt
# time 	 temp 	 rain
17:00Wed 	 17c 	 17%
18:00Wed 	 17c 	 9%
19:00Wed 	 16c 	 27%
20:00Wed 	 16c 	 28%
21:00Wed 	 16c 	 29%
22:00Wed 	 16c 	 31%
23:00Wed 	 16c 	 37%
00:00Thu 	 16c 	 45%
01:00Thu 	 16c 	 54%
02:00Thu 	 16c 	 62%
03:00Thu 	 16c 	 75%
04:00Thu 	 16c 	 88%
05:00Thu 	 16c 	 96%
06:00Thu 	 16c 	 97%
07:00Thu 	 16c 	 89%
08:00Thu 	 16c 	 73%
09:00Thu 	 16c 	 49%
10:00Thu 	 16c 	 30%
11:00Thu 	 16c 	 32%
12:00Thu 	 16c 	 39%
13:00Thu 	 16c 	 39%
14:00Thu 	 17c 	 39%
15:00Thu 	 17c 	 38%
16:00Thu 	 16c 	 35%
17:00Thu 	 16c 	 32%
18:00Thu 	 15c 	 27%
19:00Thu 	 15c 	 23%
20:00Thu 	 14c 	 28%
21:00Thu 	 14c 	 38%
22:00Thu 	 14c 	 44%
23:00Thu 	 14c 	 43%
00:00Fri 	 13c 	 41%
01:00Fri 	 13c 	 42%
02:00Fri 	 13c 	 44%
03:00Fri 	 13c 	 52%
04:00Fri 	 13c 	 58%
05:00Fri 	 13c 	 54%

# /home/pi/Documents/bbc-weather-predictions/data/Sep25Wed/bbcweather_Wednesday25thSeptember_2019-09-25_1715.txt
# time 	 temp 	 rain
18:00Wed 	 16c 	 23%
19:00Wed 	 16c 	 54%
20:00Wed 	 16c 	 32%
21:00Wed 	 16c 	 36%
22:00Wed 	 16c 	 39%
23:00Wed 	 16c 	 44%
00:00Thu 	 16c 	 52%
01:00Thu 	 16c 	 61%
02:00Thu 	 16c 	 69%
03:00Thu 	 16c 	 79%
04:00Thu 	 16c 	 90%
05:00Thu 	 16c 	 96%
06:00Thu 	 16c 	 97%
07:00Thu 	 16c 	 89%
08:00Thu 	 16c 	 73%
09:00Thu 	 16c 	 49%
10:00Thu 	 16c 	 30%
11:00Thu 	 16c 	 33%
12:00Thu 	 16c 	 41%
13:00Thu 	 16c 	 41%
14:00Thu 	 17c 	 41%
15:00Thu 	 17c 	 39%
16:00Thu 	 17c 	 35%
17:00Thu 	 16c 	 32%
18:00Thu 	 15c 	 27%
19:00Thu 	 15c 	 24%
20:00Thu 	 14c 	 30%
21:00Thu 	 14c 	 41%
22:00Thu 	 14c 	 48%
23:00Thu 	 14c 	 48%
00:00Fri 	 13c 	 47%
01:00Fri 	 13c 	 48%
02:00Fri 	 13c 	 50%
03:00Fri 	 13c 	 57%
04:00Fri 	 13c 	 63%
05:00Fri 	 13c 	 59%

# /home/pi/Documents/bbc-weather-predictions/data/Sep25Wed/bbcweather_Wednesday25thSeptember_2019-09-25_1730.txt
# time 	 temp 	 rain
18:00Wed 	 16c 	 23%
19:00Wed 	 16c 	 54%
20:00Wed 	 16c 	 32%
21:00Wed 	 16c 	 36%
22:00Wed 	 16c 	 39%
23:00Wed 	 16c 	 44%
00:00Thu 	 16c 	 52%
01:00Thu 	 16c 	 61%
02:00Thu 	 16c 	 69%
03:00Thu 	 16c 	 79%
04:00Thu 	 16c 	 90%
05:00Thu 	 16c 	 96%
06:00Thu 	 16c 	 97%
07:00Thu 	 16c 	 89%
08:00Thu 	 16c 	 73%
09:00Thu 	 16c 	 49%
10:00Thu 	 16c 	 30%
11:00Thu 	 16c 	 33%
12:00Thu 	 16c 	 41%
13:00Thu 	 16c 	 41%
14:00Thu 	 17c 	 41%
15:00Thu 	 17c 	 39%
16:00Thu 	 17c 	 35%
17:00Thu 	 16c 	 32%
18:00Thu 	 15c 	 27%
19:00Thu 	 15c 	 24%
20:00Thu 	 14c 	 30%
21:00Thu 	 14c 	 41%
22:00Thu 	 14c 	 48%
23:00Thu 	 14c 	 48%
00:00Fri 	 13c 	 47%
01:00Fri 	 13c 	 48%
02:00Fri 	 13c 	 50%
03:00Fri 	 13c 	 57%
04:00Fri 	 13c 	 63%
05:00Fri 	 13c 	 59%

# /home/pi/Documents/bbc-weather-predictions/data/Sep25Wed/bbcweather_Wednesday25thSeptember_2019-09-25_1745.txt
# time 	 temp 	 rain
18:00Wed 	 16c 	 23%
19:00Wed 	 16c 	 54%
20:00Wed 	 16c 	 32%
21:00Wed 	 16c 	 36%
22:00Wed 	 16c 	 39%
23:00Wed 	 16c 	 44%
00:00Thu 	 16c 	 52%
01:00Thu 	 16c 	 61%
02:00Thu 	 16c 	 69%
03:00Thu 	 16c 	 79%
04:00Thu 	 16c 	 90%
05:00Thu 	 16c 	 96%
06:00Thu 	 16c 	 97%
07:00Thu 	 16c 	 89%
08:00Thu 	 16c 	 73%
09:00Thu 	 16c 	 49%
10:00Thu 	 16c 	 30%
11:00Thu 	 16c 	 33%
12:00Thu 	 16c 	 41%
13:00Thu 	 16c 	 41%
14:00Thu 	 17c 	 41%
15:00Thu 	 17c 	 39%
16:00Thu 	 17c 	 35%
17:00Thu 	 16c 	 32%
18:00Thu 	 15c 	 27%
19:00Thu 	 15c 	 24%
20:00Thu 	 14c 	 30%
21:00Thu 	 14c 	 41%
22:00Thu 	 14c 	 48%
23:00Thu 	 14c 	 48%
00:00Fri 	 13c 	 47%
01:00Fri 	 13c 	 48%
02:00Fri 	 13c 	 50%
03:00Fri 	 13c 	 57%
04:00Fri 	 13c 	 63%
05:00Fri 	 13c 	 59%

# /home/pi/Documents/bbc-weather-predictions/data/Sep25Wed/bbcweather_Wednesday25thSeptember_2019-09-25_1800.txt
# time 	 temp 	 rain
18:00Wed 	 16c 	 23%
19:00Wed 	 16c 	 54%
20:00Wed 	 16c 	 32%
21:00Wed 	 16c 	 36%
22:00Wed 	 16c 	 39%
23:00Wed 	 16c 	 44%
00:00Thu 	 16c 	 52%
01:00Thu 	 16c 	 61%
02:00Thu 	 16c 	 69%
03:00Thu 	 16c 	 79%
04:00Thu 	 16c 	 90%
05:00Thu 	 16c 	 96%
06:00Thu 	 16c 	 97%
07:00Thu 	 16c 	 89%
08:00Thu 	 16c 	 73%
09:00Thu 	 16c 	 49%
10:00Thu 	 16c 	 30%
11:00Thu 	 16c 	 33%
12:00Thu 	 16c 	 41%
13:00Thu 	 16c 	 41%
14:00Thu 	 17c 	 41%
15:00Thu 	 17c 	 39%
16:00Thu 	 17c 	 35%
17:00Thu 	 16c 	 32%
18:00Thu 	 15c 	 27%
19:00Thu 	 15c 	 24%
20:00Thu 	 14c 	 30%
21:00Thu 	 14c 	 41%
22:00Thu 	 14c 	 48%
23:00Thu 	 14c 	 48%
00:00Fri 	 13c 	 47%
01:00Fri 	 13c 	 48%
02:00Fri 	 13c 	 50%
03:00Fri 	 13c 	 57%
04:00Fri 	 13c 	 63%
05:00Fri 	 13c 	 59%

# /home/pi/Documents/bbc-weather-predictions/data/Sep25Wed/bbcweather_Wednesday25thSeptember_2019-09-25_1815.txt
# time 	 temp 	 rain
19:00Wed 	 16c 	 52%
20:00Wed 	 16c 	 71%
21:00Wed 	 16c 	 37%
22:00Wed 	 16c 	 41%
23:00Wed 	 16c 	 46%
00:00Thu 	 16c 	 52%
01:00Thu 	 16c 	 61%
02:00Thu 	 16c 	 69%
03:00Thu 	 16c 	 79%
04:00Thu 	 16c 	 90%
05:00Thu 	 16c 	 96%
06:00Thu 	 16c 	 97%
07:00Thu 	 16c 	 89%
08:00Thu 	 16c 	 73%
09:00Thu 	 16c 	 49%
10:00Thu 	 16c 	 30%
11:00Thu 	 16c 	 33%
12:00Thu 	 16c 	 41%
13:00Thu 	 16c 	 41%
14:00Thu 	 17c 	 41%
15:00Thu 	 17c 	 39%
16:00Thu 	 17c 	 35%
17:00Thu 	 16c 	 32%
18:00Thu 	 15c 	 27%
19:00Thu 	 15c 	 24%
20:00Thu 	 14c 	 30%
21:00Thu 	 14c 	 41%
22:00Thu 	 14c 	 48%
23:00Thu 	 14c 	 48%
00:00Fri 	 13c 	 47%
01:00Fri 	 13c 	 48%
02:00Fri 	 13c 	 50%
03:00Fri 	 13c 	 57%
04:00Fri 	 13c 	 63%
05:00Fri 	 13c 	 59%

# /home/pi/Documents/bbc-weather-predictions/data/Sep25Wed/bbcweather_Wednesday25thSeptember_2019-09-25_1830.txt
# time 	 temp 	 rain
19:00Wed 	 16c 	 52%
20:00Wed 	 16c 	 71%
21:00Wed 	 16c 	 37%
22:00Wed 	 16c 	 41%
23:00Wed 	 16c 	 46%
00:00Thu 	 16c 	 52%
01:00Thu 	 16c 	 61%
02:00Thu 	 16c 	 69%
03:00Thu 	 16c 	 79%
04:00Thu 	 16c 	 90%
05:00Thu 	 16c 	 96%
06:00Thu 	 16c 	 97%
07:00Thu 	 16c 	 89%
08:00Thu 	 16c 	 73%
09:00Thu 	 16c 	 49%
10:00Thu 	 16c 	 30%
11:00Thu 	 16c 	 33%
12:00Thu 	 16c 	 41%
13:00Thu 	 16c 	 41%
14:00Thu 	 17c 	 41%
15:00Thu 	 17c 	 39%
16:00Thu 	 17c 	 35%
17:00Thu 	 16c 	 32%
18:00Thu 	 15c 	 27%
19:00Thu 	 15c 	 24%
20:00Thu 	 14c 	 30%
21:00Thu 	 14c 	 41%
22:00Thu 	 14c 	 48%
23:00Thu 	 14c 	 48%
00:00Fri 	 13c 	 47%
01:00Fri 	 13c 	 48%
02:00Fri 	 13c 	 50%
03:00Fri 	 13c 	 57%
04:00Fri 	 13c 	 63%
05:00Fri 	 13c 	 59%

# /home/pi/Documents/bbc-weather-predictions/data/Sep25Wed/bbcweather_Wednesday25thSeptember_2019-09-25_1845.txt
# time 	 temp 	 rain
19:00Wed 	 16c 	 52%
20:00Wed 	 16c 	 71%
21:00Wed 	 16c 	 37%
22:00Wed 	 16c 	 41%
23:00Wed 	 16c 	 46%
00:00Thu 	 16c 	 52%
01:00Thu 	 16c 	 61%
02:00Thu 	 16c 	 69%
03:00Thu 	 16c 	 79%
04:00Thu 	 16c 	 90%
05:00Thu 	 16c 	 96%
06:00Thu 	 16c 	 97%
07:00Thu 	 16c 	 89%
08:00Thu 	 16c 	 73%
09:00Thu 	 16c 	 49%
10:00Thu 	 16c 	 30%
11:00Thu 	 16c 	 33%
12:00Thu 	 16c 	 41%
13:00Thu 	 16c 	 41%
14:00Thu 	 17c 	 41%
15:00Thu 	 17c 	 39%
16:00Thu 	 17c 	 35%
17:00Thu 	 16c 	 32%
18:00Thu 	 15c 	 27%
19:00Thu 	 15c 	 24%
20:00Thu 	 14c 	 30%
21:00Thu 	 14c 	 41%
22:00Thu 	 14c 	 48%
23:00Thu 	 14c 	 48%
00:00Fri 	 13c 	 47%
01:00Fri 	 13c 	 48%
02:00Fri 	 13c 	 50%
03:00Fri 	 13c 	 57%
04:00Fri 	 13c 	 63%
05:00Fri 	 13c 	 59%

# /home/pi/Documents/bbc-weather-predictions/data/Sep25Wed/bbcweather_Wednesday25thSeptember_2019-09-25_1900.txt
# time 	 temp 	 rain
19:00Wed 	 16c 	 52%
20:00Wed 	 16c 	 71%
21:00Wed 	 16c 	 37%
22:00Wed 	 16c 	 41%
23:00Wed 	 16c 	 46%
00:00Thu 	 16c 	 52%
01:00Thu 	 16c 	 61%
02:00Thu 	 16c 	 69%
03:00Thu 	 16c 	 79%
04:00Thu 	 16c 	 90%
05:00Thu 	 16c 	 96%
06:00Thu 	 16c 	 97%
07:00Thu 	 16c 	 89%
08:00Thu 	 16c 	 73%
09:00Thu 	 16c 	 49%
10:00Thu 	 16c 	 30%
11:00Thu 	 16c 	 33%
12:00Thu 	 16c 	 41%
13:00Thu 	 16c 	 41%
14:00Thu 	 17c 	 41%
15:00Thu 	 17c 	 39%
16:00Thu 	 17c 	 35%
17:00Thu 	 16c 	 32%
18:00Thu 	 15c 	 27%
19:00Thu 	 15c 	 24%
20:00Thu 	 14c 	 30%
21:00Thu 	 14c 	 41%
22:00Thu 	 14c 	 48%
23:00Thu 	 14c 	 48%
00:00Fri 	 13c 	 47%
01:00Fri 	 13c 	 48%
02:00Fri 	 13c 	 50%
03:00Fri 	 13c 	 57%
04:00Fri 	 13c 	 63%
05:00Fri 	 13c 	 59%

# /home/pi/Documents/bbc-weather-predictions/data/Sep25Wed/bbcweather_Wednesday25thSeptember_2019-09-25_1915.txt
# time 	 temp 	 rain
20:00Wed 	 16c 	 71%
21:00Wed 	 16c 	 37%
22:00Wed 	 16c 	 41%
23:00Wed 	 16c 	 46%
00:00Thu 	 16c 	 52%
01:00Thu 	 16c 	 61%
02:00Thu 	 16c 	 69%
03:00Thu 	 16c 	 79%
04:00Thu 	 16c 	 90%
05:00Thu 	 16c 	 96%
06:00Thu 	 16c 	 97%
07:00Thu 	 16c 	 89%
08:00Thu 	 16c 	 73%
09:00Thu 	 16c 	 49%
10:00Thu 	 16c 	 30%
11:00Thu 	 16c 	 33%
12:00Thu 	 16c 	 41%
13:00Thu 	 16c 	 41%
14:00Thu 	 17c 	 41%
15:00Thu 	 17c 	 39%
16:00Thu 	 17c 	 35%
17:00Thu 	 16c 	 32%
18:00Thu 	 15c 	 27%
19:00Thu 	 15c 	 24%
20:00Thu 	 14c 	 30%
21:00Thu 	 14c 	 41%
22:00Thu 	 14c 	 48%
23:00Thu 	 14c 	 48%
00:00Fri 	 13c 	 47%
01:00Fri 	 13c 	 48%
02:00Fri 	 13c 	 50%
03:00Fri 	 13c 	 57%
04:00Fri 	 13c 	 63%
05:00Fri 	 13c 	 59%

# /home/pi/Documents/bbc-weather-predictions/data/Sep25Wed/bbcweather_Wednesday25thSeptember_2019-09-25_1930.txt
# time 	 temp 	 rain
20:00Wed 	 16c 	 93%
21:00Wed 	 16c 	 65%
22:00Wed 	 16c 	 44%
23:00Wed 	 16c 	 50%
00:00Thu 	 16c 	 55%
01:00Thu 	 16c 	 61%
02:00Thu 	 16c 	 69%
03:00Thu 	 16c 	 79%
04:00Thu 	 16c 	 90%
05:00Thu 	 16c 	 96%
06:00Thu 	 16c 	 97%
07:00Thu 	 16c 	 89%
08:00Thu 	 16c 	 73%
09:00Thu 	 16c 	 49%
10:00Thu 	 16c 	 30%
11:00Thu 	 16c 	 33%
12:00Thu 	 16c 	 41%
13:00Thu 	 16c 	 41%
14:00Thu 	 17c 	 41%
15:00Thu 	 17c 	 39%
16:00Thu 	 17c 	 35%
17:00Thu 	 16c 	 32%
18:00Thu 	 15c 	 27%
19:00Thu 	 15c 	 24%
20:00Thu 	 14c 	 30%
21:00Thu 	 14c 	 41%
22:00Thu 	 14c 	 48%
23:00Thu 	 14c 	 48%
00:00Fri 	 13c 	 47%
01:00Fri 	 13c 	 48%
02:00Fri 	 13c 	 50%
03:00Fri 	 13c 	 57%
04:00Fri 	 13c 	 63%
05:00Fri 	 13c 	 59%

# /home/pi/Documents/bbc-weather-predictions/data/Sep25Wed/bbcweather_Wednesday25thSeptember_2019-09-25_1945.txt
# time 	 temp 	 rain
20:00Wed 	 16c 	 93%
21:00Wed 	 16c 	 65%
22:00Wed 	 16c 	 44%
23:00Wed 	 16c 	 50%
00:00Thu 	 16c 	 55%
01:00Thu 	 16c 	 61%
02:00Thu 	 16c 	 69%
03:00Thu 	 16c 	 79%
04:00Thu 	 16c 	 90%
05:00Thu 	 16c 	 96%
06:00Thu 	 16c 	 97%
07:00Thu 	 16c 	 89%
08:00Thu 	 16c 	 73%
09:00Thu 	 16c 	 49%
10:00Thu 	 16c 	 30%
11:00Thu 	 16c 	 33%
12:00Thu 	 16c 	 41%
13:00Thu 	 16c 	 41%
14:00Thu 	 17c 	 41%
15:00Thu 	 17c 	 39%
16:00Thu 	 17c 	 35%
17:00Thu 	 16c 	 32%
18:00Thu 	 15c 	 27%
19:00Thu 	 15c 	 24%
20:00Thu 	 14c 	 30%
21:00Thu 	 14c 	 41%
22:00Thu 	 14c 	 48%
23:00Thu 	 14c 	 48%
00:00Fri 	 13c 	 47%
01:00Fri 	 13c 	 48%
02:00Fri 	 13c 	 50%
03:00Fri 	 13c 	 57%
04:00Fri 	 13c 	 63%
05:00Fri 	 13c 	 59%

# /home/pi/Documents/bbc-weather-predictions/data/Sep25Wed/bbcweather_Wednesday25thSeptember_2019-09-25_2000.txt
# time 	 temp 	 rain
20:00Wed 	 16c 	 93%
21:00Wed 	 16c 	 65%
22:00Wed 	 16c 	 44%
23:00Wed 	 16c 	 50%
00:00Thu 	 16c 	 55%
01:00Thu 	 16c 	 61%
02:00Thu 	 16c 	 69%
03:00Thu 	 16c 	 79%
04:00Thu 	 16c 	 90%
05:00Thu 	 16c 	 96%
06:00Thu 	 16c 	 97%
07:00Thu 	 16c 	 89%
08:00Thu 	 16c 	 73%
09:00Thu 	 16c 	 49%
10:00Thu 	 16c 	 30%
11:00Thu 	 16c 	 33%
12:00Thu 	 16c 	 41%
13:00Thu 	 16c 	 41%
14:00Thu 	 17c 	 41%
15:00Thu 	 17c 	 39%
16:00Thu 	 17c 	 35%
17:00Thu 	 16c 	 32%
18:00Thu 	 15c 	 27%
19:00Thu 	 15c 	 24%
20:00Thu 	 14c 	 30%
21:00Thu 	 14c 	 41%
22:00Thu 	 14c 	 48%
23:00Thu 	 14c 	 48%
00:00Fri 	 13c 	 47%
01:00Fri 	 13c 	 48%
02:00Fri 	 13c 	 50%
03:00Fri 	 13c 	 57%
04:00Fri 	 13c 	 63%
05:00Fri 	 13c 	 59%

# /home/pi/Documents/bbc-weather-predictions/data/Sep25Wed/bbcweather_Wednesday25thSeptember_2019-09-25_2015.txt
# time 	 temp 	 rain
21:00Wed 	 15c 	 92%
22:00Wed 	 15c 	 24%
23:00Wed 	 15c 	 71%
00:00Thu 	 16c 	 74%
01:00Thu 	 16c 	 75%
02:00Thu 	 16c 	 80%
03:00Thu 	 16c 	 86%
04:00Thu 	 16c 	 91%
05:00Thu 	 16c 	 92%
06:00Thu 	 16c 	 91%
07:00Thu 	 16c 	 81%
08:00Thu 	 16c 	 60%
09:00Thu 	 16c 	 39%
10:00Thu 	 16c 	 28%
11:00Thu 	 16c 	 29%
12:00Thu 	 16c 	 36%
13:00Thu 	 16c 	 37%
14:00Thu 	 16c 	 36%
15:00Thu 	 17c 	 37%
16:00Thu 	 16c 	 37%
17:00Thu 	 16c 	 38%
18:00Thu 	 15c 	 40%
19:00Thu 	 15c 	 42%
20:00Thu 	 14c 	 45%
21:00Thu 	 14c 	 50%
22:00Thu 	 14c 	 53%
23:00Thu 	 14c 	 50%
00:00Fri 	 13c 	 47%
01:00Fri 	 13c 	 48%
02:00Fri 	 13c 	 50%
03:00Fri 	 13c 	 57%
04:00Fri 	 13c 	 63%
05:00Fri 	 13c 	 59%

# /home/pi/Documents/bbc-weather-predictions/data/Sep25Wed/bbcweather_Wednesday25thSeptember_2019-09-25_2030.txt
# time 	 temp 	 rain
21:00Wed 	 15c 	 92%
22:00Wed 	 15c 	 24%
23:00Wed 	 15c 	 71%
00:00Thu 	 16c 	 74%
01:00Thu 	 16c 	 75%
02:00Thu 	 16c 	 80%
03:00Thu 	 16c 	 86%
04:00Thu 	 16c 	 91%
05:00Thu 	 16c 	 92%
06:00Thu 	 16c 	 91%
07:00Thu 	 16c 	 81%
08:00Thu 	 16c 	 60%
09:00Thu 	 16c 	 39%
10:00Thu 	 16c 	 28%
11:00Thu 	 16c 	 29%
12:00Thu 	 16c 	 36%
13:00Thu 	 16c 	 37%
14:00Thu 	 16c 	 36%
15:00Thu 	 17c 	 37%
16:00Thu 	 16c 	 37%
17:00Thu 	 16c 	 38%
18:00Thu 	 15c 	 40%
19:00Thu 	 15c 	 42%
20:00Thu 	 14c 	 45%
21:00Thu 	 14c 	 50%
22:00Thu 	 14c 	 53%
23:00Thu 	 14c 	 50%
00:00Fri 	 13c 	 47%
01:00Fri 	 13c 	 48%
02:00Fri 	 13c 	 50%
03:00Fri 	 13c 	 57%
04:00Fri 	 13c 	 63%
05:00Fri 	 13c 	 59%

# /home/pi/Documents/bbc-weather-predictions/data/Sep25Wed/bbcweather_Wednesday25thSeptember_2019-09-25_2045.txt
# time 	 temp 	 rain
21:00Wed 	 15c 	 92%
22:00Wed 	 15c 	 24%
23:00Wed 	 15c 	 71%
00:00Thu 	 16c 	 74%
01:00Thu 	 16c 	 75%
02:00Thu 	 16c 	 80%
03:00Thu 	 16c 	 86%
04:00Thu 	 16c 	 91%
05:00Thu 	 16c 	 92%
06:00Thu 	 16c 	 91%
07:00Thu 	 16c 	 81%
08:00Thu 	 16c 	 60%
09:00Thu 	 16c 	 39%
10:00Thu 	 16c 	 28%
11:00Thu 	 16c 	 29%
12:00Thu 	 16c 	 36%
13:00Thu 	 16c 	 37%
14:00Thu 	 16c 	 36%
15:00Thu 	 17c 	 37%
16:00Thu 	 16c 	 37%
17:00Thu 	 16c 	 38%
18:00Thu 	 15c 	 40%
19:00Thu 	 15c 	 42%
20:00Thu 	 14c 	 45%
21:00Thu 	 14c 	 50%
22:00Thu 	 14c 	 53%
23:00Thu 	 14c 	 50%
00:00Fri 	 13c 	 47%
01:00Fri 	 13c 	 48%
02:00Fri 	 13c 	 50%
03:00Fri 	 13c 	 57%
04:00Fri 	 13c 	 63%
05:00Fri 	 13c 	 59%

# /home/pi/Documents/bbc-weather-predictions/data/Sep25Wed/bbcweather_Wednesday25thSeptember_2019-09-25_2100.txt
# time 	 temp 	 rain
21:00Wed 	 15c 	 92%
22:00Wed 	 15c 	 24%
23:00Wed 	 15c 	 71%
00:00Thu 	 16c 	 74%
01:00Thu 	 16c 	 75%
02:00Thu 	 16c 	 80%
03:00Thu 	 16c 	 86%
04:00Thu 	 16c 	 91%
05:00Thu 	 16c 	 92%
06:00Thu 	 16c 	 91%
07:00Thu 	 16c 	 81%
08:00Thu 	 16c 	 60%
09:00Thu 	 16c 	 39%
10:00Thu 	 16c 	 28%
11:00Thu 	 16c 	 29%
12:00Thu 	 16c 	 36%
13:00Thu 	 16c 	 37%
14:00Thu 	 16c 	 36%
15:00Thu 	 17c 	 37%
16:00Thu 	 16c 	 37%
17:00Thu 	 16c 	 38%
18:00Thu 	 15c 	 40%
19:00Thu 	 15c 	 42%
20:00Thu 	 14c 	 45%
21:00Thu 	 14c 	 50%
22:00Thu 	 14c 	 53%
23:00Thu 	 14c 	 50%
00:00Fri 	 13c 	 47%
01:00Fri 	 13c 	 48%
02:00Fri 	 13c 	 50%
03:00Fri 	 13c 	 57%
04:00Fri 	 13c 	 63%
05:00Fri 	 13c 	 59%

# /home/pi/Documents/bbc-weather-predictions/data/Sep25Wed/bbcweather_Wednesday25thSeptember_2019-09-25_2115.txt
# time 	 temp 	 rain
22:00Wed 	 15c 	 38%
23:00Wed 	 15c 	 82%
00:00Thu 	 16c 	 74%
01:00Thu 	 16c 	 75%
02:00Thu 	 16c 	 80%
03:00Thu 	 16c 	 86%
04:00Thu 	 16c 	 91%
05:00Thu 	 16c 	 92%
06:00Thu 	 16c 	 91%
07:00Thu 	 16c 	 81%
08:00Thu 	 16c 	 60%
09:00Thu 	 16c 	 39%
10:00Thu 	 16c 	 28%
11:00Thu 	 16c 	 29%
12:00Thu 	 16c 	 36%
13:00Thu 	 16c 	 37%
14:00Thu 	 16c 	 36%
15:00Thu 	 17c 	 37%
16:00Thu 	 16c 	 37%
17:00Thu 	 16c 	 38%
18:00Thu 	 15c 	 40%
19:00Thu 	 15c 	 42%
20:00Thu 	 14c 	 45%
21:00Thu 	 14c 	 50%
22:00Thu 	 14c 	 53%
23:00Thu 	 14c 	 50%
00:00Fri 	 13c 	 47%
01:00Fri 	 13c 	 48%
02:00Fri 	 13c 	 50%
03:00Fri 	 13c 	 57%
04:00Fri 	 13c 	 63%
05:00Fri 	 13c 	 59%

# /home/pi/Documents/bbc-weather-predictions/data/Sep25Wed/bbcweather_Wednesday25thSeptember_2019-09-25_2130.txt
# time 	 temp 	 rain
22:00Wed 	 15c 	 38%
23:00Wed 	 15c 	 82%
00:00Thu 	 16c 	 74%
01:00Thu 	 16c 	 75%
02:00Thu 	 16c 	 80%
03:00Thu 	 16c 	 86%
04:00Thu 	 16c 	 91%
05:00Thu 	 16c 	 92%
06:00Thu 	 16c 	 91%
07:00Thu 	 16c 	 81%
08:00Thu 	 16c 	 60%
09:00Thu 	 16c 	 39%
10:00Thu 	 16c 	 28%
11:00Thu 	 16c 	 29%
12:00Thu 	 16c 	 36%
13:00Thu 	 16c 	 37%
14:00Thu 	 16c 	 36%
15:00Thu 	 17c 	 37%
16:00Thu 	 16c 	 37%
17:00Thu 	 16c 	 38%
18:00Thu 	 15c 	 40%
19:00Thu 	 15c 	 42%
20:00Thu 	 14c 	 45%
21:00Thu 	 14c 	 50%
22:00Thu 	 14c 	 53%
23:00Thu 	 14c 	 50%
00:00Fri 	 13c 	 47%
01:00Fri 	 13c 	 48%
02:00Fri 	 13c 	 50%
03:00Fri 	 13c 	 57%
04:00Fri 	 13c 	 63%
05:00Fri 	 13c 	 59%

# /home/pi/Documents/bbc-weather-predictions/data/Sep25Wed/bbcweather_Wednesday25thSeptember_2019-09-25_2145.txt
# time 	 temp 	 rain
22:00Wed 	 15c 	 38%
23:00Wed 	 15c 	 82%
00:00Thu 	 16c 	 74%
01:00Thu 	 16c 	 75%
02:00Thu 	 16c 	 80%
03:00Thu 	 16c 	 86%
04:00Thu 	 16c 	 91%
05:00Thu 	 16c 	 92%
06:00Thu 	 16c 	 91%
07:00Thu 	 16c 	 81%
08:00Thu 	 16c 	 60%
09:00Thu 	 16c 	 39%
10:00Thu 	 16c 	 28%
11:00Thu 	 16c 	 29%
12:00Thu 	 16c 	 36%
13:00Thu 	 16c 	 37%
14:00Thu 	 16c 	 36%
15:00Thu 	 17c 	 37%
16:00Thu 	 16c 	 37%
17:00Thu 	 16c 	 38%
18:00Thu 	 15c 	 40%
19:00Thu 	 15c 	 42%
20:00Thu 	 14c 	 45%
21:00Thu 	 14c 	 50%
22:00Thu 	 14c 	 53%
23:00Thu 	 14c 	 50%
00:00Fri 	 13c 	 47%
01:00Fri 	 13c 	 48%
02:00Fri 	 13c 	 50%
03:00Fri 	 13c 	 57%
04:00Fri 	 13c 	 63%
05:00Fri 	 13c 	 59%

# /home/pi/Documents/bbc-weather-predictions/data/Sep25Wed/bbcweather_Wednesday25thSeptember_2019-09-25_2200.txt
# time 	 temp 	 rain
22:00Wed 	 15c 	 38%
23:00Wed 	 15c 	 82%
00:00Thu 	 16c 	 74%
01:00Thu 	 16c 	 75%
02:00Thu 	 16c 	 80%
03:00Thu 	 16c 	 86%
04:00Thu 	 16c 	 91%
05:00Thu 	 16c 	 92%
06:00Thu 	 16c 	 91%
07:00Thu 	 16c 	 81%
08:00Thu 	 16c 	 60%
09:00Thu 	 16c 	 39%
10:00Thu 	 16c 	 28%
11:00Thu 	 16c 	 29%
12:00Thu 	 16c 	 36%
13:00Thu 	 16c 	 37%
14:00Thu 	 16c 	 36%
15:00Thu 	 17c 	 37%
16:00Thu 	 16c 	 37%
17:00Thu 	 16c 	 38%
18:00Thu 	 15c 	 40%
19:00Thu 	 15c 	 42%
20:00Thu 	 14c 	 45%
21:00Thu 	 14c 	 50%
22:00Thu 	 14c 	 53%
23:00Thu 	 14c 	 50%
00:00Fri 	 13c 	 47%
01:00Fri 	 13c 	 48%
02:00Fri 	 13c 	 50%
03:00Fri 	 13c 	 57%
04:00Fri 	 13c 	 63%
05:00Fri 	 13c 	 59%

# /home/pi/Documents/bbc-weather-predictions/data/Sep25Wed/bbcweather_Wednesday25thSeptember_2019-09-25_2215.txt
# time 	 temp 	 rain
23:00Wed 	 15c 	 98%
00:00Thu 	 16c 	 90%
01:00Thu 	 16c 	 68%
02:00Thu 	 16c 	 74%
03:00Thu 	 16c 	 82%
04:00Thu 	 16c 	 89%
05:00Thu 	 16c 	 91%
06:00Thu 	 16c 	 92%
07:00Thu 	 16c 	 82%
08:00Thu 	 16c 	 61%
09:00Thu 	 16c 	 39%
10:00Thu 	 15c 	 27%
11:00Thu 	 16c 	 29%
12:00Thu 	 16c 	 36%
13:00Thu 	 16c 	 36%
14:00Thu 	 17c 	 35%
15:00Thu 	 17c 	 36%
16:00Thu 	 17c 	 36%
17:00Thu 	 16c 	 37%
18:00Thu 	 15c 	 39%
19:00Thu 	 15c 	 42%
20:00Thu 	 14c 	 50%
21:00Thu 	 14c 	 58%
22:00Thu 	 14c 	 60%
23:00Thu 	 13c 	 57%
00:00Fri 	 13c 	 54%
01:00Fri 	 13c 	 52%
02:00Fri 	 13c 	 54%
03:00Fri 	 13c 	 60%
04:00Fri 	 13c 	 64%
05:00Fri 	 13c 	 62%

# /home/pi/Documents/bbc-weather-predictions/data/Sep25Wed/bbcweather_Wednesday25thSeptember_2019-09-25_2230.txt
# time 	 temp 	 rain
23:00Wed 	 15c 	 98%
00:00Thu 	 16c 	 90%
01:00Thu 	 16c 	 68%
02:00Thu 	 16c 	 74%
03:00Thu 	 16c 	 82%
04:00Thu 	 16c 	 89%
05:00Thu 	 16c 	 91%
06:00Thu 	 16c 	 92%
07:00Thu 	 16c 	 82%
08:00Thu 	 16c 	 61%
09:00Thu 	 16c 	 39%
10:00Thu 	 15c 	 27%
11:00Thu 	 16c 	 29%
12:00Thu 	 16c 	 36%
13:00Thu 	 16c 	 36%
14:00Thu 	 17c 	 35%
15:00Thu 	 17c 	 36%
16:00Thu 	 17c 	 36%
17:00Thu 	 16c 	 37%
18:00Thu 	 15c 	 39%
19:00Thu 	 15c 	 42%
20:00Thu 	 14c 	 50%
21:00Thu 	 14c 	 58%
22:00Thu 	 14c 	 60%
23:00Thu 	 13c 	 57%
00:00Fri 	 13c 	 54%
01:00Fri 	 13c 	 52%
02:00Fri 	 13c 	 54%
03:00Fri 	 13c 	 60%
04:00Fri 	 13c 	 64%
05:00Fri 	 13c 	 62%

# /home/pi/Documents/bbc-weather-predictions/data/Sep25Wed/bbcweather_Wednesday25thSeptember_2019-09-25_2245.txt
# time 	 temp 	 rain
23:00Wed 	 15c 	 98%
00:00Thu 	 16c 	 90%
01:00Thu 	 16c 	 68%
02:00Thu 	 16c 	 74%
03:00Thu 	 16c 	 82%
04:00Thu 	 16c 	 89%
05:00Thu 	 16c 	 91%
06:00Thu 	 16c 	 92%
07:00Thu 	 16c 	 82%
08:00Thu 	 16c 	 61%
09:00Thu 	 16c 	 39%
10:00Thu 	 15c 	 27%
11:00Thu 	 16c 	 29%
12:00Thu 	 16c 	 36%
13:00Thu 	 16c 	 36%
14:00Thu 	 17c 	 35%
15:00Thu 	 17c 	 36%
16:00Thu 	 17c 	 36%
17:00Thu 	 16c 	 37%
18:00Thu 	 15c 	 39%
19:00Thu 	 15c 	 42%
20:00Thu 	 14c 	 50%
21:00Thu 	 14c 	 58%
22:00Thu 	 14c 	 60%
23:00Thu 	 13c 	 57%
00:00Fri 	 13c 	 54%
01:00Fri 	 13c 	 52%
02:00Fri 	 13c 	 54%
03:00Fri 	 13c 	 60%
04:00Fri 	 13c 	 64%
05:00Fri 	 13c 	 62%

# /home/pi/Documents/bbc-weather-predictions/data/Sep25Wed/bbcweather_Wednesday25thSeptember_2019-09-25_2300.txt
# time 	 temp 	 rain
23:00Wed 	 15c 	 98%
00:00Thu 	 16c 	 90%
01:00Thu 	 16c 	 68%
02:00Thu 	 16c 	 74%
03:00Thu 	 16c 	 82%
04:00Thu 	 16c 	 89%
05:00Thu 	 16c 	 91%
06:00Thu 	 16c 	 92%
07:00Thu 	 16c 	 82%
08:00Thu 	 16c 	 61%
09:00Thu 	 16c 	 39%
10:00Thu 	 15c 	 27%
11:00Thu 	 16c 	 29%
12:00Thu 	 16c 	 36%
13:00Thu 	 16c 	 36%
14:00Thu 	 17c 	 35%
15:00Thu 	 17c 	 36%
16:00Thu 	 17c 	 36%
17:00Thu 	 16c 	 37%
18:00Thu 	 15c 	 39%
19:00Thu 	 15c 	 42%
20:00Thu 	 14c 	 50%
21:00Thu 	 14c 	 58%
22:00Thu 	 14c 	 60%
23:00Thu 	 13c 	 57%
00:00Fri 	 13c 	 54%
01:00Fri 	 13c 	 52%
02:00Fri 	 13c 	 54%
03:00Fri 	 13c 	 60%
04:00Fri 	 13c 	 64%
05:00Fri 	 13c 	 62%

# /home/pi/Documents/bbc-weather-predictions/data/Sep25Wed/bbcweather_Wednesday25thSeptember_2019-09-25_2315.txt
# time 	 temp 	 rain
00:00Thu 	 16c 	 89%
01:00Thu 	 16c 	 84%
02:00Thu 	 16c 	 71%
03:00Thu 	 16c 	 78%
04:00Thu 	 16c 	 85%
05:00Thu 	 16c 	 89%
06:00Thu 	 16c 	 92%
07:00Thu 	 16c 	 84%
08:00Thu 	 16c 	 64%
09:00Thu 	 15c 	 43%
10:00Thu 	 15c 	 31%
11:00Thu 	 16c 	 30%
12:00Thu 	 16c 	 34%
13:00Thu 	 16c 	 34%
14:00Thu 	 16c 	 32%
15:00Thu 	 17c 	 34%
16:00Thu 	 17c 	 34%
17:00Thu 	 16c 	 35%
18:00Thu 	 15c 	 36%
19:00Thu 	 15c 	 38%
20:00Thu 	 14c 	 45%
21:00Thu 	 14c 	 52%
22:00Thu 	 14c 	 54%
23:00Thu 	 13c 	 50%
00:00Fri 	 13c 	 45%
01:00Fri 	 13c 	 43%
02:00Fri 	 13c 	 46%
03:00Fri 	 13c 	 54%
04:00Fri 	 13c 	 59%
05:00Fri 	 13c 	 59%

# /home/pi/Documents/bbc-weather-predictions/data/Sep25Wed/bbcweather_Wednesday25thSeptember_2019-09-25_2330.txt
# time 	 temp 	 rain
00:00Thu 	 16c 	 89%
01:00Thu 	 16c 	 84%
02:00Thu 	 16c 	 71%
03:00Thu 	 16c 	 78%
04:00Thu 	 16c 	 85%
05:00Thu 	 16c 	 89%
06:00Thu 	 16c 	 92%
07:00Thu 	 16c 	 84%
08:00Thu 	 16c 	 64%
09:00Thu 	 15c 	 43%
10:00Thu 	 15c 	 31%
11:00Thu 	 16c 	 30%
12:00Thu 	 16c 	 34%
13:00Thu 	 16c 	 34%
14:00Thu 	 16c 	 32%
15:00Thu 	 17c 	 34%
16:00Thu 	 17c 	 34%
17:00Thu 	 16c 	 35%
18:00Thu 	 15c 	 36%
19:00Thu 	 15c 	 38%
20:00Thu 	 14c 	 45%
21:00Thu 	 14c 	 52%
22:00Thu 	 14c 	 54%
23:00Thu 	 13c 	 50%
00:00Fri 	 13c 	 45%
01:00Fri 	 13c 	 43%
02:00Fri 	 13c 	 46%
03:00Fri 	 13c 	 54%
04:00Fri 	 13c 	 59%
05:00Fri 	 13c 	 59%

# /home/pi/Documents/bbc-weather-predictions/data/Sep25Wed/bbcweather_Wednesday25thSeptember_2019-09-25_2345.txt
# time 	 temp 	 rain
00:00Thu 	 16c 	 89%
01:00Thu 	 16c 	 84%
02:00Thu 	 16c 	 71%
03:00Thu 	 16c 	 78%
04:00Thu 	 16c 	 85%
05:00Thu 	 16c 	 89%
06:00Thu 	 16c 	 92%
07:00Thu 	 16c 	 84%
08:00Thu 	 16c 	 64%
09:00Thu 	 15c 	 43%
10:00Thu 	 15c 	 31%
11:00Thu 	 16c 	 30%
12:00Thu 	 16c 	 34%
13:00Thu 	 16c 	 34%
14:00Thu 	 16c 	 32%
15:00Thu 	 17c 	 34%
16:00Thu 	 17c 	 34%
17:00Thu 	 16c 	 35%
18:00Thu 	 15c 	 36%
19:00Thu 	 15c 	 38%
20:00Thu 	 14c 	 45%
21:00Thu 	 14c 	 52%
22:00Thu 	 14c 	 54%
23:00Thu 	 13c 	 50%
00:00Fri 	 13c 	 45%
01:00Fri 	 13c 	 43%
02:00Fri 	 13c 	 46%
03:00Fri 	 13c 	 54%
04:00Fri 	 13c 	 59%
05:00Fri 	 13c 	 59%
