00:00Mon 	 9c 	 77%
00:00Mon 	 9c 	 77%
00:00Mon 	 9c 	 77%
00:00Mon 	 9c 	 77%
00:00Mon 	 9c 	 77%
00:00Mon 	 9c 	 77%
00:00Mon 	 9c 	 77%
00:00Mon 	 9c 	 77%
00:00Mon 	 9c 	 77%
00:00Mon 	 9c 	 77%
00:00Mon 	 9c 	 77%
00:00Mon 	 9c 	 77%
00:00Mon 	 9c 	 81%
00:00Mon 	 9c 	 81%
00:00Mon 	 9c 	 81%
00:00Mon 	 9c 	 81%
00:00Mon 	 9c 	 81%
00:00Mon 	 9c 	 81%
00:00Mon 	 9c 	 81%
00:00Mon 	 9c 	 81%
00:00Mon 	 9c 	 83%
00:00Mon 	 9c 	 83%
00:00Mon 	 9c 	 83%
00:00Mon 	 9c 	 83%
00:00Mon 	 9c 	 83%
00:00Mon 	 9c 	 83%
00:00Mon 	 9c 	 83%
00:00Mon 	 9c 	 83%
00:00Mon 	 9c 	 83%
00:00Mon 	 9c 	 83%
00:00Mon 	 9c 	 83%
00:00Mon 	 9c 	 83%
00:00Mon 	 9c 	 83%
00:00Mon 	 9c 	 83%
00:00Mon 	 9c 	 83%
00:00Mon 	 9c 	 83%
00:00Mon 	 9c 	 83%
00:00Mon 	 9c 	 83%
00:00Mon 	 9c 	 83%
00:00Mon 	 9c 	 83%
00:00Mon 	 9c 	 83%
00:00Mon 	 9c 	 83%
00:00Mon 	 9c 	 83%
00:00Mon 	 9c 	 83%
00:00Mon 	 9c 	 83%
00:00Mon 	 9c 	 83%
00:00Mon 	 9c 	 83%
00:00Mon 	 9c 	 83%
00:00Mon 	 9c 	 83%
00:00Mon 	 9c 	 83%
00:00Mon 	 9c 	 83%
00:00Mon 	 9c 	 83%
00:00Mon 	 9c 	 83%
00:00Mon 	 9c 	 83%
00:00Mon 	 9c 	 83%
00:00Mon 	 9c 	 83%
00:00Mon 	 9c 	 83%
00:00Mon 	 9c 	 83%
00:00Mon 	 9c 	 83%
00:00Mon 	 9c 	 83%
00:00Mon 	 9c 	 83%
00:00Mon 	 9c 	 91%
00:00Mon 	 9c 	 91%
00:00Mon 	 9c 	 91%
00:00Mon 	 9c 	 91%
00:00Mon 	 9c 	 91%
00:00Mon 	 9c 	 91%
00:00Mon 	 9c 	 91%
00:00Mon 	 9c 	 91%
00:00Mon 	 10c 	 89%
00:00Mon 	 10c 	 89%
00:00Mon 	 10c 	 89%
00:00Mon 	 10c 	 89%
00:00Mon 	 10c 	 89%

01:00Mon 	 9c 	 75%
01:00Mon 	 9c 	 75%
01:00Mon 	 9c 	 75%
01:00Mon 	 9c 	 75%
01:00Mon 	 9c 	 75%
01:00Mon 	 9c 	 75%
01:00Mon 	 9c 	 75%
01:00Mon 	 9c 	 75%
01:00Mon 	 9c 	 75%
01:00Mon 	 9c 	 75%
01:00Mon 	 9c 	 75%
01:00Mon 	 9c 	 75%
01:00Mon 	 9c 	 83%
01:00Mon 	 9c 	 83%
01:00Mon 	 9c 	 83%
01:00Mon 	 9c 	 83%
01:00Mon 	 9c 	 83%
01:00Mon 	 9c 	 83%
01:00Mon 	 9c 	 83%
01:00Mon 	 9c 	 83%
01:00Mon 	 9c 	 85%
01:00Mon 	 9c 	 85%
01:00Mon 	 9c 	 85%
01:00Mon 	 9c 	 85%
01:00Mon 	 9c 	 85%
01:00Mon 	 9c 	 85%
01:00Mon 	 9c 	 85%
01:00Mon 	 9c 	 85%
01:00Mon 	 9c 	 85%
01:00Mon 	 9c 	 85%
01:00Mon 	 9c 	 85%
01:00Mon 	 9c 	 85%
01:00Mon 	 9c 	 85%
01:00Mon 	 9c 	 85%
01:00Mon 	 9c 	 85%
01:00Mon 	 9c 	 85%
01:00Mon 	 9c 	 85%
01:00Mon 	 9c 	 85%
01:00Mon 	 9c 	 85%
01:00Mon 	 9c 	 85%
01:00Mon 	 9c 	 85%
01:00Mon 	 9c 	 85%
01:00Mon 	 9c 	 85%
01:00Mon 	 9c 	 85%
01:00Mon 	 9c 	 85%
01:00Mon 	 9c 	 85%
01:00Mon 	 9c 	 85%
01:00Mon 	 9c 	 85%
01:00Mon 	 9c 	 85%
01:00Mon 	 9c 	 85%
01:00Mon 	 9c 	 85%
01:00Mon 	 9c 	 85%
01:00Mon 	 9c 	 85%
01:00Mon 	 9c 	 85%
01:00Mon 	 9c 	 85%
01:00Mon 	 9c 	 85%
01:00Mon 	 9c 	 85%
01:00Mon 	 9c 	 85%
01:00Mon 	 9c 	 85%
01:00Mon 	 9c 	 85%
01:00Mon 	 9c 	 85%
01:00Mon 	 9c 	 89%
01:00Mon 	 9c 	 89%
01:00Mon 	 9c 	 89%
01:00Mon 	 9c 	 89%
01:00Mon 	 9c 	 89%
01:00Mon 	 9c 	 89%
01:00Mon 	 9c 	 89%
01:00Mon 	 9c 	 89%
01:00Mon 	 10c 	 86%
01:00Mon 	 10c 	 86%
01:00Mon 	 10c 	 86%
01:00Mon 	 10c 	 86%
01:00Mon 	 10c 	 86%

02:00Mon 	 9c 	 71%
02:00Mon 	 9c 	 71%
02:00Mon 	 9c 	 71%
02:00Mon 	 9c 	 71%
02:00Mon 	 9c 	 71%
02:00Mon 	 9c 	 71%
02:00Mon 	 9c 	 71%
02:00Mon 	 9c 	 71%
02:00Mon 	 9c 	 71%
02:00Mon 	 9c 	 71%
02:00Mon 	 9c 	 71%
02:00Mon 	 9c 	 71%
02:00Mon 	 9c 	 86%
02:00Mon 	 9c 	 86%
02:00Mon 	 9c 	 86%
02:00Mon 	 9c 	 86%
02:00Mon 	 9c 	 86%
02:00Mon 	 9c 	 86%
02:00Mon 	 9c 	 86%
02:00Mon 	 9c 	 86%
02:00Mon 	 9c 	 87%
02:00Mon 	 9c 	 87%
02:00Mon 	 9c 	 87%
02:00Mon 	 9c 	 87%
02:00Mon 	 9c 	 87%
02:00Mon 	 9c 	 87%
02:00Mon 	 9c 	 87%
02:00Mon 	 9c 	 87%
02:00Mon 	 9c 	 87%
02:00Mon 	 9c 	 87%
02:00Mon 	 9c 	 87%
02:00Mon 	 9c 	 87%
02:00Mon 	 9c 	 87%
02:00Mon 	 9c 	 87%
02:00Mon 	 9c 	 87%
02:00Mon 	 9c 	 87%
02:00Mon 	 9c 	 87%
02:00Mon 	 9c 	 87%
02:00Mon 	 9c 	 87%
02:00Mon 	 9c 	 87%
02:00Mon 	 9c 	 87%
02:00Mon 	 9c 	 87%
02:00Mon 	 9c 	 87%
02:00Mon 	 9c 	 87%
02:00Mon 	 9c 	 87%
02:00Mon 	 9c 	 87%
02:00Mon 	 9c 	 87%
02:00Mon 	 9c 	 87%
02:00Mon 	 9c 	 87%
02:00Mon 	 9c 	 87%
02:00Mon 	 9c 	 87%
02:00Mon 	 9c 	 87%
02:00Mon 	 9c 	 87%
02:00Mon 	 9c 	 87%
02:00Mon 	 9c 	 87%
02:00Mon 	 9c 	 87%
02:00Mon 	 9c 	 87%
02:00Mon 	 9c 	 87%
02:00Mon 	 9c 	 87%
02:00Mon 	 9c 	 87%
02:00Mon 	 9c 	 87%
02:00Mon 	 9c 	 86%
02:00Mon 	 9c 	 86%
02:00Mon 	 9c 	 86%
02:00Mon 	 9c 	 86%
02:00Mon 	 9c 	 86%
02:00Mon 	 9c 	 86%
02:00Mon 	 9c 	 86%
02:00Mon 	 9c 	 86%
02:00Mon 	 10c 	 84%
02:00Mon 	 10c 	 84%
02:00Mon 	 10c 	 84%
02:00Mon 	 10c 	 84%
02:00Mon 	 10c 	 84%

03:00Mon 	 9c 	 65%
03:00Mon 	 9c 	 65%
03:00Mon 	 9c 	 65%
03:00Mon 	 9c 	 65%
03:00Mon 	 9c 	 65%
03:00Mon 	 9c 	 65%
03:00Mon 	 9c 	 65%
03:00Mon 	 9c 	 65%
03:00Mon 	 9c 	 65%
03:00Mon 	 9c 	 65%
03:00Mon 	 9c 	 65%
03:00Mon 	 9c 	 65%
03:00Mon 	 9c 	 83%
03:00Mon 	 9c 	 83%
03:00Mon 	 9c 	 83%
03:00Mon 	 9c 	 83%
03:00Mon 	 9c 	 83%
03:00Mon 	 9c 	 83%
03:00Mon 	 9c 	 83%
03:00Mon 	 9c 	 83%
03:00Mon 	 9c 	 85%
03:00Mon 	 9c 	 85%
03:00Mon 	 9c 	 85%
03:00Mon 	 9c 	 85%
03:00Mon 	 9c 	 85%
03:00Mon 	 9c 	 85%
03:00Mon 	 9c 	 85%
03:00Mon 	 9c 	 85%
03:00Mon 	 9c 	 85%
03:00Mon 	 9c 	 85%
03:00Mon 	 9c 	 85%
03:00Mon 	 9c 	 85%
03:00Mon 	 9c 	 85%
03:00Mon 	 9c 	 85%
03:00Mon 	 9c 	 85%
03:00Mon 	 9c 	 85%
03:00Mon 	 9c 	 85%
03:00Mon 	 9c 	 85%
03:00Mon 	 9c 	 85%
03:00Mon 	 9c 	 85%
03:00Mon 	 9c 	 85%
03:00Mon 	 9c 	 85%
03:00Mon 	 9c 	 85%
03:00Mon 	 9c 	 85%
03:00Mon 	 9c 	 85%
03:00Mon 	 9c 	 85%
03:00Mon 	 9c 	 85%
03:00Mon 	 9c 	 85%
03:00Mon 	 9c 	 85%
03:00Mon 	 9c 	 85%
03:00Mon 	 9c 	 85%
03:00Mon 	 9c 	 85%
03:00Mon 	 9c 	 85%
03:00Mon 	 9c 	 85%
03:00Mon 	 9c 	 85%
03:00Mon 	 9c 	 85%
03:00Mon 	 9c 	 85%
03:00Mon 	 9c 	 85%
03:00Mon 	 9c 	 85%
03:00Mon 	 9c 	 85%
03:00Mon 	 9c 	 85%
03:00Mon 	 9c 	 81%
03:00Mon 	 9c 	 81%
03:00Mon 	 9c 	 81%
03:00Mon 	 9c 	 81%
03:00Mon 	 9c 	 81%
03:00Mon 	 9c 	 81%
03:00Mon 	 9c 	 81%
03:00Mon 	 9c 	 81%
03:00Mon 	 10c 	 78%
03:00Mon 	 10c 	 78%
03:00Mon 	 10c 	 78%
03:00Mon 	 10c 	 78%
03:00Mon 	 10c 	 78%

04:00Mon 	 9c 	 55%
04:00Mon 	 9c 	 55%
04:00Mon 	 9c 	 55%
04:00Mon 	 9c 	 55%
04:00Mon 	 9c 	 55%
04:00Mon 	 9c 	 55%
04:00Mon 	 9c 	 55%
04:00Mon 	 9c 	 55%
04:00Mon 	 9c 	 55%
04:00Mon 	 9c 	 55%
04:00Mon 	 9c 	 55%
04:00Mon 	 9c 	 55%
04:00Mon 	 9c 	 69%
04:00Mon 	 9c 	 69%
04:00Mon 	 9c 	 69%
04:00Mon 	 9c 	 69%
04:00Mon 	 9c 	 69%
04:00Mon 	 9c 	 69%
04:00Mon 	 9c 	 69%
04:00Mon 	 9c 	 69%
04:00Mon 	 9c 	 71%
04:00Mon 	 9c 	 71%
04:00Mon 	 9c 	 71%
04:00Mon 	 9c 	 71%
04:00Mon 	 9c 	 71%
04:00Mon 	 9c 	 71%
04:00Mon 	 9c 	 71%
04:00Mon 	 9c 	 71%
04:00Mon 	 9c 	 71%
04:00Mon 	 9c 	 71%
04:00Mon 	 9c 	 71%
04:00Mon 	 9c 	 71%
04:00Mon 	 9c 	 71%
04:00Mon 	 9c 	 71%
04:00Mon 	 9c 	 71%
04:00Mon 	 9c 	 71%
04:00Mon 	 9c 	 71%
04:00Mon 	 9c 	 71%
04:00Mon 	 9c 	 71%
04:00Mon 	 9c 	 71%
04:00Mon 	 9c 	 71%
04:00Mon 	 9c 	 71%
04:00Mon 	 9c 	 71%
04:00Mon 	 9c 	 71%
04:00Mon 	 9c 	 71%
04:00Mon 	 9c 	 71%
04:00Mon 	 9c 	 71%
04:00Mon 	 9c 	 71%
04:00Mon 	 9c 	 71%
04:00Mon 	 9c 	 71%
04:00Mon 	 9c 	 71%
04:00Mon 	 9c 	 71%
04:00Mon 	 9c 	 71%
04:00Mon 	 9c 	 71%
04:00Mon 	 9c 	 71%
04:00Mon 	 9c 	 71%
04:00Mon 	 9c 	 71%
04:00Mon 	 9c 	 71%
04:00Mon 	 9c 	 71%
04:00Mon 	 9c 	 71%
04:00Mon 	 9c 	 71%
04:00Mon 	 9c 	 70%
04:00Mon 	 9c 	 70%
04:00Mon 	 9c 	 70%
04:00Mon 	 9c 	 70%
04:00Mon 	 9c 	 70%
04:00Mon 	 9c 	 70%
04:00Mon 	 9c 	 70%
04:00Mon 	 9c 	 70%
04:00Mon 	 10c 	 64%
04:00Mon 	 10c 	 64%
04:00Mon 	 10c 	 64%
04:00Mon 	 10c 	 64%
04:00Mon 	 10c 	 64%

05:00Mon 	 9c 	 49%
05:00Mon 	 9c 	 49%
05:00Mon 	 9c 	 49%
05:00Mon 	 9c 	 49%
05:00Mon 	 9c 	 49%
05:00Mon 	 9c 	 49%
05:00Mon 	 9c 	 49%
05:00Mon 	 9c 	 49%
05:00Mon 	 9c 	 49%
05:00Mon 	 9c 	 49%
05:00Mon 	 9c 	 49%
05:00Mon 	 9c 	 49%
05:00Mon 	 9c 	 53%
05:00Mon 	 9c 	 53%
05:00Mon 	 9c 	 53%
05:00Mon 	 9c 	 53%
05:00Mon 	 9c 	 53%
05:00Mon 	 9c 	 53%
05:00Mon 	 9c 	 53%
05:00Mon 	 9c 	 53%
05:00Mon 	 9c 	 57%
05:00Mon 	 9c 	 57%
05:00Mon 	 9c 	 57%
05:00Mon 	 9c 	 57%
05:00Mon 	 9c 	 57%
05:00Mon 	 9c 	 57%
05:00Mon 	 9c 	 57%
05:00Mon 	 9c 	 57%
05:00Mon 	 9c 	 57%
05:00Mon 	 9c 	 57%
05:00Mon 	 9c 	 57%
05:00Mon 	 9c 	 57%
05:00Mon 	 9c 	 57%
05:00Mon 	 9c 	 57%
05:00Mon 	 9c 	 57%
05:00Mon 	 9c 	 57%
05:00Mon 	 9c 	 57%
05:00Mon 	 9c 	 57%
05:00Mon 	 9c 	 57%
05:00Mon 	 9c 	 57%
05:00Mon 	 9c 	 57%
05:00Mon 	 9c 	 57%
05:00Mon 	 9c 	 57%
05:00Mon 	 9c 	 57%
05:00Mon 	 9c 	 57%
05:00Mon 	 9c 	 57%
05:00Mon 	 9c 	 57%
05:00Mon 	 9c 	 57%
05:00Mon 	 9c 	 57%
05:00Mon 	 9c 	 57%
05:00Mon 	 9c 	 57%
05:00Mon 	 9c 	 57%
05:00Mon 	 9c 	 57%
05:00Mon 	 9c 	 57%
05:00Mon 	 9c 	 57%
05:00Mon 	 9c 	 57%
05:00Mon 	 9c 	 57%
05:00Mon 	 9c 	 57%
05:00Mon 	 9c 	 57%
05:00Mon 	 9c 	 57%
05:00Mon 	 9c 	 57%
05:00Mon 	 9c 	 58%
05:00Mon 	 9c 	 58%
05:00Mon 	 9c 	 58%
05:00Mon 	 9c 	 58%
05:00Mon 	 9c 	 58%
05:00Mon 	 9c 	 58%
05:00Mon 	 9c 	 58%
05:00Mon 	 9c 	 58%
05:00Mon 	 10c 	 48%
05:00Mon 	 10c 	 48%
05:00Mon 	 10c 	 48%
05:00Mon 	 10c 	 48%
05:00Mon 	 10c 	 48%



















