00:00Thu 	 15c 	 2%

01:00Thu 	 15c 	 2%
01:00Thu 	 15c 	 2%
01:00Thu 	 15c 	 0%
01:00Thu 	 15c 	 0%
01:00Thu 	 15c 	 0%

02:00Thu 	 15c 	 2%
02:00Thu 	 15c 	 2%
02:00Thu 	 14c 	 1%
02:00Thu 	 14c 	 1%
02:00Thu 	 14c 	 1%
02:00Thu 	 14c 	 0%
02:00Thu 	 14c 	 0%
02:00Thu 	 14c 	 0%
02:00Thu 	 14c 	 0%

03:00Thu 	 14c 	 3%
03:00Thu 	 14c 	 3%
03:00Thu 	 14c 	 2%
03:00Thu 	 14c 	 2%
03:00Thu 	 14c 	 2%
03:00Thu 	 14c 	 1%
03:00Thu 	 14c 	 1%
03:00Thu 	 14c 	 1%
03:00Thu 	 14c 	 1%
03:00Thu 	 14c 	 1%
03:00Thu 	 15c 	 0%
03:00Thu 	 15c 	 0%
03:00Thu 	 15c 	 0%

04:00Thu 	 14c 	 4%
04:00Thu 	 14c 	 4%
04:00Thu 	 14c 	 4%
04:00Thu 	 14c 	 4%
04:00Thu 	 14c 	 4%
04:00Thu 	 14c 	 4%
04:00Thu 	 14c 	 4%
04:00Thu 	 14c 	 4%
04:00Thu 	 14c 	 4%
04:00Thu 	 14c 	 4%
04:00Thu 	 14c 	 1%
04:00Thu 	 14c 	 1%
04:00Thu 	 14c 	 1%
04:00Thu 	 14c 	 1%
04:00Thu 	 14c 	 0%
04:00Thu 	 14c 	 0%
04:00Thu 	 14c 	 0%

05:00Thu 	 13c 	 3%
05:00Thu 	 13c 	 3%
05:00Thu 	 13c 	 3%
05:00Thu 	 13c 	 3%
05:00Thu 	 13c 	 3%
05:00Thu 	 13c 	 3%
05:00Thu 	 13c 	 3%
05:00Thu 	 13c 	 3%
05:00Thu 	 13c 	 3%
05:00Thu 	 13c 	 3%
05:00Thu 	 13c 	 4%
05:00Thu 	 13c 	 4%
05:00Thu 	 13c 	 4%
05:00Thu 	 13c 	 4%
05:00Thu 	 14c 	 1%
05:00Thu 	 14c 	 1%
05:00Thu 	 14c 	 1%
05:00Thu 	 14c 	 1%
05:00Thu 	 14c 	 0%
05:00Thu 	 14c 	 0%
05:00Thu 	 14c 	 0%

06:00Thu 	 13c 	 1%
06:00Thu 	 13c 	 0%
06:00Thu 	 13c 	 0%
06:00Thu 	 13c 	 0%
06:00Thu 	 13c 	 2%
06:00Thu 	 13c 	 2%
06:00Thu 	 13c 	 2%
06:00Thu 	 13c 	 2%
06:00Thu 	 13c 	 2%
06:00Thu 	 13c 	 2%
06:00Thu 	 13c 	 2%
06:00Thu 	 13c 	 2%
06:00Thu 	 13c 	 2%
06:00Thu 	 13c 	 2%
06:00Thu 	 13c 	 3%
06:00Thu 	 13c 	 3%
06:00Thu 	 13c 	 3%
06:00Thu 	 13c 	 3%
06:00Thu 	 13c 	 3%
06:00Thu 	 13c 	 3%
06:00Thu 	 13c 	 3%
06:00Thu 	 13c 	 3%
06:00Thu 	 13c 	 1%
06:00Thu 	 13c 	 1%
06:00Thu 	 13c 	 1%

07:00Thu 	 13c 	 4%
07:00Thu 	 13c 	 1%
07:00Thu 	 13c 	 1%
07:00Thu 	 13c 	 1%
07:00Thu 	 13c 	 1%
07:00Thu 	 13c 	 0%
07:00Thu 	 13c 	 0%
07:00Thu 	 13c 	 0%
07:00Thu 	 13c 	 4%
07:00Thu 	 13c 	 4%
07:00Thu 	 13c 	 4%
07:00Thu 	 13c 	 4%
07:00Thu 	 13c 	 4%
07:00Thu 	 13c 	 4%
07:00Thu 	 13c 	 4%
07:00Thu 	 13c 	 4%
07:00Thu 	 13c 	 4%
07:00Thu 	 13c 	 4%
07:00Thu 	 13c 	 4%
07:00Thu 	 13c 	 4%
07:00Thu 	 13c 	 4%
07:00Thu 	 13c 	 4%
07:00Thu 	 13c 	 4%
07:00Thu 	 13c 	 4%
07:00Thu 	 13c 	 4%
07:00Thu 	 13c 	 4%
07:00Thu 	 13c 	 4%
07:00Thu 	 13c 	 4%
07:00Thu 	 13c 	 4%

08:00Thu 	 13c 	 5%
08:00Thu 	 13c 	 5%
08:00Thu 	 13c 	 5%
08:00Thu 	 13c 	 5%
08:00Thu 	 13c 	 5%
08:00Thu 	 13c 	 1%
08:00Thu 	 13c 	 1%
08:00Thu 	 13c 	 1%
08:00Thu 	 13c 	 1%
08:00Thu 	 14c 	 0%
08:00Thu 	 14c 	 0%
08:00Thu 	 14c 	 0%
08:00Thu 	 13c 	 6%
08:00Thu 	 13c 	 6%
08:00Thu 	 13c 	 6%
08:00Thu 	 13c 	 6%
08:00Thu 	 13c 	 6%
08:00Thu 	 13c 	 6%
08:00Thu 	 13c 	 6%
08:00Thu 	 13c 	 6%
08:00Thu 	 13c 	 6%
08:00Thu 	 13c 	 6%
08:00Thu 	 13c 	 6%
08:00Thu 	 13c 	 6%
08:00Thu 	 13c 	 6%
08:00Thu 	 13c 	 6%
08:00Thu 	 13c 	 6%
08:00Thu 	 13c 	 6%
08:00Thu 	 13c 	 6%
08:00Thu 	 13c 	 6%
08:00Thu 	 13c 	 5%
08:00Thu 	 13c 	 5%
08:00Thu 	 13c 	 5%

09:00Thu 	 14c 	 6%
09:00Thu 	 14c 	 5%
09:00Thu 	 14c 	 5%
09:00Thu 	 14c 	 5%
09:00Thu 	 14c 	 5%
09:00Thu 	 14c 	 5%
09:00Thu 	 14c 	 5%
09:00Thu 	 14c 	 5%
09:00Thu 	 14c 	 5%
09:00Thu 	 14c 	 1%
09:00Thu 	 14c 	 1%
09:00Thu 	 14c 	 1%
09:00Thu 	 14c 	 1%
09:00Thu 	 14c 	 0%
09:00Thu 	 14c 	 0%
09:00Thu 	 14c 	 6%
09:00Thu 	 14c 	 6%
09:00Thu 	 14c 	 6%
09:00Thu 	 14c 	 6%
09:00Thu 	 14c 	 6%
09:00Thu 	 14c 	 6%
09:00Thu 	 14c 	 6%
09:00Thu 	 14c 	 6%
09:00Thu 	 14c 	 6%
09:00Thu 	 14c 	 6%
09:00Thu 	 14c 	 6%
09:00Thu 	 14c 	 6%
09:00Thu 	 14c 	 6%
09:00Thu 	 14c 	 6%
09:00Thu 	 14c 	 6%
09:00Thu 	 14c 	 6%
09:00Thu 	 14c 	 6%
09:00Thu 	 14c 	 6%
09:00Thu 	 14c 	 6%
09:00Thu 	 14c 	 6%
09:00Thu 	 14c 	 6%

10:00Thu 	 15c 	 6%
10:00Thu 	 15c 	 6%
10:00Thu 	 15c 	 6%
10:00Thu 	 15c 	 6%
10:00Thu 	 15c 	 6%
10:00Thu 	 15c 	 5%
10:00Thu 	 15c 	 5%
10:00Thu 	 15c 	 5%
10:00Thu 	 15c 	 5%
10:00Thu 	 15c 	 5%
10:00Thu 	 15c 	 5%
10:00Thu 	 15c 	 5%
10:00Thu 	 15c 	 5%
10:00Thu 	 16c 	 1%
10:00Thu 	 16c 	 1%
10:00Thu 	 16c 	 1%
10:00Thu 	 16c 	 1%
10:00Thu 	 15c 	 1%
10:00Thu 	 15c 	 1%
10:00Thu 	 15c 	 1%
10:00Thu 	 15c 	 6%
10:00Thu 	 15c 	 6%
10:00Thu 	 15c 	 6%
10:00Thu 	 15c 	 6%
10:00Thu 	 15c 	 6%
10:00Thu 	 15c 	 6%
10:00Thu 	 15c 	 6%
10:00Thu 	 15c 	 6%
10:00Thu 	 15c 	 6%
10:00Thu 	 15c 	 6%
10:00Thu 	 15c 	 6%
10:00Thu 	 15c 	 6%
10:00Thu 	 15c 	 6%
10:00Thu 	 15c 	 6%
10:00Thu 	 15c 	 6%
10:00Thu 	 15c 	 6%
10:00Thu 	 15c 	 6%
10:00Thu 	 15c 	 6%
10:00Thu 	 15c 	 6%
10:00Thu 	 15c 	 6%
10:00Thu 	 15c 	 6%

11:00Thu 	 17c 	 6%
11:00Thu 	 17c 	 6%
11:00Thu 	 17c 	 6%
11:00Thu 	 17c 	 6%
11:00Thu 	 17c 	 6%
11:00Thu 	 17c 	 5%
11:00Thu 	 17c 	 5%
11:00Thu 	 17c 	 5%
11:00Thu 	 17c 	 5%
11:00Thu 	 17c 	 5%
11:00Thu 	 17c 	 5%
11:00Thu 	 17c 	 5%
11:00Thu 	 17c 	 5%
11:00Thu 	 17c 	 4%
11:00Thu 	 17c 	 4%
11:00Thu 	 17c 	 4%
11:00Thu 	 17c 	 4%
11:00Thu 	 17c 	 2%
11:00Thu 	 17c 	 2%
11:00Thu 	 17c 	 2%
11:00Thu 	 17c 	 2%
11:00Thu 	 16c 	 0%
11:00Thu 	 16c 	 0%
11:00Thu 	 16c 	 0%
11:00Thu 	 17c 	 6%
11:00Thu 	 17c 	 6%
11:00Thu 	 17c 	 6%
11:00Thu 	 17c 	 6%
11:00Thu 	 17c 	 6%
11:00Thu 	 17c 	 6%
11:00Thu 	 17c 	 6%
11:00Thu 	 17c 	 6%
11:00Thu 	 17c 	 6%
11:00Thu 	 17c 	 6%
11:00Thu 	 17c 	 6%
11:00Thu 	 17c 	 6%
11:00Thu 	 17c 	 6%
11:00Thu 	 17c 	 6%
11:00Thu 	 17c 	 6%
11:00Thu 	 17c 	 6%
11:00Thu 	 17c 	 6%
11:00Thu 	 17c 	 6%
11:00Thu 	 17c 	 6%
11:00Thu 	 17c 	 6%
11:00Thu 	 17c 	 6%

12:00Thu 	 18c 	 5%
12:00Thu 	 18c 	 5%
12:00Thu 	 18c 	 5%
12:00Thu 	 18c 	 5%
12:00Thu 	 18c 	 5%
12:00Thu 	 18c 	 5%
12:00Thu 	 18c 	 5%
12:00Thu 	 18c 	 5%
12:00Thu 	 18c 	 5%
12:00Thu 	 18c 	 5%
12:00Thu 	 18c 	 5%
12:00Thu 	 18c 	 5%
12:00Thu 	 18c 	 5%
12:00Thu 	 18c 	 4%
12:00Thu 	 18c 	 4%
12:00Thu 	 18c 	 4%
12:00Thu 	 18c 	 4%
12:00Thu 	 18c 	 4%
12:00Thu 	 18c 	 4%
12:00Thu 	 18c 	 4%
12:00Thu 	 18c 	 4%
12:00Thu 	 18c 	 0%
12:00Thu 	 18c 	 0%
12:00Thu 	 18c 	 0%
12:00Thu 	 18c 	 0%
12:00Thu 	 18c 	 0%
12:00Thu 	 18c 	 0%
12:00Thu 	 18c 	 0%
12:00Thu 	 18c 	 5%
12:00Thu 	 18c 	 5%
12:00Thu 	 18c 	 5%
12:00Thu 	 18c 	 5%
12:00Thu 	 18c 	 5%
12:00Thu 	 18c 	 5%
12:00Thu 	 18c 	 5%
12:00Thu 	 18c 	 5%
12:00Thu 	 18c 	 5%
12:00Thu 	 18c 	 5%
12:00Thu 	 18c 	 5%
12:00Thu 	 18c 	 5%
12:00Thu 	 18c 	 5%
12:00Thu 	 18c 	 5%
12:00Thu 	 18c 	 5%
12:00Thu 	 18c 	 5%
12:00Thu 	 18c 	 5%
12:00Thu 	 18c 	 5%
12:00Thu 	 18c 	 5%
12:00Thu 	 18c 	 5%
12:00Thu 	 18c 	 5%

13:00Thu 	 19c 	 4%
13:00Thu 	 19c 	 4%
13:00Thu 	 19c 	 4%
13:00Thu 	 19c 	 4%
13:00Thu 	 19c 	 4%
13:00Thu 	 19c 	 4%
13:00Thu 	 19c 	 4%
13:00Thu 	 19c 	 4%
13:00Thu 	 19c 	 4%
13:00Thu 	 19c 	 4%
13:00Thu 	 19c 	 4%
13:00Thu 	 19c 	 4%
13:00Thu 	 19c 	 4%
13:00Thu 	 19c 	 3%
13:00Thu 	 19c 	 3%
13:00Thu 	 19c 	 3%
13:00Thu 	 19c 	 3%
13:00Thu 	 19c 	 3%
13:00Thu 	 19c 	 3%
13:00Thu 	 19c 	 3%
13:00Thu 	 19c 	 3%
13:00Thu 	 19c 	 2%
13:00Thu 	 19c 	 2%
13:00Thu 	 19c 	 2%
13:00Thu 	 19c 	 2%
13:00Thu 	 19c 	 2%
13:00Thu 	 19c 	 2%
13:00Thu 	 19c 	 2%
13:00Thu 	 19c 	 2%
13:00Thu 	 19c 	 0%
13:00Thu 	 19c 	 0%
13:00Thu 	 19c 	 0%
13:00Thu 	 19c 	 4%
13:00Thu 	 19c 	 4%
13:00Thu 	 19c 	 4%
13:00Thu 	 19c 	 4%
13:00Thu 	 19c 	 4%
13:00Thu 	 19c 	 4%
13:00Thu 	 19c 	 4%
13:00Thu 	 19c 	 4%
13:00Thu 	 19c 	 4%
13:00Thu 	 19c 	 4%
13:00Thu 	 19c 	 4%
13:00Thu 	 19c 	 4%
13:00Thu 	 19c 	 4%
13:00Thu 	 19c 	 4%
13:00Thu 	 19c 	 4%
13:00Thu 	 19c 	 4%
13:00Thu 	 19c 	 4%
13:00Thu 	 19c 	 4%
13:00Thu 	 19c 	 4%
13:00Thu 	 19c 	 4%
13:00Thu 	 19c 	 4%

14:00Thu 	 20c 	 2%
14:00Thu 	 20c 	 2%
14:00Thu 	 20c 	 2%
14:00Thu 	 20c 	 2%
14:00Thu 	 20c 	 2%
14:00Thu 	 20c 	 2%
14:00Thu 	 20c 	 2%
14:00Thu 	 20c 	 2%
14:00Thu 	 20c 	 2%
14:00Thu 	 20c 	 2%
14:00Thu 	 20c 	 2%
14:00Thu 	 20c 	 2%
14:00Thu 	 20c 	 2%
14:00Thu 	 20c 	 3%
14:00Thu 	 20c 	 3%
14:00Thu 	 20c 	 3%
14:00Thu 	 20c 	 3%
14:00Thu 	 20c 	 2%
14:00Thu 	 20c 	 2%
14:00Thu 	 20c 	 2%
14:00Thu 	 20c 	 2%
14:00Thu 	 20c 	 2%
14:00Thu 	 20c 	 2%
14:00Thu 	 20c 	 2%
14:00Thu 	 20c 	 2%
14:00Thu 	 20c 	 2%
14:00Thu 	 20c 	 2%
14:00Thu 	 20c 	 2%
14:00Thu 	 20c 	 2%
14:00Thu 	 20c 	 1%
14:00Thu 	 20c 	 1%
14:00Thu 	 20c 	 1%
14:00Thu 	 20c 	 1%
14:00Thu 	 20c 	 1%
14:00Thu 	 20c 	 1%
14:00Thu 	 20c 	 1%
14:00Thu 	 20c 	 2%
14:00Thu 	 20c 	 2%
14:00Thu 	 20c 	 2%
14:00Thu 	 20c 	 2%
14:00Thu 	 20c 	 2%
14:00Thu 	 20c 	 2%
14:00Thu 	 20c 	 2%
14:00Thu 	 20c 	 2%
14:00Thu 	 20c 	 2%
14:00Thu 	 20c 	 2%
14:00Thu 	 20c 	 2%
14:00Thu 	 20c 	 2%
14:00Thu 	 20c 	 2%
14:00Thu 	 20c 	 2%
14:00Thu 	 20c 	 2%
14:00Thu 	 20c 	 2%
14:00Thu 	 20c 	 2%
14:00Thu 	 20c 	 2%
14:00Thu 	 20c 	 2%
14:00Thu 	 20c 	 2%
14:00Thu 	 20c 	 2%

15:00Thu 	 20c 	 1%
15:00Thu 	 20c 	 1%
15:00Thu 	 20c 	 1%
15:00Thu 	 20c 	 1%
15:00Thu 	 20c 	 1%
15:00Thu 	 20c 	 1%
15:00Thu 	 20c 	 1%
15:00Thu 	 20c 	 1%
15:00Thu 	 20c 	 1%
15:00Thu 	 20c 	 1%
15:00Thu 	 20c 	 1%
15:00Thu 	 20c 	 1%
15:00Thu 	 20c 	 1%
15:00Thu 	 20c 	 2%
15:00Thu 	 20c 	 2%
15:00Thu 	 20c 	 2%
15:00Thu 	 20c 	 2%
15:00Thu 	 20c 	 2%
15:00Thu 	 20c 	 2%
15:00Thu 	 20c 	 2%
15:00Thu 	 20c 	 2%
15:00Thu 	 20c 	 2%
15:00Thu 	 20c 	 2%
15:00Thu 	 20c 	 2%
15:00Thu 	 20c 	 2%
15:00Thu 	 20c 	 2%
15:00Thu 	 20c 	 2%
15:00Thu 	 20c 	 2%
15:00Thu 	 20c 	 2%
15:00Thu 	 20c 	 2%
15:00Thu 	 20c 	 2%
15:00Thu 	 20c 	 2%
15:00Thu 	 20c 	 2%
15:00Thu 	 20c 	 1%
15:00Thu 	 20c 	 1%
15:00Thu 	 20c 	 1%
15:00Thu 	 20c 	 1%
15:00Thu 	 20c 	 0%
15:00Thu 	 20c 	 0%
15:00Thu 	 20c 	 0%
15:00Thu 	 20c 	 1%
15:00Thu 	 20c 	 1%
15:00Thu 	 20c 	 1%
15:00Thu 	 20c 	 1%
15:00Thu 	 20c 	 1%
15:00Thu 	 20c 	 1%
15:00Thu 	 20c 	 1%
15:00Thu 	 20c 	 1%
15:00Thu 	 20c 	 1%
15:00Thu 	 20c 	 1%
15:00Thu 	 20c 	 1%
15:00Thu 	 20c 	 1%
15:00Thu 	 20c 	 1%
15:00Thu 	 20c 	 1%
15:00Thu 	 20c 	 1%
15:00Thu 	 20c 	 1%
15:00Thu 	 20c 	 1%
15:00Thu 	 20c 	 1%
15:00Thu 	 20c 	 1%
15:00Thu 	 20c 	 1%
15:00Thu 	 20c 	 1%

16:00Thu 	 20c 	 2%
16:00Thu 	 20c 	 2%
16:00Thu 	 20c 	 2%
16:00Thu 	 20c 	 2%
16:00Thu 	 20c 	 2%
16:00Thu 	 20c 	 2%
16:00Thu 	 20c 	 2%
16:00Thu 	 20c 	 2%
16:00Thu 	 20c 	 2%
16:00Thu 	 20c 	 2%
16:00Thu 	 20c 	 2%
16:00Thu 	 20c 	 2%
16:00Thu 	 20c 	 2%
16:00Thu 	 20c 	 3%
16:00Thu 	 20c 	 3%
16:00Thu 	 20c 	 3%
16:00Thu 	 20c 	 3%
16:00Thu 	 21c 	 3%
16:00Thu 	 21c 	 3%
16:00Thu 	 21c 	 3%
16:00Thu 	 21c 	 3%
16:00Thu 	 21c 	 3%
16:00Thu 	 21c 	 3%
16:00Thu 	 21c 	 3%
16:00Thu 	 21c 	 3%
16:00Thu 	 21c 	 3%
16:00Thu 	 21c 	 3%
16:00Thu 	 21c 	 3%
16:00Thu 	 21c 	 3%
16:00Thu 	 20c 	 3%
16:00Thu 	 20c 	 3%
16:00Thu 	 20c 	 3%
16:00Thu 	 20c 	 3%
16:00Thu 	 21c 	 3%
16:00Thu 	 21c 	 3%
16:00Thu 	 21c 	 3%
16:00Thu 	 21c 	 3%
16:00Thu 	 20c 	 1%
16:00Thu 	 20c 	 1%
16:00Thu 	 20c 	 1%
16:00Thu 	 20c 	 1%
16:00Thu 	 20c 	 1%
16:00Thu 	 20c 	 1%
16:00Thu 	 20c 	 1%
16:00Thu 	 20c 	 2%
16:00Thu 	 20c 	 2%
16:00Thu 	 20c 	 2%
16:00Thu 	 20c 	 2%
16:00Thu 	 20c 	 2%
16:00Thu 	 20c 	 2%
16:00Thu 	 20c 	 2%
16:00Thu 	 20c 	 2%
16:00Thu 	 20c 	 2%
16:00Thu 	 20c 	 2%
16:00Thu 	 20c 	 2%
16:00Thu 	 20c 	 2%
16:00Thu 	 20c 	 2%
16:00Thu 	 20c 	 2%
16:00Thu 	 20c 	 2%
16:00Thu 	 20c 	 2%
16:00Thu 	 20c 	 2%
16:00Thu 	 20c 	 2%
16:00Thu 	 20c 	 2%
16:00Thu 	 20c 	 2%
16:00Thu 	 20c 	 2%

17:00Thu 	 20c 	 3%
17:00Thu 	 20c 	 3%
17:00Thu 	 20c 	 3%
17:00Thu 	 20c 	 3%
17:00Thu 	 20c 	 3%
17:00Thu 	 20c 	 3%
17:00Thu 	 20c 	 3%
17:00Thu 	 20c 	 3%
17:00Thu 	 20c 	 3%
17:00Thu 	 20c 	 3%
17:00Thu 	 20c 	 3%
17:00Thu 	 20c 	 3%
17:00Thu 	 20c 	 3%
17:00Thu 	 20c 	 3%
17:00Thu 	 20c 	 3%
17:00Thu 	 20c 	 3%
17:00Thu 	 20c 	 3%
17:00Thu 	 20c 	 3%
17:00Thu 	 20c 	 3%
17:00Thu 	 20c 	 3%
17:00Thu 	 20c 	 3%
17:00Thu 	 20c 	 3%
17:00Thu 	 20c 	 3%
17:00Thu 	 20c 	 3%
17:00Thu 	 20c 	 3%
17:00Thu 	 20c 	 3%
17:00Thu 	 20c 	 3%
17:00Thu 	 20c 	 3%
17:00Thu 	 20c 	 3%
17:00Thu 	 20c 	 3%
17:00Thu 	 20c 	 3%
17:00Thu 	 20c 	 3%
17:00Thu 	 20c 	 3%
17:00Thu 	 20c 	 3%
17:00Thu 	 20c 	 3%
17:00Thu 	 20c 	 3%
17:00Thu 	 20c 	 3%
17:00Thu 	 20c 	 2%
17:00Thu 	 20c 	 2%
17:00Thu 	 20c 	 2%
17:00Thu 	 20c 	 2%
17:00Thu 	 20c 	 1%
17:00Thu 	 20c 	 1%
17:00Thu 	 20c 	 1%
17:00Thu 	 20c 	 1%
17:00Thu 	 20c 	 0%
17:00Thu 	 20c 	 0%
17:00Thu 	 20c 	 0%
17:00Thu 	 20c 	 3%
17:00Thu 	 20c 	 3%
17:00Thu 	 20c 	 3%
17:00Thu 	 20c 	 3%
17:00Thu 	 20c 	 3%
17:00Thu 	 20c 	 3%
17:00Thu 	 20c 	 3%
17:00Thu 	 20c 	 3%
17:00Thu 	 20c 	 3%
17:00Thu 	 20c 	 3%
17:00Thu 	 20c 	 3%
17:00Thu 	 20c 	 3%
17:00Thu 	 20c 	 3%
17:00Thu 	 20c 	 3%
17:00Thu 	 20c 	 3%
17:00Thu 	 20c 	 3%
17:00Thu 	 20c 	 3%
17:00Thu 	 20c 	 3%
17:00Thu 	 20c 	 3%
17:00Thu 	 20c 	 3%
17:00Thu 	 20c 	 3%

18:00Thu 	 20c 	 3%
18:00Thu 	 20c 	 3%
18:00Thu 	 20c 	 3%
18:00Thu 	 20c 	 3%
18:00Thu 	 20c 	 3%
18:00Thu 	 20c 	 3%
18:00Thu 	 20c 	 3%
18:00Thu 	 20c 	 3%
18:00Thu 	 20c 	 3%
18:00Thu 	 20c 	 3%
18:00Thu 	 20c 	 3%
18:00Thu 	 20c 	 3%
18:00Thu 	 20c 	 3%
18:00Thu 	 20c 	 3%
18:00Thu 	 20c 	 3%
18:00Thu 	 20c 	 3%
18:00Thu 	 20c 	 3%
18:00Thu 	 20c 	 3%
18:00Thu 	 20c 	 3%
18:00Thu 	 20c 	 3%
18:00Thu 	 20c 	 3%
18:00Thu 	 20c 	 3%
18:00Thu 	 20c 	 3%
18:00Thu 	 20c 	 3%
18:00Thu 	 20c 	 3%
18:00Thu 	 20c 	 3%
18:00Thu 	 20c 	 3%
18:00Thu 	 20c 	 3%
18:00Thu 	 20c 	 3%
18:00Thu 	 20c 	 3%
18:00Thu 	 20c 	 3%
18:00Thu 	 20c 	 3%
18:00Thu 	 20c 	 3%
18:00Thu 	 20c 	 3%
18:00Thu 	 20c 	 3%
18:00Thu 	 20c 	 3%
18:00Thu 	 20c 	 3%
18:00Thu 	 20c 	 2%
18:00Thu 	 20c 	 2%
18:00Thu 	 20c 	 2%
18:00Thu 	 20c 	 2%
18:00Thu 	 20c 	 2%
18:00Thu 	 20c 	 2%
18:00Thu 	 20c 	 2%
18:00Thu 	 20c 	 2%
18:00Thu 	 20c 	 1%
18:00Thu 	 20c 	 1%
18:00Thu 	 20c 	 1%
18:00Thu 	 20c 	 1%
18:00Thu 	 20c 	 0%
18:00Thu 	 20c 	 0%
18:00Thu 	 20c 	 0%
18:00Thu 	 20c 	 3%
18:00Thu 	 20c 	 3%
18:00Thu 	 20c 	 3%
18:00Thu 	 20c 	 3%
18:00Thu 	 20c 	 3%
18:00Thu 	 20c 	 3%
18:00Thu 	 20c 	 3%
18:00Thu 	 20c 	 3%
18:00Thu 	 20c 	 3%
18:00Thu 	 20c 	 3%
18:00Thu 	 20c 	 3%
18:00Thu 	 20c 	 3%
18:00Thu 	 20c 	 3%
18:00Thu 	 20c 	 3%
18:00Thu 	 20c 	 3%
18:00Thu 	 20c 	 3%
18:00Thu 	 20c 	 3%
18:00Thu 	 20c 	 3%
18:00Thu 	 20c 	 3%
18:00Thu 	 20c 	 3%
18:00Thu 	 20c 	 3%

19:00Thu 	 19c 	 2%
19:00Thu 	 19c 	 2%
19:00Thu 	 19c 	 2%
19:00Thu 	 19c 	 2%
19:00Thu 	 19c 	 2%
19:00Thu 	 19c 	 2%
19:00Thu 	 19c 	 2%
19:00Thu 	 19c 	 2%
19:00Thu 	 19c 	 2%
19:00Thu 	 19c 	 2%
19:00Thu 	 19c 	 2%
19:00Thu 	 19c 	 2%
19:00Thu 	 19c 	 2%
19:00Thu 	 19c 	 1%
19:00Thu 	 19c 	 1%
19:00Thu 	 19c 	 1%
19:00Thu 	 19c 	 1%
19:00Thu 	 19c 	 1%
19:00Thu 	 19c 	 1%
19:00Thu 	 19c 	 1%
19:00Thu 	 19c 	 1%
19:00Thu 	 19c 	 1%
19:00Thu 	 19c 	 1%
19:00Thu 	 19c 	 1%
19:00Thu 	 19c 	 1%
19:00Thu 	 19c 	 1%
19:00Thu 	 19c 	 1%
19:00Thu 	 19c 	 1%
19:00Thu 	 19c 	 1%
19:00Thu 	 19c 	 1%
19:00Thu 	 19c 	 1%
19:00Thu 	 19c 	 1%
19:00Thu 	 19c 	 1%
19:00Thu 	 19c 	 1%
19:00Thu 	 19c 	 1%
19:00Thu 	 19c 	 1%
19:00Thu 	 19c 	 1%
19:00Thu 	 19c 	 1%
19:00Thu 	 19c 	 1%
19:00Thu 	 19c 	 1%
19:00Thu 	 19c 	 1%
19:00Thu 	 19c 	 1%
19:00Thu 	 19c 	 1%
19:00Thu 	 19c 	 1%
19:00Thu 	 19c 	 1%
19:00Thu 	 19c 	 1%
19:00Thu 	 19c 	 1%
19:00Thu 	 19c 	 1%
19:00Thu 	 19c 	 1%
19:00Thu 	 19c 	 0%
19:00Thu 	 19c 	 0%
19:00Thu 	 19c 	 0%
19:00Thu 	 19c 	 0%
19:00Thu 	 19c 	 0%
19:00Thu 	 19c 	 0%
19:00Thu 	 19c 	 2%
19:00Thu 	 19c 	 2%
19:00Thu 	 19c 	 2%
19:00Thu 	 19c 	 2%
19:00Thu 	 19c 	 2%
19:00Thu 	 19c 	 2%
19:00Thu 	 19c 	 2%
19:00Thu 	 19c 	 2%
19:00Thu 	 19c 	 2%
19:00Thu 	 19c 	 2%
19:00Thu 	 19c 	 2%
19:00Thu 	 19c 	 2%
19:00Thu 	 19c 	 2%
19:00Thu 	 19c 	 2%
19:00Thu 	 19c 	 2%
19:00Thu 	 19c 	 2%
19:00Thu 	 19c 	 2%
19:00Thu 	 19c 	 2%
19:00Thu 	 19c 	 2%
19:00Thu 	 19c 	 2%
19:00Thu 	 19c 	 2%

20:00Thu 	 17c 	 1%
20:00Thu 	 17c 	 1%
20:00Thu 	 17c 	 1%
20:00Thu 	 17c 	 1%
20:00Thu 	 17c 	 1%
20:00Thu 	 17c 	 1%
20:00Thu 	 17c 	 1%
20:00Thu 	 17c 	 1%
20:00Thu 	 17c 	 1%
20:00Thu 	 17c 	 1%
20:00Thu 	 17c 	 1%
20:00Thu 	 17c 	 1%
20:00Thu 	 17c 	 1%
20:00Thu 	 18c 	 0%
20:00Thu 	 18c 	 0%
20:00Thu 	 18c 	 0%
20:00Thu 	 18c 	 0%
20:00Thu 	 18c 	 0%
20:00Thu 	 18c 	 0%
20:00Thu 	 18c 	 0%
20:00Thu 	 18c 	 0%
20:00Thu 	 18c 	 0%
20:00Thu 	 18c 	 0%
20:00Thu 	 18c 	 0%
20:00Thu 	 18c 	 0%
20:00Thu 	 18c 	 0%
20:00Thu 	 18c 	 0%
20:00Thu 	 18c 	 0%
20:00Thu 	 18c 	 0%
20:00Thu 	 18c 	 0%
20:00Thu 	 18c 	 0%
20:00Thu 	 18c 	 0%
20:00Thu 	 18c 	 0%
20:00Thu 	 18c 	 0%
20:00Thu 	 18c 	 0%
20:00Thu 	 18c 	 0%
20:00Thu 	 18c 	 0%
20:00Thu 	 18c 	 0%
20:00Thu 	 18c 	 0%
20:00Thu 	 18c 	 0%
20:00Thu 	 18c 	 0%
20:00Thu 	 18c 	 0%
20:00Thu 	 18c 	 0%
20:00Thu 	 18c 	 0%
20:00Thu 	 18c 	 0%
20:00Thu 	 18c 	 0%
20:00Thu 	 18c 	 0%
20:00Thu 	 18c 	 0%
20:00Thu 	 18c 	 0%
20:00Thu 	 18c 	 1%
20:00Thu 	 18c 	 1%
20:00Thu 	 18c 	 1%
20:00Thu 	 18c 	 1%
20:00Thu 	 18c 	 0%
20:00Thu 	 18c 	 0%
20:00Thu 	 18c 	 0%
20:00Thu 	 18c 	 0%
20:00Thu 	 17c 	 0%
20:00Thu 	 17c 	 0%
20:00Thu 	 17c 	 0%
20:00Thu 	 17c 	 1%
20:00Thu 	 17c 	 1%
20:00Thu 	 17c 	 1%
20:00Thu 	 17c 	 1%
20:00Thu 	 17c 	 1%
20:00Thu 	 17c 	 1%
20:00Thu 	 17c 	 1%
20:00Thu 	 17c 	 1%
20:00Thu 	 17c 	 1%
20:00Thu 	 17c 	 1%
20:00Thu 	 17c 	 1%
20:00Thu 	 17c 	 1%
20:00Thu 	 17c 	 1%
20:00Thu 	 17c 	 1%
20:00Thu 	 17c 	 1%
20:00Thu 	 17c 	 1%
20:00Thu 	 17c 	 1%
20:00Thu 	 17c 	 1%
20:00Thu 	 17c 	 1%
20:00Thu 	 17c 	 1%
20:00Thu 	 17c 	 1%

21:00Thu 	 16c 	 1%
21:00Thu 	 16c 	 1%
21:00Thu 	 16c 	 1%
21:00Thu 	 16c 	 1%
21:00Thu 	 16c 	 1%
21:00Thu 	 16c 	 1%
21:00Thu 	 16c 	 1%
21:00Thu 	 16c 	 1%
21:00Thu 	 16c 	 1%
21:00Thu 	 16c 	 1%
21:00Thu 	 16c 	 1%
21:00Thu 	 16c 	 1%
21:00Thu 	 16c 	 1%
21:00Thu 	 17c 	 0%
21:00Thu 	 17c 	 0%
21:00Thu 	 17c 	 0%
21:00Thu 	 17c 	 0%
21:00Thu 	 17c 	 0%
21:00Thu 	 17c 	 0%
21:00Thu 	 17c 	 0%
21:00Thu 	 17c 	 0%
21:00Thu 	 17c 	 0%
21:00Thu 	 17c 	 0%
21:00Thu 	 17c 	 0%
21:00Thu 	 17c 	 0%
21:00Thu 	 17c 	 0%
21:00Thu 	 17c 	 0%
21:00Thu 	 17c 	 0%
21:00Thu 	 17c 	 0%
21:00Thu 	 17c 	 0%
21:00Thu 	 17c 	 0%
21:00Thu 	 17c 	 0%
21:00Thu 	 17c 	 0%
21:00Thu 	 17c 	 0%
21:00Thu 	 17c 	 0%
21:00Thu 	 17c 	 0%
21:00Thu 	 17c 	 0%
21:00Thu 	 17c 	 0%
21:00Thu 	 17c 	 0%
21:00Thu 	 17c 	 0%
21:00Thu 	 17c 	 0%
21:00Thu 	 17c 	 0%
21:00Thu 	 17c 	 0%
21:00Thu 	 17c 	 0%
21:00Thu 	 17c 	 0%
21:00Thu 	 17c 	 0%
21:00Thu 	 17c 	 0%
21:00Thu 	 17c 	 0%
21:00Thu 	 17c 	 0%
21:00Thu 	 17c 	 0%
21:00Thu 	 17c 	 0%
21:00Thu 	 17c 	 0%
21:00Thu 	 17c 	 0%
21:00Thu 	 17c 	 0%
21:00Thu 	 17c 	 0%
21:00Thu 	 17c 	 0%
21:00Thu 	 17c 	 0%
21:00Thu 	 16c 	 0%
21:00Thu 	 16c 	 0%
21:00Thu 	 16c 	 0%
21:00Thu 	 16c 	 0%
21:00Thu 	 16c 	 0%
21:00Thu 	 16c 	 0%
21:00Thu 	 16c 	 0%
21:00Thu 	 16c 	 1%
21:00Thu 	 16c 	 1%
21:00Thu 	 16c 	 1%
21:00Thu 	 16c 	 1%
21:00Thu 	 16c 	 1%
21:00Thu 	 16c 	 1%
21:00Thu 	 16c 	 1%
21:00Thu 	 16c 	 1%
21:00Thu 	 16c 	 1%
21:00Thu 	 16c 	 1%
21:00Thu 	 16c 	 1%
21:00Thu 	 16c 	 1%
21:00Thu 	 16c 	 1%
21:00Thu 	 16c 	 1%
21:00Thu 	 16c 	 1%
21:00Thu 	 16c 	 1%
21:00Thu 	 16c 	 1%
21:00Thu 	 16c 	 1%
21:00Thu 	 16c 	 1%
21:00Thu 	 16c 	 1%
21:00Thu 	 16c 	 1%

22:00Thu 	 15c 	 1%
22:00Thu 	 15c 	 1%
22:00Thu 	 15c 	 1%
22:00Thu 	 15c 	 1%
22:00Thu 	 15c 	 1%
22:00Thu 	 15c 	 1%
22:00Thu 	 15c 	 1%
22:00Thu 	 15c 	 1%
22:00Thu 	 15c 	 1%
22:00Thu 	 15c 	 1%
22:00Thu 	 15c 	 1%
22:00Thu 	 15c 	 1%
22:00Thu 	 15c 	 1%
22:00Thu 	 15c 	 0%
22:00Thu 	 15c 	 0%
22:00Thu 	 15c 	 0%
22:00Thu 	 15c 	 0%
22:00Thu 	 15c 	 0%
22:00Thu 	 15c 	 0%
22:00Thu 	 15c 	 0%
22:00Thu 	 15c 	 0%
22:00Thu 	 15c 	 0%
22:00Thu 	 15c 	 0%
22:00Thu 	 15c 	 0%
22:00Thu 	 15c 	 0%
22:00Thu 	 15c 	 0%
22:00Thu 	 15c 	 0%
22:00Thu 	 15c 	 0%
22:00Thu 	 15c 	 0%
22:00Thu 	 15c 	 0%
22:00Thu 	 15c 	 0%
22:00Thu 	 15c 	 0%
22:00Thu 	 15c 	 0%
22:00Thu 	 15c 	 0%
22:00Thu 	 15c 	 0%
22:00Thu 	 15c 	 0%
22:00Thu 	 15c 	 0%
22:00Thu 	 15c 	 0%
22:00Thu 	 15c 	 0%
22:00Thu 	 15c 	 0%
22:00Thu 	 15c 	 0%
22:00Thu 	 15c 	 0%
22:00Thu 	 15c 	 0%
22:00Thu 	 15c 	 0%
22:00Thu 	 15c 	 0%
22:00Thu 	 15c 	 0%
22:00Thu 	 15c 	 0%
22:00Thu 	 15c 	 0%
22:00Thu 	 15c 	 0%
22:00Thu 	 15c 	 0%
22:00Thu 	 15c 	 0%
22:00Thu 	 15c 	 0%
22:00Thu 	 15c 	 0%
22:00Thu 	 15c 	 0%
22:00Thu 	 15c 	 0%
22:00Thu 	 15c 	 0%
22:00Thu 	 15c 	 0%
22:00Thu 	 15c 	 1%
22:00Thu 	 15c 	 1%
22:00Thu 	 15c 	 1%
22:00Thu 	 15c 	 1%
22:00Thu 	 15c 	 0%
22:00Thu 	 15c 	 0%
22:00Thu 	 15c 	 0%
22:00Thu 	 15c 	 0%
22:00Thu 	 15c 	 0%
22:00Thu 	 15c 	 0%
22:00Thu 	 15c 	 0%
22:00Thu 	 15c 	 1%
22:00Thu 	 15c 	 1%
22:00Thu 	 15c 	 1%
22:00Thu 	 15c 	 1%
22:00Thu 	 15c 	 1%
22:00Thu 	 15c 	 1%
22:00Thu 	 15c 	 1%
22:00Thu 	 15c 	 1%
22:00Thu 	 15c 	 1%
22:00Thu 	 15c 	 1%
22:00Thu 	 15c 	 1%
22:00Thu 	 15c 	 1%
22:00Thu 	 15c 	 1%
22:00Thu 	 15c 	 1%
22:00Thu 	 15c 	 1%
22:00Thu 	 15c 	 1%
22:00Thu 	 15c 	 1%
22:00Thu 	 15c 	 1%
22:00Thu 	 15c 	 1%
22:00Thu 	 15c 	 1%
22:00Thu 	 15c 	 1%

23:00Thu 	 14c 	 0%
23:00Thu 	 14c 	 0%
23:00Thu 	 14c 	 0%
23:00Thu 	 14c 	 0%
23:00Thu 	 14c 	 0%
23:00Thu 	 14c 	 0%
23:00Thu 	 14c 	 0%
23:00Thu 	 14c 	 0%
23:00Thu 	 14c 	 0%
23:00Thu 	 14c 	 0%
23:00Thu 	 14c 	 0%
23:00Thu 	 14c 	 0%
23:00Thu 	 14c 	 0%
23:00Thu 	 14c 	 0%
23:00Thu 	 14c 	 0%
23:00Thu 	 14c 	 0%
23:00Thu 	 14c 	 0%
23:00Thu 	 14c 	 0%
23:00Thu 	 14c 	 0%
23:00Thu 	 14c 	 0%
23:00Thu 	 14c 	 0%
23:00Thu 	 14c 	 0%
23:00Thu 	 14c 	 0%
23:00Thu 	 14c 	 0%
23:00Thu 	 14c 	 0%
23:00Thu 	 14c 	 0%
23:00Thu 	 14c 	 0%
23:00Thu 	 14c 	 0%
23:00Thu 	 14c 	 0%
23:00Thu 	 14c 	 0%
23:00Thu 	 14c 	 0%
23:00Thu 	 14c 	 0%
23:00Thu 	 14c 	 0%
23:00Thu 	 14c 	 0%
23:00Thu 	 14c 	 0%
23:00Thu 	 14c 	 0%
23:00Thu 	 14c 	 0%
23:00Thu 	 14c 	 0%
23:00Thu 	 14c 	 0%
23:00Thu 	 14c 	 0%
23:00Thu 	 14c 	 0%
23:00Thu 	 14c 	 0%
23:00Thu 	 14c 	 0%
23:00Thu 	 14c 	 0%
23:00Thu 	 14c 	 0%
23:00Thu 	 14c 	 0%
23:00Thu 	 14c 	 0%
23:00Thu 	 14c 	 0%
23:00Thu 	 14c 	 0%
23:00Thu 	 14c 	 0%
23:00Thu 	 14c 	 0%
23:00Thu 	 14c 	 0%
23:00Thu 	 14c 	 0%
23:00Thu 	 14c 	 0%
23:00Thu 	 14c 	 0%
23:00Thu 	 14c 	 0%
23:00Thu 	 14c 	 0%
23:00Thu 	 14c 	 0%
23:00Thu 	 14c 	 0%
23:00Thu 	 14c 	 0%
23:00Thu 	 14c 	 0%
23:00Thu 	 14c 	 0%
23:00Thu 	 14c 	 0%
23:00Thu 	 14c 	 0%
23:00Thu 	 14c 	 0%
23:00Thu 	 14c 	 0%
23:00Thu 	 14c 	 0%
23:00Thu 	 14c 	 0%
23:00Thu 	 14c 	 0%
23:00Thu 	 14c 	 0%
23:00Thu 	 14c 	 0%
23:00Thu 	 14c 	 0%
23:00Thu 	 14c 	 0%
23:00Thu 	 14c 	 0%
23:00Thu 	 14c 	 0%
23:00Thu 	 14c 	 0%
23:00Thu 	 14c 	 0%
23:00Thu 	 14c 	 0%
23:00Thu 	 14c 	 0%
23:00Thu 	 14c 	 0%
23:00Thu 	 14c 	 0%
23:00Thu 	 14c 	 0%
23:00Thu 	 14c 	 0%
23:00Thu 	 14c 	 0%
23:00Thu 	 14c 	 0%
23:00Thu 	 14c 	 0%
23:00Thu 	 14c 	 0%
23:00Thu 	 14c 	 0%
23:00Thu 	 14c 	 0%
23:00Thu 	 14c 	 0%
23:00Thu 	 14c 	 0%
23:00Thu 	 14c 	 0%
23:00Thu 	 14c 	 0%

